%!PS-Adobe-2.0 EPSF-2.0
%%Title: air2.eps
%%Creator: fig2dev Version 3.2 Patchlevel 3d
%%CreationDate: Tue Sep  3 16:27:34 2002
%%For: dpeets@physics (Darren Peets)
%%BoundingBox: 0 0 191 172
%%Magnification: 1.0000
%%EndComments
/$F2psDict 200 dict def
$F2psDict begin
$F2psDict /mtrx matrix put
/col-1 {0 setgray} bind def
/col0 {0.000 0.000 0.000 srgb} bind def
/col1 {0.000 0.000 1.000 srgb} bind def
/col2 {0.000 1.000 0.000 srgb} bind def
/col3 {0.000 1.000 1.000 srgb} bind def
/col4 {1.000 0.000 0.000 srgb} bind def
/col5 {1.000 0.000 1.000 srgb} bind def
/col6 {1.000 1.000 0.000 srgb} bind def
/col7 {1.000 1.000 1.000 srgb} bind def
/col8 {0.000 0.000 0.560 srgb} bind def
/col9 {0.000 0.000 0.690 srgb} bind def
/col10 {0.000 0.000 0.820 srgb} bind def
/col11 {0.530 0.810 1.000 srgb} bind def
/col12 {0.000 0.560 0.000 srgb} bind def
/col13 {0.000 0.690 0.000 srgb} bind def
/col14 {0.000 0.820 0.000 srgb} bind def
/col15 {0.000 0.560 0.560 srgb} bind def
/col16 {0.000 0.690 0.690 srgb} bind def
/col17 {0.000 0.820 0.820 srgb} bind def
/col18 {0.560 0.000 0.000 srgb} bind def
/col19 {0.690 0.000 0.000 srgb} bind def
/col20 {0.820 0.000 0.000 srgb} bind def
/col21 {0.560 0.000 0.560 srgb} bind def
/col22 {0.690 0.000 0.690 srgb} bind def
/col23 {0.820 0.000 0.820 srgb} bind def
/col24 {0.500 0.190 0.000 srgb} bind def
/col25 {0.630 0.250 0.000 srgb} bind def
/col26 {0.750 0.380 0.000 srgb} bind def
/col27 {1.000 0.500 0.500 srgb} bind def
/col28 {1.000 0.630 0.630 srgb} bind def
/col29 {1.000 0.750 0.750 srgb} bind def
/col30 {1.000 0.880 0.880 srgb} bind def
/col31 {1.000 0.840 0.000 srgb} bind def
/col32 {0.839 0.839 0.839 srgb} bind def

end
save
newpath 0 172 moveto 0 0 lineto 191 0 lineto 191 172 lineto closepath clip newpath
-234.0 266.0 translate
1 -1 scale

/cp {closepath} bind def
/ef {eofill} bind def
/gr {grestore} bind def
/gs {gsave} bind def
/sa {save} bind def
/rs {restore} bind def
/l {lineto} bind def
/m {moveto} bind def
/rm {rmoveto} bind def
/n {newpath} bind def
/s {stroke} bind def
/sh {show} bind def
/slc {setlinecap} bind def
/slj {setlinejoin} bind def
/slw {setlinewidth} bind def
/srgb {setrgbcolor} bind def
/rot {rotate} bind def
/sc {scale} bind def
/sd {setdash} bind def
/ff {findfont} bind def
/sf {setfont} bind def
/scf {scalefont} bind def
/sw {stringwidth} bind def
/tr {translate} bind def
/tnt {dup dup currentrgbcolor
  4 -2 roll dup 1 exch sub 3 -1 roll mul add
  4 -2 roll dup 1 exch sub 3 -1 roll mul add
  4 -2 roll dup 1 exch sub 3 -1 roll mul add srgb}
  bind def
/shd {dup dup currentrgbcolor 4 -2 roll mul 4 -2 roll mul
  4 -2 roll mul srgb} bind def
/$F2psBegin {$F2psDict begin /$F2psEnteredState save def} def
/$F2psEnd {$F2psEnteredState restore end} def

$F2psBegin
10 setmiterlimit
 0.06000 0.06000 sc
%
% Fig objects follow
%
/Times-Roman ff 180.00 scf sf
3900 3075 m
gs 1 -1 sc (dq) col0 sh gr
% Arc
7.500 slw
gs  clippath
6566 4428 m 6622 4449 l 6687 4275 l 6607 4406 l 6631 4254 l cp
6622 1550 m 6566 1571 l 6631 1745 l 6607 1594 l 6687 1724 l cp
eoclip
n 3000.0 3000.0 3871.8 -21.6 21.6 arc
gs col0 s gr
 gr

% arrowhead
n 6631 4254 m 6607 4406 l 6687 4275 l 6648 4293 l 6631 4254 l 
 cp gs 0.00 setgray ef gr  col0 s
% arrowhead
n 6687 1724 m 6607 1594 l 6631 1745 l 6648 1706 l 6687 1724 l 
 cp gs 0.00 setgray ef gr  col0 s
% Polyline
n 4200 3450 m
 6075 4200 l gs col32 1.00 shd ef gr gs col0 s gr 
% Polyline
n 6075 1800 m 4200 2550 l 4275 3000 l 4200 3450 l 6075 4200 l
 6300 3000 l gs col32 1.00 shd ef gr gs col0 s gr 
/Times-Roman ff 180.00 scf sf
4125 3675 m
gs 1 -1 sc (r) col0 sh gr
/Times-Roman ff 180.00 scf sf
6225 4200 m
gs 1 -1 sc (r+dr) col0 sh gr
/Times-Roman ff 180.00 scf sf
6225 1950 m
gs 1 -1 sc (v+dv) col0 sh gr
/Times-Roman ff 180.00 scf sf
5850 1800 m
gs 1 -1 sc (P+dP) col0 sh gr
/Times-Roman ff 180.00 scf sf
4050 2475 m
gs 1 -1 sc (Pv) col0 sh gr
/Times-Roman ff 180.00 scf sf
6675 3075 m
gs 1 -1 sc (theta) col0 sh gr
% Arc
n 2987.5 3000.0 3312.5 -21.2 21.2 arc
gs col32 1.00 shd ef gr gs col0 s gr

% Arc
n 2887.5 3000.0 1387.5 -18.9 18.9 arc
gs col7 1.00 shd ef gr gs col0 s gr

% Polyline
gs  clippath
6607 3857 m 6621 3799 l 6441 3758 l 6581 3821 l 6428 3816 l cp
eoclip
n 3975 3225 m
 6600 3825 l gs col7 1.00 shd ef gr gs col0 s gr gr

% arrowhead
n 6428 3816 m 6581 3821 l 6441 3758 l 6464 3794 l 6428 3816 l 
 cp gs 0.00 setgray ef gr  col0 s
% Polyline
gs  clippath
6621 2200 m 6607 2142 l 6428 2183 l 6581 2179 l 6441 2241 l cp
eoclip
n 3975 2775 m
 6600 2175 l gs col7 1.00 shd ef gr gs col0 s gr gr

% arrowhead
n 6441 2241 m 6581 2179 l 6428 2183 l 6464 2205 l 6441 2241 l 
 cp gs 0.00 setgray ef gr  col0 s
$F2psEnd
rs
