%!PS-Adobe-2.0 EPSF-2.0
%%Title: alpha-setup.eps
%%Creator: fig2dev Version 3.2 Patchlevel 3d
%%CreationDate: Tue Sep 16 11:12:59 2003
%%For: dpeets@physics (Darren Peets)
%%BoundingBox: 0 0 402 379
%%Magnification: 1.0000
%%EndComments
/$F2psDict 200 dict def
$F2psDict begin
$F2psDict /mtrx matrix put
/col-1 {0 setgray} bind def
/col0 {0.000 0.000 0.000 srgb} bind def
/col1 {0.000 0.000 1.000 srgb} bind def
/col2 {0.000 1.000 0.000 srgb} bind def
/col3 {0.000 1.000 1.000 srgb} bind def
/col4 {1.000 0.000 0.000 srgb} bind def
/col5 {1.000 0.000 1.000 srgb} bind def
/col6 {1.000 1.000 0.000 srgb} bind def
/col7 {1.000 1.000 1.000 srgb} bind def
/col8 {0.000 0.000 0.560 srgb} bind def
/col9 {0.000 0.000 0.690 srgb} bind def
/col10 {0.000 0.000 0.820 srgb} bind def
/col11 {0.530 0.810 1.000 srgb} bind def
/col12 {0.000 0.560 0.000 srgb} bind def
/col13 {0.000 0.690 0.000 srgb} bind def
/col14 {0.000 0.820 0.000 srgb} bind def
/col15 {0.000 0.560 0.560 srgb} bind def
/col16 {0.000 0.690 0.690 srgb} bind def
/col17 {0.000 0.820 0.820 srgb} bind def
/col18 {0.560 0.000 0.000 srgb} bind def
/col19 {0.690 0.000 0.000 srgb} bind def
/col20 {0.820 0.000 0.000 srgb} bind def
/col21 {0.560 0.000 0.560 srgb} bind def
/col22 {0.690 0.000 0.690 srgb} bind def
/col23 {0.820 0.000 0.820 srgb} bind def
/col24 {0.500 0.190 0.000 srgb} bind def
/col25 {0.630 0.250 0.000 srgb} bind def
/col26 {0.750 0.380 0.000 srgb} bind def
/col27 {1.000 0.500 0.500 srgb} bind def
/col28 {1.000 0.630 0.630 srgb} bind def
/col29 {1.000 0.750 0.750 srgb} bind def
/col30 {1.000 0.880 0.880 srgb} bind def
/col31 {1.000 0.840 0.000 srgb} bind def
/col32 {1.000 1.000 0.533 srgb} bind def

end
save
newpath 0 379 moveto 0 0 lineto 402 0 lineto 402 379 lineto closepath clip newpath
-18.1 404.8 translate
1 -1 scale

/cp {closepath} bind def
/ef {eofill} bind def
/gr {grestore} bind def
/gs {gsave} bind def
/sa {save} bind def
/rs {restore} bind def
/l {lineto} bind def
/m {moveto} bind def
/rm {rmoveto} bind def
/n {newpath} bind def
/s {stroke} bind def
/sh {show} bind def
/slc {setlinecap} bind def
/slj {setlinejoin} bind def
/slw {setlinewidth} bind def
/srgb {setrgbcolor} bind def
/rot {rotate} bind def
/sc {scale} bind def
/sd {setdash} bind def
/ff {findfont} bind def
/sf {setfont} bind def
/scf {scalefont} bind def
/sw {stringwidth} bind def
/tr {translate} bind def
/tnt {dup dup currentrgbcolor
  4 -2 roll dup 1 exch sub 3 -1 roll mul add
  4 -2 roll dup 1 exch sub 3 -1 roll mul add
  4 -2 roll dup 1 exch sub 3 -1 roll mul add srgb}
  bind def
/shd {dup dup currentrgbcolor 4 -2 roll mul 4 -2 roll mul
  4 -2 roll mul srgb} bind def
 /DrawEllipse {
	/endangle exch def
	/startangle exch def
	/yrad exch def
	/xrad exch def
	/y exch def
	/x exch def
	/savematrix mtrx currentmatrix def
	x y tr xrad yrad sc 0 0 1 startangle endangle arc
	closepath
	savematrix setmatrix
	} def

/$F2psBegin {$F2psDict begin /$F2psEnteredState save def} def
/$F2psEnd {$F2psEnteredState restore end} def

$F2psBegin
10 setmiterlimit
 0.06000 0.06000 sc
%
% Fig objects follow
%
% Polyline
15.000 slw
n 765 1200 m 600 1200 600 3435 165 arcto 4 {pop} repeat
  600 3600 2235 3600 165 arcto 4 {pop} repeat
  2400 3600 2400 1365 165 arcto 4 {pop} repeat
  2400 1200 765 1200 165 arcto 4 {pop} repeat
 cp gs col0 s gr 
% Polyline
n 810 1275 m 675 1275 675 3390 135 arcto 4 {pop} repeat
  675 3525 2190 3525 135 arcto 4 {pop} repeat
  2325 3525 2325 1410 135 arcto 4 {pop} repeat
  2325 1275 810 1275 135 arcto 4 {pop} repeat
 cp gs col0 s gr 
% Polyline
n 525 1125 m 2475 1125 l 2475 1425 l 525 1425 l
 cp gs col7 1.00 shd ef gr gs col7 s gr 
% Polyline
60.000 slw
n 1125 2475 m 1500 2475 l
 1500 2325 l gs col0 s gr 
% Polyline
7.500 slw
n 1350 2250 m 1650 2250 l 1650 2325 l 1350 2325 l
 cp gs col4 1.00 shd ef gr gs col0 s gr 
% Polyline
n 1500 1425 m 1500 1050 l
 3300 1050 l gs col0 s gr 
% Polyline
n 3975 1050 m 3300 660 l 3300 1440 l
 cp gs col0 s gr 
% Polyline
n 3975 1050 m
 4500 1050 l gs col0 s gr 
% Polyline
n 3000 1650 m
 3000 1050 l gs col0 s gr 
% Polyline
n 5175 1050 m 4500 660 l 4500 1440 l
 cp gs col0 s gr 
% Polyline
n 5175 1050 m 5475 1050 l 5475 750 l
 5775 750 l gs col0 s gr 
% Polyline
15.000 slw
n 2250 2550 m 2475 2550 l 2475 2700 l 2250 2700 l
 cp gs col7 1.00 shd ef gr gs col7 s gr 
% Polyline
7.500 slw
n 5775 1350 m 6975 1350 l 6975 1950 l 5775 1950 l
 cp gs col0 s gr 
% Polyline
n 2625 1650 m 3375 1650 l 3375 2250 l 2625 2250 l
 cp gs col0 s gr 
/Times-Roman ff 180.00 scf sf
1350 3225 m
gs 1 -1 sc (chamber) col0 sh gr
/Times-Roman ff 180.00 scf sf
5850 1875 m
gs 1 -1 sc (analyser) col0 sh gr
/Times-Roman ff 180.00 scf sf
5850 1575 m
gs 1 -1 sc (Ph) col0 sh gr
/Times-Roman ff 180.00 scf sf
2700 1875 m
gs 1 -1 sc (Bias) col0 sh gr
/Times-Roman ff 180.00 scf sf
2700 2175 m
gs 1 -1 sc (Voltage) col0 sh gr
/Times-Roman ff 180.00 scf sf
3225 600 m
gs 1 -1 sc (preamp) col0 sh gr
/Times-Roman ff 180.00 scf sf
4425 600 m
gs 1 -1 sc (amp) col0 sh gr
/Times-Roman ff 180.00 scf sf
1200 2175 m
gs 1 -1 sc (Source) col0 sh gr
/Times-Roman ff 180.00 scf sf
1200 1800 m
gs 1 -1 sc (detector) col0 sh gr
% Polyline
n 5475 1050 m 5475 1650 l
 5775 1650 l gs col0 s gr 
% Polyline
60.000 slw
n 1125 1425 m
 1125 3375 l gs 0.00 setgray ef gr gs col0 s gr 
% Polyline
7.500 slw
n 1275 1425 m 1725 1425 l 1725 1575 l 1275 1575 l
 cp gs col32 1.00 shd ef gr gs col0 s gr 
% Polyline
15.000 slw
n 525 1425 m 2475 1425 l 2475 1275 l 525 1275 l
 cp gs col0 s gr 
% Polyline
7.500 slw
n 5775 450 m 6975 450 l 6975 1050 l 5775 1050 l
 cp gs col0 s gr 
/Times-Roman ff 180.00 scf sf
5850 825 m
gs 1 -1 sc (scope) col0 sh gr
% Polyline
15.000 slw
n 4875 5325 m
 5175 5325 l gs col7 1.00 shd ef gr gs col0 s gr 
% Polyline
n 4875 5175 m
 5175 5175 l gs col7 1.00 shd ef gr gs col0 s gr 
% Polyline
n 2325 2700 m 2625 2700 l 2625 4200 l 1650 4200 l 1650 4350 l 2625 4350 l
 2625 5175 l 825 5175 l 825 5625 l 975 5625 l 975 5325 l
 4575 5325 l 4575 5175 l 2775 5175 l 2775 4350 l 3750 4350 l
 3750 4200 l 2775 4200 l 2775 2550 l
 2325 2550 l gs col7 1.00 shd ef gr gs col0 s gr 
7.500 slw
% Ellipse
n 3675 5250 318 318 0 360 DrawEllipse gs col7 1.00 shd ef gr gs col0 s gr

% Ellipse
n 4650 5250 318 318 0 360 DrawEllipse gs col7 1.00 shd ef gr gs col0 s gr

/Times-Roman ff 180.00 scf sf
1575 6225 m
gs 1 -1 sc (rotary) col0 sh gr
/Times-Roman ff 180.00 scf sf
6600 4050 m
gs 1 -1 sc  270.0 rot (Black) col0 sh gr
/Times-Roman ff 180.00 scf sf
750 4425 m
gs 1 -1 sc (gauge) col0 sh gr
/Times-Roman ff 180.00 scf sf
750 4200 m
gs 1 -1 sc (thermocouple) col0 sh gr
/Times-Roman ff 180.00 scf sf
3450 4650 m
gs 1 -1 sc (Transducer) col0 sh gr
/Times-Roman ff 180.00 scf sf
3450 4050 m
gs 1 -1 sc (Solid) col0 sh gr
/Times-Roman ff 180.00 scf sf
3450 4350 m
gs 1 -1 sc (State) col0 sh gr
/Times-Roman ff 180.00 scf sf
6150 5475 m
gs 1 -1 sc (DVM) col0 sh gr
/Times-Roman ff 180.00 scf sf
5175 4800 m
gs 1 -1 sc (White) col0 sh gr
% Ellipse
n 1725 5250 318 318 0 360 DrawEllipse gs col7 1.00 shd ef gr gs col0 s gr

% Polyline
n 5775 5100 m 6975 5100 l 6975 5700 l 5775 5700 l
 cp gs col0 s gr 
/Times-Roman ff 180.00 scf sf
5175 3900 m
gs 1 -1 sc (Red) col0 sh gr
% Polyline
n 6525 4275 m
 6525 5100 l gs col0 s gr 
% Polyline
n 4500 4575 m 6225 4575 l
 6225 5100 l gs col0 s gr 
% Polyline
n 4500 4275 m 6525 4275 l
 6525 3450 l gs col0 s gr 
% Polyline
n 4500 3975 m 6225 3975 l
 6225 3450 l gs col4 s gr 
% Polyline
n 675 3825 m 2025 3825 l 2025 4725 l 675 4725 l
 cp gs col7 1.00 shd ef gr gs col0 s gr 
% Polyline
n 3375 3825 m 4500 3825 l 4500 4725 l 3375 4725 l
 cp gs col7 1.00 shd ef gr gs col0 s gr 
% Ellipse
n 900 6150 590 590 0 360 DrawEllipse gs col7 1.00 shd ef gr gs col0 s gr

/Times-Roman ff 180.00 scf sf
5850 3375 m
gs 1 -1 sc (Supply) col0 sh gr
/Times-Roman ff 180.00 scf sf
5850 3075 m
gs 1 -1 sc (Power) col0 sh gr
% Polyline
n 5775 2850 m 6975 2850 l 6975 3450 l 5775 3450 l
 cp gs col0 s gr 
% Polyline
n 1500 5025 m
 1950 5475 l gs col7 1.00 shd ef gr gs col0 s gr 
% Polyline
n 464 5986 m
 682 5986 l gs col7 1.00 shd ef gr gs col0 s gr 
% Polyline
n 1391 5823 m
 1118 6695 l gs col7 1.00 shd ef gr gs col0 s gr 
% Polyline
n 409 5823 m
 682 6695 l gs col7 1.00 shd ef gr gs col0 s gr 
% Polyline
n 1118 5986 m
 1336 5986 l gs col7 1.00 shd ef gr gs col0 s gr 
% Polyline
n 3450 5025 m
 3900 5475 l gs col7 1.00 shd ef gr gs col0 s gr 
% Polyline
n 3900 5025 m
 3450 5475 l gs col7 1.00 shd ef gr gs col0 s gr 
% Polyline
n 4425 5025 m
 4875 5475 l gs col7 1.00 shd ef gr gs col0 s gr 
% Polyline
n 4875 5025 m
 4425 5475 l gs col7 1.00 shd ef gr gs col0 s gr 
% Polyline
n 1950 5025 m
 1500 5475 l gs col7 1.00 shd ef gr gs col0 s gr 
$F2psEnd
rs
