%!PS-Adobe-2.0 EPSF-2.0
%%Title: comp-heatsink.fig
%%Creator: fig2dev Version 3.2 Patchlevel 5-alpha5
%%CreationDate: Wed Sep  6 10:00:30 2006
%%For: dpeets@image.physics.ubc.ca (Darren Peets)
%%BoundingBox: 0 0 326 164
%Magnification: 1.0000
%%EndComments
/$F2psDict 200 dict def
$F2psDict begin
$F2psDict /mtrx matrix put
/col-1 {0 setgray} bind def
/col0 {0.000 0.000 0.000 srgb} bind def
/col1 {0.000 0.000 1.000 srgb} bind def
/col2 {0.000 1.000 0.000 srgb} bind def
/col3 {0.000 1.000 1.000 srgb} bind def
/col4 {1.000 0.000 0.000 srgb} bind def
/col5 {1.000 0.000 1.000 srgb} bind def
/col6 {1.000 1.000 0.000 srgb} bind def
/col7 {1.000 1.000 1.000 srgb} bind def
/col8 {0.000 0.000 0.560 srgb} bind def
/col9 {0.000 0.000 0.690 srgb} bind def
/col10 {0.000 0.000 0.820 srgb} bind def
/col11 {0.530 0.810 1.000 srgb} bind def
/col12 {0.000 0.560 0.000 srgb} bind def
/col13 {0.000 0.690 0.000 srgb} bind def
/col14 {0.000 0.820 0.000 srgb} bind def
/col15 {0.000 0.560 0.560 srgb} bind def
/col16 {0.000 0.690 0.690 srgb} bind def
/col17 {0.000 0.820 0.820 srgb} bind def
/col18 {0.560 0.000 0.000 srgb} bind def
/col19 {0.690 0.000 0.000 srgb} bind def
/col20 {0.820 0.000 0.000 srgb} bind def
/col21 {0.560 0.000 0.560 srgb} bind def
/col22 {0.690 0.000 0.690 srgb} bind def
/col23 {0.820 0.000 0.820 srgb} bind def
/col24 {0.500 0.190 0.000 srgb} bind def
/col25 {0.630 0.250 0.000 srgb} bind def
/col26 {0.750 0.380 0.000 srgb} bind def
/col27 {1.000 0.500 0.500 srgb} bind def
/col28 {1.000 0.630 0.630 srgb} bind def
/col29 {1.000 0.750 0.750 srgb} bind def
/col30 {1.000 0.880 0.880 srgb} bind def
/col31 {1.000 0.840 0.000 srgb} bind def
/col32 {0.753 0.753 0.753 srgb} bind def

end
save
newpath 0 164 moveto 0 0 lineto 326 0 lineto 326 164 lineto closepath clip newpath
-30.8 189.7 translate
1 -1 scale

/cp {closepath} bind def
/ef {eofill} bind def
/gr {grestore} bind def
/gs {gsave} bind def
/sa {save} bind def
/rs {restore} bind def
/l {lineto} bind def
/m {moveto} bind def
/rm {rmoveto} bind def
/n {newpath} bind def
/s {stroke} bind def
/sh {show} bind def
/slc {setlinecap} bind def
/slj {setlinejoin} bind def
/slw {setlinewidth} bind def
/srgb {setrgbcolor} bind def
/rot {rotate} bind def
/sc {scale} bind def
/sd {setdash} bind def
/ff {findfont} bind def
/sf {setfont} bind def
/scf {scalefont} bind def
/sw {stringwidth} bind def
/tr {translate} bind def
/tnt {dup dup currentrgbcolor
  4 -2 roll dup 1 exch sub 3 -1 roll mul add
  4 -2 roll dup 1 exch sub 3 -1 roll mul add
  4 -2 roll dup 1 exch sub 3 -1 roll mul add srgb}
  bind def
/shd {dup dup currentrgbcolor 4 -2 roll mul 4 -2 roll mul
  4 -2 roll mul srgb} bind def
 /DrawEllipse {
	/endangle exch def
	/startangle exch def
	/yrad exch def
	/xrad exch def
	/y exch def
	/x exch def
	/savematrix mtrx currentmatrix def
	x y tr xrad yrad sc 0 0 1 startangle endangle arc
	closepath
	savematrix setmatrix
	} def

/$F2psBegin {$F2psDict begin /$F2psEnteredState save def} def
/$F2psEnd {$F2psEnteredState restore end} def

$F2psBegin
10 setmiterlimit
0 slj 0 slc
 0.06000 0.06000 sc
%
% Fig objects follow
%
% 
% here starts figure with depth 50
% Polyline
0 slj
0 slc
7.500 slw
n 600 1200 m 600 2400 l 675 2400 l 675 1350 l 750 1350 l 750 2400 l
 825 2400 l 825 1350 l 900 1350 l 900 2400 l 975 2400 l
 975 1350 l 1050 1350 l 1050 2400 l 1125 2400 l 1125 1350 l
 1200 1350 l 1200 2400 l 1275 2400 l 1275 1350 l 1350 1350 l
 1350 2400 l 1425 2400 l 1425 1350 l 1500 1350 l 1500 2400 l
 1575 2400 l 1575 1350 l 1650 1350 l 1650 2400 l 1725 2400 l
 1725 1350 l 1800 1350 l 1800 2400 l 1875 2400 l 1875 1350 l
 1950 1350 l 1950 2400 l 2025 2400 l 2025 1350 l 2100 1350 l
 2100 2400 l 2175 2400 l 2175 1350 l 2250 1350 l 2250 2400 l
 2325 2400 l 2325 1350 l 2400 1350 l 2400 2400 l 2475 2400 l
 2475 1350 l 2550 1350 l 2550 2400 l 2625 2400 l 2625 1350 l
 2700 1350 l 2700 2400 l 2775 2400 l 2775 1350 l 2850 1350 l
 2850 2400 l 2925 2400 l 2925 1200 l
 cp gs col0 s gr 
% Polyline
n 1350 975 m 2175 975 l 2175 1200 l 1350 1200 l
 cp gs 0.00 setgray ef gr gs col0 s gr 
% Polyline
n 2175 1125 m
 4650 1125 l gs col0 s gr 
% Polyline
gs  clippath
4010 3105 m 4215 3105 l 4215 3045 l 4010 3045 l 4010 3045 l 4160 3075 l 4010 3105 l cp
eoclip
n 3000 3075 m
 4200 3075 l gs 0.00 setgray ef gr gs col0 s gr gr

% arrowhead
n 4010 3105 m 4160 3075 l 4010 3045 l 4040 3075 l 4010 3105 l 
 cp gs 0.00 setgray ef gr  col0 s
% Polyline
n 4650 2250 m 5925 2250 l 5925 3000 l 4650 3000 l
 cp gs col0 s gr 
% Polyline
n 5250 2100 m
 5250 2250 l gs col0 s gr 
% Polyline
n 5250 1200 m
 5250 1350 l gs col0 s gr 
% Polyline
n 4650 1350 m 5925 1350 l 5925 2100 l 4650 2100 l
 cp gs col0 s gr 
% Polyline
n 4650 450 m 5925 450 l 5925 1200 l 4650 1200 l
 cp gs col0 s gr 
% Polyline
2 slj
n 1875 2625 m 1877 2625 l 1880 2623 l 1886 2621 l 1896 2618 l 1910 2614 l
 1928 2609 l 1950 2602 l 1975 2595 l 2004 2587 l 2036 2578 l
 2071 2568 l 2107 2559 l 2145 2550 l 2183 2541 l 2223 2533 l
 2262 2525 l 2302 2519 l 2343 2513 l 2383 2509 l 2423 2507 l
 2464 2506 l 2504 2507 l 2545 2510 l 2585 2516 l 2625 2524 l
 2664 2535 l 2700 2550 l 2731 2566 l 2759 2584 l 2784 2603 l
 2806 2623 l 2825 2643 l 2842 2662 l 2856 2681 l 2869 2700 l
 2880 2718 l 2890 2735 l 2899 2751 l 2906 2767 l 2913 2782 l
 2919 2797 l 2925 2813 l 2930 2828 l 2934 2843 l 2938 2858 l
 2941 2874 l 2943 2890 l 2944 2907 l 2944 2925 l 2942 2944 l
 2939 2963 l 2933 2982 l 2924 3002 l 2911 3022 l 2895 3041 l
 2875 3059 l 2850 3075 l 2820 3089 l 2787 3100 l 2750 3108 l
 2711 3114 l 2671 3118 l 2629 3119 l 2586 3119 l 2543 3117 l
 2498 3114 l 2453 3110 l 2408 3105 l 2362 3098 l 2316 3091 l
 2270 3083 l 2224 3075 l 2179 3066 l 2136 3058 l 2094 3049 l
 2055 3041 l 2018 3033 l 1986 3026 l 1957 3019 l 1933 3014 l
 1913 3009 l 1898 3006 l 1887 3003 l 1880 3001 l 1877 3000 l

 1875 3000 l gs col32 1.00 shd ef gr gs col0 s gr 
% Polyline
n 1650 3000 m 1649 3000 l 1645 3001 l 1639 3003 l 1630 3006 l 1617 3009 l
 1600 3014 l 1580 3019 l 1555 3026 l 1527 3033 l 1495 3041 l
 1461 3049 l 1425 3058 l 1387 3066 l 1348 3075 l 1307 3083 l
 1267 3091 l 1226 3098 l 1184 3105 l 1143 3110 l 1102 3114 l
 1061 3117 l 1020 3119 l 979 3119 l 939 3118 l 899 3114 l
 859 3108 l 821 3100 l 784 3089 l 750 3075 l 721 3060 l
 696 3043 l 673 3025 l 653 3007 l 637 2988 l 622 2970 l
 610 2952 l 599 2934 l 590 2917 l 583 2901 l 576 2885 l
 571 2870 l 566 2855 l 562 2841 l 559 2827 l 556 2813 l
 554 2798 l 552 2784 l 551 2770 l 551 2755 l 551 2740 l
 553 2724 l 555 2708 l 559 2691 l 564 2673 l 572 2655 l
 581 2637 l 593 2618 l 608 2600 l 627 2582 l 649 2565 l
 675 2550 l 707 2536 l 743 2525 l 781 2517 l 821 2511 l
 862 2507 l 905 2506 l 948 2506 l 992 2508 l 1036 2511 l
 1081 2515 l 1126 2520 l 1172 2527 l 1217 2534 l 1263 2542 l
 1308 2550 l 1352 2559 l 1395 2567 l 1436 2576 l 1474 2584 l
 1510 2592 l 1542 2599 l 1570 2606 l 1594 2611 l 1613 2616 l
 1627 2619 l 1638 2622 l 1645 2624 l 1648 2625 l
 1650 2625 l gs col32 1.00 shd ef gr gs col0 s gr 
/Times-Roman ff 200.00 scf sf
3150 3000 m
gs 1 -1 sc (12V) col0 sh gr
/Times-Roman ff 200.00 scf sf
4800 2700 m
gs 1 -1 sc (Computer) col0 sh gr
/Times-Roman ff 200.00 scf sf
3000 2175 m
gs 1 -1 sc (Heatsink) col0 sh gr
/Times-Roman ff 200.00 scf sf
1125 900 m
gs 1 -1 sc (Resistor) col0 sh gr
/Times-Roman ff 200.00 scf sf
3150 1650 m
gs 1 -1 sc (Thermocouple) col0 sh gr
/Times-Roman ff 200.00 scf sf
3075 2625 m
gs 1 -1 sc (Fan) col0 sh gr
/Times-Roman ff 200.00 scf sf
4800 1905 m
gs 1 -1 sc (Controller) col0 sh gr
/Times-Roman ff 200.00 scf sf
4725 1650 m
gs 1 -1 sc (Temp) col0 sh gr
/Times-Roman ff 200.00 scf sf
4950 750 m
gs 1 -1 sc (Power) col0 sh gr
/Times-Roman ff 200.00 scf sf
4950 1005 m
gs 1 -1 sc (Supply) col0 sh gr
% Ellipse
n 1762 1425 38 38 0 360 DrawEllipse gs col4 1.00 shd ef gr gs col0 s gr

% Polyline
0 slj
n 1650 2475 m 1875 2475 l 1875 3150 l 1650 3150 l
 cp gs col0 s gr 
% Polyline
n 525 2475 m 3000 2475 l 3000 3150 l 525 3150 l
 cp gs col0 s gr 
% Polyline
n 1800 1425 m
 4650 1425 l gs col4 1.00 shd ef gr gs col4 s gr 
% here ends figure;
$F2psEnd
rs
showpage
%%Trailer
%EOF
