%!PS-Adobe-2.0 EPSF-2.0
%%Title: demo.eps
%%Creator: fig2dev Version 3.2 Patchlevel 3c
%%CreationDate: Mon Jan 28 15:02:01 2002
%%For: waltham@snoflake.physics.ubc.ca (Chris Waltham)
%%BoundingBox: 0 0 362 183
%%Magnification: 1.0000
%%EndComments
/$F2psDict 200 dict def
$F2psDict begin
$F2psDict /mtrx matrix put
/col-1 {0 setgray} bind def
/col0 {0.000 0.000 0.000 srgb} bind def
/col1 {0.000 0.000 1.000 srgb} bind def
/col2 {0.000 1.000 0.000 srgb} bind def
/col3 {0.000 1.000 1.000 srgb} bind def
/col4 {1.000 0.000 0.000 srgb} bind def
/col5 {1.000 0.000 1.000 srgb} bind def
/col6 {1.000 1.000 0.000 srgb} bind def
/col7 {1.000 1.000 1.000 srgb} bind def
/col8 {0.000 0.000 0.560 srgb} bind def
/col9 {0.000 0.000 0.690 srgb} bind def
/col10 {0.000 0.000 0.820 srgb} bind def
/col11 {0.530 0.810 1.000 srgb} bind def
/col12 {0.000 0.560 0.000 srgb} bind def
/col13 {0.000 0.690 0.000 srgb} bind def
/col14 {0.000 0.820 0.000 srgb} bind def
/col15 {0.000 0.560 0.560 srgb} bind def
/col16 {0.000 0.690 0.690 srgb} bind def
/col17 {0.000 0.820 0.820 srgb} bind def
/col18 {0.560 0.000 0.000 srgb} bind def
/col19 {0.690 0.000 0.000 srgb} bind def
/col20 {0.820 0.000 0.000 srgb} bind def
/col21 {0.560 0.000 0.560 srgb} bind def
/col22 {0.690 0.000 0.690 srgb} bind def
/col23 {0.820 0.000 0.820 srgb} bind def
/col24 {0.500 0.190 0.000 srgb} bind def
/col25 {0.630 0.250 0.000 srgb} bind def
/col26 {0.750 0.380 0.000 srgb} bind def
/col27 {1.000 0.500 0.500 srgb} bind def
/col28 {1.000 0.630 0.630 srgb} bind def
/col29 {1.000 0.750 0.750 srgb} bind def
/col30 {1.000 0.880 0.880 srgb} bind def
/col31 {1.000 0.840 0.000 srgb} bind def

end
save
newpath 0 183 moveto 0 0 lineto 362 0 lineto 362 183 lineto closepath clip newpath
-107.0 217.0 translate
1 -1 scale

/cp {closepath} bind def
/ef {eofill} bind def
/gr {grestore} bind def
/gs {gsave} bind def
/sa {save} bind def
/rs {restore} bind def
/l {lineto} bind def
/m {moveto} bind def
/rm {rmoveto} bind def
/n {newpath} bind def
/s {stroke} bind def
/sh {show} bind def
/slc {setlinecap} bind def
/slj {setlinejoin} bind def
/slw {setlinewidth} bind def
/srgb {setrgbcolor} bind def
/rot {rotate} bind def
/sc {scale} bind def
/sd {setdash} bind def
/ff {findfont} bind def
/sf {setfont} bind def
/scf {scalefont} bind def
/sw {stringwidth} bind def
/tr {translate} bind def
/tnt {dup dup currentrgbcolor
  4 -2 roll dup 1 exch sub 3 -1 roll mul add
  4 -2 roll dup 1 exch sub 3 -1 roll mul add
  4 -2 roll dup 1 exch sub 3 -1 roll mul add srgb}
  bind def
/shd {dup dup currentrgbcolor 4 -2 roll mul 4 -2 roll mul
  4 -2 roll mul srgb} bind def
/$F2psBegin {$F2psDict begin /$F2psEnteredState save def} def
/$F2psEnd {$F2psEnteredState restore end} def

$F2psBegin
%%Page: 1 1
10 setmiterlimit
 0.06000 0.06000 sc
%
% Fig objects follow
%
% Polyline
7.500 slw
n 4500 1200 m 4500 2400 l
 1800 2400 l gs col0 s gr 
% Polyline
n 5100 1200 m 5100 2100 l 5100 2400 l
 7800 2400 l gs col0 s gr 
% Polyline
n 4500 1200 m 4500 2400 l 1800 2400 l 1800 2250 l 4350 2250 l 4350 1200 l

 cp gs col11 0.50 shd ef gr gs col0 s gr 
% Polyline
30.000 slw
gs  clippath
4770 2115 m 4830 2115 l 4830 1914 l 4800 2034 l 4770 1914 l cp
eoclip
n 4800 600 m
 4800 2100 l gs col4 s gr gr

% arrowhead
n 4770 1914 m 4800 2034 l 4830 1914 l  col4 s
% Polyline
gs  clippath
2385 2445 m 2385 2505 l 2586 2505 l 2466 2475 l 2586 2445 l cp
eoclip
n 3900 2475 m
 2400 2475 l gs col4 s gr gr

% arrowhead
n 2586 2445 m 2466 2475 l 2586 2505 l  col4 s
% Polyline
gs  clippath
7215 2505 m 7215 2445 l 7014 2445 l 7134 2475 l 7014 2505 l cp
eoclip
n 5700 2475 m
 7200 2475 l gs col4 s gr gr

% arrowhead
n 7014 2505 m 7134 2475 l 7014 2445 l  col4 s
% Polyline
7.500 slw
n 1800 2550 m 7800 2550 l 7800 2700 l 1800 2700 l
 cp gs col11 0.50 shd ef gr gs col0 s gr 
% Polyline
n 5100 1200 m 5100 2400 l 7800 2400 l 7800 2250 l 5250 2250 l 5250 1200 l

 cp gs col11 0.50 shd ef gr gs col0 s gr 
% Polyline
gs  clippath
2730 2760 m 2670 2760 l 2670 2912 l 2700 2792 l 2730 2912 l cp
eoclip
n 2700 2775 m
 2700 3000 l gs col0 s gr gr

% arrowhead
n 2730 2912 m 2700 2792 l 2670 2912 l  col0 s
% Polyline
gs  clippath
5115 3030 m 5115 2970 l 4963 2970 l 5083 3000 l 4963 3030 l cp
eoclip
n 4800 3000 m
 5100 3000 l gs col0 s gr gr

% arrowhead
n 4963 3030 m 5083 3000 l 4963 2970 l  col0 s
% Polyline
gs  clippath
7815 3330 m 7815 3270 l 7663 3270 l 7783 3300 l 7663 3330 l cp
eoclip
n 4800 3300 m
 7800 3300 l gs col0 s gr gr

% arrowhead
n 7663 3330 m 7783 3300 l 7663 3270 l  col0 s
% Polyline
 [15 45] 45 sd
n 4800 2775 m
 4800 3600 l gs col0 s gr  [] 0 sd
% Polyline
gs  clippath
3120 2190 m 3180 2190 l 3180 2038 l 3150 2158 l 3120 2038 l cp
eoclip
n 3150 1950 m
 3150 2175 l gs col0 s gr gr

% arrowhead
n 3120 2038 m 3150 2158 l 3180 2038 l  col0 s
/Times-Roman ff 180.00 scf sf
1950 3225 m
gs 1 -1 sc (Levitated Acrylic Plate) col0 sh gr
/Times-Roman ff 180.00 scf sf
5175 3075 m
gs 1 -1 sc (14mm) col0 sh gr
/Times-Roman ff 180.00 scf sf
7050 3225 m
gs 1 -1 sc (150mm) col0 sh gr
/Times-Roman ff 180.00 scf sf
2475 3525 m
gs 1 -1 sc (\(785g\)) col0 sh gr
/Times-Roman ff 180.00 scf sf
2475 1875 m
gs 1 -1 sc (Fixed Acrylic Plate) col0 sh gr
/Times-Roman ff 180.00 scf sf
4950 900 m
gs 1 -1 sc (Air from Shop Vac Hose) col0 sh gr
% Polyline
n 5100 1500 m 5250 1500 l 5250 1575 l 5100 1575 l
 cp gs col7 1.00 shd ef gr gs col7 s gr 
% Polyline
n 5400 2250 m 5400 2400 l 5325 2400 l 5325 2250 l
 cp gs col7 1.00 shd ef gr gs col7 s gr 
% Polyline
n 6225 2250 m 6225 2400 l 6150 2400 l 6150 2250 l
 cp gs col7 1.00 shd ef gr gs col7 s gr 
% Polyline
n 7050 2250 m 7050 2400 l 6975 2400 l 6975 2250 l
 cp gs col7 1.00 shd ef gr gs col7 s gr 
% Polyline
n 5100 1500 m
 5250 1500 l gs col0 s gr 
% Polyline
n 5100 1575 m
 5250 1575 l gs col0 s gr 
% Polyline
n 5325 2250 m
 5325 2400 l gs col0 s gr 
% Polyline
n 5400 2400 m
 5400 2250 l gs col0 s gr 
% Polyline
n 6150 2400 m
 6150 2250 l gs col0 s gr 
% Polyline
n 6225 2400 m
 6225 2250 l gs col0 s gr 
% Polyline
n 6975 2400 m
 6975 2250 l gs col0 s gr 
% Polyline
n 7050 2400 m
 7050 2250 l gs col0 s gr 
% Polyline
gs  clippath
5275 1502 m 5284 1561 l 5434 1539 l 5311 1528 l 5425 1480 l cp
eoclip
n 5790 1455 m
 5295 1530 l gs col0 s gr gr

% arrowhead
n 5425 1480 m 5311 1528 l 5434 1539 l  col0 s
% Polyline
gs  clippath
5351 2199 m 5400 2234 l 5489 2112 l 5395 2192 l 5440 2077 l cp
eoclip
n 5850 1560 m
 5385 2205 l gs col0 s gr gr

% arrowhead
n 5440 2077 m 5395 2192 l 5489 2112 l  col0 s
% Polyline
gs  clippath
6155 2243 m 6213 2225 l 6167 2080 l 6175 2204 l 6110 2098 l cp
eoclip
n 5970 1560 m
 6180 2220 l gs col0 s gr gr

% arrowhead
n 6110 2098 m 6175 2204 l 6167 2080 l  col0 s
% Polyline
gs  clippath
7014 2253 m 7049 2204 l 6927 2115 l 7007 2210 l 6892 2164 l cp
eoclip
n 6105 1560 m
 7020 2220 l gs col0 s gr gr

% arrowhead
n 6892 2164 m 7007 2210 l 6927 2115 l  col0 s
/Times-Roman ff 180.00 scf sf
5850 1500 m
gs 1 -1 sc (Pressure Measurement) col0 sh gr
/Times-Roman ff 180.00 scf sf
6465 1755 m
gs 1 -1 sc (Points) col0 sh gr
$F2psEnd
rs
