%!PS-Adobe-2.0 EPSF-2.0
%%Title: Dy-spins.fig
%%Creator: fig2dev Version 3.2 Patchlevel 4
%%CreationDate: Thu Dec 28 13:17:15 2006
%%For: dpeets@hyper.phas.ubc.ca (Darren Peets)
%%BoundingBox: 0 0 330 317
%%Magnification: 1.0000
%%EndComments
/$F2psDict 200 dict def
$F2psDict begin
$F2psDict /mtrx matrix put
/col-1 {0 setgray} bind def
/col0 {0.000 0.000 0.000 srgb} bind def
/col1 {0.000 0.000 1.000 srgb} bind def
/col2 {0.000 1.000 0.000 srgb} bind def
/col3 {0.000 1.000 1.000 srgb} bind def
/col4 {1.000 0.000 0.000 srgb} bind def
/col5 {1.000 0.000 1.000 srgb} bind def
/col6 {1.000 1.000 0.000 srgb} bind def
/col7 {1.000 1.000 1.000 srgb} bind def
/col8 {0.000 0.000 0.560 srgb} bind def
/col9 {0.000 0.000 0.690 srgb} bind def
/col10 {0.000 0.000 0.820 srgb} bind def
/col11 {0.530 0.810 1.000 srgb} bind def
/col12 {0.000 0.560 0.000 srgb} bind def
/col13 {0.000 0.690 0.000 srgb} bind def
/col14 {0.000 0.820 0.000 srgb} bind def
/col15 {0.000 0.560 0.560 srgb} bind def
/col16 {0.000 0.690 0.690 srgb} bind def
/col17 {0.000 0.820 0.820 srgb} bind def
/col18 {0.560 0.000 0.000 srgb} bind def
/col19 {0.690 0.000 0.000 srgb} bind def
/col20 {0.820 0.000 0.000 srgb} bind def
/col21 {0.560 0.000 0.560 srgb} bind def
/col22 {0.690 0.000 0.690 srgb} bind def
/col23 {0.820 0.000 0.820 srgb} bind def
/col24 {0.500 0.190 0.000 srgb} bind def
/col25 {0.630 0.250 0.000 srgb} bind def
/col26 {0.750 0.380 0.000 srgb} bind def
/col27 {1.000 0.500 0.500 srgb} bind def
/col28 {1.000 0.630 0.630 srgb} bind def
/col29 {1.000 0.750 0.750 srgb} bind def
/col30 {1.000 0.880 0.880 srgb} bind def
/col31 {1.000 0.840 0.000 srgb} bind def
/col32 {0.742 0.742 0.742 srgb} bind def

end
save
newpath 0 317 moveto 0 0 lineto 330 0 lineto 330 317 lineto closepath clip newpath
-13.5 338.2 translate
1 -1 scale

/cp {closepath} bind def
/ef {eofill} bind def
/gr {grestore} bind def
/gs {gsave} bind def
/sa {save} bind def
/rs {restore} bind def
/l {lineto} bind def
/m {moveto} bind def
/rm {rmoveto} bind def
/n {newpath} bind def
/s {stroke} bind def
/sh {show} bind def
/slc {setlinecap} bind def
/slj {setlinejoin} bind def
/slw {setlinewidth} bind def
/srgb {setrgbcolor} bind def
/rot {rotate} bind def
/sc {scale} bind def
/sd {setdash} bind def
/ff {findfont} bind def
/sf {setfont} bind def
/scf {scalefont} bind def
/sw {stringwidth} bind def
/tr {translate} bind def
/tnt {dup dup currentrgbcolor
  4 -2 roll dup 1 exch sub 3 -1 roll mul add
  4 -2 roll dup 1 exch sub 3 -1 roll mul add
  4 -2 roll dup 1 exch sub 3 -1 roll mul add srgb}
  bind def
/shd {dup dup currentrgbcolor 4 -2 roll mul 4 -2 roll mul
  4 -2 roll mul srgb} bind def
/$F2psBegin {$F2psDict begin /$F2psEnteredState save def} def
/$F2psEnd {$F2psEnteredState restore end} def

$F2psBegin
10 setmiterlimit
0 slj 0 slc
 0.06000 0.06000 sc
%
% Fig objects follow
%
% 
% here starts figure with depth 50
/Times-Roman ff 180.00 scf sf
225 2625 m
gs 1 -1 sc (a) col0 sh gr
% Polyline
15.000 slw
gs  clippath
3435 885 m 3315 885 l 3315 1240 l 3375 940 l 3435 1240 l cp
eoclip
n 3375 2100 m
 3375 900 l gs col8 s gr gr

% arrowhead
n 3435 1240 m 3375 940 l 3315 1240 l 3375 1180 l 3435 1240 l 
 cp gs col8 1.00 shd ef gr  col8 s
/Times-Roman ff 180.00 scf sf
3300 2625 m
gs 1 -1 sc (b) col0 sh gr
/Times-Roman ff 180.00 scf sf
225 5625 m
gs 1 -1 sc (c) col0 sh gr
/Times-Roman ff 180.00 scf sf
3300 5625 m
gs 1 -1 sc (d) col0 sh gr
/Times-Roman ff 180.00 scf sf
3150 1650 m
gs 1 -1 sc (H) col0 sh gr
% Polyline
7.500 slw
gs  clippath
781 460 m 739 418 l 608 548 l 736 464 l 651 591 l cp
eoclip
n 450 750 m
 750 450 l gs col0 s gr gr

% arrowhead
n 651 591 m 736 464 l 608 548 l 651 548 l 651 591 l 
 cp gs 0.00 setgray ef gr  col0 s
% Polyline
gs  clippath
1230 360 m 1170 360 l 1170 545 l 1200 395 l 1230 545 l cp
eoclip
n 1200 825 m
 1200 375 l gs col0 s gr gr

% arrowhead
n 1230 545 m 1200 395 l 1170 545 l 1200 515 l 1230 545 l 
 cp gs 0.00 setgray ef gr  col0 s
% Polyline
gs  clippath
1691 829 m 1748 848 l 1806 673 l 1731 806 l 1749 654 l cp
eoclip
n 1875 375 m
 1725 825 l gs col0 s gr gr

% arrowhead
n 1749 654 m 1731 806 l 1806 673 l 1768 692 l 1749 654 l 
 cp gs 0.00 setgray ef gr  col0 s
% Polyline
gs  clippath
2620 783 m 2654 733 l 2499 630 l 2608 739 l 2466 680 l cp
eoclip
n 2175 450 m
 2625 750 l gs col0 s gr gr

% arrowhead
n 2466 680 m 2608 739 l 2499 630 l 2508 672 l 2466 680 l 
 cp gs 0.00 setgray ef gr  col0 s
% Polyline
gs  clippath
1060 1018 m 1018 1060 l 1148 1191 l 1064 1064 l 1191 1148 l cp
eoclip
n 1350 1350 m
 1050 1050 l gs col0 s gr gr

% arrowhead
n 1191 1148 m 1064 1064 l 1148 1191 l 1148 1148 l 1191 1148 l 
 cp gs 0.00 setgray ef gr  col0 s
% Polyline
gs  clippath
1981 2260 m 1939 2218 l 1808 2348 l 1936 2264 l 1851 2391 l cp
eoclip
n 1650 2550 m
 1950 2250 l gs col0 s gr gr

% arrowhead
n 1851 2391 m 1936 2264 l 1808 2348 l 1851 2348 l 1851 2391 l 
 cp gs 0.00 setgray ef gr  col0 s
% Polyline
gs  clippath
2451 2648 m 2508 2629 l 2450 2454 l 2469 2606 l 2393 2473 l cp
eoclip
n 2325 2175 m
 2475 2625 l gs col0 s gr gr

% arrowhead
n 2393 2473 m 2469 2606 l 2450 2454 l 2431 2492 l 2393 2473 l 
 cp gs 0.00 setgray ef gr  col0 s
% Polyline
gs  clippath
733 2054 m 783 2020 l 680 1866 l 739 2008 l 630 1899 l cp
eoclip
n 450 1575 m
 750 2025 l gs col0 s gr gr

% arrowhead
n 630 1899 m 739 2008 l 680 1866 l 672 1908 l 630 1899 l 
 cp gs 0.00 setgray ef gr  col0 s
% Polyline
gs  clippath
1091 2029 m 1148 2048 l 1206 1873 l 1131 2006 l 1149 1854 l cp
eoclip
n 1275 1575 m
 1125 2025 l gs col0 s gr gr

% arrowhead
n 1149 1854 m 1131 2006 l 1206 1873 l 1168 1892 l 1149 1854 l 
 cp gs 0.00 setgray ef gr  col0 s
% Polyline
gs  clippath
2040 1830 m 2040 1770 l 1855 1770 l 2005 1800 l 1855 1830 l cp
eoclip
n 1575 1800 m
 2025 1800 l gs col0 s gr gr

% arrowhead
n 1855 1830 m 2005 1800 l 1855 1770 l 1885 1800 l 1855 1830 l 
 cp gs 0.00 setgray ef gr  col0 s
% Polyline
gs  clippath
548 951 m 491 970 l 549 1145 l 531 994 l 606 1126 l cp
eoclip
n 675 1425 m
 525 975 l gs col0 s gr gr

% arrowhead
n 606 1126 m 531 994 l 549 1145 l 568 1107 l 606 1126 l 
 cp gs 0.00 setgray ef gr  col0 s
% Polyline
gs  clippath
360 2370 m 360 2430 l 545 2430 l 395 2400 l 545 2370 l cp
eoclip
n 825 2400 m
 375 2400 l gs col0 s gr gr

% arrowhead
n 545 2370 m 395 2400 l 545 2430 l 515 2400 l 545 2370 l 
 cp gs 0.00 setgray ef gr  col0 s
% Polyline
gs  clippath
2370 2040 m 2430 2040 l 2430 1855 l 2400 2005 l 2370 1855 l cp
eoclip
n 2400 1575 m
 2400 2025 l gs col0 s gr gr

% arrowhead
n 2370 1855 m 2400 2005 l 2430 1855 l 2400 1885 l 2370 1855 l 
 cp gs 0.00 setgray ef gr  col0 s
% Polyline
gs  clippath
1148 2151 m 1091 2170 l 1149 2345 l 1131 2194 l 1206 2326 l cp
eoclip
n 1275 2625 m
 1125 2175 l gs col0 s gr gr

% arrowhead
n 1206 2326 m 1131 2194 l 1149 2345 l 1168 2307 l 1206 2326 l 
 cp gs 0.00 setgray ef gr  col0 s
% Polyline
gs  clippath
2266 945 m 2216 979 l 2319 1133 l 2261 992 l 2369 1100 l cp
eoclip
n 2550 1425 m
 2250 975 l gs col0 s gr gr

% arrowhead
n 2369 1100 m 2261 992 l 2319 1133 l 2327 1091 l 2369 1100 l 
 cp gs 0.00 setgray ef gr  col0 s
% Polyline
gs  clippath
1851 1448 m 1908 1429 l 1850 1254 l 1869 1406 l 1793 1273 l cp
eoclip
n 1725 975 m
 1875 1425 l gs col0 s gr gr

% arrowhead
n 1793 1273 m 1869 1406 l 1850 1254 l 1831 1292 l 1793 1273 l 
 cp gs 0.00 setgray ef gr  col0 s
% Polyline
gs  clippath
630 3360 m 570 3360 l 570 3545 l 600 3395 l 630 3545 l cp
eoclip
n 600 3825 m
 600 3375 l gs col0 s gr gr

% arrowhead
n 630 3545 m 600 3395 l 570 3545 l 600 3515 l 630 3545 l 
 cp gs 0.00 setgray ef gr  col0 s
% Polyline
gs  clippath
1230 3360 m 1170 3360 l 1170 3545 l 1200 3395 l 1230 3545 l cp
eoclip
n 1200 3825 m
 1200 3375 l gs col0 s gr gr

% arrowhead
n 1230 3545 m 1200 3395 l 1170 3545 l 1200 3515 l 1230 3545 l 
 cp gs 0.00 setgray ef gr  col0 s
% Polyline
gs  clippath
1830 3360 m 1770 3360 l 1770 3545 l 1800 3395 l 1830 3545 l cp
eoclip
n 1800 3825 m
 1800 3375 l gs col0 s gr gr

% arrowhead
n 1830 3545 m 1800 3395 l 1770 3545 l 1800 3515 l 1830 3545 l 
 cp gs 0.00 setgray ef gr  col0 s
% Polyline
gs  clippath
2430 3360 m 2370 3360 l 2370 3545 l 2400 3395 l 2430 3545 l cp
eoclip
n 2400 3825 m
 2400 3375 l gs col0 s gr gr

% arrowhead
n 2430 3545 m 2400 3395 l 2370 3545 l 2400 3515 l 2430 3545 l 
 cp gs 0.00 setgray ef gr  col0 s
% Polyline
gs  clippath
2430 3960 m 2370 3960 l 2370 4145 l 2400 3995 l 2430 4145 l cp
eoclip
n 2400 4425 m
 2400 3975 l gs col0 s gr gr

% arrowhead
n 2430 4145 m 2400 3995 l 2370 4145 l 2400 4115 l 2430 4145 l 
 cp gs 0.00 setgray ef gr  col0 s
% Polyline
gs  clippath
1830 3960 m 1770 3960 l 1770 4145 l 1800 3995 l 1830 4145 l cp
eoclip
n 1800 4425 m
 1800 3975 l gs col0 s gr gr

% arrowhead
n 1830 4145 m 1800 3995 l 1770 4145 l 1800 4115 l 1830 4145 l 
 cp gs 0.00 setgray ef gr  col0 s
% Polyline
gs  clippath
1230 3960 m 1170 3960 l 1170 4145 l 1200 3995 l 1230 4145 l cp
eoclip
n 1200 4425 m
 1200 3975 l gs col0 s gr gr

% arrowhead
n 1230 4145 m 1200 3995 l 1170 4145 l 1200 4115 l 1230 4145 l 
 cp gs 0.00 setgray ef gr  col0 s
% Polyline
gs  clippath
630 3960 m 570 3960 l 570 4145 l 600 3995 l 630 4145 l cp
eoclip
n 600 4425 m
 600 3975 l gs col0 s gr gr

% arrowhead
n 630 4145 m 600 3995 l 570 4145 l 600 4115 l 630 4145 l 
 cp gs 0.00 setgray ef gr  col0 s
% Polyline
gs  clippath
630 4560 m 570 4560 l 570 4745 l 600 4595 l 630 4745 l cp
eoclip
n 600 5025 m
 600 4575 l gs col0 s gr gr

% arrowhead
n 630 4745 m 600 4595 l 570 4745 l 600 4715 l 630 4745 l 
 cp gs 0.00 setgray ef gr  col0 s
% Polyline
gs  clippath
1230 4560 m 1170 4560 l 1170 4745 l 1200 4595 l 1230 4745 l cp
eoclip
n 1200 5025 m
 1200 4575 l gs col0 s gr gr

% arrowhead
n 1230 4745 m 1200 4595 l 1170 4745 l 1200 4715 l 1230 4745 l 
 cp gs 0.00 setgray ef gr  col0 s
% Polyline
gs  clippath
1830 4560 m 1770 4560 l 1770 4745 l 1800 4595 l 1830 4745 l cp
eoclip
n 1800 5025 m
 1800 4575 l gs col0 s gr gr

% arrowhead
n 1830 4745 m 1800 4595 l 1770 4745 l 1800 4715 l 1830 4745 l 
 cp gs 0.00 setgray ef gr  col0 s
% Polyline
gs  clippath
2430 4560 m 2370 4560 l 2370 4745 l 2400 4595 l 2430 4745 l cp
eoclip
n 2400 5025 m
 2400 4575 l gs col0 s gr gr

% arrowhead
n 2430 4745 m 2400 4595 l 2370 4745 l 2400 4715 l 2430 4745 l 
 cp gs 0.00 setgray ef gr  col0 s
% Polyline
gs  clippath
2430 5160 m 2370 5160 l 2370 5345 l 2400 5195 l 2430 5345 l cp
eoclip
n 2400 5625 m
 2400 5175 l gs col0 s gr gr

% arrowhead
n 2430 5345 m 2400 5195 l 2370 5345 l 2400 5315 l 2430 5345 l 
 cp gs 0.00 setgray ef gr  col0 s
% Polyline
gs  clippath
1830 5160 m 1770 5160 l 1770 5345 l 1800 5195 l 1830 5345 l cp
eoclip
n 1800 5625 m
 1800 5175 l gs col0 s gr gr

% arrowhead
n 1830 5345 m 1800 5195 l 1770 5345 l 1800 5315 l 1830 5345 l 
 cp gs 0.00 setgray ef gr  col0 s
% Polyline
gs  clippath
1230 5160 m 1170 5160 l 1170 5345 l 1200 5195 l 1230 5345 l cp
eoclip
n 1200 5625 m
 1200 5175 l gs col0 s gr gr

% arrowhead
n 1230 5345 m 1200 5195 l 1170 5345 l 1200 5315 l 1230 5345 l 
 cp gs 0.00 setgray ef gr  col0 s
% Polyline
gs  clippath
630 5160 m 570 5160 l 570 5345 l 600 5195 l 630 5345 l cp
eoclip
n 600 5625 m
 600 5175 l gs col0 s gr gr

% arrowhead
n 630 5345 m 600 5195 l 570 5345 l 600 5315 l 630 5345 l 
 cp gs 0.00 setgray ef gr  col0 s
% Polyline
gs  clippath
3705 3360 m 3645 3360 l 3645 3545 l 3675 3395 l 3705 3545 l cp
eoclip
n 3675 3825 m
 3675 3375 l gs col0 s gr gr

% arrowhead
n 3705 3545 m 3675 3395 l 3645 3545 l 3675 3515 l 3705 3545 l 
 cp gs 0.00 setgray ef gr  col0 s
% Polyline
gs  clippath
4905 3360 m 4845 3360 l 4845 3545 l 4875 3395 l 4905 3545 l cp
eoclip
n 4875 3825 m
 4875 3375 l gs col0 s gr gr

% arrowhead
n 4905 3545 m 4875 3395 l 4845 3545 l 4875 3515 l 4905 3545 l 
 cp gs 0.00 setgray ef gr  col0 s
% Polyline
gs  clippath
5505 3960 m 5445 3960 l 5445 4145 l 5475 3995 l 5505 4145 l cp
eoclip
n 5475 4425 m
 5475 3975 l gs col0 s gr gr

% arrowhead
n 5505 4145 m 5475 3995 l 5445 4145 l 5475 4115 l 5505 4145 l 
 cp gs 0.00 setgray ef gr  col0 s
% Polyline
gs  clippath
4305 3960 m 4245 3960 l 4245 4145 l 4275 3995 l 4305 4145 l cp
eoclip
n 4275 4425 m
 4275 3975 l gs col0 s gr gr

% arrowhead
n 4305 4145 m 4275 3995 l 4245 4145 l 4275 4115 l 4305 4145 l 
 cp gs 0.00 setgray ef gr  col0 s
% Polyline
gs  clippath
3705 4560 m 3645 4560 l 3645 4745 l 3675 4595 l 3705 4745 l cp
eoclip
n 3675 5025 m
 3675 4575 l gs col0 s gr gr

% arrowhead
n 3705 4745 m 3675 4595 l 3645 4745 l 3675 4715 l 3705 4745 l 
 cp gs 0.00 setgray ef gr  col0 s
% Polyline
gs  clippath
4905 4560 m 4845 4560 l 4845 4745 l 4875 4595 l 4905 4745 l cp
eoclip
n 4875 5025 m
 4875 4575 l gs col0 s gr gr

% arrowhead
n 4905 4745 m 4875 4595 l 4845 4745 l 4875 4715 l 4905 4745 l 
 cp gs 0.00 setgray ef gr  col0 s
% Polyline
gs  clippath
5505 5160 m 5445 5160 l 5445 5345 l 5475 5195 l 5505 5345 l cp
eoclip
n 5475 5625 m
 5475 5175 l gs col0 s gr gr

% arrowhead
n 5505 5345 m 5475 5195 l 5445 5345 l 5475 5315 l 5505 5345 l 
 cp gs 0.00 setgray ef gr  col0 s
% Polyline
gs  clippath
4305 5160 m 4245 5160 l 4245 5345 l 4275 5195 l 4305 5345 l cp
eoclip
n 4275 5625 m
 4275 5175 l gs col0 s gr gr

% arrowhead
n 4305 5345 m 4275 5195 l 4245 5345 l 4275 5315 l 4305 5345 l 
 cp gs 0.00 setgray ef gr  col0 s
% Polyline
gs  clippath
4245 3840 m 4305 3840 l 4305 3655 l 4275 3805 l 4245 3655 l cp
eoclip
n 4275 3375 m
 4275 3825 l gs col0 s gr gr

% arrowhead
n 4245 3655 m 4275 3805 l 4305 3655 l 4275 3685 l 4245 3655 l 
 cp gs 0.00 setgray ef gr  col0 s
% Polyline
gs  clippath
5445 3840 m 5505 3840 l 5505 3655 l 5475 3805 l 5445 3655 l cp
eoclip
n 5475 3375 m
 5475 3825 l gs col0 s gr gr

% arrowhead
n 5445 3655 m 5475 3805 l 5505 3655 l 5475 3685 l 5445 3655 l 
 cp gs 0.00 setgray ef gr  col0 s
% Polyline
gs  clippath
5445 5040 m 5505 5040 l 5505 4855 l 5475 5005 l 5445 4855 l cp
eoclip
n 5475 4575 m
 5475 5025 l gs col0 s gr gr

% arrowhead
n 5445 4855 m 5475 5005 l 5505 4855 l 5475 4885 l 5445 4855 l 
 cp gs 0.00 setgray ef gr  col0 s
% Polyline
gs  clippath
4245 5040 m 4305 5040 l 4305 4855 l 4275 5005 l 4245 4855 l cp
eoclip
n 4275 4575 m
 4275 5025 l gs col0 s gr gr

% arrowhead
n 4245 4855 m 4275 5005 l 4305 4855 l 4275 4885 l 4245 4855 l 
 cp gs 0.00 setgray ef gr  col0 s
% Polyline
gs  clippath
3645 4440 m 3705 4440 l 3705 4255 l 3675 4405 l 3645 4255 l cp
eoclip
n 3675 3975 m
 3675 4425 l gs col0 s gr gr

% arrowhead
n 3645 4255 m 3675 4405 l 3705 4255 l 3675 4285 l 3645 4255 l 
 cp gs 0.00 setgray ef gr  col0 s
% Polyline
gs  clippath
4845 4440 m 4905 4440 l 4905 4255 l 4875 4405 l 4845 4255 l cp
eoclip
n 4875 3975 m
 4875 4425 l gs col0 s gr gr

% arrowhead
n 4845 4255 m 4875 4405 l 4905 4255 l 4875 4285 l 4845 4255 l 
 cp gs 0.00 setgray ef gr  col0 s
% Polyline
gs  clippath
4845 5640 m 4905 5640 l 4905 5455 l 4875 5605 l 4845 5455 l cp
eoclip
n 4875 5175 m
 4875 5625 l gs col0 s gr gr

% arrowhead
n 4845 5455 m 4875 5605 l 4905 5455 l 4875 5485 l 4845 5455 l 
 cp gs 0.00 setgray ef gr  col0 s
% Polyline
gs  clippath
3645 5640 m 3705 5640 l 3705 5455 l 3675 5605 l 3645 5455 l cp
eoclip
n 3675 5175 m
 3675 5625 l gs col0 s gr gr

% arrowhead
n 3645 5455 m 3675 5605 l 3705 5455 l 3675 5485 l 3645 5455 l 
 cp gs 0.00 setgray ef gr  col0 s
% Polyline
gs  clippath
3856 460 m 3814 418 l 3683 548 l 3811 464 l 3726 591 l cp
eoclip
n 3525 750 m
 3825 450 l gs col0 s gr gr

% arrowhead
n 3726 591 m 3811 464 l 3683 548 l 3726 548 l 3726 591 l 
 cp gs 0.00 setgray ef gr  col0 s
% Polyline
gs  clippath
4305 360 m 4245 360 l 4245 545 l 4275 395 l 4305 545 l cp
eoclip
n 4275 825 m
 4275 375 l gs col0 s gr gr

% arrowhead
n 4305 545 m 4275 395 l 4245 545 l 4275 515 l 4305 545 l 
 cp gs 0.00 setgray ef gr  col0 s
% Polyline
gs  clippath
4135 1018 m 4093 1060 l 4223 1191 l 4139 1064 l 4266 1148 l cp
eoclip
n 4425 1350 m
 4125 1050 l gs col0 s gr gr

% arrowhead
n 4266 1148 m 4139 1064 l 4223 1191 l 4223 1148 l 4266 1148 l 
 cp gs 0.00 setgray ef gr  col0 s
% Polyline
gs  clippath
5056 2260 m 5014 2218 l 4883 2348 l 5011 2264 l 4926 2391 l cp
eoclip
n 4725 2550 m
 5025 2250 l gs col0 s gr gr

% arrowhead
n 4926 2391 m 5011 2264 l 4883 2348 l 4926 2348 l 4926 2391 l 
 cp gs 0.00 setgray ef gr  col0 s
% Polyline
gs  clippath
5115 1830 m 5115 1770 l 4930 1770 l 5080 1800 l 4930 1830 l cp
eoclip
n 4650 1800 m
 5100 1800 l gs col0 s gr gr

% arrowhead
n 4930 1830 m 5080 1800 l 4930 1770 l 4960 1800 l 4930 1830 l 
 cp gs 0.00 setgray ef gr  col0 s
% Polyline
gs  clippath
3623 951 m 3566 970 l 3624 1145 l 3606 994 l 3681 1126 l cp
eoclip
n 3750 1425 m
 3600 975 l gs col0 s gr gr

% arrowhead
n 3681 1126 m 3606 994 l 3624 1145 l 3643 1107 l 3681 1126 l 
 cp gs 0.00 setgray ef gr  col0 s
% Polyline
gs  clippath
3435 2370 m 3435 2430 l 3620 2430 l 3470 2400 l 3620 2370 l cp
eoclip
n 3900 2400 m
 3450 2400 l gs col0 s gr gr

% arrowhead
n 3620 2370 m 3470 2400 l 3620 2430 l 3590 2400 l 3620 2370 l 
 cp gs 0.00 setgray ef gr  col0 s
% Polyline
gs  clippath
5445 2040 m 5505 2040 l 5505 1855 l 5475 2005 l 5445 1855 l cp
eoclip
n 5475 1575 m
 5475 2025 l gs col0 s gr gr

% arrowhead
n 5445 1855 m 5475 2005 l 5505 1855 l 5475 1885 l 5445 1855 l 
 cp gs 0.00 setgray ef gr  col0 s
% Polyline
gs  clippath
4223 2151 m 4166 2170 l 4224 2345 l 4206 2194 l 4281 2326 l cp
eoclip
n 4350 2625 m
 4200 2175 l gs col0 s gr gr

% arrowhead
n 4281 2326 m 4206 2194 l 4224 2345 l 4243 2307 l 4281 2326 l 
 cp gs 0.00 setgray ef gr  col0 s
% Polyline
gs  clippath
5341 945 m 5291 979 l 5394 1133 l 5336 992 l 5444 1100 l cp
eoclip
n 5625 1425 m
 5325 975 l gs col0 s gr gr

% arrowhead
n 5444 1100 m 5336 992 l 5394 1133 l 5402 1091 l 5444 1100 l 
 cp gs 0.00 setgray ef gr  col0 s
% Polyline
gs  clippath
4926 1448 m 4983 1429 l 4925 1254 l 4944 1406 l 4868 1273 l cp
eoclip
n 4800 975 m
 4950 1425 l gs col0 s gr gr

% arrowhead
n 4868 1273 m 4944 1406 l 4925 1254 l 4906 1292 l 4868 1273 l 
 cp gs 0.00 setgray ef gr  col0 s
% Polyline
gs  clippath
3858 1579 m 3808 1545 l 3705 1700 l 3814 1592 l 3755 1733 l cp
eoclip
n 3525 2025 m
 3825 1575 l gs col0 s gr gr

% arrowhead
n 3755 1733 m 3814 1592 l 3705 1700 l 3747 1691 l 3755 1733 l 
 cp gs 0.00 setgray ef gr  col0 s
% Polyline
gs  clippath
4383 1570 m 4326 1551 l 4268 1726 l 4344 1594 l 4325 1745 l cp
eoclip
n 4200 2025 m
 4350 1575 l gs col0 s gr gr

% arrowhead
n 4325 1745 m 4344 1594 l 4268 1726 l 4306 1707 l 4325 1745 l 
 cp gs 0.00 setgray ef gr  col0 s
% Polyline
gs  clippath
5583 2170 m 5526 2151 l 5468 2326 l 5544 2194 l 5525 2345 l cp
eoclip
n 5400 2625 m
 5550 2175 l gs col0 s gr gr

% arrowhead
n 5525 2345 m 5544 2194 l 5468 2326 l 5506 2307 l 5525 2345 l 
 cp gs 0.00 setgray ef gr  col0 s
% Polyline
gs  clippath
4983 370 m 4926 351 l 4868 526 l 4944 394 l 4925 545 l cp
eoclip
n 4800 825 m
 4950 375 l gs col0 s gr gr

% arrowhead
n 4925 545 m 4944 394 l 4868 526 l 4906 507 l 4925 545 l 
 cp gs 0.00 setgray ef gr  col0 s
% Polyline
gs  clippath
5729 466 m 5695 416 l 5541 519 l 5683 461 l 5574 569 l cp
eoclip
n 5250 750 m
 5700 450 l gs col0 s gr gr

% arrowhead
n 5574 569 m 5683 461 l 5541 519 l 5583 527 l 5574 569 l 
 cp gs 0.00 setgray ef gr  col0 s
% here ends figure;
$F2psEnd
rs
showpage
