%!PS-Adobe-2.0 EPSF-2.0
%%Title: efnmr-coupling.eps
%%Creator: fig2dev Version 3.2 Patchlevel 3d
%%CreationDate: Sat Mar 18 00:13:56 2006
%%For: dpeets@physics (Darren Peets)
%%BoundingBox: 0 0 264 152
%%Magnification: 1.0000
%%EndComments
/$F2psDict 200 dict def
$F2psDict begin
$F2psDict /mtrx matrix put
/col-1 {0 setgray} bind def
/col0 {0.000 0.000 0.000 srgb} bind def
/col1 {0.000 0.000 1.000 srgb} bind def
/col2 {0.000 1.000 0.000 srgb} bind def
/col3 {0.000 1.000 1.000 srgb} bind def
/col4 {1.000 0.000 0.000 srgb} bind def
/col5 {1.000 0.000 1.000 srgb} bind def
/col6 {1.000 1.000 0.000 srgb} bind def
/col7 {1.000 1.000 1.000 srgb} bind def
/col8 {0.000 0.000 0.560 srgb} bind def
/col9 {0.000 0.000 0.690 srgb} bind def
/col10 {0.000 0.000 0.820 srgb} bind def
/col11 {0.530 0.810 1.000 srgb} bind def
/col12 {0.000 0.560 0.000 srgb} bind def
/col13 {0.000 0.690 0.000 srgb} bind def
/col14 {0.000 0.820 0.000 srgb} bind def
/col15 {0.000 0.560 0.560 srgb} bind def
/col16 {0.000 0.690 0.690 srgb} bind def
/col17 {0.000 0.820 0.820 srgb} bind def
/col18 {0.560 0.000 0.000 srgb} bind def
/col19 {0.690 0.000 0.000 srgb} bind def
/col20 {0.820 0.000 0.000 srgb} bind def
/col21 {0.560 0.000 0.560 srgb} bind def
/col22 {0.690 0.000 0.690 srgb} bind def
/col23 {0.820 0.000 0.820 srgb} bind def
/col24 {0.500 0.190 0.000 srgb} bind def
/col25 {0.630 0.250 0.000 srgb} bind def
/col26 {0.750 0.380 0.000 srgb} bind def
/col27 {1.000 0.500 0.500 srgb} bind def
/col28 {1.000 0.630 0.630 srgb} bind def
/col29 {1.000 0.750 0.750 srgb} bind def
/col30 {1.000 0.880 0.880 srgb} bind def
/col31 {1.000 0.840 0.000 srgb} bind def

end
save
newpath 0 152 moveto 0 0 lineto 264 0 lineto 264 152 lineto closepath clip newpath
1.3 149.8 translate
1 -1 scale

/cp {closepath} bind def
/ef {eofill} bind def
/gr {grestore} bind def
/gs {gsave} bind def
/sa {save} bind def
/rs {restore} bind def
/l {lineto} bind def
/m {moveto} bind def
/rm {rmoveto} bind def
/n {newpath} bind def
/s {stroke} bind def
/sh {show} bind def
/slc {setlinecap} bind def
/slj {setlinejoin} bind def
/slw {setlinewidth} bind def
/srgb {setrgbcolor} bind def
/rot {rotate} bind def
/sc {scale} bind def
/sd {setdash} bind def
/ff {findfont} bind def
/sf {setfont} bind def
/scf {scalefont} bind def
/sw {stringwidth} bind def
/tr {translate} bind def
/tnt {dup dup currentrgbcolor
  4 -2 roll dup 1 exch sub 3 -1 roll mul add
  4 -2 roll dup 1 exch sub 3 -1 roll mul add
  4 -2 roll dup 1 exch sub 3 -1 roll mul add srgb}
  bind def
/shd {dup dup currentrgbcolor 4 -2 roll mul 4 -2 roll mul
  4 -2 roll mul srgb} bind def
/$F2psBegin {$F2psDict begin /$F2psEnteredState save def} def
/$F2psEnd {$F2psEnteredState restore end} def

$F2psBegin
10 setmiterlimit
 0.06000 0.06000 sc
%
% Fig objects follow
%
/Times-Roman ff 180.00 scf sf
3825 375 m
gs 1 -1 sc (dup) col0 sh gr
/Times-Roman ff 180.00 scf sf
3825 975 m
gs 1 -1 sc (dd) col0 sh gr
/Times-Roman ff 180.00 scf sf
3825 1725 m
gs 1 -1 sc (upd) col0 sh gr
/Times-Roman ff 180.00 scf sf
3825 2325 m
gs 1 -1 sc (upup) col0 sh gr
/Times-Roman ff 180.00 scf sf
2850 525 m
gs 1 -1 sc (spindown) col0 sh gr
/Times-Roman ff 180.00 scf sf
2850 2175 m
gs 1 -1 sc (spinup) col0 sh gr
/Times-Roman ff 180.00 scf sf
3450 1350 m
gs 1 -1 sc (with) col0 sh gr
/Times-Roman ff 180.00 scf sf
3600 675 m
gs 1 -1 sc (Jay) col0 sh gr
/Times-Roman ff 180.00 scf sf
3600 2025 m
gs 1 -1 sc (Jay) col0 sh gr
/Times-Roman ff 180.00 scf sf
2625 1350 m
gs 1 -1 sc (DelU) col0 sh gr
/Times-Roman ff 180.00 scf sf
750 600 m
gs 1 -1 sc (B=0) col0 sh gr
/Times-Roman ff 180.00 scf sf
2625 225 m
gs 1 -1 sc (B=Bo) col0 sh gr
% Polyline
7.500 slw
gs  clippath
3585 765 m 3615 765 l 3615 665 l 3600 740 l 3585 665 l cp
3615 435 m 3585 435 l 3585 535 l 3600 460 l 3615 535 l cp
eoclip
n 3600 450 m
 3600 750 l gs col0 s gr gr

% arrowhead
3.750 slw
n 3615 535 m 3600 460 l 3585 535 l 3600 520 l 3615 535 l 
 cp gs 0.00 setgray ef gr  col0 s
% arrowhead
n 3585 665 m 3600 740 l 3615 665 l 3600 680 l 3585 665 l 
 cp gs 0.00 setgray ef gr  col0 s
% Polyline
7.500 slw
gs  clippath
3585 2115 m 3615 2115 l 3615 2015 l 3600 2090 l 3585 2015 l cp
3615 1785 m 3585 1785 l 3585 1885 l 3600 1810 l 3615 1885 l cp
eoclip
n 3600 1800 m
 3600 2100 l gs col0 s gr gr

% arrowhead
3.750 slw
n 3615 1885 m 3600 1810 l 3585 1885 l 3600 1870 l 3615 1885 l 
 cp gs 0.00 setgray ef gr  col0 s
% arrowhead
n 3585 2015 m 3600 2090 l 3615 2015 l 3600 2030 l 3585 2015 l 
 cp gs 0.00 setgray ef gr  col0 s
% Polyline
15.000 slw
n 150 0 m 0 0 0 2325 150 arcto 4 {pop} repeat
  0 2475 4200 2475 150 arcto 4 {pop} repeat
  4350 2475 4350 150 150 arcto 4 {pop} repeat
  4350 0 150 0 150 arcto 4 {pop} repeat
 cp gs col0 s gr 
% Polyline
7.500 slw
 [60] 0 sd
n 3450 1800 m 3300 1950 l
 3450 2100 l gs col0 s gr  [] 0 sd
% Polyline
 [60] 0 sd
n 3450 450 m 3300 600 l
 3450 750 l gs col0 s gr  [] 0 sd
% Polyline
n 3450 2100 m
 4275 2100 l gs col0 s gr 
% Polyline
n 3450 1800 m
 4275 1800 l gs col0 s gr 
% Polyline
n 3450 750 m
 4275 750 l gs col0 s gr 
% Polyline
n 3450 450 m
 4275 450 l gs col0 s gr 
% Polyline
n 2475 1950 m
 3300 1950 l gs col0 s gr 
% Polyline
 [60] 0 sd
n 2475 600 m 1875 1275 l
 2475 1950 l gs col0 s gr  [] 0 sd
% Polyline
n 1875 1275 m
 1050 1275 l gs col0 s gr 
% Polyline
n 900 1275 m
 75 1275 l gs col0 s gr 
% Polyline
gs  clippath
2595 1965 m 2655 1965 l 2655 1780 l 2625 1930 l 2595 1780 l cp
2655 585 m 2595 585 l 2595 770 l 2625 620 l 2655 770 l cp
eoclip
n 2625 600 m
 2625 1950 l gs col0 s gr gr

% arrowhead
n 2655 770 m 2625 620 l 2595 770 l 2625 740 l 2655 770 l 
 cp gs 0.00 setgray ef gr  col0 s
% arrowhead
n 2595 1780 m 2625 1930 l 2655 1780 l 2625 1810 l 2595 1780 l 
 cp gs 0.00 setgray ef gr  col0 s
% Polyline
n 2475 600 m
 3300 600 l gs col0 s gr 
$F2psEnd
rs
