%!PS-Adobe-2.0 EPSF-2.0
%%Title: ftir-modes.eps
%%Creator: fig2dev Version 3.2 Patchlevel 3d
%%CreationDate: Sun Oct  5 00:32:53 2003
%%For: dpeets@physics (Darren Peets)
%%BoundingBox: 0 0 648 436
%%Magnification: 1.0000
%%EndComments
/$F2psDict 200 dict def
$F2psDict begin
$F2psDict /mtrx matrix put
/col-1 {0 setgray} bind def
/col0 {0.000 0.000 0.000 srgb} bind def
/col1 {0.000 0.000 1.000 srgb} bind def
/col2 {0.000 1.000 0.000 srgb} bind def
/col3 {0.000 1.000 1.000 srgb} bind def
/col4 {1.000 0.000 0.000 srgb} bind def
/col5 {1.000 0.000 1.000 srgb} bind def
/col6 {1.000 1.000 0.000 srgb} bind def
/col7 {1.000 1.000 1.000 srgb} bind def
/col8 {0.000 0.000 0.560 srgb} bind def
/col9 {0.000 0.000 0.690 srgb} bind def
/col10 {0.000 0.000 0.820 srgb} bind def
/col11 {0.530 0.810 1.000 srgb} bind def
/col12 {0.000 0.560 0.000 srgb} bind def
/col13 {0.000 0.690 0.000 srgb} bind def
/col14 {0.000 0.820 0.000 srgb} bind def
/col15 {0.000 0.560 0.560 srgb} bind def
/col16 {0.000 0.690 0.690 srgb} bind def
/col17 {0.000 0.820 0.820 srgb} bind def
/col18 {0.560 0.000 0.000 srgb} bind def
/col19 {0.690 0.000 0.000 srgb} bind def
/col20 {0.820 0.000 0.000 srgb} bind def
/col21 {0.560 0.000 0.560 srgb} bind def
/col22 {0.690 0.000 0.690 srgb} bind def
/col23 {0.820 0.000 0.820 srgb} bind def
/col24 {0.500 0.190 0.000 srgb} bind def
/col25 {0.630 0.250 0.000 srgb} bind def
/col26 {0.750 0.380 0.000 srgb} bind def
/col27 {1.000 0.500 0.500 srgb} bind def
/col28 {1.000 0.630 0.630 srgb} bind def
/col29 {1.000 0.750 0.750 srgb} bind def
/col30 {1.000 0.880 0.880 srgb} bind def
/col31 {1.000 0.840 0.000 srgb} bind def

end
save
newpath 0 436 moveto 0 0 lineto 648 0 lineto 648 436 lineto closepath clip newpath
-16.0 434.0 translate
1 -1 scale

/cp {closepath} bind def
/ef {eofill} bind def
/gr {grestore} bind def
/gs {gsave} bind def
/sa {save} bind def
/rs {restore} bind def
/l {lineto} bind def
/m {moveto} bind def
/rm {rmoveto} bind def
/n {newpath} bind def
/s {stroke} bind def
/sh {show} bind def
/slc {setlinecap} bind def
/slj {setlinejoin} bind def
/slw {setlinewidth} bind def
/srgb {setrgbcolor} bind def
/rot {rotate} bind def
/sc {scale} bind def
/sd {setdash} bind def
/ff {findfont} bind def
/sf {setfont} bind def
/scf {scalefont} bind def
/sw {stringwidth} bind def
/tr {translate} bind def
/tnt {dup dup currentrgbcolor
  4 -2 roll dup 1 exch sub 3 -1 roll mul add
  4 -2 roll dup 1 exch sub 3 -1 roll mul add
  4 -2 roll dup 1 exch sub 3 -1 roll mul add srgb}
  bind def
/shd {dup dup currentrgbcolor 4 -2 roll mul 4 -2 roll mul
  4 -2 roll mul srgb} bind def
 /DrawEllipse {
	/endangle exch def
	/startangle exch def
	/yrad exch def
	/xrad exch def
	/y exch def
	/x exch def
	/savematrix mtrx currentmatrix def
	x y tr xrad yrad sc 0 0 1 startangle endangle arc
	closepath
	savematrix setmatrix
	} def

/$F2psBegin {$F2psDict begin /$F2psEnteredState save def} def
/$F2psEnd {$F2psEnteredState restore end} def

$F2psBegin
10 setmiterlimit
 0.06000 0.06000 sc
%
% Fig objects follow
%
/Times-Roman ff 180.00 scf sf
6075 4425 m
gs 1 -1 sc (f) col0 sh gr
% Polyline
30.000 slw
gs  clippath
9613 5317 m 9725 5360 l 9850 5028 l 9689 5288 l 9738 4986 l cp
eoclip
n 9900 4725 m
 9675 5325 l gs col0 s gr gr

% arrowhead
15.000 slw
n 9738 4986 m 9689 5288 l 9850 5028 l 9773 5063 l 9738 4986 l 
 cp gs 0.00 setgray ef gr  col0 s
% Polyline
30.000 slw
gs  clippath
8610 2385 m 8490 2385 l 8490 2740 l 8550 2440 l 8610 2740 l cp
eoclip
n 8550 3000 m
 8550 2400 l gs col0 s gr gr

% arrowhead
15.000 slw
n 8610 2740 m 8550 2440 l 8490 2740 l 8550 2680 l 8610 2740 l 
 cp gs 0.00 setgray ef gr  col0 s
% Polyline
n 7050 4425 m 8550 3375 l
 10050 4425 l gs col0 s gr 
% Polyline
n 7050 6825 m 8550 5775 l
 10050 6825 l gs col0 s gr 
% Polyline
30.000 slw
gs  clippath
6039 7149 m 6082 7261 l 6413 7136 l 6112 7186 l 6371 7024 l cp
eoclip
n 6675 6975 m
 6075 7200 l gs col0 s gr gr

% arrowhead
15.000 slw
n 6371 7024 m 6112 7186 l 6413 7136 l 6336 7101 l 6371 7024 l 
 cp gs 0.00 setgray ef gr  col0 s
/Times-Roman ff 180.00 scf sf
6000 2025 m
gs 1 -1 sc (e) col0 sh gr
% Polyline
30.000 slw
gs  clippath
7374 5360 m 7486 5317 l 7361 4986 l 7411 5288 l 7249 5028 l cp
eoclip
n 7200 4725 m
 7425 5325 l gs col0 s gr gr

% arrowhead
15.000 slw
n 7249 5028 m 7411 5288 l 7361 4986 l 7326 5063 l 7249 5028 l 
 cp gs 0.00 setgray ef gr  col0 s
% Polyline
30.000 slw
gs  clippath
11017 2461 m 11060 2349 l 10728 2224 l 10988 2386 l 10686 2336 l cp
eoclip
n 10425 2175 m
 11025 2400 l gs col0 s gr gr

% arrowhead
15.000 slw
n 10686 2336 m 10988 2386 l 10728 2224 l 10763 2301 l 10686 2336 l 
 cp gs 0.00 setgray ef gr  col0 s
% Polyline
30.000 slw
gs  clippath
8610 -15 m 8490 -15 l 8490 340 l 8550 40 l 8610 340 l cp
eoclip
n 8550 600 m
 8550 0 l gs col0 s gr gr

% arrowhead
15.000 slw
n 8610 340 m 8550 40 l 8490 340 l 8550 280 l 8610 340 l 
 cp gs 0.00 setgray ef gr  col0 s
% Polyline
30.000 slw
gs  clippath
6039 2349 m 6082 2461 l 6413 2336 l 6112 2386 l 6371 2224 l cp
eoclip
n 6675 2175 m
 6075 2400 l gs col0 s gr gr

% arrowhead
15.000 slw
n 6371 2224 m 6112 2386 l 6413 2336 l 6336 2301 l 6371 2224 l 
 cp gs 0.00 setgray ef gr  col0 s
% Polyline
n 7050 2025 m 8550 975 l
 10050 2025 l gs col0 s gr 
% Polyline
30.000 slw
gs  clippath
9540 5835 m 9540 5715 l 9185 5715 l 9485 5775 l 9185 5835 l cp
eoclip
n 8925 5775 m
 9525 5775 l gs col0 s gr gr

% arrowhead
15.000 slw
n 9185 5835 m 9485 5775 l 9185 5715 l 9245 5775 l 9185 5835 l 
 cp gs 0.00 setgray ef gr  col0 s
% Polyline
30.000 slw
gs  clippath
9082 6463 m 9039 6575 l 9371 6700 l 9112 6539 l 9413 6588 l cp
eoclip
n 9675 6750 m
 9075 6525 l gs col0 s gr gr

% arrowhead
15.000 slw
n 9413 6588 m 9112 6539 l 9371 6700 l 9336 6623 l 9413 6588 l 
 cp gs 0.00 setgray ef gr  col0 s
/Times-Roman ff 180.00 scf sf
6075 6825 m
gs 1 -1 sc (g) col0 sh gr
/Times-Roman ff 180.00 scf sf
300 6825 m
gs 1 -1 sc (d) col0 sh gr
% Polyline
30.000 slw
gs  clippath
3885 5790 m 3885 5910 l 4240 5910 l 3940 5850 l 4240 5790 l cp
eoclip
n 4500 5850 m
 3900 5850 l gs col24 1.00 shd ef gr gs col0 s gr gr

% arrowhead
15.000 slw
n 4240 5790 m 3940 5850 l 4240 5910 l 4180 5850 l 4240 5790 l 
 cp gs 0.00 setgray ef gr  col0 s
% Polyline
30.000 slw
gs  clippath
3315 5910 m 3315 5790 l 2960 5790 l 3260 5850 l 2960 5910 l cp
eoclip
n 2700 5850 m
 3300 5850 l gs col24 1.00 shd ef gr gs col0 s gr gr

% arrowhead
15.000 slw
n 2960 5910 m 3260 5850 l 2960 5790 l 3020 5850 l 2960 5910 l 
 cp gs 0.00 setgray ef gr  col0 s
% Polyline
30.000 slw
gs  clippath
285 5790 m 285 5910 l 640 5910 l 340 5850 l 640 5790 l cp
eoclip
n 900 5850 m
 300 5850 l gs col24 1.00 shd ef gr gs col0 s gr gr

% arrowhead
15.000 slw
n 640 5790 m 340 5850 l 640 5910 l 580 5850 l 640 5790 l 
 cp gs 0.00 setgray ef gr  col0 s
7.500 slw
% Ellipse
n 2700 6225 300 300 0 360 DrawEllipse gs col24 1.00 shd ef gr gs col0 s gr

% Polyline
15.000 slw
n 3000 6225 m
 4200 6225 l gs col24 1.00 shd ef gr gs col0 s gr 
% Polyline
n 1200 6225 m
 2400 6225 l gs col24 1.00 shd ef gr gs col0 s gr 
7.500 slw
% Ellipse
n 4500 6225 300 300 0 360 DrawEllipse gs col24 1.00 shd ef gr gs col0 s gr

% Ellipse
n 900 6225 300 300 0 360 DrawEllipse gs col24 1.00 shd ef gr gs col0 s gr

% Ellipse
n 8550 5775 300 300 0 360 DrawEllipse gs col24 1.00 shd ef gr gs col0 s gr

% Ellipse
n 1800 1275 300 300 0 360 DrawEllipse gs col24 1.00 shd ef gr gs col0 s gr

% Ellipse
n 3600 1275 300 300 0 360 DrawEllipse gs col24 1.00 shd ef gr gs col0 s gr

% Polyline
15.000 slw
n 2100 1275 m
 3300 1275 l gs col24 1.00 shd ef gr gs col0 s gr 
% Polyline
30.000 slw
gs  clippath
1185 840 m 1185 960 l 1540 960 l 1240 900 l 1540 840 l cp
eoclip
n 1800 900 m
 1200 900 l gs col24 1.00 shd ef gr gs col0 s gr gr

% arrowhead
15.000 slw
n 1540 840 m 1240 900 l 1540 960 l 1480 900 l 1540 840 l 
 cp gs 0.00 setgray ef gr  col0 s
% Polyline
30.000 slw
gs  clippath
4215 960 m 4215 840 l 3860 840 l 4160 900 l 3860 960 l cp
eoclip
n 3600 900 m
 4200 900 l gs col24 1.00 shd ef gr gs col0 s gr gr

% arrowhead
15.000 slw
n 3860 960 m 4160 900 l 3860 840 l 3920 900 l 3860 960 l 
 cp gs 0.00 setgray ef gr  col0 s
/Times-Roman ff 180.00 scf sf
300 1725 m
gs 1 -1 sc (a) col0 sh gr
7.500 slw
% Ellipse
n 7050 6825 300 300 0 360 DrawEllipse gs col24 1.00 shd ef gr gs col0 s gr

% Ellipse
n 10050 6825 300 300 0 360 DrawEllipse gs col24 1.00 shd ef gr gs col0 s gr

% Ellipse
n 7050 2025 300 300 0 360 DrawEllipse gs col24 1.00 shd ef gr gs col0 s gr

% Polyline
15.000 slw
n 3000 4425 m
 4200 4425 l gs col24 1.00 shd ef gr gs col0 s gr 
7.500 slw
% Ellipse
n 8550 975 300 300 0 360 DrawEllipse gs col24 1.00 shd ef gr gs col0 s gr

% Ellipse
n 10050 2025 300 300 0 360 DrawEllipse gs col24 1.00 shd ef gr gs col0 s gr

% Ellipse
n 7050 4425 300 300 0 360 DrawEllipse gs col24 1.00 shd ef gr gs col0 s gr

% Ellipse
n 8550 3375 300 300 0 360 DrawEllipse gs col24 1.00 shd ef gr gs col0 s gr

% Ellipse
n 10050 4425 300 300 0 360 DrawEllipse gs col24 1.00 shd ef gr gs col0 s gr

% Ellipse
n 900 2550 300 300 0 360 DrawEllipse gs col24 1.00 shd ef gr gs col0 s gr

% Ellipse
n 2700 2550 300 300 0 360 DrawEllipse gs col24 1.00 shd ef gr gs col0 s gr

% Ellipse
n 4500 2550 300 300 0 360 DrawEllipse gs col24 1.00 shd ef gr gs col0 s gr

% Polyline
15.000 slw
n 1200 2550 m
 2400 2550 l gs col24 1.00 shd ef gr gs col0 s gr 
% Polyline
n 3000 2550 m
 4200 2550 l gs col24 1.00 shd ef gr gs col0 s gr 
% Polyline
30.000 slw
gs  clippath
285 2115 m 285 2235 l 640 2235 l 340 2175 l 640 2115 l cp
eoclip
n 900 2175 m
 300 2175 l gs col24 1.00 shd ef gr gs col0 s gr gr

% arrowhead
15.000 slw
n 640 2115 m 340 2175 l 640 2235 l 580 2175 l 640 2115 l 
 cp gs 0.00 setgray ef gr  col0 s
% Polyline
30.000 slw
gs  clippath
5115 2235 m 5115 2115 l 4760 2115 l 5060 2175 l 4760 2235 l cp
eoclip
n 4500 2175 m
 5100 2175 l gs col24 1.00 shd ef gr gs col0 s gr gr

% arrowhead
15.000 slw
n 4760 2235 m 5060 2175 l 4760 2115 l 4820 2175 l 4760 2235 l 
 cp gs 0.00 setgray ef gr  col0 s
/Times-Roman ff 180.00 scf sf
300 3150 m
gs 1 -1 sc (b) col0 sh gr
7.500 slw
% Ellipse
n 900 4425 300 300 0 360 DrawEllipse gs col24 1.00 shd ef gr gs col0 s gr

% Ellipse
n 2700 4425 300 300 0 360 DrawEllipse gs col24 1.00 shd ef gr gs col0 s gr

% Ellipse
n 4500 4425 300 300 0 360 DrawEllipse gs col24 1.00 shd ef gr gs col0 s gr

% Polyline
15.000 slw
n 1200 4425 m
 2400 4425 l gs col24 1.00 shd ef gr gs col0 s gr 
% Polyline
30.000 slw
gs  clippath
840 5415 m 960 5415 l 960 5060 l 900 5360 l 840 5060 l cp
eoclip
n 900 4800 m
 900 5400 l gs col24 1.00 shd ef gr gs col0 s gr gr

% arrowhead
15.000 slw
n 840 5060 m 900 5360 l 960 5060 l 900 5120 l 840 5060 l 
 cp gs 0.00 setgray ef gr  col0 s
% Polyline
30.000 slw
gs  clippath
2760 3435 m 2640 3435 l 2640 3790 l 2700 3490 l 2760 3790 l cp
eoclip
n 2700 4050 m
 2700 3450 l gs col24 1.00 shd ef gr gs col0 s gr gr

% arrowhead
15.000 slw
n 2760 3790 m 2700 3490 l 2640 3790 l 2700 3730 l 2760 3790 l 
 cp gs 0.00 setgray ef gr  col0 s
% Polyline
30.000 slw
gs  clippath
4440 5415 m 4560 5415 l 4560 5060 l 4500 5360 l 4440 5060 l cp
eoclip
n 4500 4800 m
 4500 5400 l gs col24 1.00 shd ef gr gs col0 s gr gr

% arrowhead
15.000 slw
n 4440 5060 m 4500 5360 l 4560 5060 l 4500 5120 l 4440 5060 l 
 cp gs 0.00 setgray ef gr  col0 s
/Times-Roman ff 180.00 scf sf
300 5025 m
gs 1 -1 sc (c) col0 sh gr
$F2psEnd
rs
