%!PS-Adobe-2.0 EPSF-2.0
%%Title: ftir-block.eps
%%Creator: fig2dev Version 3.2 Patchlevel 3d
%%CreationDate: Sun Oct  5 19:27:37 2003
%%For: dpeets@physics (Darren Peets)
%%BoundingBox: 0 0 546 282
%%Magnification: 1.0000
%%EndComments
/$F2psDict 200 dict def
$F2psDict begin
$F2psDict /mtrx matrix put
/col-1 {0 setgray} bind def
/col0 {0.000 0.000 0.000 srgb} bind def
/col1 {0.000 0.000 1.000 srgb} bind def
/col2 {0.000 1.000 0.000 srgb} bind def
/col3 {0.000 1.000 1.000 srgb} bind def
/col4 {1.000 0.000 0.000 srgb} bind def
/col5 {1.000 0.000 1.000 srgb} bind def
/col6 {1.000 1.000 0.000 srgb} bind def
/col7 {1.000 1.000 1.000 srgb} bind def
/col8 {0.000 0.000 0.560 srgb} bind def
/col9 {0.000 0.000 0.690 srgb} bind def
/col10 {0.000 0.000 0.820 srgb} bind def
/col11 {0.530 0.810 1.000 srgb} bind def
/col12 {0.000 0.560 0.000 srgb} bind def
/col13 {0.000 0.690 0.000 srgb} bind def
/col14 {0.000 0.820 0.000 srgb} bind def
/col15 {0.000 0.560 0.560 srgb} bind def
/col16 {0.000 0.690 0.690 srgb} bind def
/col17 {0.000 0.820 0.820 srgb} bind def
/col18 {0.560 0.000 0.000 srgb} bind def
/col19 {0.690 0.000 0.000 srgb} bind def
/col20 {0.820 0.000 0.000 srgb} bind def
/col21 {0.560 0.000 0.560 srgb} bind def
/col22 {0.690 0.000 0.690 srgb} bind def
/col23 {0.820 0.000 0.820 srgb} bind def
/col24 {0.500 0.190 0.000 srgb} bind def
/col25 {0.630 0.250 0.000 srgb} bind def
/col26 {0.750 0.380 0.000 srgb} bind def
/col27 {1.000 0.500 0.500 srgb} bind def
/col28 {1.000 0.630 0.630 srgb} bind def
/col29 {1.000 0.750 0.750 srgb} bind def
/col30 {1.000 0.880 0.880 srgb} bind def
/col31 {1.000 0.840 0.000 srgb} bind def
/col32 {0.816 0.816 0.816 srgb} bind def

end
save
newpath 0 282 moveto 0 0 lineto 546 0 lineto 546 282 lineto closepath clip newpath
-35.3 311.2 translate
1 -1 scale

/cp {closepath} bind def
/ef {eofill} bind def
/gr {grestore} bind def
/gs {gsave} bind def
/sa {save} bind def
/rs {restore} bind def
/l {lineto} bind def
/m {moveto} bind def
/rm {rmoveto} bind def
/n {newpath} bind def
/s {stroke} bind def
/sh {show} bind def
/slc {setlinecap} bind def
/slj {setlinejoin} bind def
/slw {setlinewidth} bind def
/srgb {setrgbcolor} bind def
/rot {rotate} bind def
/sc {scale} bind def
/sd {setdash} bind def
/ff {findfont} bind def
/sf {setfont} bind def
/scf {scalefont} bind def
/sw {stringwidth} bind def
/tr {translate} bind def
/tnt {dup dup currentrgbcolor
  4 -2 roll dup 1 exch sub 3 -1 roll mul add
  4 -2 roll dup 1 exch sub 3 -1 roll mul add
  4 -2 roll dup 1 exch sub 3 -1 roll mul add srgb}
  bind def
/shd {dup dup currentrgbcolor 4 -2 roll mul 4 -2 roll mul
  4 -2 roll mul srgb} bind def
/$F2psBegin {$F2psDict begin /$F2psEnteredState save def} def
/$F2psEnd {$F2psEnteredState restore end} def

$F2psBegin
10 setmiterlimit
 0.06000 0.06000 sc
%
% Fig objects follow
%
% Polyline
7.500 slw
n 3600 3150 m 3600 1200 l 3750 1050 l 3750 3150 l
 cp gs col4 1.00 shd ef gr gs col4 s gr 
% Polyline
n 3900 2100 m 5025 2100 l 5175 2250 l 4050 2250 l
 cp gs col4 1.00 shd ef gr gs col4 s gr 
% Polyline
n 3600 1200 m 4050 1200 l 3900 1050 l 3750 1050 l
 cp gs col4 1.00 shd ef gr gs col4 s gr 
% Polyline
n 4050 1200 m 4050 2250 l 3900 2100 l 3900 1050 l
 cp gs col4 1.00 shd ef gr gs col4 s gr 
% Polyline
n 5175 2250 m 5175 2400 l 5025 2550 l 5025 2100 l
 cp gs col4 1.00 shd ef gr gs col4 s gr 
% Polyline
n 5025 2550 m 3000 2550 l 3000 2400 l 5175 2400 l
 cp gs col4 1.00 shd ef gr gs col4 s gr 
% Polyline
15.000 slw
n 3975 3300 m 3375 3300 l 3375 3450 l 3525 3450 l 3525 4200 l 3375 4200 l
 3375 4350 l 3975 4350 l 3975 4200 l 3825 4200 l 3825 3450 l
 3975 3450 l
 cp gs col0 s gr 
% Polyline
7.500 slw
n 3525 4350 m 3825 4350 l 3825 4500 l 3525 4500 l
 cp gs col0 s gr 
% Polyline
n 8175 2325 m 9675 2325 l 9675 3450 l 8175 3450 l
 cp gs col0 s gr 
% Polyline
n 3975 4500 m 2625 4500 l 2625 5175 l 3975 5175 l
 cp gs col0 s gr 
% Polyline
15.000 slw
n 7200 1425 m 8925 1425 l
 8925 2325 l gs col0 s gr 
/Helvetica ff 180.00 scf sf
675 1050 m
gs 1 -1 sc (Power) col0 sh gr
/Helvetica ff 180.00 scf sf
2025 1725 m
gs 1 -1 sc  300.0 rot (Detector) col0 sh gr
/Helvetica ff 180.00 scf sf
675 1575 m
gs 1 -1 sc (Supply) col0 sh gr
/Helvetica ff 180.00 scf sf
3900 3975 m
gs 1 -1 sc (Gas cell) col0 sh gr
/Helvetica ff 180.00 scf sf
5325 2925 m
gs 1 -1 sc (Moving Stage) col0 sh gr
/Helvetica ff 180.00 scf sf
5100 975 m
gs 1 -1 sc (ADC, Amplifier) col0 sh gr
/Helvetica ff 180.00 scf sf
5100 1350 m
gs 1 -1 sc (and Filter) col0 sh gr
/Helvetica ff 180.00 scf sf
5100 1725 m
gs 1 -1 sc (Boards) col0 sh gr
/Helvetica ff 180.00 scf sf
8250 3000 m
gs 1 -1 sc (Computer) col0 sh gr
/Helvetica ff 180.00 scf sf
7425 1875 m
gs 1 -1 sc  270.0 rot (Power) col0 sh gr
/Helvetica ff 180.00 scf sf
2775 4950 m
gs 1 -1 sc (Source) col0 sh gr
% Polyline
n 1800 1725 m
 1950 1725 l gs col0 s gr 
% Polyline
7.500 slw
n 3450 2775 m 3375 2700 l 3900 2175 l 3975 2250 l
 cp gs col7 1.00 shd ef gr gs col0 s gr 
% Polyline
n 3000 600 m 7200 600 l 7200 3150 l 3000 3150 l
 cp gs col0 s gr 
% Polyline
n 1800 1875 m 600 1875 l 600 600 l 1800 600 l
 cp gs col0 s gr 
% Polyline
n 3525 3150 m 3825 3150 l 3825 3300 l 3525 3300 l
 cp gs col0 s gr 
% Polyline
n 3525 1275 m 3825 975 l
 4125 1275 l gs col0 s gr 
% Polyline
n 5625 2025 m 6975 2025 l 6975 2625 l 5625 2625 l
 cp gs col32 1.00 shd ef gr gs col0 s gr 
% Polyline
n 5175 2250 m 5250 2325 l 5175 2400 l 5625 2400 l 5625 2250 l
 cp gs col32 1.00 shd ef gr gs col0 s gr 
% Polyline
n 2850 2775 m 1950 2775 l 1950 1575 l 2850 1575 l
 cp gs col0 s gr 
% Polyline
n 2850 2625 m 3000 2625 l 3000 2325 l 2850 2325 l
 cp gs col0 s gr 
% Polyline
n 4950 2025 m 5250 2325 l
 4950 2625 l gs col0 s gr 
% Polyline
 [60] 0 sd
n 5025 600 m 7200 600 l 7200 1800 l 5025 1800 l
 cp gs col0 s gr  [] 0 sd
% Polyline
15.000 slw
n 2775 1575 m 2775 525 l 5325 525 l
 5325 600 l gs col0 s gr 
% Polyline
7.500 slw
n 7200 825 m 7950 825 l 7950 2925 l 7200 2925 l
 cp gs col0 s gr 
% Polyline
15.000 slw
n 6975 2325 m
 7200 2325 l gs col0 s gr 
% Polyline
7.500 slw
n 3825 2025 m 3825 2175 l 3975 2325 l 4125 2325 l
 cp gs col7 1.00 shd ef gr gs col0 s gr 
$F2psEnd
rs
