%!PS-Adobe-2.0 EPSF-2.0
%%Title: gamma-block.eps
%%Creator: fig2dev Version 3.2 Patchlevel 1
%%CreationDate: Mon Mar 18 18:18:20 2002
%%For: dpeets@physics (Darren Peets)
%%Orientation: Portrait
%%BoundingBox: 0 0 278 206
%%Pages: 0
%%BeginSetup
%%EndSetup
%%Magnification: 1.0000
%%EndComments
/$F2psDict 200 dict def
$F2psDict begin
$F2psDict /mtrx matrix put
/col-1 {0 setgray} bind def
/col0 {0.000 0.000 0.000 srgb} bind def
/col1 {0.000 0.000 1.000 srgb} bind def
/col2 {0.000 1.000 0.000 srgb} bind def
/col3 {0.000 1.000 1.000 srgb} bind def
/col4 {1.000 0.000 0.000 srgb} bind def
/col5 {1.000 0.000 1.000 srgb} bind def
/col6 {1.000 1.000 0.000 srgb} bind def
/col7 {1.000 1.000 1.000 srgb} bind def
/col8 {0.000 0.000 0.560 srgb} bind def
/col9 {0.000 0.000 0.690 srgb} bind def
/col10 {0.000 0.000 0.820 srgb} bind def
/col11 {0.530 0.810 1.000 srgb} bind def
/col12 {0.000 0.560 0.000 srgb} bind def
/col13 {0.000 0.690 0.000 srgb} bind def
/col14 {0.000 0.820 0.000 srgb} bind def
/col15 {0.000 0.560 0.560 srgb} bind def
/col16 {0.000 0.690 0.690 srgb} bind def
/col17 {0.000 0.820 0.820 srgb} bind def
/col18 {0.560 0.000 0.000 srgb} bind def
/col19 {0.690 0.000 0.000 srgb} bind def
/col20 {0.820 0.000 0.000 srgb} bind def
/col21 {0.560 0.000 0.560 srgb} bind def
/col22 {0.690 0.000 0.690 srgb} bind def
/col23 {0.820 0.000 0.820 srgb} bind def
/col24 {0.500 0.190 0.000 srgb} bind def
/col25 {0.630 0.250 0.000 srgb} bind def
/col26 {0.750 0.380 0.000 srgb} bind def
/col27 {1.000 0.500 0.500 srgb} bind def
/col28 {1.000 0.630 0.630 srgb} bind def
/col29 {1.000 0.750 0.750 srgb} bind def
/col30 {1.000 0.880 0.880 srgb} bind def
/col31 {1.000 0.840 0.000 srgb} bind def

end
save
-3.0 209.0 translate
1 -1 scale

/cp {closepath} bind def
/ef {eofill} bind def
/gr {grestore} bind def
/gs {gsave} bind def
/sa {save} bind def
/rs {restore} bind def
/l {lineto} bind def
/m {moveto} bind def
/rm {rmoveto} bind def
/n {newpath} bind def
/s {stroke} bind def
/sh {show} bind def
/slc {setlinecap} bind def
/slj {setlinejoin} bind def
/slw {setlinewidth} bind def
/srgb {setrgbcolor} bind def
/rot {rotate} bind def
/sc {scale} bind def
/sd {setdash} bind def
/ff {findfont} bind def
/sf {setfont} bind def
/scf {scalefont} bind def
/sw {stringwidth} bind def
/tr {translate} bind def
/tnt {dup dup currentrgbcolor
  4 -2 roll dup 1 exch sub 3 -1 roll mul add
  4 -2 roll dup 1 exch sub 3 -1 roll mul add
  4 -2 roll dup 1 exch sub 3 -1 roll mul add srgb}
  bind def
/shd {dup dup currentrgbcolor 4 -2 roll mul 4 -2 roll mul
  4 -2 roll mul srgb} bind def
/$F2psBegin {$F2psDict begin /$F2psEnteredState save def} def
/$F2psEnd {$F2psEnteredState restore end} def
%%EndProlog

$F2psBegin
10 setmiterlimit
n -1000 4472 m -1000 -1000 l 5672 -1000 l 5672 4472 l cp clip
 0.06000 0.06000 sc
% Polyline
7.500 slw
gs  clippath
1956 270 m 2100 300 l 1956 330 l 2115 330 l 2115 270 l cp
clip
n 1125 2250 m 1125 300 l 2100 300 l gs col0 s gr gr

% arrowhead
n 1956 270 m 2100 300 l 1956 330 l 1980 300 l 1956 270 l  cp gs 0.00 setgray ef gr  col0 s
% Polyline
gs  clippath
2055 2106 m 2025 2250 l 1995 2106 l 1995 2265 l 2055 2265 l cp
clip
n 2100 675 m 2025 675 l 2025 2250 l gs col0 s gr gr

% arrowhead
n 2055 2106 m 2025 2250 l 1995 2106 l 2025 2130 l 2055 2106 l  cp gs 0.00 setgray ef gr  col0 s
% Polyline
n 4200 375 m 4275 375 l 4275 600 l 4200 600 l cp gs col0 s gr 
% Polyline
n 2100 150 m 2400 150 l 2400 825 l 2100 825 l cp gs col0 s gr 
% Polyline
n 3750 150 m 4200 150 l 4200 825 l 3750 825 l cp gs col0 s gr 
% Polyline
n 2400 150 m 3750 150 l 3750 825 l 2400 825 l cp gs col0 s gr 
% Polyline
15.000 slw
n 225 75 m 75 75 75 3300 150 arcto 4 {pop} repeat
  75 3450 4500 3450 150 arcto 4 {pop} repeat
  4650 3450 4650 225 150 arcto 4 {pop} repeat
  4650 75 225 75 150 arcto 4 {pop} repeat
 cp gs col0 s gr 
% Polyline
7.500 slw
gs  clippath
3306 2745 m 3450 2775 l 3306 2805 l 3465 2805 l 3465 2745 l cp
clip
n 3000 2775 m 3450 2775 l gs col0 s gr gr

% arrowhead
n 3306 2745 m 3450 2775 l 3306 2805 l 3330 2775 l 3306 2745 l  cp gs 0.00 setgray ef gr  col0 s
% Polyline
gs  clippath
3306 1620 m 3450 1650 l 3306 1680 l 3465 1680 l 3465 1620 l cp
clip
n 3150 2775 m 3150 1650 l 3450 1650 l gs col0 s gr gr

% arrowhead
n 3306 1620 m 3450 1650 l 3306 1680 l 3330 1650 l 3306 1620 l  cp gs 0.00 setgray ef gr  col0 s
% Polyline
n 3450 2025 m 4575 2025 l 4575 1350 l 3450 1350 l cp gs col0 s gr 
% Polyline
n 3450 2250 m 4575 2250 l 4575 3375 l 3450 3375 l cp gs col0 s gr 
% Polyline
n 1875 2250 m 3000 2250 l 3000 3375 l 1875 3375 l cp gs col0 s gr 
% Polyline
n 150 2250 m 1275 2250 l 1275 3375 l 150 3375 l cp gs col0 s gr 
/Times-Roman ff 180.00 scf sf
4350 225 m
gs 1 -1 sc  270.0 rot (Sample) col0 sh gr
/Times-Roman ff 180.00 scf sf
1950 1650 m
gs 1 -1 sc  90.0 rot (Anode Output) col0 sh gr
/Times-Roman ff 180.00 scf sf
2100 1050 m
gs 1 -1 sc (NaI) col0 sh gr
/Times-Roman ff 180.00 scf sf
450 2700 m
gs 1 -1 sc (Power) col0 sh gr
/Times-Roman ff 180.00 scf sf
3675 2550 m
gs 1 -1 sc (Personal) col0 sh gr
/Times-Roman ff 180.00 scf sf
3675 3150 m
gs 1 -1 sc (Analyzer) col0 sh gr
/Times-Roman ff 180.00 scf sf
3525 1725 m
gs 1 -1 sc (Oscilloscope) col0 sh gr
/Times-Roman ff 180.00 scf sf
2100 2850 m
gs 1 -1 sc (Amplifier) col0 sh gr
/Times-Roman ff 180.00 scf sf
450 3000 m
gs 1 -1 sc (Supply) col0 sh gr
/Times-Roman ff 180.00 scf sf
3675 2850 m
gs 1 -1 sc (Computer) col0 sh gr
/Times-Roman ff 180.00 scf sf
1050 2175 m
gs 1 -1 sc  90.0 rot (Positive) col0 sh gr
$F2psEnd
rs
