%!PS-Adobe-2.0 EPSF-2.0
%%Title: gamma-compton.eps
%%Creator: fig2dev Version 3.2 Patchlevel 1
%%CreationDate: Mon Mar 18 15:48:58 2002
%%For: dpeets@physics (Darren Peets)
%%Orientation: Portrait
%%BoundingBox: 0 0 660 345
%%Pages: 0
%%BeginSetup
%%EndSetup
%%Magnification: 1.0000
%%EndComments
/$F2psDict 200 dict def
$F2psDict begin
$F2psDict /mtrx matrix put
/col-1 {0 setgray} bind def
/col0 {0.000 0.000 0.000 srgb} bind def
/col1 {0.000 0.000 1.000 srgb} bind def
/col2 {0.000 1.000 0.000 srgb} bind def
/col3 {0.000 1.000 1.000 srgb} bind def
/col4 {1.000 0.000 0.000 srgb} bind def
/col5 {1.000 0.000 1.000 srgb} bind def
/col6 {1.000 1.000 0.000 srgb} bind def
/col7 {1.000 1.000 1.000 srgb} bind def
/col8 {0.000 0.000 0.560 srgb} bind def
/col9 {0.000 0.000 0.690 srgb} bind def
/col10 {0.000 0.000 0.820 srgb} bind def
/col11 {0.530 0.810 1.000 srgb} bind def
/col12 {0.000 0.560 0.000 srgb} bind def
/col13 {0.000 0.690 0.000 srgb} bind def
/col14 {0.000 0.820 0.000 srgb} bind def
/col15 {0.000 0.560 0.560 srgb} bind def
/col16 {0.000 0.690 0.690 srgb} bind def
/col17 {0.000 0.820 0.820 srgb} bind def
/col18 {0.560 0.000 0.000 srgb} bind def
/col19 {0.690 0.000 0.000 srgb} bind def
/col20 {0.820 0.000 0.000 srgb} bind def
/col21 {0.560 0.000 0.560 srgb} bind def
/col22 {0.690 0.000 0.690 srgb} bind def
/col23 {0.820 0.000 0.820 srgb} bind def
/col24 {0.500 0.190 0.000 srgb} bind def
/col25 {0.630 0.250 0.000 srgb} bind def
/col26 {0.750 0.380 0.000 srgb} bind def
/col27 {1.000 0.500 0.500 srgb} bind def
/col28 {1.000 0.630 0.630 srgb} bind def
/col29 {1.000 0.750 0.750 srgb} bind def
/col30 {1.000 0.880 0.880 srgb} bind def
/col31 {1.000 0.840 0.000 srgb} bind def

end
save
-17.0 362.0 translate
1 -1 scale

/cp {closepath} bind def
/ef {eofill} bind def
/gr {grestore} bind def
/gs {gsave} bind def
/sa {save} bind def
/rs {restore} bind def
/l {lineto} bind def
/m {moveto} bind def
/rm {rmoveto} bind def
/n {newpath} bind def
/s {stroke} bind def
/sh {show} bind def
/slc {setlinecap} bind def
/slj {setlinejoin} bind def
/slw {setlinewidth} bind def
/srgb {setrgbcolor} bind def
/rot {rotate} bind def
/sc {scale} bind def
/sd {setdash} bind def
/ff {findfont} bind def
/sf {setfont} bind def
/scf {scalefont} bind def
/sw {stringwidth} bind def
/tr {translate} bind def
/tnt {dup dup currentrgbcolor
  4 -2 roll dup 1 exch sub 3 -1 roll mul add
  4 -2 roll dup 1 exch sub 3 -1 roll mul add
  4 -2 roll dup 1 exch sub 3 -1 roll mul add srgb}
  bind def
/shd {dup dup currentrgbcolor 4 -2 roll mul 4 -2 roll mul
  4 -2 roll mul srgb} bind def
/reencdict 12 dict def /ReEncode { reencdict begin
/newcodesandnames exch def /newfontname exch def /basefontname exch def
/basefontdict basefontname findfont def /newfont basefontdict maxlength dict def
basefontdict { exch dup /FID ne { dup /Encoding eq
{ exch dup length array copy newfont 3 1 roll put }
{ exch newfont 3 1 roll put } ifelse } { pop pop } ifelse } forall
newfont /FontName newfontname put newcodesandnames aload pop
128 1 255 { newfont /Encoding get exch /.notdef put } for
newcodesandnames length 2 idiv { newfont /Encoding get 3 1 roll put } repeat
newfontname newfont definefont pop end } def
/isovec [
8#200 /grave 8#201 /acute 8#202 /circumflex 8#203 /tilde
8#204 /macron 8#205 /breve 8#206 /dotaccent 8#207 /dieresis
8#210 /ring 8#211 /cedilla 8#212 /hungarumlaut 8#213 /ogonek 8#214 /caron
8#220 /dotlessi 8#230 /oe 8#231 /OE
8#240 /space 8#241 /exclamdown 8#242 /cent 8#243 /sterling
8#244 /currency 8#245 /yen 8#246 /brokenbar 8#247 /section 8#250 /dieresis
8#251 /copyright 8#252 /ordfeminine 8#253 /guillemotleft 8#254 /logicalnot
8#255 /endash 8#256 /registered 8#257 /macron 8#260 /degree 8#261 /plusminus
8#262 /twosuperior 8#263 /threesuperior 8#264 /acute 8#265 /mu 8#266 /paragraph
8#267 /periodcentered 8#270 /cedilla 8#271 /onesuperior 8#272 /ordmasculine
8#273 /guillemotright 8#274 /onequarter 8#275 /onehalf
8#276 /threequarters 8#277 /questiondown 8#300 /Agrave 8#301 /Aacute
8#302 /Acircumflex 8#303 /Atilde 8#304 /Adieresis 8#305 /Aring
8#306 /AE 8#307 /Ccedilla 8#310 /Egrave 8#311 /Eacute
8#312 /Ecircumflex 8#313 /Edieresis 8#314 /Igrave 8#315 /Iacute
8#316 /Icircumflex 8#317 /Idieresis 8#320 /Eth 8#321 /Ntilde 8#322 /Ograve
8#323 /Oacute 8#324 /Ocircumflex 8#325 /Otilde 8#326 /Odieresis 8#327 /multiply
8#330 /Oslash 8#331 /Ugrave 8#332 /Uacute 8#333 /Ucircumflex
8#334 /Udieresis 8#335 /Yacute 8#336 /Thorn 8#337 /germandbls 8#340 /agrave
8#341 /aacute 8#342 /acircumflex 8#343 /atilde 8#344 /adieresis 8#345 /aring
8#346 /ae 8#347 /ccedilla 8#350 /egrave 8#351 /eacute
8#352 /ecircumflex 8#353 /edieresis 8#354 /igrave 8#355 /iacute
8#356 /icircumflex 8#357 /idieresis 8#360 /eth 8#361 /ntilde 8#362 /ograve
8#363 /oacute 8#364 /ocircumflex 8#365 /otilde 8#366 /odieresis 8#367 /divide
8#370 /oslash 8#371 /ugrave 8#372 /uacute 8#373 /ucircumflex
8#374 /udieresis 8#375 /yacute 8#376 /thorn 8#377 /ydieresis] def
/Times-Roman /Times-Roman-iso isovec ReEncode
 /DrawEllipse {
	/endangle exch def
	/startangle exch def
	/yrad exch def
	/xrad exch def
	/y exch def
	/x exch def
	/savematrix mtrx currentmatrix def
	x y tr xrad yrad sc 0 0 1 startangle endangle arc
	closepath
	savematrix setmatrix
	} def

/$F2psBegin {$F2psDict begin /$F2psEnteredState save def} def
/$F2psEnd {$F2psEnteredState restore end} def
%%EndProlog

$F2psBegin
10 setmiterlimit
n -1000 7030 m -1000 -1000 l 12271 -1000 l 12271 7030 l cp clip
 0.06000 0.06000 sc
% Polyline
7.500 slw
n 5175 2336 m 5177 2335 l 5182 2332 l 5191 2328 l 5204 2321 l 5223 2312 l
 5246 2300 l 5274 2287 l 5306 2272 l 5341 2256 l 5378 2240 l
 5416 2225 l 5454 2210 l 5491 2197 l 5526 2186 l 5560 2178 l
 5592 2171 l 5621 2167 l 5648 2166 l 5672 2168 l 5694 2172 l
 5714 2179 l 5732 2190 l 5747 2203 l 5761 2220 l 5774 2240 l
 5784 2263 l 5794 2289 l 5801 2314 l 5808 2342 l 5813 2372 l
 5819 2405 l 5823 2439 l 5828 2475 l 5832 2514 l 5836 2554 l
 5839 2595 l 5843 2638 l 5846 2683 l 5850 2728 l 5854 2773 l
 5859 2819 l 5864 2865 l 5869 2911 l 5875 2956 l 5882 3000 l
 5889 3044 l 5897 3085 l 5906 3125 l 5916 3163 l 5927 3199 l
 5940 3232 l 5953 3262 l 5968 3290 l 5983 3315 l 6001 3338 l
 6019 3357 l 6039 3373 l 6061 3386 l 6085 3395 l 6109 3401 l
 6134 3404 l 6161 3405 l 6190 3403 l 6221 3399 l 6254 3392 l
 6288 3384 l 6323 3373 l 6360 3361 l 6399 3347 l 6438 3332 l
 6479 3315 l 6520 3297 l 6563 3279 l 6605 3260 l 6648 3241 l
 6692 3222 l 6735 3202 l 6778 3183 l 6820 3165 l 6862 3148 l
 6902 3132 l 6942 3117 l 6981 3103 l 7018 3091 l 7053 3081 l
 7087 3074 l 7120 3068 l 7150 3064 l 7179 3063 l 7206 3065 l
 7231 3069 l 7255 3077 l 7276 3087 l 7296 3100 l 7314 3117 l
 7330 3137 l 7345 3159 l 7358 3184 l 7371 3212 l 7382 3243 l
 7392 3276 l 7402 3312 l 7410 3350 l 7418 3389 l 7426 3430 l
 7432 3473 l 7439 3517 l 7445 3562 l 7450 3607 l 7456 3653 l
 7462 3699 l 7467 3744 l 7473 3789 l 7480 3833 l 7487 3876 l
 7494 3917 l 7502 3957 l 7510 3994 l 7520 4030 l 7530 4063 l
 7541 4094 l 7554 4122 l 7567 4147 l 7582 4170 l 7599 4189 l
 7617 4206 l 7636 4219 l 7658 4229 l 7681 4237 l 7706 4241 l
 7733 4243 l 7762 4242 l 7793 4239 l 7825 4233 l 7859 4226 l
 7894 4216 l 7931 4205 l 7969 4192 l 8009 4177 l 8049 4162 l
 8090 4145 l 8132 4128 l 8175 4110 l 8217 4092 l 8259 4075 l
 8302 4057 l 8344 4040 l 8385 4023 l 8425 4008 l 8465 3993 l
 8503 3980 l 8540 3969 l 8575 3959 l 8609 3952 l 8641 3946 l
 8672 3943 l 8701 3942 l 8728 3944 l 8753 3948 l 8776 3955 l
 8798 3966 l 8817 3979 l 8835 3996 l 8852 4015 l 8867 4038 l
 8880 4063 l 8893 4091 l 8904 4122 l 8914 4155 l 8924 4190 l
 8932 4228 l 8940 4268 l 8947 4309 l 8954 4352 l 8961 4396 l
 8967 4440 l 8972 4486 l 8978 4532 l 8984 4577 l 8989 4623 l
 8995 4667 l 9002 4711 l 9008 4754 l 9016 4795 l 9024 4835 l
 9032 4873 l 9042 4908 l 9052 4941 l 9063 4972 l 9076 5000 l
 9089 5025 l 9104 5048 l 9120 5067 l 9138 5084 l 9158 5097 l
 9179 5108 l 9203 5115 l 9228 5119 l 9255 5121 l 9284 5120 l
 9314 5117 l 9347 5111 l 9381 5103 l 9416 5093 l 9453 5081 l
 9492 5068 l 9532 5053 l 9572 5037 l 9614 5019 l 9656 5001 l
 9699 4982 l 9742 4963 l 9786 4944 l 9829 4924 l 9871 4905 l
 9914 4887 l 9955 4870 l 9996 4853 l 10035 4838 l 10074 4824 l
 10111 4811 l 10146 4801 l 10180 4792 l 10213 4786 l 10244 4782 l
 10273 4780 l 10300 4780 l 10325 4783 l 10349 4790 l 10373 4799 l
 10395 4812 l 10415 4828 l 10433 4847 l 10451 4869 l 10466 4894 l
 10481 4922 l 10494 4953 l 10507 4986 l 10518 5022 l 10528 5060 l
 10537 5099 l 10545 5141 l 10552 5184 l 10559 5228 l 10565 5273 l
 10570 5319 l 10575 5365 l 10580 5411 l 10584 5457 l 10588 5502 l
 10591 5546 l 10595 5589 l 10598 5631 l 10602 5671 l 10606 5709 l
 10611 5745 l 10615 5780 l 10621 5812 l 10626 5842 l 10633 5870 l
 10640 5895 l 10650 5921 l 10660 5944 l 10673 5964 l 10687 5981 l
 10702 5994 l 10720 6005 l 10740 6012 l 10762 6016 l 10786 6018 l
 10813 6017 l 10842 6013 l 10874 6006 l 10908 5998 l 10943 5987 l
 10980 5974 l 11018 5959 l 11056 5944 l 11093 5928 l 11128 5912 l
 11160 5897 l 11188 5884 l 11211 5872 l 11230 5863 l 11243 5856 l
 11252 5852 l 11257 5849 l 11259 5848 l gs col0 s gr 
% Arc
gs  clippath
7472 1961 m 7425 2100 l 7412 1953 l 7393 2111 l 7453 2118 l cp
7374 1645 m 7350 1500 l 7430 1624 l 7373 1475 l 7317 1497 l cp
clip
n 6487.5 1912.5 956.1 -25.6 11.3 arc
gs col0 s gr
 gr

% arrowhead
n 7472 1961 m 7425 2100 l 7412 1953 l 7439 1981 l 7472 1961 l  cp gs 0.00 setgray ef gr  col0 s
% arrowhead
n 7374 1645 m 7350 1500 l 7430 1624 l 7393 1612 l 7374 1645 l  cp gs 0.00 setgray ef gr  col0 s
% Arc
gs  clippath
6597 2247 m 6600 2100 l 6656 2236 l 6627 2080 l 6568 2091 l cp
6492 2836 m 6375 2925 l 6447 2797 l 6343 2917 l 6388 2956 l cp
clip
n 5800.0 2325.0 831.0 46.2 -15.7 arcn
gs col0 s gr
 gr

% arrowhead
n 6597 2247 m 6600 2100 l 6656 2236 l 6622 2218 l 6597 2247 l  cp gs 0.00 setgray ef gr  col0 s
% arrowhead
n 6492 2836 m 6375 2925 l 6447 2797 l 6454 2834 l 6492 2836 l  cp gs 0.00 setgray ef gr  col0 s
% Polyline
 [60] 0 sd
n 5400 2100 m 11250 2100 l gs col0 s gr  [] 0 sd
% Polyline
gs  clippath
11103 312 m 11250 300 l 11120 370 l 11273 325 l 11256 267 l cp
clip
n 5175 2100 m 11250 300 l gs col0 s gr gr

% arrowhead
n 11103 312 m 11250 300 l 11120 370 l 11135 334 l 11103 312 l  cp gs 0.00 setgray ef gr  col0 s
% Polyline
n 300 2100 m 301 2097 l 304 2092 l 308 2082 l 315 2066 l 324 2046 l
 336 2020 l 350 1990 l 366 1958 l 383 1923 l 402 1888 l
 420 1854 l 439 1822 l 458 1793 l 476 1767 l 494 1745 l
 511 1726 l 527 1712 l 543 1702 l 559 1696 l 574 1695 l
 589 1697 l 604 1704 l 619 1716 l 634 1731 l 650 1750 l
 664 1770 l 678 1792 l 693 1817 l 708 1845 l 724 1875 l
 740 1907 l 757 1941 l 774 1976 l 792 2014 l 810 2052 l
 828 2092 l 848 2132 l 867 2172 l 887 2212 l 907 2251 l
 927 2290 l 947 2327 l 968 2362 l 988 2396 l 1008 2427 l
 1029 2456 l 1048 2482 l 1068 2504 l 1088 2524 l 1107 2540 l
 1126 2552 l 1145 2561 l 1163 2565 l 1182 2566 l 1200 2563 l
 1217 2555 l 1234 2544 l 1252 2530 l 1270 2512 l 1287 2491 l
 1305 2467 l 1324 2440 l 1343 2410 l 1361 2378 l 1381 2343 l
 1400 2307 l 1420 2269 l 1440 2230 l 1460 2190 l 1480 2149 l
 1500 2109 l 1520 2068 l 1540 2028 l 1560 1989 l 1580 1951 l
 1600 1915 l 1619 1881 l 1639 1849 l 1658 1819 l 1676 1793 l
 1695 1769 l 1713 1749 l 1730 1732 l 1748 1718 l 1766 1708 l
 1783 1702 l 1800 1700 l 1818 1702 l 1837 1709 l 1855 1720 l
 1874 1736 l 1893 1755 l 1913 1778 l 1933 1804 l 1953 1834 l
 1973 1866 l 1994 1901 l 2015 1938 l 2036 1977 l 2057 2017 l
 2078 2058 l 2100 2100 l 2122 2142 l 2143 2183 l 2164 2223 l
 2185 2262 l 2206 2299 l 2227 2334 l 2247 2366 l 2267 2396 l
 2287 2422 l 2307 2445 l 2326 2464 l 2345 2480 l 2363 2491 l
 2382 2498 l 2400 2500 l 2418 2498 l 2437 2491 l 2455 2480 l
 2474 2464 l 2493 2445 l 2513 2422 l 2533 2396 l 2553 2366 l
 2573 2334 l 2594 2299 l 2615 2262 l 2636 2223 l 2657 2183 l
 2678 2142 l 2700 2100 l 2722 2058 l 2743 2017 l 2764 1977 l
 2785 1938 l 2806 1901 l 2827 1866 l 2847 1834 l 2867 1804 l
 2887 1778 l 2907 1755 l 2926 1736 l 2945 1720 l 2963 1709 l
 2982 1702 l 3000 1700 l 3018 1702 l 3037 1709 l 3055 1720 l
 3074 1736 l 3093 1755 l 3113 1778 l 3133 1804 l 3153 1834 l
 3173 1866 l 3194 1901 l 3215 1938 l 3236 1977 l 3257 2017 l
 3278 2058 l 3300 2100 l 3322 2142 l 3343 2183 l 3364 2223 l
 3385 2262 l 3406 2299 l 3427 2334 l 3447 2366 l 3467 2396 l
 3487 2422 l 3507 2445 l 3526 2464 l 3545 2480 l 3563 2491 l
 3582 2498 l 3600 2500 l 3617 2498 l 3634 2492 l 3652 2482 l
 3670 2468 l 3687 2451 l 3705 2431 l 3724 2407 l 3743 2381 l
 3761 2351 l 3781 2319 l 3800 2285 l 3820 2249 l 3840 2211 l
 3860 2172 l 3880 2132 l 3900 2091 l 3920 2051 l 3940 2010 l
 3960 1970 l 3980 1931 l 4000 1893 l 4019 1857 l 4039 1822 l
 4058 1790 l 4076 1760 l 4095 1733 l 4113 1709 l 4130 1688 l
 4148 1670 l 4166 1656 l 4183 1645 l 4200 1638 l 4218 1634 l
 4237 1635 l 4255 1639 l 4274 1648 l 4293 1660 l 4312 1676 l
 4332 1696 l 4352 1718 l 4371 1744 l 4392 1773 l 4412 1804 l
 4432 1838 l 4453 1873 l 4473 1910 l 4493 1949 l 4513 1988 l
 4533 2028 l 4552 2068 l 4572 2108 l 4590 2148 l 4608 2186 l
 4626 2224 l 4643 2259 l 4660 2293 l 4676 2325 l 4692 2355 l
 4707 2383 l 4722 2408 l 4736 2430 l 4750 2450 l 4766 2469 l
 4781 2484 l 4796 2496 l 4811 2503 l 4826 2505 l 4841 2504 l
 4857 2498 l 4873 2488 l 4889 2474 l 4906 2455 l 4924 2433 l
 4942 2407 l 4961 2378 l 4980 2346 l 4998 2312 l 5017 2277 l
 5034 2242 l 5050 2210 l 5064 2180 l 5076 2154 l 5085 2134 l
 5092 2118 l 5096 2108 l 5099 2103 l 5100 2100 l gs col0 s gr 
/Times-Roman-iso ff 180.00 scf sf
9000 4200 m
gs 1 -1 sc (k2) col0 sh gr
/Times-Roman-iso ff 180.00 scf sf
9225 1200 m
gs 1 -1 sc (p) col0 sh gr
/Times-Roman-iso ff 180.00 scf sf
2175 1725 m
gs 1 -1 sc (k1) col0 sh gr
% Ellipse
n 5137 2100 263 263 0 360 DrawEllipse gs col7 1.00 shd ef gr gs col0 s gr

/Times-Roman-iso ff 180.00 scf sf
7050 1950 m
gs 1 -1 sc (Electron) col0 sh gr
/Times-Roman-iso ff 180.00 scf sf
4950 2250 m
gs 1 -1 sc (e-) col0 sh gr
/Times-Roman-iso ff 180.00 scf sf
6675 2700 m
gs 1 -1 sc (Photon) col0 sh gr
$F2psEnd
rs
