%!PS-Adobe-2.0 EPSF-2.0
%%Title: gyro-ball.eps
%%Creator: fig2dev Version 3.2 Patchlevel 3d
%%CreationDate: Tue Sep  3 16:32:41 2002
%%For: dpeets@physics (Darren Peets)
%%BoundingBox: 0 0 327 288
%%Magnification: 1.0000
%%EndComments
/$F2psDict 200 dict def
$F2psDict begin
$F2psDict /mtrx matrix put
/col-1 {0 setgray} bind def
/col0 {0.000 0.000 0.000 srgb} bind def
/col1 {0.000 0.000 1.000 srgb} bind def
/col2 {0.000 1.000 0.000 srgb} bind def
/col3 {0.000 1.000 1.000 srgb} bind def
/col4 {1.000 0.000 0.000 srgb} bind def
/col5 {1.000 0.000 1.000 srgb} bind def
/col6 {1.000 1.000 0.000 srgb} bind def
/col7 {1.000 1.000 1.000 srgb} bind def
/col8 {0.000 0.000 0.560 srgb} bind def
/col9 {0.000 0.000 0.690 srgb} bind def
/col10 {0.000 0.000 0.820 srgb} bind def
/col11 {0.530 0.810 1.000 srgb} bind def
/col12 {0.000 0.560 0.000 srgb} bind def
/col13 {0.000 0.690 0.000 srgb} bind def
/col14 {0.000 0.820 0.000 srgb} bind def
/col15 {0.000 0.560 0.560 srgb} bind def
/col16 {0.000 0.690 0.690 srgb} bind def
/col17 {0.000 0.820 0.820 srgb} bind def
/col18 {0.560 0.000 0.000 srgb} bind def
/col19 {0.690 0.000 0.000 srgb} bind def
/col20 {0.820 0.000 0.000 srgb} bind def
/col21 {0.560 0.000 0.560 srgb} bind def
/col22 {0.690 0.000 0.690 srgb} bind def
/col23 {0.820 0.000 0.820 srgb} bind def
/col24 {0.500 0.190 0.000 srgb} bind def
/col25 {0.630 0.250 0.000 srgb} bind def
/col26 {0.750 0.380 0.000 srgb} bind def
/col27 {1.000 0.500 0.500 srgb} bind def
/col28 {1.000 0.630 0.630 srgb} bind def
/col29 {1.000 0.750 0.750 srgb} bind def
/col30 {1.000 0.880 0.880 srgb} bind def
/col31 {1.000 0.840 0.000 srgb} bind def

end
save
newpath 0 288 moveto 0 0 lineto 327 0 lineto 327 288 lineto closepath clip newpath
0.7 303.5 translate
1 -1 scale

/cp {closepath} bind def
/ef {eofill} bind def
/gr {grestore} bind def
/gs {gsave} bind def
/sa {save} bind def
/rs {restore} bind def
/l {lineto} bind def
/m {moveto} bind def
/rm {rmoveto} bind def
/n {newpath} bind def
/s {stroke} bind def
/sh {show} bind def
/slc {setlinecap} bind def
/slj {setlinejoin} bind def
/slw {setlinewidth} bind def
/srgb {setrgbcolor} bind def
/rot {rotate} bind def
/sc {scale} bind def
/sd {setdash} bind def
/ff {findfont} bind def
/sf {setfont} bind def
/scf {scalefont} bind def
/sw {stringwidth} bind def
/tr {translate} bind def
/tnt {dup dup currentrgbcolor
  4 -2 roll dup 1 exch sub 3 -1 roll mul add
  4 -2 roll dup 1 exch sub 3 -1 roll mul add
  4 -2 roll dup 1 exch sub 3 -1 roll mul add srgb}
  bind def
/shd {dup dup currentrgbcolor 4 -2 roll mul 4 -2 roll mul
  4 -2 roll mul srgb} bind def
/$F2psBegin {$F2psDict begin /$F2psEnteredState save def} def
/$F2psEnd {$F2psEnteredState restore end} def

$F2psBegin
10 setmiterlimit
 0.06000 0.06000 sc
%
% Fig objects follow
%
% Arc
7.500 slw
n 2400.0 2400.0 2117.3 -22.9 22.9 arcn
gs col0 s gr

% Polyline
n 4350 1575 m
 4350 3225 l gs col0 s gr 
% Arc
gs  clippath
4695 2412 m 4755 2409 l 4748 2224 l 4724 2376 l 4688 2227 l cp
4567 1475 m 4511 1496 l 4577 1669 l 4552 1519 l 4633 1648 l cp
eoclip
n 2316.8 2413.7 2408.3 -22.3 -0.4 arc
gs col0 s gr
 gr

% arrowhead
n 4688 2227 m 4724 2376 l 4748 2224 l 4719 2256 l 4688 2227 l 
 cp gs 0.00 setgray ef gr  col0 s
% arrowhead
n 4633 1648 m 4552 1519 l 4577 1669 l 4594 1631 l 4633 1648 l 
 cp gs 0.00 setgray ef gr  col0 s
% Arc
gs  clippath
3944 4411 m 3983 4457 l 4123 4337 l 3990 4412 l 4084 4291 l cp
eoclip
n 2316.0 2379.0 2634.1 51.0 0.5 arcn
gs col0 s gr
 gr

% arrowhead
n 4084 4291 m 3990 4412 l 4123 4337 l 4081 4334 l 4084 4291 l 
 cp gs 0.00 setgray ef gr  col0 s
% Polyline
gs  clippath
2085 2370 m 2085 2430 l 2270 2430 l 2120 2400 l 2270 2370 l cp
eoclip
n 2400 2400 m
 2100 2400 l gs col0 s gr gr

% arrowhead
n 2270 2370 m 2120 2400 l 2270 2430 l 2240 2400 l 2270 2370 l 
 cp gs 0.00 setgray ef gr  col0 s
% Polyline
gs  clippath
1596 424 m 1541 447 l 1613 617 l 1583 468 l 1669 594 l cp
eoclip
n 2400 2400 m
 1575 450 l gs col0 s gr gr

% arrowhead
n 1669 594 m 1583 468 l 1613 617 l 1629 578 l 1669 594 l 
 cp gs 0.00 setgray ef gr  col0 s
% Polyline
 [60 30 15 30] 0 sd
n 0 2400 m
 5400 2400 l gs col0 s gr  [] 0 sd
% Polyline
 [60] 0 sd
n 2400 2400 m
 5250 1200 l gs col0 s gr  [] 0 sd
% Polyline
 [60] 0 sd
n 2400 2400 m
 4275 4800 l gs col0 s gr  [] 0 sd
/Times-Roman ff 180.00 scf sf
2475 4950 m
gs 1 -1 sc (OM) col0 sh gr
% Polyline
n 3750 4025 m
 3750 770 l gs col0 s gr 
% Polyline
30.000 slw
gs  clippath
2370 5040 m 2430 5040 l 2430 4855 l 2400 5005 l 2370 4855 l cp
eoclip
n 2400 4575 m
 2400 5025 l gs col0 s gr gr

% arrowhead
7.500 slw
n 2370 4855 m 2400 5005 l 2430 4855 l 2400 4885 l 2370 4855 l 
 cp gs 0.00 setgray ef gr  col0 s
/Times-Roman ff 180.00 scf sf
2025 1425 m
gs 1 -1 sc (Eh) col0 sh gr
/Times-Roman ff 180.00 scf sf
2175 2625 m
gs 1 -1 sc (arr) col0 sh gr
/Times-Roman ff 180.00 scf sf
4725 2025 m
gs 1 -1 sc (Alpha) col0 sh gr
/Times-Roman ff 180.00 scf sf
4725 3600 m
gs 1 -1 sc (Theta) col0 sh gr
/Times-Roman ff 180.00 scf sf
5175 2325 m
gs 1 -1 sc (om) col0 sh gr
% Polyline
30.000 slw
gs  clippath
5415 2430 m 5415 2370 l 5230 2370 l 5380 2400 l 5230 2430 l cp
eoclip
n 4650 2400 m
 5400 2400 l gs col0 s gr gr

% arrowhead
7.500 slw
n 5230 2430 m 5380 2400 l 5230 2370 l 5260 2400 l 5230 2430 l 
 cp gs 0.00 setgray ef gr  col0 s
% Polyline
n 3600 4140 m
 3600 660 l gs col0 s gr 
$F2psEnd
rs
