%!PS-Adobe-2.0 EPSF-2.0
%%Title: gyro-circuit.eps
%%Creator: fig2dev Version 3.2 Patchlevel 3d
%%CreationDate: Thu Jan  1 22:58:20 2004
%%For: dpeets@physics (Darren Peets)
%%BoundingBox: 0 0 185 128
%%Magnification: 1.0000
%%EndComments
/$F2psDict 200 dict def
$F2psDict begin
$F2psDict /mtrx matrix put
/col-1 {0 setgray} bind def
/col0 {0.000 0.000 0.000 srgb} bind def
/col1 {0.000 0.000 1.000 srgb} bind def
/col2 {0.000 1.000 0.000 srgb} bind def
/col3 {0.000 1.000 1.000 srgb} bind def
/col4 {1.000 0.000 0.000 srgb} bind def
/col5 {1.000 0.000 1.000 srgb} bind def
/col6 {1.000 1.000 0.000 srgb} bind def
/col7 {1.000 1.000 1.000 srgb} bind def
/col8 {0.000 0.000 0.560 srgb} bind def
/col9 {0.000 0.000 0.690 srgb} bind def
/col10 {0.000 0.000 0.820 srgb} bind def
/col11 {0.530 0.810 1.000 srgb} bind def
/col12 {0.000 0.560 0.000 srgb} bind def
/col13 {0.000 0.690 0.000 srgb} bind def
/col14 {0.000 0.820 0.000 srgb} bind def
/col15 {0.000 0.560 0.560 srgb} bind def
/col16 {0.000 0.690 0.690 srgb} bind def
/col17 {0.000 0.820 0.820 srgb} bind def
/col18 {0.560 0.000 0.000 srgb} bind def
/col19 {0.690 0.000 0.000 srgb} bind def
/col20 {0.820 0.000 0.000 srgb} bind def
/col21 {0.560 0.000 0.560 srgb} bind def
/col22 {0.690 0.000 0.690 srgb} bind def
/col23 {0.820 0.000 0.820 srgb} bind def
/col24 {0.500 0.190 0.000 srgb} bind def
/col25 {0.630 0.250 0.000 srgb} bind def
/col26 {0.750 0.380 0.000 srgb} bind def
/col27 {1.000 0.500 0.500 srgb} bind def
/col28 {1.000 0.630 0.630 srgb} bind def
/col29 {1.000 0.750 0.750 srgb} bind def
/col30 {1.000 0.880 0.880 srgb} bind def
/col31 {1.000 0.840 0.000 srgb} bind def

end
save
newpath 0 128 moveto 0 0 lineto 185 0 lineto 185 128 lineto closepath clip newpath
-6.2 126.7 translate
1 -1 scale

/cp {closepath} bind def
/ef {eofill} bind def
/gr {grestore} bind def
/gs {gsave} bind def
/sa {save} bind def
/rs {restore} bind def
/l {lineto} bind def
/m {moveto} bind def
/rm {rmoveto} bind def
/n {newpath} bind def
/s {stroke} bind def
/sh {show} bind def
/slc {setlinecap} bind def
/slj {setlinejoin} bind def
/slw {setlinewidth} bind def
/srgb {setrgbcolor} bind def
/rot {rotate} bind def
/sc {scale} bind def
/sd {setdash} bind def
/ff {findfont} bind def
/sf {setfont} bind def
/scf {scalefont} bind def
/sw {stringwidth} bind def
/tr {translate} bind def
/tnt {dup dup currentrgbcolor
  4 -2 roll dup 1 exch sub 3 -1 roll mul add
  4 -2 roll dup 1 exch sub 3 -1 roll mul add
  4 -2 roll dup 1 exch sub 3 -1 roll mul add srgb}
  bind def
/shd {dup dup currentrgbcolor 4 -2 roll mul 4 -2 roll mul
  4 -2 roll mul srgb} bind def
 /DrawEllipse {
	/endangle exch def
	/startangle exch def
	/yrad exch def
	/xrad exch def
	/y exch def
	/x exch def
	/savematrix mtrx currentmatrix def
	x y tr xrad yrad sc 0 0 1 startangle endangle arc
	closepath
	savematrix setmatrix
	} def

/$F2psBegin {$F2psDict begin /$F2psEnteredState save def} def
/$F2psEnd {$F2psEnteredState restore end} def

$F2psBegin
10 setmiterlimit
 0.06000 0.06000 sc
%
% Fig objects follow
%
/Times-Roman ff 180.00 scf sf
2775 600 m
gs 1 -1 sc (Coil) col0 sh gr
/Times-Roman ff 180.00 scf sf
1500 975 m
gs 1 -1 sc (MinLag) col0 sh gr
/Times-Roman ff 180.00 scf sf
2250 1950 m
gs 1 -1 sc (MaxLag) col0 sh gr
/Times-Roman ff 180.00 scf sf
975 1725 m
gs 1 -1 sc (5kW) col0 sh gr
/Times-Roman ff 180.00 scf sf
1650 1500 m
gs 1 -1 sc (Off) col0 sh gr
% Polyline
2 slj
7.500 slw
n 2625 675 m 2626 675 l 2629 675 l 2637 675 l 2651 675 l 2671 675 l
 2696 676 l 2725 676 l 2756 677 l 2786 677 l 2816 678 l
 2843 679 l 2869 679 l 2892 680 l 2914 681 l 2934 683 l
 2952 684 l 2970 686 l 2988 688 l 3005 690 l 3022 692 l
 3038 694 l 3055 697 l 3071 700 l 3087 703 l 3101 707 l
 3115 710 l 3127 714 l 3138 718 l 3147 722 l 3154 726 l
 3159 730 l 3162 734 l 3162 738 l 3160 742 l 3156 746 l
 3150 750 l 3140 754 l 3127 759 l 3111 763 l 3092 767 l
 3071 772 l 3049 776 l 3025 780 l 3000 784 l 2975 788 l
 2951 791 l 2929 794 l 2908 796 l 2889 798 l 2873 799 l
 2860 800 l 2850 800 l 2841 800 l 2838 798 l 2839 796 l
 2845 794 l 2856 791 l 2871 787 l 2889 784 l 2909 781 l
 2931 779 l 2954 777 l 2977 775 l 3000 775 l 3015 775 l
 3031 776 l 3046 777 l 3061 778 l 3076 780 l 3091 782 l
 3105 785 l 3118 788 l 3129 791 l 3139 794 l 3148 798 l
 3155 802 l 3159 806 l 3162 810 l 3162 813 l 3161 817 l
 3156 821 l 3150 825 l 3140 829 l 3127 834 l 3111 838 l
 3092 842 l 3071 847 l 3049 851 l 3025 855 l 3000 859 l
 2975 863 l 2951 866 l 2929 869 l 2908 871 l 2889 873 l
 2873 874 l 2860 875 l 2850 875 l 2841 875 l 2838 873 l
 2839 871 l 2845 869 l 2856 866 l 2871 862 l 2889 859 l
 2909 856 l 2931 854 l 2954 852 l 2977 850 l 3000 850 l
 3015 850 l 3031 851 l 3046 852 l 3061 853 l 3076 855 l
 3091 857 l 3105 860 l 3118 863 l 3129 866 l 3139 869 l
 3148 873 l 3155 877 l 3159 881 l 3162 885 l 3162 888 l
 3161 892 l 3156 896 l 3150 900 l 3140 904 l 3127 909 l
 3111 913 l 3092 917 l 3071 922 l 3049 926 l 3025 930 l
 3000 934 l 2975 938 l 2951 941 l 2929 944 l 2908 946 l
 2889 948 l 2873 949 l 2860 950 l 2850 950 l 2841 950 l
 2838 948 l 2839 946 l 2845 944 l 2856 941 l 2871 937 l
 2889 934 l 2909 931 l 2931 929 l 2954 927 l 2977 925 l
 3000 925 l 3015 925 l 3031 926 l 3046 927 l 3061 928 l
 3076 930 l 3091 932 l 3105 935 l 3118 938 l 3129 941 l
 3139 944 l 3148 948 l 3155 952 l 3159 956 l 3162 960 l
 3162 963 l 3161 967 l 3156 971 l 3150 975 l 3140 979 l
 3127 984 l 3111 988 l 3092 992 l 3071 997 l 3049 1001 l
 3025 1005 l 3000 1009 l 2975 1013 l 2951 1016 l 2929 1019 l
 2908 1021 l 2889 1023 l 2873 1024 l 2860 1025 l 2850 1025 l
 2841 1025 l 2838 1023 l 2839 1021 l 2845 1019 l 2856 1016 l
 2871 1012 l 2889 1009 l 2909 1006 l 2931 1004 l 2954 1002 l
 2977 1000 l 3000 1000 l 3015 1000 l 3031 1001 l 3046 1002 l
 3061 1003 l 3076 1005 l 3091 1007 l 3105 1010 l 3118 1013 l
 3129 1016 l 3139 1019 l 3148 1023 l 3155 1027 l 3159 1031 l
 3162 1035 l 3162 1038 l 3161 1042 l 3156 1046 l 3150 1050 l
 3140 1054 l 3127 1059 l 3111 1063 l 3092 1067 l 3071 1072 l
 3049 1076 l 3025 1080 l 3000 1084 l 2975 1088 l 2951 1091 l
 2929 1094 l 2908 1096 l 2889 1098 l 2873 1099 l 2860 1100 l
 2850 1100 l 2841 1100 l 2838 1098 l 2839 1096 l 2845 1094 l
 2856 1091 l 2871 1087 l 2889 1084 l 2909 1081 l 2931 1079 l
 2954 1077 l 2977 1075 l 3000 1075 l 3015 1075 l 3031 1076 l
 3046 1077 l 3061 1078 l 3076 1080 l 3091 1082 l 3105 1085 l
 3118 1088 l 3129 1091 l 3139 1094 l 3148 1098 l 3155 1102 l
 3159 1106 l 3162 1110 l 3162 1113 l 3161 1117 l 3156 1121 l
 3150 1125 l 3140 1129 l 3127 1134 l 3111 1138 l 3092 1142 l
 3071 1147 l 3049 1151 l 3025 1155 l 3000 1159 l 2975 1163 l
 2951 1166 l 2929 1169 l 2908 1171 l 2889 1173 l 2873 1174 l
 2860 1175 l 2850 1175 l 2841 1175 l 2838 1173 l 2839 1171 l
 2845 1169 l 2856 1166 l 2871 1162 l 2889 1159 l 2909 1156 l
 2931 1154 l 2954 1152 l 2977 1150 l 3000 1150 l 3015 1150 l
 3031 1151 l 3046 1152 l 3061 1153 l 3076 1155 l 3091 1157 l
 3105 1160 l 3118 1163 l 3129 1166 l 3139 1169 l 3148 1173 l
 3155 1177 l 3159 1181 l 3162 1185 l 3162 1188 l 3161 1192 l
 3156 1196 l 3150 1200 l 3141 1204 l 3130 1208 l 3116 1212 l
 3100 1216 l 3082 1220 l 3061 1224 l 3039 1228 l 3016 1232 l
 2991 1236 l 2966 1240 l 2941 1243 l 2916 1247 l 2891 1250 l
 2868 1253 l 2846 1256 l 2825 1258 l 2805 1260 l 2788 1263 l
 2763 1265 l 2742 1267 l 2723 1269 l 2706 1271 l 2689 1272 l
 2673 1273 l 2658 1274 l 2644 1274 l 2634 1275 l 2628 1275 l

 2625 1275 l gs col0 s gr 
% Polyline
n 1425 450 m 1425 447 l 1425 441 l 1425 432 l 1425 419 l 1425 400 l
 1425 389 l 1425 378 l 1425 364 l 1425 349 l 1424 334 l
 1424 317 l 1423 300 l 1422 283 l 1421 266 l 1420 251 l
 1419 236 l 1417 222 l 1415 211 l 1413 200 l 1411 196 l
 1410 192 l 1409 188 l 1408 185 l 1406 182 l 1405 179 l
 1403 176 l 1402 173 l 1400 171 l 1398 169 l 1397 168 l
 1395 166 l 1393 165 l 1391 164 l 1389 164 l 1388 164 l
 1386 164 l 1384 164 l 1382 165 l 1380 166 l 1378 168 l
 1377 169 l 1375 171 l 1373 173 l 1372 176 l 1370 179 l
 1369 182 l 1367 185 l 1366 188 l 1365 192 l 1364 196 l
 1363 200 l 1360 212 l 1358 227 l 1356 242 l 1354 259 l
 1353 276 l 1352 293 l 1351 309 l 1351 323 l 1350 334 l
 1350 343 l 1350 348 l 1350 350 l 1350 348 l 1350 343 l
 1350 334 l 1349 323 l 1349 309 l 1348 293 l 1347 276 l
 1346 259 l 1344 242 l 1342 227 l 1340 212 l 1338 200 l
 1336 196 l 1335 192 l 1334 188 l 1333 185 l 1331 182 l
 1330 179 l 1328 176 l 1327 173 l 1325 171 l 1323 169 l
 1322 168 l 1320 166 l 1318 165 l 1316 164 l 1314 164 l
 1313 164 l 1311 164 l 1309 164 l 1307 165 l 1305 166 l
 1303 168 l 1302 169 l 1300 171 l 1298 173 l 1297 176 l
 1295 179 l 1294 182 l 1292 185 l 1291 188 l 1290 192 l
 1289 196 l 1288 200 l 1285 212 l 1283 227 l 1281 242 l
 1279 259 l 1278 276 l 1277 293 l 1276 309 l 1276 323 l
 1275 334 l 1275 343 l 1275 348 l 1275 350 l 1275 348 l
 1275 343 l 1275 334 l 1274 323 l 1274 309 l 1273 293 l
 1272 276 l 1271 259 l 1269 242 l 1267 227 l 1265 212 l
 1263 200 l 1261 196 l 1260 192 l 1259 188 l 1258 185 l
 1256 182 l 1255 179 l 1253 176 l 1252 173 l 1250 171 l
 1248 169 l 1247 168 l 1245 166 l 1243 165 l 1241 164 l
 1239 164 l 1238 164 l 1236 164 l 1234 164 l 1232 165 l
 1230 166 l 1228 168 l 1227 169 l 1225 171 l 1223 173 l
 1222 176 l 1220 179 l 1219 182 l 1217 185 l 1216 188 l
 1215 192 l 1214 196 l 1213 200 l 1210 212 l 1208 227 l
 1206 242 l 1204 259 l 1203 276 l 1202 293 l 1201 309 l
 1201 323 l 1200 334 l 1200 343 l 1200 348 l 1200 350 l
 1200 348 l 1200 343 l 1200 334 l 1199 323 l 1199 309 l
 1198 293 l 1197 276 l 1196 259 l 1194 242 l 1192 227 l
 1190 212 l 1188 200 l 1186 196 l 1185 192 l 1184 188 l
 1183 185 l 1181 182 l 1180 179 l 1178 176 l 1177 173 l
 1175 171 l 1173 169 l 1172 168 l 1170 166 l 1168 165 l
 1166 164 l 1164 164 l 1163 164 l 1161 164 l 1159 164 l
 1157 165 l 1155 166 l 1153 168 l 1152 169 l 1150 171 l
 1148 173 l 1147 176 l 1145 179 l 1144 182 l 1142 185 l
 1141 188 l 1140 192 l 1139 196 l 1138 200 l 1135 212 l
 1133 227 l 1131 242 l 1129 259 l 1128 276 l 1127 293 l
 1126 309 l 1126 323 l 1125 334 l 1125 343 l 1125 348 l
 1125 350 l 1125 348 l 1125 343 l 1125 334 l 1124 323 l
 1124 309 l 1123 293 l 1122 276 l 1121 259 l 1119 242 l
 1117 227 l 1115 212 l 1113 200 l 1111 196 l 1110 192 l
 1109 188 l 1108 185 l 1106 182 l 1105 179 l 1103 176 l
 1102 173 l 1100 171 l 1098 169 l 1097 168 l 1095 166 l
 1093 165 l 1091 164 l 1089 164 l 1088 164 l 1086 164 l
 1084 164 l 1082 165 l 1080 166 l 1078 168 l 1077 169 l
 1075 171 l 1073 173 l 1072 176 l 1070 179 l 1069 182 l
 1067 185 l 1066 188 l 1065 192 l 1064 196 l 1063 200 l
 1060 212 l 1058 227 l 1056 242 l 1054 259 l 1053 276 l
 1052 293 l 1051 309 l 1051 323 l 1050 334 l 1050 343 l
 1050 348 l 1050 350 l 1050 348 l 1050 343 l 1050 334 l
 1049 323 l 1049 309 l 1048 293 l 1047 276 l 1046 259 l
 1044 242 l 1042 227 l 1040 212 l 1038 200 l 1036 196 l
 1035 192 l 1034 188 l 1033 185 l 1031 182 l 1030 179 l
 1028 176 l 1027 173 l 1025 171 l 1023 169 l 1022 168 l
 1020 166 l 1018 165 l 1016 164 l 1014 164 l 1013 164 l
 1011 164 l 1009 164 l 1007 165 l 1005 166 l 1003 168 l
 1002 169 l 1000 171 l 998 173 l 997 176 l 995 179 l
 994 182 l 992 185 l 991 188 l 990 192 l 989 196 l
 988 200 l 985 212 l 983 227 l 981 242 l 979 259 l
 978 276 l 977 293 l 976 309 l 976 323 l 975 334 l
 975 343 l 975 348 l 975 350 l 975 348 l 975 343 l
 975 334 l 974 323 l 974 309 l 973 293 l 972 276 l
 971 259 l 969 242 l 967 227 l 965 212 l 963 200 l
 961 196 l 960 192 l 959 188 l 958 185 l 956 182 l
 955 179 l 953 176 l 952 173 l 950 171 l 948 169 l
 947 168 l 945 166 l 943 165 l 941 164 l 939 164 l
 938 164 l 936 164 l 934 164 l 932 165 l 930 166 l
 928 168 l 927 169 l 925 171 l 923 173 l 922 176 l
 920 179 l 919 182 l 917 185 l 916 188 l 915 192 l
 914 196 l 913 200 l 910 211 l 908 222 l 906 236 l
 905 251 l 904 266 l 903 283 l 902 300 l 901 317 l
 901 334 l 900 349 l 900 364 l 900 378 l 900 389 l
 900 400 l 900 403 l 900 407 l 900 410 l 900 412 l
 900 415 l 900 418 l 900 420 l 900 422 l 900 425 l
 900 427 l 900 428 l 900 430 l 900 431 l 900 433 l
 900 434 l 900 435 l 900 436 l 900 435 l 900 434 l
 900 433 l 900 431 l 900 430 l 900 428 l 900 427 l
 900 425 l 900 422 l 900 420 l 900 418 l 900 415 l
 900 412 l 900 410 l 900 407 l 900 403 l 900 400 l
 900 389 l 900 378 l 900 364 l 900 349 l 899 334 l
 899 317 l 898 300 l 897 283 l 896 266 l 895 251 l
 894 236 l 892 222 l 890 211 l 888 200 l 886 196 l
 885 192 l 884 188 l 883 185 l 881 182 l 880 179 l
 878 176 l 877 173 l 875 171 l 873 169 l 872 168 l
 870 166 l 868 165 l 866 164 l 864 164 l 863 164 l
 861 164 l 859 164 l 857 165 l 855 166 l 853 168 l
 852 169 l 850 171 l 848 173 l 847 176 l 845 179 l
 844 182 l 842 185 l 841 188 l 840 192 l 839 196 l
 838 200 l 835 212 l 833 227 l 831 242 l 829 259 l
 828 276 l 827 293 l 826 309 l 826 323 l 825 334 l
 825 343 l 825 348 l 825 350 l 825 348 l 825 343 l
 825 334 l 824 323 l 824 309 l 823 293 l 822 276 l
 821 259 l 819 242 l 817 227 l 815 212 l 813 200 l
 811 196 l 810 192 l 809 188 l 808 185 l 806 182 l
 805 179 l 803 176 l 802 173 l 800 171 l 798 169 l
 797 168 l 795 166 l 793 165 l 791 164 l 789 164 l
 788 164 l 786 164 l 784 164 l 782 165 l 780 166 l
 778 168 l 777 169 l 775 171 l 773 173 l 772 176 l
 770 179 l 769 182 l 767 185 l 766 188 l 765 192 l
 764 196 l 763 200 l 760 211 l 758 222 l 756 236 l
 755 251 l 754 266 l 753 283 l 752 300 l 751 317 l
 751 334 l 750 349 l 750 364 l 750 378 l 750 389 l
 750 400 l 750 419 l 750 432 l 750 441 l 750 447 l

 750 450 l gs col0 s gr 
% Polyline
0 slj
gs  clippath
1230 360 m 1170 360 l 1170 545 l 1200 395 l 1230 545 l cp
eoclip
n 1200 375 m 1200 675 l
 1350 675 l gs col0 s gr gr

% arrowhead
n 1230 545 m 1200 395 l 1170 545 l 1200 515 l 1230 545 l 
 cp gs 0.00 setgray ef gr  col0 s
% Polyline
gs  clippath
1860 1545 m 1860 1605 l 2045 1605 l 1895 1575 l 2045 1545 l cp
eoclip
n 1875 1575 m 2175 1575 l 2475 1275 l
 2625 1275 l gs col0 s gr gr

% arrowhead
n 2045 1545 m 1895 1575 l 2045 1605 l 2015 1575 l 2045 1545 l 
 cp gs 0.00 setgray ef gr  col0 s
% Polyline
n 1425 2100 m 2175 2100 l
 2175 1950 l gs col0 s gr 
% Polyline
n 1425 1050 m 2175 1050 l
 2175 1200 l gs col0 s gr 
% Polyline
n 1425 1050 m 1425 1200 l 1500 1275 l 1350 1350 l 1500 1425 l 1350 1500 l
 1500 1575 l 1350 1650 l 1500 1725 l 1350 1800 l 1500 1875 l
 1425 1950 l
 1425 2100 l gs col0 s gr 
% Polyline
n 1425 1050 m 300 1050 l
 300 975 l gs col0 s gr 
% Polyline
n 750 0 m
 1425 0 l gs col0 s gr 
% Polyline
n 750 75 m
 1425 75 l gs col0 s gr 
% Polyline
n 900 375 m 900 525 l 300 525 l
 300 600 l gs col0 s gr 
% Ellipse
n 2175 1237 38 38 0 360 DrawEllipse gs 0.00 setgray ef gr gs col0 s gr

% Ellipse
n 2175 1912 37 37 0 360 DrawEllipse gs 0.00 setgray ef gr gs col0 s gr

% Ellipse
n 1837 1575 37 37 0 360 DrawEllipse gs 0.00 setgray ef gr gs col0 s gr

% Polyline
2 slj
n 185 785 m 186 784 l 192 779 l 204 769 l 218 759 l 231 751 l
 242 746 l 251 745 l 260 748 l 267 752 l 274 758 l
 282 766 l 289 775 l 298 785 l 306 795 l 313 804 l
 321 812 l 328 818 l 335 823 l 344 825 l 353 824 l
 364 819 l 377 811 l 391 801 l 403 791 l 409 786 l

 410 785 l gs col0 s gr 
% Ellipse
n 300 787 188 188 0 360 DrawEllipse gs col0 s gr

% Polyline
0 slj
n 1425 1050 m
 1425 450 l gs col0 s gr 
% Polyline
n 1500 675 m
 2625 675 l gs col0 s gr 
% Arc
n 1425.0 675.0 75.0 180.0 0.0 arc
gs col0 s gr

$F2psEnd
rs
