%!PS-Adobe-2.0 EPSF-2.0
%%Title: htsc-probe.eps
%%Creator: fig2dev Version 3.2 Patchlevel 3d
%%CreationDate: Mon Oct 13 15:03:19 2003
%%For: dpeets@physics (Darren Peets)
%%BoundingBox: 0 0 758 758
%%Magnification: 1.0000
%%EndComments
/MyAppDict 100 dict dup begin def
/$F2psDict 200 dict def
$F2psDict begin
$F2psDict /mtrx matrix put
/col-1 {0 setgray} bind def
/col0 {0.000 0.000 0.000 srgb} bind def
/col1 {0.000 0.000 1.000 srgb} bind def
/col2 {0.000 1.000 0.000 srgb} bind def
/col3 {0.000 1.000 1.000 srgb} bind def
/col4 {1.000 0.000 0.000 srgb} bind def
/col5 {1.000 0.000 1.000 srgb} bind def
/col6 {1.000 1.000 0.000 srgb} bind def
/col7 {1.000 1.000 1.000 srgb} bind def
/col8 {0.000 0.000 0.560 srgb} bind def
/col9 {0.000 0.000 0.690 srgb} bind def
/col10 {0.000 0.000 0.820 srgb} bind def
/col11 {0.530 0.810 1.000 srgb} bind def
/col12 {0.000 0.560 0.000 srgb} bind def
/col13 {0.000 0.690 0.000 srgb} bind def
/col14 {0.000 0.820 0.000 srgb} bind def
/col15 {0.000 0.560 0.560 srgb} bind def
/col16 {0.000 0.690 0.690 srgb} bind def
/col17 {0.000 0.820 0.820 srgb} bind def
/col18 {0.560 0.000 0.000 srgb} bind def
/col19 {0.690 0.000 0.000 srgb} bind def
/col20 {0.820 0.000 0.000 srgb} bind def
/col21 {0.560 0.000 0.560 srgb} bind def
/col22 {0.690 0.000 0.690 srgb} bind def
/col23 {0.820 0.000 0.820 srgb} bind def
/col24 {0.500 0.190 0.000 srgb} bind def
/col25 {0.630 0.250 0.000 srgb} bind def
/col26 {0.750 0.380 0.000 srgb} bind def
/col27 {1.000 0.500 0.500 srgb} bind def
/col28 {1.000 0.630 0.630 srgb} bind def
/col29 {1.000 0.750 0.750 srgb} bind def
/col30 {1.000 0.880 0.880 srgb} bind def
/col31 {1.000 0.840 0.000 srgb} bind def
/col32 {0.816 0.816 0.816 srgb} bind def
/col33 {1.000 0.784 0.376 srgb} bind def
/col34 {0.910 0.910 0.910 srgb} bind def
/col35 {0.376 0.376 0.376 srgb} bind def
/col36 {0.816 1.000 1.000 srgb} bind def
/col37 {0.565 0.565 0.565 srgb} bind def

end
save
newpath 0 758 moveto 0 0 lineto 758 0 lineto 758 758 lineto closepath clip newpath
95.2 725.2 translate
1 -1 scale

% This junk string is used by the show operators
/PATsstr 1 string def
/PATawidthshow { 	% cx cy cchar rx ry string
  % Loop over each character in the string
  {  % cx cy cchar rx ry char
    % Show the character
    dup				% cx cy cchar rx ry char char
    PATsstr dup 0 4 -1 roll put	% cx cy cchar rx ry char (char)
    false charpath		% cx cy cchar rx ry char
    /clip load PATdraw
    % Move past the character (charpath modified the
    % current point)
    currentpoint			% cx cy cchar rx ry char x y
    newpath
    moveto			% cx cy cchar rx ry char
    % Reposition by cx,cy if the character in the string is cchar
    3 index eq {			% cx cy cchar rx ry
      4 index 4 index rmoveto
    } if
    % Reposition all characters by rx ry
    2 copy rmoveto		% cx cy cchar rx ry
  } forall
  pop pop pop pop pop		% -
  currentpoint
  newpath
  moveto
} bind def
/PATcg {
  7 dict dup begin
    /lw currentlinewidth def
    /lc currentlinecap def
    /lj currentlinejoin def
    /ml currentmiterlimit def
    /ds [ currentdash ] def
    /cc [ currentrgbcolor ] def
    /cm matrix currentmatrix def
  end
} bind def
% PATdraw - calculates the boundaries of the object and
% fills it with the current pattern
/PATdraw {			% proc
  save exch
    PATpcalc			% proc nw nh px py
    5 -1 roll exec		% nw nh px py
    newpath
    PATfill			% -
  restore
} bind def
% PATfill - performs the tiling for the shape
/PATfill { % nw nh px py PATfill -
  PATDict /CurrentPattern get dup begin
    setfont
    % Set the coordinate system to Pattern Space
    PatternGState PATsg
    % Set the color for uncolored pattezns
    PaintType 2 eq { PATDict /PColor get PATsc } if
    % Create the string for showing
    3 index string		% nw nh px py str
    % Loop for each of the pattern sources
    0 1 Multi 1 sub {		% nw nh px py str source
	% Move to the starting location
	3 index 3 index		% nw nh px py str source px py
	moveto			% nw nh px py str source
	% For multiple sources, set the appropriate color
	Multi 1 ne { dup PC exch get PATsc } if
	% Set the appropriate string for the source
	0 1 7 index 1 sub { 2 index exch 2 index put } for pop
	% Loop over the number of vertical cells
	3 index 		% nw nh px py str nh
	{			% nw nh px py str
	  currentpoint		% nw nh px py str cx cy
	  2 index oldshow	% nw nh px py str cx cy
	  YStep add moveto	% nw nh px py str
	} repeat		% nw nh px py str
    } for
    5 { pop } repeat
  end
} bind def

% PATkshow - kshow with the current pattezn
/PATkshow {			% proc string
  exch bind			% string proc
  1 index 0 get			% string proc char
  % Loop over all but the last character in the string
  0 1 4 index length 2 sub {
				% string proc char idx
    % Find the n+1th character in the string
    3 index exch 1 add get	% string proe char char+1
    exch 2 copy			% strinq proc char+1 char char+1 char
    % Now show the nth character
    PATsstr dup 0 4 -1 roll put	% string proc chr+1 chr chr+1 (chr)
    false charpath		% string proc char+1 char char+1
    /clip load PATdraw
    % Move past the character (charpath modified the current point)
    currentpoint newpath moveto
    % Execute the user proc (should consume char and char+1)
    mark 3 1 roll		% string proc char+1 mark char char+1
    4 index exec		% string proc char+1 mark...
    cleartomark			% string proc char+1
  } for
  % Now display the last character
  PATsstr dup 0 4 -1 roll put	% string proc (char+1)
  false charpath		% string proc
  /clip load PATdraw
  neewath
  pop pop			% -
} bind def
% PATmp - the makepattern equivalent
/PATmp {			% patdict patmtx PATmp patinstance
  exch dup length 7 add		% We will add 6 new entries plus 1 FID
  dict copy			% Create a new dictionary
  begin
    % Matrix to install when painting the pattern
    TilingType PATtcalc
    /PatternGState PATcg def
    PatternGState /cm 3 -1 roll put
    % Check for multi pattern sources (Level 1 fast color patterns)
    currentdict /Multi known not { /Multi 1 def } if
    % Font dictionary definitions
    /FontType 3 def
    % Create a dummy encoding vector
    /Encoding 256 array def
    3 string 0 1 255 {
      Encoding exch dup 3 index cvs cvn put } for pop
    /FontMatrix matrix def
    /FontBBox BBox def
    /BuildChar {
	mark 3 1 roll		% mark dict char
	exch begin
	Multi 1 ne {PaintData exch get}{pop} ifelse  % mark [paintdata]
	  PaintType 2 eq Multi 1 ne or
	  { XStep 0 FontBBox aload pop setcachedevice }
	  { XStep 0 setcharwidth } ifelse
	  currentdict		% mark [paintdata] dict
	  /PaintProc load	% mark [paintdata] dict paintproc
	end
	gsave
	  false PATredef exec true PATredef
	grestore
	cleartomark		% -
    } bind def
    currentdict
  end				% newdict
  /foo exch			% /foo newlict
  definefont			% newfont
} bind def
% PATpcalc - calculates the starting point and width/height
% of the tile fill for the shape
/PATpcalc {	% - PATpcalc nw nh px py
  PATDict /CurrentPattern get begin
    gsave
	% Set up the coordinate system to Pattern Space
	% and lock down pattern
	PatternGState /cm get setmatrix
	BBox aload pop pop pop translate
	% Determine the bounding box of the shape
	pathbbox			% llx lly urx ury
    grestore
    % Determine (nw, nh) the # of cells to paint width and height
    PatHeight div ceiling		% llx lly urx qh
    4 1 roll				% qh llx lly urx
    PatWidth div ceiling		% qh llx lly qw
    4 1 roll				% qw qh llx lly
    PatHeight div floor			% qw qh llx ph
    4 1 roll				% ph qw qh llx
    PatWidth div floor			% ph qw qh pw
    4 1 roll				% pw ph qw qh
    2 index sub cvi abs			% pw ph qs qh-ph
    exch 3 index sub cvi abs exch	% pw ph nw=qw-pw nh=qh-ph
    % Determine the starting point of the pattern fill
    %(px, py)
    4 2 roll				% nw nh pw ph
    PatHeight mul			% nw nh pw py
    exch				% nw nh py pw
    PatWidth mul exch			% nw nh px py
  end
} bind def

% Save the original routines so that we can use them later on
/oldfill	/fill load def
/oldeofill	/eofill load def
/oldstroke	/stroke load def
/oldshow	/show load def
/oldashow	/ashow load def
/oldwidthshow	/widthshow load def
/oldawidthshow	/awidthshow load def
/oldkshow	/kshow load def

% These defs are necessary so that subsequent procs don't bind in
% the originals
/fill	   { oldfill } bind def
/eofill	   { oldeofill } bind def
/stroke	   { oldstroke } bind def
/show	   { oldshow } bind def
/ashow	   { oldashow } bind def
/widthshow { oldwidthshow } bind def
/awidthshow { oldawidthshow } bind def
/kshow 	   { oldkshow } bind def
/PATredef {
  MyAppDict begin
    {
    /fill { /clip load PATdraw newpath } bind def
    /eofill { /eoclip load PATdraw newpath } bind def
    /stroke { PATstroke } bind def
    /show { 0 0 null 0 0 6 -1 roll PATawidthshow } bind def
    /ashow { 0 0 null 6 3 roll PATawidthshow }
    bind def
    /widthshow { 0 0 3 -1 roll PATawidthshow }
    bind def
    /awidthshow { PATawidthshow } bind def
    /kshow { PATkshow } bind def
  } {
    /fill   { oldfill } bind def
    /eofill { oldeofill } bind def
    /stroke { oldstroke } bind def
    /show   { oldshow } bind def
    /ashow  { oldashow } bind def
    /widthshow { oldwidthshow } bind def
    /awidthshow { oldawidthshow } bind def
    /kshow  { oldkshow } bind def
    } ifelse
  end
} bind def
false PATredef
% Conditionally define setcmykcolor if not available
/setcmykcolor where { pop } {
  /setcmykcolor {
    1 sub 4 1 roll
    3 {
	3 index add neg dup 0 lt { pop 0 } if 3 1 roll
    } repeat
    setrgbcolor - pop
  } bind def
} ifelse
/PATsc {		% colorarray
  aload length		% c1 ... cn length
    dup 1 eq { pop setgray } { 3 eq { setrgbcolor } { setcmykcolor
  } ifelse } ifelse
} bind def
/PATsg {		% dict
  begin
    lw setlinewidth
    lc setlinecap
    lj setlinejoin
    ml setmiterlimit
    ds aload pop setdash
    cc aload pop setrgbcolor
    cm setmatrix
  end
} bind def

/PATDict 3 dict def
/PATsp {
  true PATredef
  PATDict begin
    /CurrentPattern exch def
    % If it's an uncolored pattern, save the color
    CurrentPattern /PaintType get 2 eq {
      /PColor exch def
    } if
    /CColor [ currentrgbcolor ] def
  end
} bind def
% PATstroke - stroke with the current pattern
/PATstroke {
  countdictstack
  save
  mark
  {
    currentpoint strokepath moveto
    PATpcalc				% proc nw nh px py
    clip newpath PATfill
    } stopped {
	(*** PATstroke Warning: Path is too complex, stroking
	  with gray) =
    cleartomark
    restore
    countdictstack exch sub dup 0 gt
	{ { end } repeat } { pop } ifelse
    gsave 0.5 setgray oldstroke grestore
  } { pop restore pop } ifelse
  newpath
} bind def
/PATtcalc {		% modmtx tilingtype PATtcalc tilematrix
  % Note: tiling types 2 and 3 are not supported
  gsave
    exch concat					% tilingtype
    matrix currentmatrix exch			% cmtx tilingtype
    % Tiling type 1 and 3: constant spacing
    2 ne {
	% Distort the pattern so that it occupies
	% an integral number of device pixels
	dup 4 get exch dup 5 get exch		% tx ty cmtx
	XStep 0 dtransform
	round exch round exch			% tx ty cmtx dx.x dx.y
	XStep div exch XStep div exch		% tx ty cmtx a b
	0 YStep dtransform
	round exch round exch			% tx ty cmtx a b dy.x dy.y
	YStep div exch YStep div exch		% tx ty cmtx a b c d
	7 -3 roll astore			% { a b c d tx ty }
    } if
  grestore
} bind def
/PATusp {
  false PATredef
  PATDict begin
    CColor PATsc
  end
} bind def

% right45
11 dict begin
/PaintType 1 def
/PatternType 1 def
/TilingType 1 def
/BBox [0 0 1 1] def
/XStep 1 def
/YStep 1 def
/PatWidth 1 def
/PatHeight 1 def
/Multi 2 def
/PaintData [
  { clippath } bind
  { 32 32 true [ 32 0 0 -32 0 32 ]
	{<010101010202020204040404080808081010101020202020
	404040408080808001010101020202020404040408080808
	101010102020202040404040808080800101010102020202
	040404040808080810101010202020204040404080808080
	010101010202020204040404080808081010101020202020
	4040404080808080>}
     imagemask } bind
] def
/PaintProc {
	pop
	exec fill
} def
currentdict
end
/P5 exch def

/cp {closepath} bind def
/ef {eofill} bind def
/gr {grestore} bind def
/gs {gsave} bind def
/sa {save} bind def
/rs {restore} bind def
/l {lineto} bind def
/m {moveto} bind def
/rm {rmoveto} bind def
/n {newpath} bind def
/s {stroke} bind def
/sh {show} bind def
/slc {setlinecap} bind def
/slj {setlinejoin} bind def
/slw {setlinewidth} bind def
/srgb {setrgbcolor} bind def
/rot {rotate} bind def
/sc {scale} bind def
/sd {setdash} bind def
/ff {findfont} bind def
/sf {setfont} bind def
/scf {scalefont} bind def
/sw {stringwidth} bind def
/tr {translate} bind def
/tnt {dup dup currentrgbcolor
  4 -2 roll dup 1 exch sub 3 -1 roll mul add
  4 -2 roll dup 1 exch sub 3 -1 roll mul add
  4 -2 roll dup 1 exch sub 3 -1 roll mul add srgb}
  bind def
/shd {dup dup currentrgbcolor 4 -2 roll mul 4 -2 roll mul
  4 -2 roll mul srgb} bind def
/reencdict 12 dict def /ReEncode { reencdict begin
/newcodesandnames exch def /newfontname exch def /basefontname exch def
/basefontdict basefontname findfont def /newfont basefontdict maxlength dict def
basefontdict { exch dup /FID ne { dup /Encoding eq
{ exch dup length array copy newfont 3 1 roll put }
{ exch newfont 3 1 roll put } ifelse } { pop pop } ifelse } forall
newfont /FontName newfontname put newcodesandnames aload pop
128 1 255 { newfont /Encoding get exch /.notdef put } for
newcodesandnames length 2 idiv { newfont /Encoding get 3 1 roll put } repeat
newfontname newfont definefont pop end } def
/isovec [
8#055 /minus 8#200 /grave 8#201 /acute 8#202 /circumflex 8#203 /tilde
8#204 /macron 8#205 /breve 8#206 /dotaccent 8#207 /dieresis
8#210 /ring 8#211 /cedilla 8#212 /hungarumlaut 8#213 /ogonek 8#214 /caron
8#220 /dotlessi 8#230 /oe 8#231 /OE
8#240 /space 8#241 /exclamdown 8#242 /cent 8#243 /sterling
8#244 /currency 8#245 /yen 8#246 /brokenbar 8#247 /section 8#250 /dieresis
8#251 /copyright 8#252 /ordfeminine 8#253 /guillemotleft 8#254 /logicalnot
8#255 /hyphen 8#256 /registered 8#257 /macron 8#260 /degree 8#261 /plusminus
8#262 /twosuperior 8#263 /threesuperior 8#264 /acute 8#265 /mu 8#266 /paragraph
8#267 /periodcentered 8#270 /cedilla 8#271 /onesuperior 8#272 /ordmasculine
8#273 /guillemotright 8#274 /onequarter 8#275 /onehalf
8#276 /threequarters 8#277 /questiondown 8#300 /Agrave 8#301 /Aacute
8#302 /Acircumflex 8#303 /Atilde 8#304 /Adieresis 8#305 /Aring
8#306 /AE 8#307 /Ccedilla 8#310 /Egrave 8#311 /Eacute
8#312 /Ecircumflex 8#313 /Edieresis 8#314 /Igrave 8#315 /Iacute
8#316 /Icircumflex 8#317 /Idieresis 8#320 /Eth 8#321 /Ntilde 8#322 /Ograve
8#323 /Oacute 8#324 /Ocircumflex 8#325 /Otilde 8#326 /Odieresis 8#327 /multiply
8#330 /Oslash 8#331 /Ugrave 8#332 /Uacute 8#333 /Ucircumflex
8#334 /Udieresis 8#335 /Yacute 8#336 /Thorn 8#337 /germandbls 8#340 /agrave
8#341 /aacute 8#342 /acircumflex 8#343 /atilde 8#344 /adieresis 8#345 /aring
8#346 /ae 8#347 /ccedilla 8#350 /egrave 8#351 /eacute
8#352 /ecircumflex 8#353 /edieresis 8#354 /igrave 8#355 /iacute
8#356 /icircumflex 8#357 /idieresis 8#360 /eth 8#361 /ntilde 8#362 /ograve
8#363 /oacute 8#364 /ocircumflex 8#365 /otilde 8#366 /odieresis 8#367 /divide
8#370 /oslash 8#371 /ugrave 8#372 /uacute 8#373 /ucircumflex
8#374 /udieresis 8#375 /yacute 8#376 /thorn 8#377 /ydieresis] def
/Times-Roman /Times-Roman-iso isovec ReEncode
 /DrawEllipse {
	/endangle exch def
	/startangle exch def
	/yrad exch def
	/xrad exch def
	/y exch def
	/x exch def
	/savematrix mtrx currentmatrix def
	x y tr xrad yrad sc 0 0 1 startangle endangle arc
	closepath
	savematrix setmatrix
	} def

/$F2psBegin {$F2psDict begin /$F2psEnteredState save def} def
/$F2psEnd {$F2psEnteredState restore end} def

$F2psBegin
10 setmiterlimit
 0.06000 0.06000 sc
%
% Fig objects follow
%
% Polyline
2 slj
7.500 slw
n 1363 4275 m 1371 4282 l 1381 4292 l 1391 4303 l 1402 4317 l 1414 4332 l
 1427 4347 l 1439 4361 l 1452 4374 l 1465 4385 l 1477 4393 l
 1488 4398 l 1500 4400 l 1512 4398 l 1523 4393 l 1536 4385 l
 1548 4375 l 1562 4363 l 1575 4350 l 1588 4337 l 1602 4325 l
 1614 4315 l 1627 4307 l 1638 4302 l 1650 4300 l 1662 4302 l
 1673 4307 l 1686 4315 l 1698 4325 l 1712 4337 l 1725 4350 l
 1738 4363 l 1752 4375 l 1764 4385 l 1777 4393 l 1788 4398 l
 1800 4400 l 1812 4398 l 1823 4393 l 1836 4385 l 1848 4375 l
 1862 4363 l 1875 4350 l 1888 4337 l 1902 4325 l 1914 4315 l
 1927 4307 l 1938 4302 l 1950 4300 l 1962 4302 l 1973 4307 l
 1986 4315 l 1998 4325 l 2012 4337 l 2025 4350 l 2038 4363 l
 2052 4375 l 2064 4385 l 2077 4393 l 2088 4398 l 2100 4400 l
 2112 4398 l 2123 4393 l 2136 4385 l 2149 4375 l 2163 4363 l
 2177 4350 l 2191 4337 l 2206 4325 l 2220 4315 l 2234 4307 l
 2248 4302 l 2263 4300 l 2270 4300 l 2277 4302 l 2285 4304 l
 2294 4307 l 2304 4311 l 2315 4316 l 2327 4321 l 2341 4327 l
 2356 4334 l 2373 4341 l 2392 4349 l 2413 4357 l 2436 4365 l
 2460 4374 l 2487 4382 l 2516 4391 l 2547 4400 l 2580 4408 l
 2615 4416 l 2652 4423 l 2692 4431 l 2734 4438 l 2778 4444 l
 2825 4450 l 2855 4453 l 2886 4457 l 2918 4460 l 2952 4462 l
 2986 4465 l 3023 4468 l 3060 4470 l 3099 4472 l 3138 4475 l
 3179 4477 l 3222 4478 l 3265 4480 l 3309 4481 l 3354 4483 l
 3400 4484 l 3446 4485 l 3493 4485 l 3540 4486 l 3588 4486 l
 3636 4486 l 3683 4486 l 3731 4486 l 3778 4485 l 3825 4485 l
 3871 4484 l 3917 4483 l 3961 4481 l 4005 4480 l 4048 4478 l
 4090 4477 l 4130 4475 l 4170 4472 l 4208 4470 l 4244 4468 l
 4280 4465 l 4314 4462 l 4347 4460 l 4378 4457 l 4409 4453 l
 4438 4450 l 4487 4443 l 4533 4436 l 4576 4429 l 4617 4421 l
 4654 4412 l 4689 4403 l 4721 4394 l 4751 4385 l 4778 4375 l
 4803 4366 l 4825 4357 l 4845 4348 l 4862 4340 l 4878 4332 l
 4891 4325 l 4903 4318 l 4913 4313 l 4922 4308 l 4930 4305 l
 4937 4302 l 4944 4301 l 4950 4300 l 4962 4302 l 4973 4307 l
 4986 4315 l 4998 4325 l 5012 4337 l 5025 4350 l 5038 4363 l
 5052 4375 l 5064 4385 l 5077 4393 l 5088 4398 l 5100 4400 l
 5112 4398 l 5123 4393 l 5136 4385 l 5148 4375 l 5162 4363 l
 5175 4350 l 5188 4337 l 5202 4325 l 5214 4315 l 5227 4307 l
 5238 4302 l 5250 4300 l 5262 4302 l 5273 4307 l 5286 4315 l
 5298 4325 l 5312 4337 l 5325 4350 l 5338 4363 l 5352 4375 l
 5364 4385 l 5377 4393 l 5388 4398 l 5400 4400 l 5412 4398 l
 5423 4393 l 5436 4385 l 5448 4375 l 5462 4363 l 5475 4350 l
 5488 4337 l 5502 4325 l 5514 4315 l 5527 4307 l 5538 4302 l
 5550 4300 l 5562 4302 l 5573 4307 l 5586 4315 l 5598 4325 l
 5612 4337 l 5625 4350 l 5638 4363 l 5652 4375 l 5664 4385 l
 5677 4393 l 5688 4398 l 5700 4400 l 5712 4398 l 5723 4393 l
 5735 4385 l 5748 4374 l 5761 4361 l 5773 4347 l 5786 4332 l
 5798 4317 l 5809 4303 l 5819 4292 l 5829 4282 l 5838 4275 l
 5841 4273 l 5844 4272 l 5847 4271 l 5850 4272 l 5853 4273 l
 5856 4276 l 5859 4281 l 5862 4287 l 5865 4295 l 5867 4306 l
 5870 4319 l 5873 4335 l 5875 4354 l 5878 4376 l 5880 4401 l
 5882 4429 l 5884 4461 l 5886 4496 l 5888 4535 l 5890 4578 l
 5892 4624 l 5893 4674 l 5894 4727 l 5896 4785 l 5897 4846 l
 5898 4911 l 5898 4980 l 5899 5053 l 5899 5130 l 5900 5211 l
 5900 5297 l 5900 5388 l 5900 5435 l 5900 5484 l 5900 5534 l
 5900 5585 l 5900 5639 l 5899 5693 l 5899 5749 l 5899 5806 l
 5899 5865 l 5898 5925 l 5898 5987 l 5898 6050 l 5897 6115 l
 5897 6181 l 5896 6248 l 5895 6317 l 5895 6387 l 5894 6458 l
 5893 6530 l 5893 6603 l 5892 6678 l 5891 6753 l 5890 6830 l
 5889 6907 l 5888 6985 l 5887 7063 l 5886 7143 l 5885 7222 l
 5884 7302 l 5883 7383 l 5882 7464 l 5881 7544 l 5879 7625 l
 5878 7706 l 5877 7787 l 5875 7867 l 5874 7947 l 5872 8027 l
 5871 8106 l 5869 8185 l 5868 8262 l 5866 8339 l 5865 8416 l
 5863 8491 l 5861 8565 l 5860 8639 l 5858 8711 l 5856 8782 l
 5854 8852 l 5853 8920 l 5851 8987 l 5849 9053 l 5847 9118 l
 5845 9181 l 5843 9243 l 5841 9303 l 5839 9363 l 5837 9420 l
 5835 9477 l 5833 9531 l 5831 9585 l 5829 9637 l 5827 9688 l
 5825 9738 l 5822 9814 l 5818 9888 l 5814 9958 l 5810 10027 l
 5806 10092 l 5802 10155 l 5797 10216 l 5792 10275 l 5787 10332 l
 5781 10386 l 5776 10439 l 5769 10489 l 5763 10537 l 5755 10584 l
 5748 10628 l 5740 10670 l 5731 10711 l 5722 10749 l 5713 10785 l
 5703 10820 l 5692 10853 l 5681 10884 l 5670 10913 l 5658 10940 l
 5646 10966 l 5633 10991 l 5619 11013 l 5605 11035 l 5591 11055 l
 5576 11074 l 5561 11092 l 5545 11109 l 5529 11125 l 5512 11141 l
 5495 11156 l 5477 11170 l 5459 11184 l 5440 11198 l 5420 11211 l
 5400 11225 l 5377 11240 l 5352 11256 l 5327 11272 l 5300 11288 l
 5273 11305 l 5244 11321 l 5214 11339 l 5183 11356 l 5151 11374 l
 5118 11392 l 5084 11410 l 5049 11428 l 5012 11447 l 4976 11465 l
 4938 11484 l 4900 11503 l 4861 11521 l 4822 11540 l 4783 11558 l
 4743 11576 l 4703 11594 l 4664 11611 l 4625 11628 l 4586 11645 l
 4547 11661 l 4509 11676 l 4471 11691 l 4434 11706 l 4398 11719 l
 4362 11733 l 4327 11745 l 4293 11757 l 4259 11769 l 4227 11780 l
 4194 11790 l 4163 11800 l 4127 11810 l 4093 11820 l 4058 11829 l
 4024 11838 l 3989 11846 l 3954 11853 l 3920 11860 l 3885 11866 l
 3850 11872 l 3814 11877 l 3778 11881 l 3742 11884 l 3706 11887 l
 3670 11889 l 3633 11890 l 3597 11890 l 3560 11890 l 3523 11889 l
 3486 11887 l 3449 11884 l 3413 11881 l 3376 11877 l 3340 11872 l
 3303 11866 l 3267 11860 l 3231 11853 l 3195 11846 l 3159 11838 l
 3123 11829 l 3087 11820 l 3050 11810 l 3013 11800 l 2981 11791 l
 2948 11781 l 2915 11771 l 2881 11760 l 2847 11749 l 2811 11737 l
 2775 11724 l 2739 11711 l 2701 11698 l 2663 11684 l 2625 11669 l
 2586 11654 l 2546 11638 l 2506 11622 l 2466 11606 l 2426 11589 l
 2385 11572 l 2345 11554 l 2305 11536 l 2265 11518 l 2225 11500 l
 2186 11482 l 2148 11463 l 2110 11445 l 2073 11426 l 2037 11408 l
 2002 11390 l 1968 11371 l 1935 11353 l 1903 11336 l 1872 11318 l
 1842 11300 l 1814 11283 l 1786 11266 l 1760 11249 l 1735 11233 l
 1711 11216 l 1688 11200 l 1667 11185 l 1648 11171 l 1629 11156 l
 1611 11140 l 1594 11125 l 1577 11109 l 1561 11092 l 1545 11075 l
 1530 11057 l 1516 11038 l 1502 11018 l 1488 10997 l 1475 10975 l
 1462 10952 l 1451 10927 l 1439 10901 l 1428 10874 l 1418 10845 l
 1408 10814 l 1399 10782 l 1390 10749 l 1382 10713 l 1374 10676 l
 1366 10638 l 1360 10598 l 1353 10556 l 1348 10512 l 1342 10466 l
 1337 10419 l 1333 10370 l 1328 10320 l 1324 10268 l 1321 10213 l
 1318 10158 l 1315 10100 l 1312 10040 l 1310 9979 l 1307 9915 l
 1305 9849 l 1303 9781 l 1302 9711 l 1300 9638 l 1299 9588 l
 1298 9537 l 1297 9485 l 1296 9432 l 1295 9377 l 1294 9321 l
 1293 9264 l 1292 9205 l 1292 9146 l 1291 9084 l 1290 9022 l
 1289 8958 l 1289 8893 l 1288 8826 l 1287 8758 l 1287 8690 l
 1286 8620 l 1285 8548 l 1285 8476 l 1284 8403 l 1284 8329 l
 1283 8254 l 1283 8178 l 1282 8102 l 1282 8024 l 1282 7947 l
 1281 7868 l 1281 7790 l 1281 7711 l 1281 7632 l 1280 7552 l
 1280 7473 l 1280 7394 l 1280 7314 l 1280 7236 l 1280 7157 l
 1280 7079 l 1280 7001 l 1280 6924 l 1280 6848 l 1280 6772 l
 1280 6698 l 1280 6624 l 1280 6551 l 1280 6479 l 1281 6409 l
 1281 6339 l 1281 6271 l 1281 6204 l 1282 6138 l 1282 6073 l
 1282 6010 l 1283 5948 l 1283 5888 l 1283 5829 l 1284 5772 l
 1284 5716 l 1285 5661 l 1285 5608 l 1285 5556 l 1286 5506 l
 1286 5456 l 1287 5409 l 1288 5363 l 1289 5274 l 1290 5190 l
 1291 5110 l 1292 5035 l 1294 4964 l 1295 4897 l 1297 4833 l
 1299 4774 l 1300 4717 l 1302 4665 l 1304 4616 l 1307 4571 l
 1309 4529 l 1311 4491 l 1313 4457 l 1316 4426 l 1319 4398 l
 1321 4373 l 1324 4352 l 1327 4334 l 1329 4318 l 1332 4305 l
 1335 4295 l 1338 4287 l 1341 4280 l 1344 4276 l 1347 4273 l
 1350 4271 l 1353 4271 l 1356 4272 l 1359 4273 l
 cp gs col36 1.00 shd ef gr gs col0 s gr 
/Times-Roman-iso ff 180.00 scf sf
-1575 1500 m
gs 1 -1 sc (He gas) col0 sh gr
/Times-Roman-iso ff 180.00 scf sf
0 3075 m
gs 1 -1 sc (to pump) col0 sh gr
% Polyline
0 slj
gs  clippath
495 2715 m 555 2715 l 555 2530 l 525 2680 l 495 2530 l cp
eoclip
n 525 2175 m
 525 2700 l gs col0 s gr gr

% arrowhead
n 495 2530 m 525 2680 l 555 2530 l 525 2560 l 495 2530 l 
 cp gs 0.00 setgray ef gr  col0 s
% Polyline
gs  clippath
-1035 930 m -1035 870 l -1219 870 l -1069 900 l -1219 930 l cp
eoclip
n -1050 900 m
 -1575 900 l gs col0 s gr gr

% arrowhead
n -1219 930 m -1069 900 l -1219 870 l -1189 900 l -1219 930 l 
 cp gs 0.00 setgray ef gr  col0 s
% Polyline
n 2625 900 m 2325 900 2325 10125 300 arcto 4 {pop} repeat
  2325 10425 4575 10425 300 arcto 4 {pop} repeat
  4875 10425 4875 1200 300 arcto 4 {pop} repeat
  4875 900 2625 900 300 arcto 4 {pop} repeat
 cp gs col34 1.00 shd ef gr gs col0 s gr 
% Polyline
2 slj
n 1225 1875 m 1233 1868 l 1242 1861 l 1253 1854 l 1265 1847 l 1278 1841 l
 1293 1835 l 1307 1831 l 1322 1828 l 1336 1826 l 1350 1825 l
 1364 1826 l 1378 1828 l 1393 1831 l 1407 1835 l 1422 1841 l
 1435 1847 l 1447 1854 l 1458 1861 l 1467 1868 l 1475 1875 l
 1477 1877 l 1478 1879 l 1480 1881 l 1482 1884 l 1483 1888 l
 1484 1892 l 1486 1898 l 1487 1905 l 1488 1913 l 1489 1923 l
 1490 1935 l 1491 1949 l 1492 1966 l 1493 1984 l 1494 2006 l
 1495 2030 l 1495 2057 l 1496 2087 l 1497 2120 l 1497 2157 l
 1498 2197 l 1498 2240 l 1498 2287 l 1499 2338 l 1499 2392 l
 1499 2450 l 1499 2511 l 1500 2577 l 1500 2646 l 1500 2718 l
 1500 2795 l 1500 2876 l 1500 2960 l 1500 3049 l 1500 3142 l
 1500 3240 l 1500 3342 l 1500 3450 l 1500 3506 l 1500 3563 l
 1500 3622 l 1500 3682 l 1500 3744 l 1500 3807 l 1500 3871 l
 1500 3937 l 1500 4005 l 1500 4074 l 1500 4144 l 1500 4216 l
 1500 4289 l 1500 4364 l 1500 4440 l 1500 4518 l 1500 4596 l
 1500 4677 l 1500 4758 l 1500 4841 l 1500 4925 l 1500 5010 l
 1500 5096 l 1500 5184 l 1500 5272 l 1500 5362 l 1500 5452 l
 1500 5543 l 1500 5635 l 1500 5727 l 1500 5821 l 1500 5914 l
 1500 6009 l 1500 6103 l 1500 6198 l 1500 6293 l 1500 6389 l
 1500 6484 l 1500 6579 l 1500 6675 l 1500 6770 l 1500 6865 l
 1500 6959 l 1500 7053 l 1500 7147 l 1500 7240 l 1500 7332 l
 1500 7424 l 1500 7515 l 1500 7605 l 1500 7694 l 1500 7782 l
 1500 7869 l 1500 7955 l 1500 8039 l 1500 8123 l 1500 8205 l
 1500 8286 l 1500 8366 l 1500 8444 l 1500 8521 l 1500 8597 l
 1500 8671 l 1500 8743 l 1500 8815 l 1500 8884 l 1500 8953 l
 1500 9019 l 1500 9085 l 1500 9148 l 1500 9211 l 1500 9271 l
 1500 9331 l 1500 9389 l 1500 9445 l 1500 9500 l 1500 9592 l
 1500 9679 l 1500 9764 l 1500 9844 l 1501 9921 l 1501 9995 l
 1501 10066 l 1502 10134 l 1503 10199 l 1504 10262 l 1506 10321 l
 1508 10378 l 1510 10432 l 1512 10483 l 1515 10532 l 1518 10579 l
 1522 10622 l 1526 10664 l 1531 10703 l 1536 10739 l 1542 10774 l
 1549 10806 l 1555 10836 l 1563 10863 l 1571 10889 l 1580 10913 l
 1589 10936 l 1599 10956 l 1610 10975 l 1621 10993 l 1633 11009 l
 1645 11024 l 1658 11038 l 1672 11052 l 1687 11064 l 1702 11076 l
 1718 11087 l 1734 11098 l 1752 11108 l 1770 11119 l 1788 11129 l
 1808 11140 l 1829 11151 l 1850 11163 l 1873 11175 l 1898 11188 l
 1924 11202 l 1951 11217 l 1979 11232 l 2008 11247 l 2039 11264 l
 2071 11281 l 2104 11298 l 2139 11316 l 2175 11334 l 2213 11352 l
 2251 11371 l 2291 11390 l 2332 11410 l 2374 11429 l 2417 11449 l
 2461 11468 l 2506 11487 l 2552 11507 l 2599 11526 l 2646 11544 l
 2693 11563 l 2742 11581 l 2790 11598 l 2839 11615 l 2888 11631 l
 2936 11646 l 2985 11661 l 3034 11674 l 3083 11687 l 3131 11699 l
 3179 11710 l 3227 11720 l 3275 11729 l 3322 11737 l 3369 11744 l
 3416 11750 l 3462 11755 l 3508 11759 l 3554 11761 l 3600 11763 l
 3646 11763 l 3692 11762 l 3738 11760 l 3784 11757 l 3831 11752 l
 3878 11747 l 3925 11741 l 3973 11733 l 4021 11725 l 4069 11716 l
 4117 11705 l 4166 11694 l 4215 11682 l 4264 11669 l 4312 11655 l
 4361 11640 l 4410 11625 l 4458 11609 l 4507 11593 l 4554 11576 l
 4601 11558 l 4648 11540 l 4694 11522 l 4739 11504 l 4783 11485 l
 4826 11466 l 4868 11448 l 4909 11429 l 4949 11410 l 4987 11392 l
 5025 11374 l 5061 11356 l 5096 11338 l 5129 11321 l 5161 11304 l
 5192 11288 l 5221 11272 l 5249 11257 l 5276 11242 l 5302 11227 l
 5327 11213 l 5350 11200 l 5371 11188 l 5392 11176 l 5412 11164 l
 5430 11152 l 5448 11141 l 5466 11129 l 5482 11116 l 5498 11104 l
 5513 11090 l 5528 11076 l 5542 11061 l 5555 11046 l 5567 11028 l
 5579 11010 l 5590 10991 l 5601 10969 l 5611 10947 l 5620 10922 l
 5629 10896 l 5637 10868 l 5645 10838 l 5651 10806 l 5658 10771 l
 5664 10735 l 5669 10696 l 5674 10655 l 5678 10611 l 5682 10565 l
 5685 10517 l 5688 10466 l 5690 10413 l 5692 10357 l 5694 10298 l
 5696 10237 l 5697 10173 l 5698 10106 l 5699 10037 l 5699 9964 l
 5699 9889 l 5700 9811 l 5700 9729 l 5700 9644 l 5700 9555 l
 5700 9463 l 5700 9407 l 5700 9350 l 5700 9292 l 5700 9232 l
 5700 9171 l 5700 9109 l 5700 9045 l 5700 8979 l 5700 8912 l
 5700 8844 l 5700 8774 l 5700 8703 l 5700 8630 l 5700 8556 l
 5700 8480 l 5700 8404 l 5700 8325 l 5700 8246 l 5700 8165 l
 5700 8083 l 5700 7999 l 5700 7915 l 5700 7829 l 5700 7742 l
 5700 7654 l 5700 7566 l 5700 7476 l 5700 7385 l 5700 7294 l
 5700 7202 l 5700 7110 l 5700 7016 l 5700 6923 l 5700 6829 l
 5700 6734 l 5700 6640 l 5700 6545 l 5700 6450 l 5700 6355 l
 5700 6260 l 5700 6166 l 5700 6071 l 5700 5977 l 5700 5884 l
 5700 5790 l 5700 5698 l 5700 5606 l 5700 5515 l 5700 5424 l
 5700 5334 l 5700 5246 l 5700 5158 l 5700 5071 l 5700 4985 l
 5700 4901 l 5700 4817 l 5700 4735 l 5700 4654 l 5700 4575 l
 5700 4496 l 5700 4420 l 5700 4344 l 5700 4270 l 5700 4197 l
 5700 4126 l 5700 4056 l 5700 3988 l 5700 3921 l 5700 3855 l
 5700 3791 l 5700 3729 l 5700 3668 l 5700 3608 l 5700 3550 l
 5700 3493 l 5700 3438 l 5700 3331 l 5700 3229 l 5700 3132 l
 5700 3040 l 5700 2952 l 5700 2868 l 5700 2788 l 5700 2712 l
 5700 2640 l 5700 2571 l 5701 2506 l 5701 2445 l 5701 2388 l
 5701 2334 l 5702 2284 l 5702 2238 l 5702 2195 l 5703 2155 l
 5703 2119 l 5704 2086 l 5705 2056 l 5705 2029 l 5706 2005 l
 5707 1984 l 5708 1965 l 5709 1949 l 5710 1935 l 5711 1923 l
 5712 1913 l 5713 1905 l 5714 1898 l 5716 1892 l 5717 1888 l
 5718 1884 l 5720 1881 l 5722 1879 l 5723 1877 l 5725 1875 l
 5733 1868 l 5742 1861 l 5753 1854 l 5765 1847 l 5778 1841 l
 5793 1835 l 5807 1831 l 5822 1828 l 5836 1826 l 5850 1825 l
 5864 1826 l 5878 1828 l 5893 1831 l 5907 1835 l 5922 1841 l
 5935 1847 l 5947 1854 l 5958 1861 l 5967 1868 l 5975 1875 l
 5977 1877 l 5978 1879 l 5980 1881 l 5982 1884 l 5983 1888 l
 5984 1892 l 5986 1898 l 5987 1905 l 5988 1913 l 5989 1923 l
 5990 1935 l 5991 1949 l 5992 1965 l 5993 1984 l 5994 2005 l
 5995 2029 l 5995 2056 l 5996 2086 l 5997 2119 l 5997 2155 l
 5998 2195 l 5998 2238 l 5998 2284 l 5999 2334 l 5999 2388 l
 5999 2445 l 5999 2506 l 6000 2571 l 6000 2640 l 6000 2712 l
 6000 2788 l 6000 2868 l 6000 2952 l 6000 3040 l 6000 3132 l
 6000 3229 l 6000 3331 l 6000 3438 l 6000 3493 l 6000 3550 l
 6000 3608 l 6000 3668 l 6000 3729 l 6000 3791 l 6000 3855 l
 6000 3921 l 6000 3988 l 6000 4056 l 6000 4126 l 6000 4197 l
 6000 4270 l 6000 4344 l 6000 4420 l 6000 4497 l 6000 4575 l
 6000 4655 l 6000 4736 l 6000 4818 l 6000 4901 l 6000 4986 l
 6000 5072 l 6000 5159 l 6000 5247 l 6000 5336 l 6000 5425 l
 6000 5516 l 6000 5607 l 6000 5700 l 6000 5792 l 6000 5886 l
 6000 5980 l 6000 6074 l 6000 6168 l 6000 6263 l 6000 6358 l
 6000 6453 l 6000 6549 l 6000 6644 l 6000 6739 l 6000 6833 l
 6000 6928 l 6000 7022 l 6000 7115 l 6000 7208 l 6000 7301 l
 6000 7392 l 6000 7483 l 6000 7573 l 6000 7663 l 6000 7751 l
 6000 7838 l 6000 7924 l 6000 8009 l 6000 8093 l 6000 8176 l
 6000 8257 l 6000 8338 l 6000 8417 l 6000 8494 l 6000 8570 l
 6000 8645 l 6000 8718 l 6000 8790 l 6000 8861 l 6000 8930 l
 6000 8998 l 6000 9064 l 6000 9129 l 6000 9192 l 6000 9254 l
 6000 9314 l 6000 9374 l 6000 9431 l 6000 9488 l 6000 9582 l
 6000 9672 l 6000 9759 l 6000 9842 l 5999 9923 l 5999 10000 l
 5998 10075 l 5997 10146 l 5996 10215 l 5995 10281 l 5993 10345 l
 5991 10406 l 5989 10465 l 5986 10521 l 5983 10575 l 5979 10626 l
 5975 10675 l 5970 10722 l 5964 10766 l 5958 10808 l 5952 10848 l
 5945 10886 l 5937 10921 l 5928 10955 l 5919 10987 l 5909 11017 l
 5898 11045 l 5887 11071 l 5875 11096 l 5862 11119 l 5848 11141 l
 5834 11162 l 5819 11182 l 5803 11201 l 5787 11218 l 5769 11236 l
 5751 11252 l 5732 11268 l 5712 11284 l 5692 11299 l 5670 11315 l
 5648 11331 l 5624 11346 l 5600 11363 l 5576 11378 l 5550 11395 l
 5524 11412 l 5496 11429 l 5467 11447 l 5437 11465 l 5406 11484 l
 5373 11503 l 5339 11523 l 5304 11542 l 5268 11563 l 5230 11583 l
 5191 11604 l 5151 11625 l 5110 11646 l 5068 11667 l 5024 11689 l
 4980 11710 l 4935 11731 l 4888 11752 l 4841 11773 l 4793 11793 l
 4745 11814 l 4695 11833 l 4646 11853 l 4596 11872 l 4545 11890 l
 4494 11908 l 4443 11925 l 4392 11941 l 4341 11956 l 4290 11971 l
 4239 11985 l 4189 11998 l 4138 12010 l 4088 12021 l 4038 12031 l
 3988 12040 l 3939 12048 l 3889 12055 l 3841 12061 l 3792 12066 l
 3744 12070 l 3696 12073 l 3648 12074 l 3600 12075 l 3552 12074 l
 3504 12073 l 3456 12070 l 3408 12066 l 3359 12061 l 3311 12055 l
 3261 12048 l 3212 12040 l 3162 12031 l 3112 12021 l 3062 12010 l
 3011 11998 l 2961 11985 l 2910 11971 l 2859 11956 l 2808 11941 l
 2757 11925 l 2706 11908 l 2655 11890 l 2604 11872 l 2554 11853 l
 2505 11833 l 2455 11814 l 2407 11793 l 2359 11773 l 2312 11752 l
 2265 11731 l 2220 11710 l 2176 11689 l 2132 11667 l 2090 11646 l
 2049 11625 l 2009 11604 l 1970 11583 l 1932 11563 l 1896 11542 l
 1861 11523 l 1827 11503 l 1794 11484 l 1763 11465 l 1733 11447 l
 1704 11429 l 1676 11412 l 1650 11395 l 1624 11378 l 1600 11363 l
 1576 11346 l 1552 11331 l 1530 11315 l 1508 11299 l 1488 11284 l
 1468 11268 l 1449 11252 l 1431 11236 l 1413 11218 l 1397 11201 l
 1381 11182 l 1366 11162 l 1352 11141 l 1338 11119 l 1325 11096 l
 1313 11071 l 1302 11045 l 1291 11017 l 1281 10987 l 1272 10955 l
 1263 10921 l 1255 10886 l 1248 10848 l 1242 10808 l 1236 10766 l
 1230 10722 l 1225 10675 l 1221 10626 l 1217 10575 l 1214 10521 l
 1211 10465 l 1209 10406 l 1207 10345 l 1205 10281 l 1204 10215 l
 1203 10146 l 1202 10075 l 1201 10000 l 1201 9923 l 1200 9842 l
 1200 9759 l 1200 9672 l 1200 9582 l 1200 9488 l 1200 9431 l
 1200 9374 l 1200 9314 l 1200 9254 l 1200 9192 l 1200 9129 l
 1200 9064 l 1200 8998 l 1200 8930 l 1200 8861 l 1200 8790 l
 1200 8718 l 1200 8645 l 1200 8570 l 1200 8494 l 1200 8417 l
 1200 8338 l 1200 8257 l 1200 8176 l 1200 8093 l 1200 8009 l
 1200 7924 l 1200 7838 l 1200 7751 l 1200 7663 l 1200 7573 l
 1200 7483 l 1200 7392 l 1200 7301 l 1200 7208 l 1200 7115 l
 1200 7022 l 1200 6928 l 1200 6833 l 1200 6739 l 1200 6644 l
 1200 6549 l 1200 6453 l 1200 6358 l 1200 6263 l 1200 6168 l
 1200 6074 l 1200 5980 l 1200 5886 l 1200 5792 l 1200 5700 l
 1200 5607 l 1200 5516 l 1200 5425 l 1200 5336 l 1200 5247 l
 1200 5159 l 1200 5072 l 1200 4986 l 1200 4901 l 1200 4818 l
 1200 4736 l 1200 4655 l 1200 4575 l 1200 4497 l 1200 4420 l
 1200 4344 l 1200 4270 l 1200 4197 l 1200 4126 l 1200 4056 l
 1200 3988 l 1200 3921 l 1200 3855 l 1200 3791 l 1200 3729 l
 1200 3668 l 1200 3608 l 1200 3550 l 1200 3493 l 1200 3438 l
 1200 3331 l 1200 3229 l 1200 3132 l 1200 3040 l 1200 2952 l
 1200 2868 l 1200 2788 l 1200 2712 l 1200 2640 l 1200 2571 l
 1201 2506 l 1201 2445 l 1201 2388 l 1201 2334 l 1202 2284 l
 1202 2238 l 1202 2195 l 1203 2155 l 1203 2119 l 1204 2086 l
 1205 2056 l 1205 2029 l 1206 2005 l 1207 1984 l 1208 1965 l
 1209 1949 l 1210 1935 l 1211 1923 l 1212 1913 l 1213 1905 l
 1214 1898 l 1216 1892 l 1217 1888 l 1218 1884 l 1220 1881 l
 1222 1879 l 1223 1877 l
 cp gs col32 1.00 shd ef gr gs col0 s gr 
% Polyline
0 slj
n 2685 975 m 2475 975 2475 10065 210 arcto 4 {pop} repeat
  2475 10275 4515 10275 210 arcto 4 {pop} repeat
  4725 10275 4725 1185 210 arcto 4 {pop} repeat
  4725 975 2685 975 210 arcto 4 {pop} repeat
 cp gs col7 1.00 shd ef gr gs col0 s gr 
% Polyline
n 2250 825 m 4950 825 l 4950 1575 l 2250 1575 l
 cp gs col7 1.00 shd ef gr gs col7 s gr 
% Polyline
n 3825 2775 m 3900 2775 l 3900 5550 l 3825 5550 l
 cp gs col37 1.00 shd ef gr gs col0 s gr 
% Polyline
n 3375 2775 m 3300 2775 l 3300 5550 l 3375 5550 l
 cp gs col37 1.00 shd ef gr gs col0 s gr 
% Polyline
n 3375 2100 m 3300 2100 l 3300 2550 l 3375 2550 l
 cp gs col37 1.00 shd ef gr gs col0 s gr 
% Polyline
n 3825 1425 m 4800 1425 l 4500 2100 l 3825 2100 l
 cp gs col35 1.00 shd ef gr gs col0 s gr 
% Polyline
n 3825 2100 m 3900 2100 l 3900 2550 l 3825 2550 l
 cp gs col37 1.00 shd ef gr gs col0 s gr 
% Polyline
2 slj
n 4125 4125 m 4125 4123 l 4125 4118 l 4125 4108 l 4125 4094 l 4125 4074 l
 4125 4047 l 4125 4014 l 4125 3975 l 4125 3930 l 4124 3881 l
 4124 3828 l 4124 3773 l 4124 3716 l 4123 3657 l 4123 3600 l
 4123 3543 l 4123 3487 l 4122 3434 l 4122 3383 l 4121 3335 l
 4121 3289 l 4120 3246 l 4120 3206 l 4119 3169 l 4119 3134 l
 4118 3101 l 4118 3071 l 4117 3042 l 4116 3016 l 4115 2991 l
 4114 2968 l 4113 2946 l 4113 2925 l 4111 2892 l 4109 2862 l
 4106 2834 l 4104 2808 l 4101 2784 l 4098 2762 l 4095 2743 l
 4091 2725 l 4087 2709 l 4082 2695 l 4078 2683 l 4073 2673 l
 4067 2665 l 4062 2658 l 4056 2652 l 4050 2648 l 4044 2644 l
 4038 2642 l 4032 2639 l 4025 2638 l 4013 2635 l 4000 2633 l
 3986 2630 l 3970 2629 l 3954 2627 l 3937 2625 l 3921 2623 l
 3905 2621 l 3889 2620 l 3875 2617 l 3862 2615 l 3850 2613 l
 3844 2611 l 3838 2609 l 3832 2606 l 3827 2603 l 3821 2598 l
 3816 2592 l 3811 2585 l 3806 2576 l 3801 2565 l 3797 2551 l
 3793 2536 l 3789 2517 l 3785 2497 l 3781 2473 l 3778 2448 l
 3775 2419 l 3773 2388 l 3770 2354 l 3768 2317 l 3766 2277 l
 3764 2234 l 3763 2188 l 3762 2162 l 3761 2134 l 3760 2106 l
 3760 2076 l 3759 2044 l 3758 2011 l 3758 1976 l 3757 1938 l
 3757 1899 l 3756 1857 l 3756 1812 l 3755 1765 l 3755 1715 l
 3754 1663 l 3754 1607 l 3754 1549 l 3753 1488 l 3753 1424 l
 3753 1358 l 3752 1289 l 3752 1218 l 3752 1146 l 3752 1072 l
 3751 998 l 3751 924 l 3751 851 l 3751 780 l 3751 712 l
 3751 647 l 3750 586 l 3750 531 l 3750 481 l 3750 437 l
 3750 400 l 3750 369 l 3750 345 l 3750 327 l 3750 314 l
 3750 306 l 3750 302 l
 3750 300 l gs col12 s gr 
% Polyline
0 slj
n 3375 1425 m 2400 1425 l 2700 2100 l 3375 2100 l
 cp gs col35 1.00 shd ef gr gs col0 s gr 
% Polyline
2 slj
n 3075 4350 m 3075 4348 l 3075 4343 l 3075 4334 l 3075 4321 l 3075 4301 l
 3075 4276 l 3075 4244 l 3075 4206 l 3075 4163 l 3076 4115 l
 3076 4062 l 3076 4006 l 3076 3947 l 3076 3887 l 3077 3826 l
 3077 3766 l 3077 3707 l 3077 3649 l 3078 3593 l 3078 3540 l
 3079 3489 l 3079 3440 l 3079 3395 l 3080 3352 l 3080 3312 l
 3081 3274 l 3081 3239 l 3082 3206 l 3083 3175 l 3083 3146 l
 3084 3119 l 3085 3093 l 3086 3069 l 3087 3047 l 3088 3025 l
 3090 2985 l 3092 2948 l 3094 2915 l 3097 2885 l 3101 2857 l
 3104 2832 l 3108 2810 l 3113 2791 l 3118 2774 l 3123 2760 l
 3129 2748 l 3134 2738 l 3141 2731 l 3147 2725 l 3154 2720 l
 3160 2717 l 3168 2715 l 3175 2713 l 3187 2710 l 3200 2708 l
 3214 2705 l 3230 2704 l 3246 2702 l 3263 2700 l 3279 2698 l
 3295 2696 l 3311 2695 l 3325 2692 l 3338 2690 l 3350 2688 l
 3356 2686 l 3362 2684 l 3368 2681 l 3373 2678 l 3379 2673 l
 3384 2667 l 3389 2660 l 3394 2650 l 3399 2639 l 3403 2625 l
 3407 2609 l 3411 2590 l 3415 2569 l 3419 2545 l 3422 2518 l
 3425 2489 l 3427 2457 l 3430 2421 l 3432 2383 l 3434 2342 l
 3436 2298 l 3438 2250 l 3438 2224 l 3439 2198 l 3440 2170 l
 3440 2141 l 3441 2110 l 3442 2077 l 3442 2043 l 3443 2007 l
 3443 1969 l 3444 1928 l 3444 1886 l 3445 1841 l 3445 1793 l
 3445 1743 l 3446 1690 l 3446 1635 l 3446 1577 l 3447 1516 l
 3447 1452 l 3447 1387 l 3448 1319 l 3448 1249 l 3448 1177 l
 3448 1105 l 3449 1032 l 3449 959 l 3449 887 l 3449 816 l
 3449 747 l 3449 682 l 3449 621 l 3450 564 l 3450 512 l
 3450 465 l 3450 425 l 3450 391 l 3450 363 l 3450 341 l
 3450 324 l 3450 313 l 3450 306 l 3450 302 l
 3450 300 l gs col20 s gr 
% Polyline
0 slj
n 2325 1575 m
 2475 1575 l gs col0 s gr 
% Polyline
n 3375 5100 m 3375 5550 l 2700 5550 l 2700 5850 l 3375 5850 l 3375 9525 l
 2700 9525 l 2700 9825 l 4500 9825 l 4500 9525 l 3825 9525 l
 3825 5850 l 4500 5850 l 4500 5550 l 3825 5550 l 3825 5100 l

 cp gs /PC [[1.00 1.00 1.00] [0.00 0.00 0.00]] def
15.00 15.00 sc P5 [16 0 0 -16 180.00 340.00] PATmp PATsp ef gr PATusp gs col0 s gr 
% Polyline
n 4725 1575 m
 4875 1575 l gs col0 s gr 
% Polyline
n 4500 5850 m 3825 5850 l 3825 9525 l 4500 9525 l 4500 9075 l 3900 9075 l
 3900 7800 l 4500 7800 l 4500 7575 l 3900 7575 l 3900 6300 l
 4500 6300 l
 cp gs col26 1.00 shd ef gr gs col0 s gr 
% Polyline
2 slj
n 4125 6300 m 4129 6301 l 4137 6304 l 4150 6309 l 4170 6316 l 4194 6325 l
 4222 6335 l 4251 6345 l 4280 6355 l 4307 6363 l 4333 6371 l
 4356 6377 l 4376 6382 l 4395 6386 l 4411 6388 l 4425 6389 l
 4438 6389 l 4450 6388 l 4460 6385 l 4469 6382 l 4478 6378 l
 4487 6373 l 4495 6367 l 4503 6359 l 4510 6350 l 4517 6340 l
 4523 6328 l 4529 6315 l 4534 6301 l 4539 6285 l 4543 6269 l
 4547 6251 l 4551 6232 l 4554 6213 l 4556 6192 l 4559 6171 l
 4561 6148 l 4563 6125 l 4564 6104 l 4565 6083 l 4566 6060 l
 4567 6037 l 4568 6012 l 4569 5986 l 4570 5959 l 4571 5931 l
 4572 5903 l 4572 5874 l 4573 5845 l 4573 5816 l 4574 5787 l
 4574 5758 l 4574 5730 l 4574 5703 l 4575 5676 l 4575 5651 l
 4575 5627 l 4575 5604 l 4575 5582 l 4575 5562 l 4575 5543 l
 4575 5525 l 4575 5507 l 4575 5490 l 4575 5474 l 4574 5459 l
 4574 5446 l 4573 5433 l 4572 5421 l 4570 5409 l 4568 5399 l
 4566 5390 l 4563 5382 l 4559 5374 l 4555 5367 l 4550 5362 l
 4545 5357 l 4539 5352 l 4532 5349 l 4525 5346 l 4516 5343 l
 4508 5341 l 4498 5339 l 4488 5338 l 4473 5336 l 4458 5334 l
 4441 5333 l 4422 5331 l 4402 5330 l 4381 5329 l 4359 5327 l
 4336 5326 l 4312 5325 l 4289 5324 l 4266 5323 l 4244 5321 l
 4223 5320 l 4203 5319 l 4184 5317 l 4167 5316 l 4152 5314 l
 4138 5313 l 4128 5311 l 4119 5309 l 4111 5307 l 4103 5304 l
 4096 5300 l 4090 5295 l 4084 5288 l 4078 5281 l 4073 5271 l
 4069 5260 l 4065 5246 l 4062 5230 l 4059 5212 l 4057 5192 l
 4055 5169 l 4054 5144 l 4052 5117 l 4051 5087 l 4051 5054 l
 4050 5019 l 4050 4981 l 4050 4941 l 4050 4897 l 4050 4850 l
 4050 4820 l 4050 4789 l 4050 4756 l 4050 4722 l 4050 4687 l
 4050 4650 l 4050 4611 l 4050 4572 l 4050 4530 l 4050 4488 l
 4050 4444 l 4050 4400 l 4050 4354 l 4049 4307 l 4049 4259 l
 4049 4211 l 4049 4162 l 4049 4112 l 4049 4062 l 4048 4012 l
 4048 3963 l 4048 3913 l 4047 3863 l 4047 3814 l 4047 3766 l
 4046 3718 l 4046 3671 l 4045 3625 l 4045 3581 l 4044 3537 l
 4044 3495 l 4043 3453 l 4043 3414 l 4042 3375 l 4041 3338 l
 4041 3303 l 4040 3269 l 4039 3236 l 4038 3205 l 4038 3175 l
 4036 3124 l 4034 3077 l 4032 3033 l 4030 2993 l 4027 2956 l
 4024 2922 l 4021 2890 l 4018 2862 l 4014 2837 l 4010 2814 l
 4006 2795 l 4001 2778 l 3996 2763 l 3990 2751 l 3985 2741 l
 3979 2733 l 3973 2727 l 3966 2723 l 3959 2719 l 3952 2716 l
 3945 2714 l 3938 2713 l 3925 2710 l 3911 2708 l 3895 2706 l
 3879 2705 l 3862 2703 l 3844 2701 l 3825 2700 l 3806 2699 l
 3788 2697 l 3771 2695 l 3755 2694 l 3739 2692 l 3725 2690 l
 3713 2688 l 3705 2686 l 3698 2684 l 3691 2681 l 3684 2678 l
 3677 2673 l 3671 2667 l 3665 2660 l 3660 2650 l 3654 2639 l
 3649 2625 l 3644 2609 l 3640 2590 l 3636 2569 l 3632 2545 l
 3629 2518 l 3626 2489 l 3623 2457 l 3620 2421 l 3618 2383 l
 3616 2342 l 3614 2298 l 3613 2250 l 3612 2224 l 3611 2198 l
 3610 2170 l 3610 2141 l 3609 2110 l 3608 2077 l 3608 2043 l
 3607 2007 l 3607 1969 l 3606 1928 l 3606 1886 l 3605 1841 l
 3605 1793 l 3605 1743 l 3604 1690 l 3604 1635 l 3604 1577 l
 3603 1516 l 3603 1452 l 3603 1387 l 3602 1319 l 3602 1249 l
 3602 1177 l 3602 1105 l 3601 1032 l 3601 959 l 3601 887 l
 3601 816 l 3601 747 l 3601 682 l 3601 621 l 3600 564 l
 3600 512 l 3600 465 l 3600 425 l 3600 391 l 3600 363 l
 3600 341 l 3600 324 l 3600 313 l 3600 306 l 3600 302 l

 3600 300 l gs col10 s gr 
% Polyline
0 slj
n 2700 5850 m 3375 5850 l 3375 9525 l 2700 9525 l 2700 9075 l 3300 9075 l
 3300 7800 l 2700 7800 l 2700 7575 l 3300 7575 l 3300 6300 l
 2700 6300 l
 cp gs col26 1.00 shd ef gr gs col0 s gr 
% Polyline
2 slj
n 7500 5175 m 7500 5174 l 7502 5171 l 7507 5163 l 7515 5150 l 7526 5133 l
 7539 5112 l 7554 5091 l 7570 5070 l 7585 5052 l 7599 5037 l
 7613 5026 l 7626 5018 l 7638 5015 l 7650 5015 l 7662 5018 l
 7675 5025 l 7687 5034 l 7699 5045 l 7712 5059 l 7725 5074 l
 7739 5092 l 7754 5111 l 7769 5132 l 7784 5153 l 7800 5175 l
 7816 5197 l 7831 5218 l 7846 5239 l 7861 5258 l 7875 5276 l
 7888 5291 l 7901 5305 l 7913 5316 l 7925 5325 l 7938 5332 l
 7950 5335 l 7962 5335 l 7974 5332 l 7987 5324 l 8001 5313 l
 8015 5298 l 8030 5280 l 8046 5259 l 8061 5238 l 8074 5217 l
 8085 5200 l 8093 5187 l 8098 5179 l 8100 5176 l
 8100 5175 l gs col0 s gr 
/Times-Roman-iso ff 180.00 scf sf
8325 5475 m
gs 1 -1 sc (1kHz) col0 sh gr
% Ellipse
n 8475 3300 212 212 0 360 DrawEllipse gs col0 s gr

% Polyline
0 slj
n 3600 6225 m 3600 5700 l 3075 5700 l
 3075 4350 l gs col20 s gr 
% Polyline
45.000 slw
n 3450 6450 m
 3750 6450 l gs col20 1.00 shd ef gr gs col20 s gr 
% Polyline
7.500 slw
n 3600 6450 m 3730 6225 l 3470 6225 l
 cp gs col20 1.00 shd ef gr gs col20 s gr 
% Polyline
n 8325 3150 m
 8625 3450 l gs col0 s gr 
% Polyline
n 7875 3075 m 7200 3465 l 7200 2685 l
 cp gs col0 s gr 
% Polyline
n 7875 3075 m
 8250 3075 l gs col10 s gr 
% Polyline
n 7800 4200 m 7800 3525 l
 8250 3525 l gs col10 s gr 
% Polyline
n 7800 4725 m 7800 4200 l 6900 4200 l
 6750 4350 l gs col10 s gr 
% Polyline
30.000 slw
n 3675 9675 m 3750 9750 l 3825 9600 l 3900 9750 l 3975 9600 l 4050 9750 l
 4125 9600 l
 4200 9675 l gs col12 s gr 
% Polyline
7.500 slw
n 8925 3300 m 8250 3690 l 8250 2910 l
 cp gs col0 s gr 
% Polyline
2 slj
n 4200 9675 m 4201 9675 l 4204 9675 l 4213 9675 l 4228 9674 l 4248 9674 l
 4273 9673 l 4300 9672 l 4326 9671 l 4352 9669 l 4376 9667 l
 4397 9665 l 4416 9663 l 4433 9661 l 4448 9658 l 4462 9654 l
 4475 9650 l 4482 9648 l 4488 9645 l 4495 9642 l 4502 9638 l
 4508 9633 l 4514 9628 l 4521 9621 l 4527 9612 l 4533 9603 l
 4539 9591 l 4545 9578 l 4551 9562 l 4557 9545 l 4563 9525 l
 4568 9503 l 4573 9478 l 4578 9451 l 4583 9421 l 4588 9389 l
 4593 9354 l 4597 9316 l 4601 9276 l 4605 9233 l 4608 9187 l
 4611 9139 l 4614 9087 l 4617 9033 l 4620 8975 l 4623 8915 l
 4625 8850 l 4626 8811 l 4628 8771 l 4629 8729 l 4630 8686 l
 4631 8641 l 4632 8595 l 4633 8548 l 4634 8499 l 4635 8448 l
 4636 8397 l 4637 8344 l 4638 8289 l 4639 8234 l 4639 8177 l
 4640 8119 l 4641 8060 l 4642 7999 l 4642 7938 l 4643 7876 l
 4644 7814 l 4644 7750 l 4645 7686 l 4645 7622 l 4646 7557 l
 4646 7492 l 4647 7427 l 4647 7362 l 4647 7297 l 4648 7232 l
 4648 7168 l 4648 7104 l 4648 7040 l 4649 6978 l 4649 6916 l
 4649 6855 l 4649 6795 l 4649 6736 l 4649 6679 l 4650 6622 l
 4650 6567 l 4650 6513 l 4650 6460 l 4650 6409 l 4650 6359 l
 4650 6311 l 4650 6264 l 4650 6218 l 4650 6174 l 4650 6132 l
 4650 6091 l 4650 6051 l 4650 6013 l 4650 5945 l 4650 5881 l
 4650 5822 l 4650 5766 l 4649 5713 l 4649 5664 l 4649 5618 l
 4648 5576 l 4647 5536 l 4646 5500 l 4644 5466 l 4642 5436 l
 4640 5409 l 4638 5385 l 4635 5363 l 4632 5344 l 4628 5328 l
 4625 5314 l 4620 5302 l 4616 5293 l 4610 5285 l 4605 5279 l
 4599 5274 l 4593 5270 l 4586 5267 l 4579 5265 l 4571 5264 l
 4563 5263 l 4548 5261 l 4533 5259 l 4516 5258 l 4497 5256 l
 4477 5255 l 4456 5254 l 4434 5252 l 4411 5251 l 4387 5250 l
 4364 5249 l 4341 5248 l 4319 5246 l 4298 5245 l 4278 5244 l
 4259 5242 l 4242 5241 l 4227 5239 l 4213 5238 l 4201 5236 l
 4191 5234 l 4181 5231 l 4172 5228 l 4165 5224 l 4158 5219 l
 4151 5213 l 4146 5206 l 4141 5198 l 4137 5188 l 4134 5177 l
 4131 5165 l 4129 5151 l 4128 5136 l 4126 5119 l 4126 5101 l
 4125 5081 l 4125 5060 l 4125 5037 l 4125 5013 l 4125 4994 l
 4125 4973 l 4125 4951 l 4125 4928 l 4125 4902 l 4125 4875 l
 4125 4844 l 4125 4811 l 4125 4776 l 4125 4737 l 4125 4696 l
 4125 4651 l 4125 4604 l 4125 4555 l 4125 4503 l 4125 4452 l
 4125 4400 l 4125 4349 l 4125 4302 l 4125 4259 l 4125 4221 l
 4125 4189 l 4125 4164 l 4125 4146 l 4125 4134 l 4125 4128 l

 4125 4125 l gs col12 s gr 
% Polyline
0 slj
n 8325 3450 m
 8625 3150 l gs col0 s gr 
/Times-Roman-iso ff 180.00 scf sf
8325 5100 m
gs 1 -1 sc (10Vpp) col0 sh gr
% Polyline
15.000 slw
n 450 4350 m
 1125 11025 l gs col10 s gr 
% Polyline
n 450 4350 m 1125 4350 l 1125 11025 l 450 11025 l
 cp gs col10 s gr 
% Polyline
7.500 slw
n 3300 7800 m 3075 7800 l 3075 9075 l 3300 9075 l
 cp gs col10 s gr 
% Polyline
n 3075 7800 m
 3300 9075 l gs col10 s gr 
% Polyline
n 3300 7800 m
 3075 9075 l gs col10 s gr 
% Polyline
n 3900 7800 m
 4125 9075 l gs col10 s gr 
% Polyline
n 4125 7800 m
 3900 9075 l gs col10 s gr 
% Polyline
n 3900 7800 m 4125 7800 l 4125 9075 l 3900 9075 l
 cp gs col10 s gr 
% Polyline
n 3900 6300 m
 4125 7575 l gs col10 s gr 
% Polyline
n 4125 6300 m
 3900 7575 l gs col10 s gr 
% Polyline
n 3900 6300 m 4125 6300 l 4125 7575 l 3900 7575 l
 cp gs col10 s gr 
% Polyline
n 3300 6300 m
 3075 7575 l gs col10 s gr 
% Polyline
n 3075 6300 m
 3300 7575 l gs col10 s gr 
% Polyline
n 3300 6300 m 3075 6300 l 3075 7575 l 3300 7575 l
 cp gs col10 s gr 
% Polyline
n 3525 6525 m 3675 6525 l 3675 7350 l 3525 7350 l
 cp gs 0.00 setgray ef gr gs col0 s gr 
% Polyline
15.000 slw
n 675 3450 m 3225 3450 l 3450 3150 l 3750 3750 l 3975 3450 l 6525 3450 l
 6525 4050 l 3975 4050 l 3750 4350 l 3450 3750 l 3225 4050 l
 675 4050 l
 cp gs col7 1.00 shd ef gr gs col0 s gr 
7.500 slw
% Ellipse
n 7800 5175 450 450 0 360 DrawEllipse gs col0 s gr

% Polyline
n 7800 5625 m
 7800 5850 l gs col10 s gr 
% Polyline
n 7679 5914 m
 7921 5914 l gs col10 s gr 
% Polyline
n 7609 5844 m
 7990 5844 l gs col10 s gr 
% Polyline
n 6750 11025 m 6975 11175 l
 6975 11400 l gs col10 s gr 
% Polyline
n 6923 11533 m
 7027 11533 l gs col10 s gr 
% Polyline
n 6854 11464 m
 7096 11464 l gs col10 s gr 
% Polyline
n 7748 5983 m
 7852 5983 l gs col10 s gr 
% Polyline
n 6784 11394 m
 7165 11394 l gs col10 s gr 
% Polyline
15.000 slw
n 6750 4350 m
 6075 11025 l gs col10 s gr 
% Polyline
n 6075 4350 m
 6750 11025 l gs col10 s gr 
% Polyline
n 6075 4350 m 6750 4350 l 6750 11025 l 6075 11025 l
 cp gs col10 s gr 
% Polyline
n 1125 4350 m
 450 11025 l gs col10 s gr 
% Polyline
n 600 3375 m 750 3375 l 750 4125 l 600 4125 l
 cp gs col7 1.00 shd ef gr gs col7 s gr 
% Polyline
n 6450 3375 m 6600 3375 l 6600 4125 l 6450 4125 l
 cp gs col7 1.00 shd ef gr gs col7 s gr 
% Polyline
7.500 slw
n 2400 0 m 4800 0 l 4800 225 l 2400 225 l
 cp gs col33 1.00 shd ef gr gs col0 s gr 
% Polyline
n 4800 225 m 3825 225 l 3825 1425 l 4050 1425 l 4050 450 l 4800 450 l

 cp gs col33 1.00 shd ef gr gs col0 s gr 
% Polyline
n 2400 225 m 3375 225 l 3375 825 l 3150 825 l 3150 450 l 2400 450 l

 cp gs col33 1.00 shd ef gr gs col0 s gr 
% Polyline
n 3375 1050 m 3150 1050 l 3150 1425 l 3375 1425 l
 cp gs col33 1.00 shd ef gr gs col0 s gr 
/Times-Roman-iso ff 180.00 scf sf
8175 300 m
gs 1 -1 sc (Supply) col0 sh gr
% Polyline
n -1200 1050 m 375 1050 l
 375 2400 l gs col0 s gr 
% Polyline
n 3375 825 m
 -1200 825 l gs col0 s gr 
/Times-Roman-iso ff 180.00 scf sf
8250 -75 m
gs 1 -1 sc (Power) col0 sh gr
/Times-Roman-iso ff 180.00 scf sf
8175 3975 m
gs 1 -1 sc (Lock-in) col0 sh gr
% Polyline
n 3600 300 m 3600 -150 l 7050 -150 l 7050 3075 l
 7200 3075 l gs col10 s gr 
% Polyline
n 3375 1050 m 600 1050 l
 600 2400 l gs col0 s gr 
% Polyline
n 3450 300 m 3450 -300 l 7575 -300 l 7575 1275 l
 8100 1275 l gs col20 s gr 
% Polyline
n 3750 300 m 3750 -75 l
 8100 -75 l gs col12 s gr 
% Ellipse
n 487 1612 322 322 0 360 DrawEllipse gs col7 1.00 shd ef gr gs col0 s gr

% Ellipse
n 1463 937 322 322 0 360 DrawEllipse gs col7 1.00 shd ef gr gs col0 s gr

% Ellipse
n -487 937 322 322 0 360 DrawEllipse gs col7 1.00 shd ef gr gs col0 s gr

% Polyline
n 675 1350 m 300 1350 l 675 1875 l 300 1875 l
 cp gs col0 s gr 
% Polyline
n 1650 675 m 1275 675 l 1650 1200 l 1275 1200 l
 cp gs col0 s gr 
/Times-Roman-iso ff 180.00 scf sf
7200 2625 m
gs 1 -1 sc (Pre-amp) col0 sh gr
% Polyline
n -300 675 m -675 675 l -300 1200 l -675 1200 l
 cp gs col0 s gr 
% Polyline
n 10050 1350 m 11025 1350 l 11025 3000 l 10050 3000 l
 cp gs col0 s gr 
/Times-Roman-iso ff 180.00 scf sf
6825 7200 m
gs 1 -1 sc  270.0 rot (Field coil) col0 sh gr
% Polyline
n 8100 -525 m 9225 -525 l 9225 525 l 8100 525 l
 cp gs col0 s gr 
/Times-Roman-iso ff 180.00 scf sf
10350 2325 m
gs 1 -1 sc (PC) col0 sh gr
/Times-Roman-iso ff 180.00 scf sf
9825 225 m
gs 1 -1 sc  270.0 rot (GPIB) col0 sh gr
/Times-Roman-iso ff 180.00 scf sf
8325 1425 m
gs 1 -1 sc (DMM) col0 sh gr
% Polyline
n 8100 900 m 9225 900 l 9225 1650 l 8100 1650 l
 cp gs col0 s gr 
% Polyline
n 9225 1275 m 9450 1050 l 9450 1125 l 9525 1125 l 9525 150 l 9450 150 l
 9450 225 l 9225 0 l 9450 -225 l 9450 -150 l 9525 -150 l
 9750 -150 l 9750 2025 l 9825 2025 l 9825 1950 l 10050 2175 l
 9825 2400 l 9825 2325 l 9450 2325 l 8775 3000 l 8850 3075 l
 8550 3075 l 8550 2775 l 8625 2850 l 9450 2025 l 9525 2025 l
 9525 1425 l 9450 1425 l 9450 1500 l
 cp gs col34 1.00 shd ef gr gs col0 s gr 
/Times-Roman-iso ff 180.00 scf sf
8100 1950 m
gs 1 -1 sc (4w-ohm) col0 sh gr
/Times-Roman-iso ff 180.00 scf sf
5100 7200 m
gs 1 -1 sc  270.0 rot (LN2) col0 sh gr
$F2psEnd
rs
end
