%!PS-Adobe-2.0 EPSF-2.0
%%Title: htsc-field.eps
%%Creator: fig2dev Version 3.2 Patchlevel 3d
%%CreationDate: Thu Sep  4 17:23:47 2003
%%For: dpeets@physics (Darren Peets)
%%BoundingBox: 0 0 263 338
%%Magnification: 1.0000
%%EndComments
/$F2psDict 200 dict def
$F2psDict begin
$F2psDict /mtrx matrix put
/col-1 {0 setgray} bind def
/col0 {0.000 0.000 0.000 srgb} bind def
/col1 {0.000 0.000 1.000 srgb} bind def
/col2 {0.000 1.000 0.000 srgb} bind def
/col3 {0.000 1.000 1.000 srgb} bind def
/col4 {1.000 0.000 0.000 srgb} bind def
/col5 {1.000 0.000 1.000 srgb} bind def
/col6 {1.000 1.000 0.000 srgb} bind def
/col7 {1.000 1.000 1.000 srgb} bind def
/col8 {0.000 0.000 0.560 srgb} bind def
/col9 {0.000 0.000 0.690 srgb} bind def
/col10 {0.000 0.000 0.820 srgb} bind def
/col11 {0.530 0.810 1.000 srgb} bind def
/col12 {0.000 0.560 0.000 srgb} bind def
/col13 {0.000 0.690 0.000 srgb} bind def
/col14 {0.000 0.820 0.000 srgb} bind def
/col15 {0.000 0.560 0.560 srgb} bind def
/col16 {0.000 0.690 0.690 srgb} bind def
/col17 {0.000 0.820 0.820 srgb} bind def
/col18 {0.560 0.000 0.000 srgb} bind def
/col19 {0.690 0.000 0.000 srgb} bind def
/col20 {0.820 0.000 0.000 srgb} bind def
/col21 {0.560 0.000 0.560 srgb} bind def
/col22 {0.690 0.000 0.690 srgb} bind def
/col23 {0.820 0.000 0.820 srgb} bind def
/col24 {0.500 0.190 0.000 srgb} bind def
/col25 {0.630 0.250 0.000 srgb} bind def
/col26 {0.750 0.380 0.000 srgb} bind def
/col27 {1.000 0.500 0.500 srgb} bind def
/col28 {1.000 0.630 0.630 srgb} bind def
/col29 {1.000 0.750 0.750 srgb} bind def
/col30 {1.000 0.880 0.880 srgb} bind def
/col31 {1.000 0.840 0.000 srgb} bind def
/col32 {0.816 0.816 0.816 srgb} bind def
/col33 {0.910 1.000 1.000 srgb} bind def

end
save
newpath 0 338 moveto 0 0 lineto 263 0 lineto 263 338 lineto closepath clip newpath
-153.0 356.2 translate
1 -1 scale

/cp {closepath} bind def
/ef {eofill} bind def
/gr {grestore} bind def
/gs {gsave} bind def
/sa {save} bind def
/rs {restore} bind def
/l {lineto} bind def
/m {moveto} bind def
/rm {rmoveto} bind def
/n {newpath} bind def
/s {stroke} bind def
/sh {show} bind def
/slc {setlinecap} bind def
/slj {setlinejoin} bind def
/slw {setlinewidth} bind def
/srgb {setrgbcolor} bind def
/rot {rotate} bind def
/sc {scale} bind def
/sd {setdash} bind def
/ff {findfont} bind def
/sf {setfont} bind def
/scf {scalefont} bind def
/sw {stringwidth} bind def
/tr {translate} bind def
/tnt {dup dup currentrgbcolor
  4 -2 roll dup 1 exch sub 3 -1 roll mul add
  4 -2 roll dup 1 exch sub 3 -1 roll mul add
  4 -2 roll dup 1 exch sub 3 -1 roll mul add srgb}
  bind def
/shd {dup dup currentrgbcolor 4 -2 roll mul 4 -2 roll mul
  4 -2 roll mul srgb} bind def
 /DrawEllipse {
	/endangle exch def
	/startangle exch def
	/yrad exch def
	/xrad exch def
	/y exch def
	/x exch def
	/savematrix mtrx currentmatrix def
	x y tr xrad yrad sc 0 0 1 startangle endangle arc
	closepath
	savematrix setmatrix
	} def

/$F2psBegin {$F2psDict begin /$F2psEnteredState save def} def
/$F2psEnd {$F2psEnteredState restore end} def

$F2psBegin
10 setmiterlimit
 0.06000 0.06000 sc
%
% Fig objects follow
%
7.500 slw
% Ellipse
n 6262 3150 337 150 0 360 DrawEllipse gs col0 s gr

% Ellipse
n 3412 975 562 225 0 360 DrawEllipse gs col0 s gr

% Polyline
n 5850 3150 m 6675 3150 l 6675 3375 l 5850 3375 l
 cp gs col7 1.00 shd ef gr gs col7 s gr 
% Polyline
n 3000 900 m 3825 900 l 3825 1275 l 3000 1275 l
 cp gs col7 1.00 shd ef gr gs col7 s gr 
% Ellipse
n 3412 3900 337 150 0 360 DrawEllipse gs col0 s gr

% Ellipse
n 3412 5700 337 150 0 360 DrawEllipse gs col0 s gr

% Ellipse
n 6262 1350 337 150 0 360 DrawEllipse gs col0 s gr

% Ellipse
n 6262 1350 562 225 0 360 DrawEllipse gs col0 s gr

% Ellipse
n 6262 5325 337 150 0 360 DrawEllipse gs col0 s gr

% Ellipse
n 6262 3525 562 225 0 360 DrawEllipse gs col0 s gr

% Ellipse
n 3412 3900 562 225 0 360 DrawEllipse gs col0 s gr

% Ellipse
n 6262 3525 337 150 0 360 DrawEllipse gs col0 s gr

% Ellipse
n 3412 2775 337 150 0 360 DrawEllipse gs col0 s gr

% Polyline
n 3000 2775 m 3825 2775 l 3825 3000 l 3000 3000 l
 cp gs col7 1.00 shd ef gr gs col7 s gr 
% Polyline
n 3000 3900 m 3825 3900 l 3825 4200 l 3000 4200 l
 cp gs col7 1.00 shd ef gr gs col7 s gr 
% Polyline
n 3000 5700 m 3825 5700 l 3825 5925 l 3000 5925 l
 cp gs col7 1.00 shd ef gr gs col7 s gr 
% Polyline
n 5850 5325 m 6675 5325 l 6675 5550 l 5850 5550 l
 cp gs col7 1.00 shd ef gr gs col7 s gr 
% Polyline
n 5850 1350 m 6675 1350 l 6675 1650 l 5850 1650 l
 cp gs col7 1.00 shd ef gr gs col7 s gr 
% Polyline
n 5850 3525 m 6675 3525 l 6675 3825 l 5850 3825 l
 cp gs col7 1.00 shd ef gr gs col7 s gr 
% Polyline
n 2850 3900 m 3075 3900 l 3075 5700 l 2850 5700 l
 cp gs col32 1.00 shd ef gr gs col0 s gr 
% Polyline
n 3750 975 m 3975 975 l 3975 2775 l 3750 2775 l
 cp gs col32 1.00 shd ef gr gs col0 s gr 
% Polyline
n 6600 3525 m 6825 3525 l 6825 5325 l 6600 5325 l
 cp gs col32 1.00 shd ef gr gs col0 s gr 
% Polyline
n 2850 975 m 3075 975 l 3075 2775 l 2850 2775 l
 cp gs col32 1.00 shd ef gr gs col0 s gr 
% Polyline
n 3750 3900 m 3975 3900 l 3975 5700 l 3750 5700 l
 cp gs col32 1.00 shd ef gr gs col0 s gr 
% Polyline
n 5700 1350 m 5925 1350 l 5925 3150 l 5700 3150 l
 cp gs col32 1.00 shd ef gr gs col0 s gr 
% Polyline
n 5700 3525 m 5925 3525 l 5925 5325 l 5700 5325 l
 cp gs col32 1.00 shd ef gr gs col0 s gr 
% Polyline
n 6600 1350 m 6825 1350 l 6825 3150 l 6600 3150 l
 cp gs col32 1.00 shd ef gr gs col0 s gr 
/Times-Roman ff 180.00 scf sf
2550 5925 m
gs 1 -1 sc (b) col0 sh gr
% Polyline
n 3225 4350 m 3600 4350 l 3600 5250 l 3225 5250 l
 cp gs 0.00 setgray ef gr gs col0 s gr 
/Times-Roman ff 180.00 scf sf
5400 5550 m
gs 1 -1 sc (c) col0 sh gr
% Polyline
n 6600 1350 m
 6825 3150 l gs col0 s gr 
/Times-Roman ff 180.00 scf sf
2550 3000 m
gs 1 -1 sc (a) col0 sh gr
% Polyline
n 6600 3150 m
 6825 1350 l gs col0 s gr 
% Polyline
n 5700 1350 m
 5925 3150 l gs col0 s gr 
% Polyline
n 5700 3150 m
 5925 1350 l gs col0 s gr 
% Polyline
n 6075 1800 m 6450 1800 l 6450 2700 l 6075 2700 l
 cp gs 0.00 setgray ef gr gs col0 s gr 
% Polyline
n 6600 3525 m
 6825 5325 l gs col0 s gr 
% Polyline
n 6600 5325 m
 6825 3525 l gs col0 s gr 
% Polyline
n 5700 3525 m
 5925 5325 l gs col0 s gr 
% Polyline
n 5700 5325 m
 5925 3525 l gs col0 s gr 
% Polyline
n 3750 975 m
 3975 2775 l gs col0 s gr 
% Polyline
n 2850 5700 m
 3075 3900 l gs col0 s gr 
% Polyline
n 2850 3900 m
 3075 5700 l gs col0 s gr 
% Polyline
n 3750 5700 m
 3975 3900 l gs col0 s gr 
% Polyline
n 3750 2775 m
 3975 975 l gs col0 s gr 
% Polyline
n 2850 975 m
 3075 2775 l gs col0 s gr 
% Polyline
n 3225 1425 m 3600 1425 l 3600 2325 l 3225 2325 l
 cp gs 0.00 setgray ef gr gs col0 s gr 
% Polyline
n 2850 2775 m
 3075 975 l gs col0 s gr 
% Polyline
n 3750 3900 m
 3975 5700 l gs col0 s gr 
% Polyline
gs  clippath
3690 510 m 3660 510 l 3660 610 l 3675 535 l 3690 610 l cp
eoclip
n 3675 525 m
 3675 3000 l gs col4 s gr gr

% arrowhead
3.750 slw
n 3690 610 m 3675 535 l 3660 610 l 3675 595 l 3690 610 l 
 cp gs col4 1.00 shd ef gr  col4 s
% Polyline
7.500 slw
gs  clippath
3765 510 m 3735 510 l 3735 610 l 3750 535 l 3765 610 l cp
eoclip
n 3750 525 m
 3750 3000 l gs col4 s gr gr

% arrowhead
3.750 slw
n 3765 610 m 3750 535 l 3735 610 l 3750 595 l 3765 610 l 
 cp gs col4 1.00 shd ef gr  col4 s
% Polyline
2 slj
7.500 slw
gs  clippath
5940 885 m 5910 885 l 5910 985 l 5925 910 l 5940 985 l cp
eoclip
n 5925 900 m 5925 929 l 5925 950 l 5925 973 l 5925 996 l 5925 1018 l
 5925 1038 l 5925 1056 l 5925 1072 l 5925 1087 l 5925 1100 l
 5925 1113 l 5925 1123 l 5925 1134 l 5925 1145 l 5924 1157 l
 5924 1170 l 5923 1185 l 5922 1200 l 5920 1217 l 5918 1236 l
 5915 1256 l 5912 1278 l 5908 1301 l 5904 1326 l 5899 1353 l
 5894 1382 l 5888 1413 l 5884 1431 l 5880 1451 l 5875 1472 l
 5871 1495 l 5866 1518 l 5861 1543 l 5856 1569 l 5851 1596 l
 5845 1624 l 5840 1654 l 5834 1685 l 5829 1716 l 5823 1748 l
 5818 1782 l 5812 1815 l 5807 1849 l 5803 1884 l 5798 1918 l
 5794 1952 l 5790 1987 l 5787 2021 l 5784 2055 l 5781 2088 l
 5779 2121 l 5777 2154 l 5776 2186 l 5775 2218 l 5775 2250 l
 5775 2282 l 5776 2314 l 5777 2346 l 5779 2379 l 5781 2412 l
 5784 2445 l 5787 2479 l 5790 2513 l 5794 2548 l 5798 2582 l
 5803 2616 l 5807 2651 l 5812 2685 l 5818 2718 l 5823 2752 l
 5829 2784 l 5834 2815 l 5840 2846 l 5845 2876 l 5851 2904 l
 5856 2931 l 5861 2957 l 5866 2982 l 5871 3005 l 5875 3028 l
 5880 3049 l 5884 3069 l 5888 3088 l 5892 3108 l 5895 3128 l
 5899 3148 l 5902 3167 l 5905 3185 l 5908 3204 l 5911 3223 l
 5913 3243 l 5915 3263 l 5917 3283 l 5918 3305 l 5920 3328 l
 5921 3351 l 5922 3376 l 5923 3403 l 5923 3430 l 5924 3459 l
 5924 3490 l 5925 3522 l 5925 3556 l 5925 3591 l 5925 3629 l
 5925 3670 l 5925 3713 l 5925 3738 l 5925 3765 l 5925 3794 l
 5925 3823 l 5925 3855 l 5925 3888 l 5925 3922 l 5925 3959 l
 5925 3998 l 5925 4039 l 5925 4082 l 5925 4128 l 5925 4177 l
 5925 4228 l 5925 4282 l 5925 4339 l 5925 4398 l 5925 4460 l
 5925 4525 l 5925 4592 l 5925 4660 l 5925 4731 l 5925 4802 l
 5925 4874 l 5925 4945 l 5925 5016 l 5925 5085 l 5925 5151 l
 5925 5214 l 5925 5273 l 5925 5327 l 5925 5375 l 5925 5417 l
 5925 5453 l 5925 5483 l 5925 5506 l 5925 5524 l 5925 5536 l
 5925 5544 l 5925 5548 l
 5925 5550 l gs col4 s gr gr

% arrowhead
0 slj
3.750 slw
n 5940 985 m 5925 910 l 5910 985 l 5925 970 l 5940 985 l 
 cp gs col4 1.00 shd ef gr  col4 s
% Polyline
2 slj
7.500 slw
gs  clippath
6615 885 m 6585 885 l 6585 985 l 6600 910 l 6615 985 l cp
eoclip
n 6600 900 m 6600 929 l 6600 950 l 6600 973 l 6600 996 l 6600 1018 l
 6600 1038 l 6600 1056 l 6600 1072 l 6600 1087 l 6600 1100 l
 6600 1113 l 6600 1123 l 6600 1134 l 6600 1145 l 6601 1157 l
 6601 1170 l 6602 1185 l 6603 1200 l 6605 1217 l 6607 1236 l
 6610 1256 l 6613 1278 l 6617 1301 l 6621 1326 l 6626 1353 l
 6631 1382 l 6638 1413 l 6641 1431 l 6645 1451 l 6650 1472 l
 6654 1495 l 6659 1518 l 6664 1543 l 6669 1569 l 6674 1596 l
 6680 1624 l 6685 1654 l 6691 1685 l 6696 1716 l 6702 1748 l
 6707 1782 l 6713 1815 l 6718 1849 l 6722 1884 l 6727 1918 l
 6731 1952 l 6735 1987 l 6738 2021 l 6741 2055 l 6744 2088 l
 6746 2121 l 6748 2154 l 6749 2186 l 6750 2218 l 6750 2250 l
 6750 2282 l 6749 2314 l 6748 2346 l 6746 2379 l 6744 2412 l
 6741 2445 l 6738 2479 l 6735 2513 l 6731 2548 l 6727 2582 l
 6722 2616 l 6718 2651 l 6713 2685 l 6707 2718 l 6702 2752 l
 6696 2784 l 6691 2815 l 6685 2846 l 6680 2876 l 6674 2904 l
 6669 2931 l 6664 2957 l 6659 2982 l 6654 3005 l 6650 3028 l
 6645 3049 l 6641 3069 l 6638 3088 l 6633 3108 l 6630 3128 l
 6626 3148 l 6623 3167 l 6620 3185 l 6617 3204 l 6614 3223 l
 6612 3243 l 6610 3263 l 6608 3283 l 6607 3305 l 6605 3328 l
 6604 3351 l 6603 3376 l 6602 3403 l 6602 3430 l 6601 3459 l
 6601 3490 l 6600 3522 l 6600 3556 l 6600 3591 l 6600 3629 l
 6600 3670 l 6600 3713 l 6600 3738 l 6600 3765 l 6600 3794 l
 6600 3823 l 6600 3855 l 6600 3888 l 6600 3922 l 6600 3959 l
 6600 3998 l 6600 4039 l 6600 4082 l 6600 4128 l 6600 4177 l
 6600 4228 l 6600 4282 l 6600 4339 l 6600 4398 l 6600 4460 l
 6600 4525 l 6600 4592 l 6600 4660 l 6600 4731 l 6600 4802 l
 6600 4874 l 6600 4945 l 6600 5016 l 6600 5085 l 6600 5151 l
 6600 5214 l 6600 5273 l 6600 5327 l 6600 5375 l 6600 5417 l
 6600 5453 l 6600 5483 l 6600 5506 l 6600 5524 l 6600 5536 l
 6600 5544 l 6600 5548 l
 6600 5550 l gs col4 s gr gr

% arrowhead
0 slj
3.750 slw
n 6615 985 m 6600 910 l 6585 985 l 6600 970 l 6615 985 l 
 cp gs col4 1.00 shd ef gr  col4 s
% Polyline
2 slj
7.500 slw
gs  clippath
6015 885 m 5985 885 l 5985 985 l 6000 910 l 6015 985 l cp
eoclip
n 6000 5550 m 6000 5548 l 6000 5544 l 6000 5536 l 6000 5524 l 6000 5506 l
 6000 5483 l 6000 5453 l 6000 5417 l 6000 5374 l 6000 5326 l
 6000 5272 l 6000 5213 l 6000 5150 l 6000 5083 l 6000 5014 l
 6000 4943 l 6000 4871 l 6000 4799 l 6000 4727 l 6000 4656 l
 6000 4587 l 6000 4519 l 6000 4454 l 6000 4391 l 6000 4331 l
 6000 4274 l 6000 4219 l 6000 4167 l 6000 4118 l 6000 4071 l
 6000 4027 l 6000 3985 l 6000 3945 l 6000 3907 l 6000 3871 l
 6000 3837 l 6000 3804 l 6000 3773 l 6000 3744 l 6000 3715 l
 6000 3688 l 6000 3645 l 6000 3605 l 6000 3566 l 6000 3529 l
 6000 3494 l 6000 3460 l 5999 3427 l 5999 3396 l 5998 3366 l
 5998 3337 l 5997 3309 l 5996 3282 l 5995 3256 l 5994 3231 l
 5992 3208 l 5990 3185 l 5989 3163 l 5986 3142 l 5984 3122 l
 5982 3102 l 5979 3083 l 5976 3064 l 5973 3045 l 5970 3026 l
 5966 3007 l 5963 2988 l 5958 2967 l 5954 2946 l 5949 2924 l
 5944 2901 l 5939 2877 l 5934 2852 l 5928 2826 l 5922 2799 l
 5916 2771 l 5910 2742 l 5904 2712 l 5898 2681 l 5893 2650 l
 5887 2619 l 5882 2587 l 5877 2555 l 5872 2523 l 5867 2492 l
 5864 2460 l 5860 2429 l 5857 2398 l 5855 2368 l 5853 2338 l
 5851 2308 l 5850 2279 l 5850 2250 l 5850 2221 l 5851 2192 l
 5853 2162 l 5855 2132 l 5857 2102 l 5860 2071 l 5864 2040 l
 5867 2008 l 5872 1977 l 5877 1945 l 5882 1913 l 5887 1881 l
 5893 1850 l 5898 1819 l 5904 1788 l 5910 1758 l 5916 1729 l
 5922 1701 l 5928 1674 l 5934 1648 l 5939 1623 l 5944 1599 l
 5949 1576 l 5954 1554 l 5958 1533 l 5963 1513 l 5968 1485 l
 5973 1458 l 5977 1431 l 5981 1406 l 5985 1381 l 5988 1357 l
 5991 1333 l 5993 1311 l 5995 1289 l 5996 1268 l 5998 1248 l
 5998 1229 l 5999 1212 l 6000 1195 l 6000 1180 l 6000 1165 l
 6000 1151 l 6000 1138 l 6000 1120 l 6000 1103 l 6000 1086 l
 6000 1067 l 6000 1046 l 6000 1024 l 6000 1000 l 6000 975 l
 6000 951 l 6000 930 l
 6000 900 l gs col4 s gr gr

% arrowhead
0 slj
3.750 slw
n 6015 985 m 6000 910 l 5985 985 l 6000 970 l 6015 985 l 
 cp gs col4 1.00 shd ef gr  col4 s
% Polyline
2 slj
7.500 slw
gs  clippath
6240 885 m 6210 885 l 6210 985 l 6225 910 l 6240 985 l cp
eoclip
n 6225 5550 m 6225 5548 l 6225 5544 l 6225 5536 l 6225 5524 l 6225 5506 l
 6225 5482 l 6225 5452 l 6225 5416 l 6225 5373 l 6225 5324 l
 6225 5270 l 6225 5210 l 6225 5146 l 6225 5079 l 6225 5009 l
 6225 4937 l 6225 4864 l 6225 4790 l 6225 4717 l 6225 4645 l
 6225 4575 l 6225 4506 l 6225 4439 l 6225 4375 l 6225 4313 l
 6225 4254 l 6225 4197 l 6225 4143 l 6225 4092 l 6225 4043 l
 6225 3996 l 6225 3952 l 6225 3909 l 6225 3869 l 6225 3830 l
 6225 3793 l 6225 3757 l 6225 3722 l 6225 3689 l 6225 3656 l
 6225 3625 l 6225 3579 l 6225 3535 l 6225 3492 l 6225 3450 l
 6225 3409 l 6225 3369 l 6225 3330 l 6224 3292 l 6224 3255 l
 6224 3219 l 6223 3184 l 6223 3151 l 6222 3118 l 6222 3088 l
 6221 3058 l 6220 3031 l 6219 3004 l 6218 2980 l 6216 2957 l
 6215 2935 l 6214 2915 l 6212 2897 l 6210 2880 l 6209 2864 l
 6207 2850 l 6205 2836 l 6202 2824 l 6200 2813 l 6195 2794 l
 6190 2778 l 6185 2763 l 6178 2748 l 6172 2735 l 6165 2721 l
 6157 2708 l 6150 2695 l 6143 2681 l 6135 2666 l 6128 2651 l
 6122 2634 l 6115 2616 l 6110 2596 l 6105 2574 l 6100 2550 l
 6097 2532 l 6095 2513 l 6092 2492 l 6090 2470 l 6088 2446 l
 6087 2421 l 6085 2395 l 6084 2367 l 6083 2339 l 6082 2310 l
 6082 2280 l 6082 2250 l 6082 2220 l 6082 2190 l 6083 2161 l
 6084 2133 l 6085 2105 l 6087 2079 l 6088 2054 l 6090 2030 l
 6092 2008 l 6095 1987 l 6097 1968 l 6100 1950 l 6105 1926 l
 6110 1904 l 6115 1884 l 6122 1866 l 6128 1849 l 6135 1834 l
 6143 1819 l 6150 1805 l 6157 1792 l 6165 1779 l 6172 1765 l
 6178 1752 l 6185 1737 l 6190 1722 l 6195 1706 l 6200 1688 l
 6203 1673 l 6206 1657 l 6208 1639 l 6211 1621 l 6213 1601 l
 6215 1579 l 6216 1557 l 6218 1533 l 6219 1508 l 6221 1483 l
 6222 1457 l 6222 1431 l 6223 1405 l 6224 1379 l 6224 1354 l
 6224 1329 l 6225 1305 l 6225 1282 l 6225 1260 l 6225 1239 l
 6225 1219 l 6225 1200 l 6225 1175 l 6225 1151 l 6225 1128 l
 6225 1106 l 6225 1083 l 6225 1060 l 6225 1036 l 6225 1011 l
 6225 986 l 6225 962 l 6225 941 l
 6225 900 l gs col4 s gr gr

% arrowhead
0 slj
3.750 slw
n 6240 985 m 6225 910 l 6210 985 l 6225 970 l 6240 985 l 
 cp gs col4 1.00 shd ef gr  col4 s
% Polyline
2 slj
7.500 slw
gs  clippath
6090 885 m 6060 885 l 6060 985 l 6075 910 l 6090 985 l cp
eoclip
n 6075 5550 m 6075 5548 l 6075 5544 l 6075 5536 l 6075 5524 l 6075 5506 l
 6075 5482 l 6075 5453 l 6075 5416 l 6075 5374 l 6075 5325 l
 6075 5271 l 6075 5212 l 6075 5149 l 6075 5082 l 6075 5012 l
 6075 4940 l 6075 4868 l 6075 4795 l 6075 4723 l 6075 4652 l
 6075 4582 l 6075 4514 l 6075 4448 l 6075 4385 l 6075 4324 l
 6075 4266 l 6075 4210 l 6075 4158 l 6075 4107 l 6075 4060 l
 6075 4014 l 6075 3971 l 6075 3931 l 6075 3892 l 6075 3855 l
 6075 3819 l 6075 3785 l 6075 3753 l 6075 3722 l 6075 3692 l
 6075 3663 l 6075 3617 l 6075 3574 l 6075 3532 l 6075 3492 l
 6075 3453 l 6075 3416 l 6074 3379 l 6074 3344 l 6073 3310 l
 6073 3277 l 6072 3245 l 6071 3214 l 6070 3185 l 6069 3156 l
 6067 3129 l 6065 3103 l 6064 3078 l 6061 3054 l 6059 3031 l
 6057 3009 l 6054 2987 l 6051 2967 l 6048 2947 l 6045 2927 l
 6041 2907 l 6038 2888 l 6033 2866 l 6028 2844 l 6023 2821 l
 6018 2797 l 6012 2773 l 6006 2748 l 6000 2722 l 5993 2695 l
 5987 2668 l 5980 2640 l 5974 2611 l 5968 2582 l 5962 2553 l
 5956 2524 l 5950 2495 l 5945 2466 l 5941 2438 l 5937 2410 l
 5933 2382 l 5930 2355 l 5928 2328 l 5926 2302 l 5925 2276 l
 5925 2250 l 5925 2224 l 5926 2198 l 5928 2172 l 5930 2145 l
 5933 2118 l 5937 2090 l 5941 2062 l 5945 2034 l 5950 2005 l
 5956 1976 l 5962 1947 l 5968 1918 l 5974 1889 l 5980 1860 l
 5987 1832 l 5993 1805 l 6000 1778 l 6006 1752 l 6012 1727 l
 6018 1703 l 6023 1679 l 6028 1656 l 6033 1634 l 6038 1613 l
 6042 1587 l 6047 1562 l 6051 1536 l 6055 1511 l 6058 1486 l
 6061 1460 l 6064 1435 l 6066 1410 l 6068 1385 l 6070 1360 l
 6071 1337 l 6072 1313 l 6073 1291 l 6074 1270 l 6074 1249 l
 6075 1230 l 6075 1212 l 6075 1195 l 6075 1178 l 6075 1163 l
 6075 1144 l 6075 1125 l 6075 1107 l 6075 1088 l 6075 1069 l
 6075 1049 l 6075 1027 l 6075 1005 l 6075 982 l 6075 959 l
 6075 939 l
 6075 900 l gs col4 s gr gr

% arrowhead
0 slj
3.750 slw
n 6090 985 m 6075 910 l 6060 985 l 6075 970 l 6090 985 l 
 cp gs col4 1.00 shd ef gr  col4 s
% Polyline
2 slj
7.500 slw
gs  clippath
6165 885 m 6135 885 l 6135 985 l 6150 910 l 6165 985 l cp
eoclip
n 6150 5550 m 6150 5548 l 6150 5544 l 6150 5536 l 6150 5524 l 6150 5506 l
 6150 5482 l 6150 5452 l 6150 5416 l 6150 5373 l 6150 5325 l
 6150 5270 l 6150 5211 l 6150 5147 l 6150 5080 l 6150 5010 l
 6150 4938 l 6150 4865 l 6150 4792 l 6150 4719 l 6150 4647 l
 6150 4577 l 6150 4508 l 6150 4442 l 6150 4378 l 6150 4317 l
 6150 4258 l 6150 4202 l 6150 4148 l 6150 4097 l 6150 4048 l
 6150 4002 l 6150 3958 l 6150 3916 l 6150 3876 l 6150 3838 l
 6150 3801 l 6150 3766 l 6150 3732 l 6150 3700 l 6150 3668 l
 6150 3638 l 6150 3593 l 6150 3550 l 6150 3508 l 6150 3468 l
 6150 3428 l 6150 3390 l 6150 3352 l 6149 3316 l 6149 3281 l
 6149 3247 l 6148 3214 l 6148 3182 l 6147 3151 l 6147 3122 l
 6146 3094 l 6145 3067 l 6144 3042 l 6143 3018 l 6141 2996 l
 6140 2975 l 6139 2956 l 6137 2938 l 6135 2921 l 6134 2905 l
 6132 2890 l 6130 2876 l 6127 2863 l 6125 2850 l 6121 2831 l
 6117 2814 l 6112 2797 l 6106 2780 l 6101 2763 l 6095 2747 l
 6088 2730 l 6082 2713 l 6075 2697 l 6068 2679 l 6062 2662 l
 6055 2644 l 6049 2626 l 6044 2607 l 6038 2588 l 6033 2568 l
 6029 2547 l 6025 2525 l 6022 2506 l 6019 2485 l 6017 2463 l
 6015 2440 l 6013 2416 l 6011 2390 l 6010 2364 l 6008 2336 l
 6008 2308 l 6007 2279 l 6007 2250 l 6007 2221 l 6008 2192 l
 6008 2164 l 6010 2136 l 6011 2110 l 6013 2084 l 6015 2060 l
 6017 2037 l 6019 2015 l 6022 1994 l 6025 1975 l 6029 1953 l
 6033 1932 l 6038 1912 l 6044 1893 l 6049 1874 l 6055 1856 l
 6062 1838 l 6068 1821 l 6075 1803 l 6082 1787 l 6088 1770 l
 6095 1753 l 6101 1737 l 6106 1720 l 6112 1703 l 6117 1686 l
 6121 1669 l 6125 1650 l 6128 1632 l 6131 1613 l 6134 1593 l
 6136 1572 l 6139 1550 l 6141 1526 l 6142 1501 l 6144 1476 l
 6145 1450 l 6147 1423 l 6147 1397 l 6148 1370 l 6149 1344 l
 6149 1319 l 6150 1295 l 6150 1271 l 6150 1249 l 6150 1227 l
 6150 1207 l 6150 1188 l 6150 1164 l 6150 1143 l 6150 1121 l
 6150 1100 l 6150 1078 l 6150 1056 l 6150 1033 l 6150 1009 l
 6150 985 l 6150 961 l 6150 940 l
 6150 900 l gs col4 s gr gr

% arrowhead
0 slj
3.750 slw
n 6165 985 m 6150 910 l 6135 985 l 6150 970 l 6165 985 l 
 cp gs col4 1.00 shd ef gr  col4 s
% Polyline
2 slj
7.500 slw
gs  clippath
6315 885 m 6285 885 l 6285 985 l 6300 910 l 6315 985 l cp
eoclip
n 6300 5550 m 6300 5548 l 6300 5544 l 6300 5536 l 6300 5524 l 6300 5506 l
 6300 5482 l 6300 5452 l 6300 5416 l 6300 5373 l 6300 5324 l
 6300 5270 l 6300 5210 l 6300 5146 l 6300 5079 l 6300 5009 l
 6300 4937 l 6300 4864 l 6300 4790 l 6300 4717 l 6300 4645 l
 6300 4575 l 6300 4506 l 6300 4439 l 6300 4375 l 6300 4313 l
 6300 4254 l 6300 4197 l 6300 4143 l 6300 4092 l 6300 4043 l
 6300 3996 l 6300 3952 l 6300 3909 l 6300 3869 l 6300 3830 l
 6300 3793 l 6300 3757 l 6300 3722 l 6300 3689 l 6300 3656 l
 6300 3625 l 6300 3579 l 6300 3535 l 6300 3492 l 6300 3450 l
 6300 3409 l 6300 3369 l 6300 3330 l 6301 3292 l 6301 3255 l
 6301 3219 l 6302 3184 l 6302 3151 l 6303 3118 l 6303 3088 l
 6304 3058 l 6305 3031 l 6306 3004 l 6307 2980 l 6309 2957 l
 6310 2935 l 6311 2915 l 6313 2897 l 6315 2880 l 6316 2864 l
 6318 2850 l 6320 2836 l 6323 2824 l 6325 2813 l 6330 2794 l
 6335 2778 l 6340 2763 l 6347 2748 l 6353 2735 l 6360 2721 l
 6368 2708 l 6375 2695 l 6382 2681 l 6390 2666 l 6397 2651 l
 6403 2634 l 6410 2616 l 6415 2596 l 6420 2574 l 6425 2550 l
 6428 2532 l 6430 2513 l 6433 2492 l 6435 2470 l 6437 2446 l
 6438 2421 l 6440 2395 l 6441 2367 l 6442 2339 l 6443 2310 l
 6443 2280 l 6443 2250 l 6443 2220 l 6443 2190 l 6442 2161 l
 6441 2133 l 6440 2105 l 6438 2079 l 6437 2054 l 6435 2030 l
 6433 2008 l 6430 1987 l 6428 1968 l 6425 1950 l 6420 1926 l
 6415 1904 l 6410 1884 l 6403 1866 l 6397 1849 l 6390 1834 l
 6382 1819 l 6375 1805 l 6368 1792 l 6360 1779 l 6353 1765 l
 6347 1752 l 6340 1737 l 6335 1722 l 6330 1706 l 6325 1688 l
 6322 1673 l 6319 1657 l 6317 1639 l 6314 1621 l 6312 1601 l
 6310 1579 l 6309 1557 l 6307 1533 l 6306 1508 l 6304 1483 l
 6303 1457 l 6303 1431 l 6302 1405 l 6301 1379 l 6301 1354 l
 6301 1329 l 6300 1305 l 6300 1282 l 6300 1260 l 6300 1239 l
 6300 1219 l 6300 1200 l 6300 1175 l 6300 1151 l 6300 1128 l
 6300 1106 l 6300 1083 l 6300 1060 l 6300 1036 l 6300 1011 l
 6300 986 l 6300 962 l 6300 941 l
 6300 900 l gs col4 s gr gr

% arrowhead
0 slj
3.750 slw
n 6315 985 m 6300 910 l 6285 985 l 6300 970 l 6315 985 l 
 cp gs col4 1.00 shd ef gr  col4 s
% Polyline
2 slj
7.500 slw
gs  clippath
6390 885 m 6360 885 l 6360 985 l 6375 910 l 6390 985 l cp
eoclip
n 6375 5550 m 6375 5548 l 6375 5544 l 6375 5536 l 6375 5524 l 6375 5506 l
 6375 5482 l 6375 5452 l 6375 5416 l 6375 5373 l 6375 5325 l
 6375 5270 l 6375 5211 l 6375 5147 l 6375 5080 l 6375 5010 l
 6375 4938 l 6375 4865 l 6375 4792 l 6375 4719 l 6375 4647 l
 6375 4577 l 6375 4508 l 6375 4442 l 6375 4378 l 6375 4317 l
 6375 4258 l 6375 4202 l 6375 4148 l 6375 4097 l 6375 4048 l
 6375 4002 l 6375 3958 l 6375 3916 l 6375 3876 l 6375 3838 l
 6375 3801 l 6375 3766 l 6375 3732 l 6375 3700 l 6375 3668 l
 6375 3638 l 6375 3593 l 6375 3550 l 6375 3508 l 6375 3468 l
 6375 3428 l 6375 3390 l 6375 3352 l 6376 3316 l 6376 3281 l
 6376 3247 l 6377 3214 l 6377 3182 l 6378 3151 l 6378 3122 l
 6379 3094 l 6380 3067 l 6381 3042 l 6382 3018 l 6384 2996 l
 6385 2975 l 6386 2956 l 6388 2938 l 6390 2921 l 6391 2905 l
 6393 2890 l 6395 2876 l 6398 2863 l 6400 2850 l 6404 2831 l
 6408 2814 l 6413 2797 l 6419 2780 l 6424 2763 l 6430 2747 l
 6437 2730 l 6443 2713 l 6450 2697 l 6457 2679 l 6463 2662 l
 6470 2644 l 6476 2626 l 6481 2607 l 6487 2588 l 6492 2568 l
 6496 2547 l 6500 2525 l 6503 2506 l 6506 2485 l 6508 2463 l
 6510 2440 l 6512 2416 l 6514 2390 l 6515 2364 l 6517 2336 l
 6517 2308 l 6518 2279 l 6518 2250 l 6518 2221 l 6517 2192 l
 6517 2164 l 6515 2136 l 6514 2110 l 6512 2084 l 6510 2060 l
 6508 2037 l 6506 2015 l 6503 1994 l 6500 1975 l 6496 1953 l
 6492 1932 l 6487 1912 l 6481 1893 l 6476 1874 l 6470 1856 l
 6463 1838 l 6457 1821 l 6450 1803 l 6443 1787 l 6437 1770 l
 6430 1753 l 6424 1737 l 6419 1720 l 6413 1703 l 6408 1686 l
 6404 1669 l 6400 1650 l 6397 1632 l 6394 1613 l 6391 1593 l
 6389 1572 l 6386 1550 l 6384 1526 l 6383 1501 l 6381 1476 l
 6380 1450 l 6378 1423 l 6378 1397 l 6377 1370 l 6376 1344 l
 6376 1319 l 6375 1295 l 6375 1271 l 6375 1249 l 6375 1227 l
 6375 1207 l 6375 1188 l 6375 1164 l 6375 1143 l 6375 1121 l
 6375 1100 l 6375 1078 l 6375 1056 l 6375 1033 l 6375 1009 l
 6375 985 l 6375 961 l 6375 940 l
 6375 900 l gs col4 s gr gr

% arrowhead
0 slj
3.750 slw
n 6390 985 m 6375 910 l 6360 985 l 6375 970 l 6390 985 l 
 cp gs col4 1.00 shd ef gr  col4 s
% Polyline
2 slj
7.500 slw
gs  clippath
6465 885 m 6435 885 l 6435 985 l 6450 910 l 6465 985 l cp
eoclip
n 6450 5550 m 6450 5548 l 6450 5544 l 6450 5536 l 6450 5524 l 6450 5506 l
 6450 5482 l 6450 5453 l 6450 5416 l 6450 5374 l 6450 5325 l
 6450 5271 l 6450 5212 l 6450 5149 l 6450 5082 l 6450 5012 l
 6450 4940 l 6450 4868 l 6450 4795 l 6450 4723 l 6450 4652 l
 6450 4582 l 6450 4514 l 6450 4448 l 6450 4385 l 6450 4324 l
 6450 4266 l 6450 4210 l 6450 4158 l 6450 4107 l 6450 4060 l
 6450 4014 l 6450 3971 l 6450 3931 l 6450 3892 l 6450 3855 l
 6450 3819 l 6450 3785 l 6450 3753 l 6450 3722 l 6450 3692 l
 6450 3663 l 6450 3617 l 6450 3574 l 6450 3532 l 6450 3492 l
 6450 3453 l 6450 3416 l 6451 3379 l 6451 3344 l 6452 3310 l
 6452 3277 l 6453 3245 l 6454 3214 l 6455 3185 l 6456 3156 l
 6458 3129 l 6460 3103 l 6461 3078 l 6464 3054 l 6466 3031 l
 6468 3009 l 6471 2987 l 6474 2967 l 6477 2947 l 6480 2927 l
 6484 2907 l 6488 2888 l 6492 2866 l 6497 2844 l 6502 2821 l
 6507 2797 l 6513 2773 l 6519 2748 l 6525 2722 l 6532 2695 l
 6538 2668 l 6545 2640 l 6551 2611 l 6557 2582 l 6563 2553 l
 6569 2524 l 6575 2495 l 6580 2466 l 6584 2438 l 6588 2410 l
 6592 2382 l 6595 2355 l 6597 2328 l 6599 2302 l 6600 2276 l
 6600 2250 l 6600 2224 l 6599 2198 l 6597 2172 l 6595 2145 l
 6592 2118 l 6588 2090 l 6584 2062 l 6580 2034 l 6575 2005 l
 6569 1976 l 6563 1947 l 6557 1918 l 6551 1889 l 6545 1860 l
 6538 1832 l 6532 1805 l 6525 1778 l 6519 1752 l 6513 1727 l
 6507 1703 l 6502 1679 l 6497 1656 l 6492 1634 l 6488 1613 l
 6483 1587 l 6478 1562 l 6474 1536 l 6470 1511 l 6467 1486 l
 6464 1460 l 6461 1435 l 6459 1410 l 6457 1385 l 6455 1360 l
 6454 1337 l 6453 1313 l 6452 1291 l 6451 1270 l 6451 1249 l
 6450 1230 l 6450 1212 l 6450 1195 l 6450 1178 l 6450 1163 l
 6450 1144 l 6450 1125 l 6450 1107 l 6450 1088 l 6450 1069 l
 6450 1049 l 6450 1027 l 6450 1005 l 6450 982 l 6450 959 l
 6450 939 l
 6450 900 l gs col4 s gr gr

% arrowhead
0 slj
3.750 slw
n 6465 985 m 6450 910 l 6435 985 l 6450 970 l 6465 985 l 
 cp gs col4 1.00 shd ef gr  col4 s
% Polyline
2 slj
7.500 slw
gs  clippath
6540 885 m 6510 885 l 6510 985 l 6525 910 l 6540 985 l cp
eoclip
n 6525 5550 m 6525 5548 l 6525 5544 l 6525 5536 l 6525 5524 l 6525 5506 l
 6525 5483 l 6525 5453 l 6525 5417 l 6525 5374 l 6525 5326 l
 6525 5272 l 6525 5213 l 6525 5150 l 6525 5083 l 6525 5014 l
 6525 4943 l 6525 4871 l 6525 4799 l 6525 4727 l 6525 4656 l
 6525 4587 l 6525 4519 l 6525 4454 l 6525 4391 l 6525 4331 l
 6525 4274 l 6525 4219 l 6525 4167 l 6525 4118 l 6525 4071 l
 6525 4027 l 6525 3985 l 6525 3945 l 6525 3907 l 6525 3871 l
 6525 3837 l 6525 3804 l 6525 3773 l 6525 3744 l 6525 3715 l
 6525 3688 l 6525 3645 l 6525 3605 l 6525 3566 l 6525 3529 l
 6525 3494 l 6525 3460 l 6526 3427 l 6526 3396 l 6527 3366 l
 6527 3337 l 6528 3309 l 6529 3282 l 6530 3256 l 6531 3231 l
 6533 3208 l 6535 3185 l 6536 3163 l 6539 3142 l 6541 3122 l
 6543 3102 l 6546 3083 l 6549 3064 l 6552 3045 l 6555 3026 l
 6559 3007 l 6563 2988 l 6567 2967 l 6571 2946 l 6576 2924 l
 6581 2901 l 6586 2877 l 6591 2852 l 6597 2826 l 6603 2799 l
 6609 2771 l 6615 2742 l 6621 2712 l 6627 2681 l 6632 2650 l
 6638 2619 l 6643 2587 l 6648 2555 l 6653 2523 l 6658 2492 l
 6661 2460 l 6665 2429 l 6668 2398 l 6670 2368 l 6672 2338 l
 6674 2308 l 6675 2279 l 6675 2250 l 6675 2221 l 6674 2192 l
 6672 2162 l 6670 2132 l 6668 2102 l 6665 2071 l 6661 2040 l
 6658 2008 l 6653 1977 l 6648 1945 l 6643 1913 l 6638 1881 l
 6632 1850 l 6627 1819 l 6621 1788 l 6615 1758 l 6609 1729 l
 6603 1701 l 6597 1674 l 6591 1648 l 6586 1623 l 6581 1599 l
 6576 1576 l 6571 1554 l 6567 1533 l 6563 1513 l 6557 1485 l
 6552 1458 l 6548 1431 l 6544 1406 l 6540 1381 l 6537 1357 l
 6534 1333 l 6532 1311 l 6530 1289 l 6529 1268 l 6527 1248 l
 6527 1229 l 6526 1212 l 6525 1195 l 6525 1180 l 6525 1165 l
 6525 1151 l 6525 1138 l 6525 1120 l 6525 1103 l 6525 1086 l
 6525 1067 l 6525 1046 l 6525 1024 l 6525 1000 l 6525 975 l
 6525 951 l 6525 930 l
 6525 900 l gs col4 s gr gr

% arrowhead
0 slj
3.750 slw
n 6540 985 m 6525 910 l 6510 985 l 6525 970 l 6540 985 l 
 cp gs col4 1.00 shd ef gr  col4 s
% Polyline
2 slj
7.500 slw
gs  clippath
3240 3435 m 3210 3435 l 3210 3535 l 3225 3460 l 3240 3535 l cp
eoclip
n 3225 5925 m 3225 5922 l 3225 5917 l 3225 5906 l 3224 5891 l 3224 5870 l
 3223 5846 l 3222 5817 l 3221 5786 l 3220 5754 l 3219 5722 l
 3217 5691 l 3215 5661 l 3213 5632 l 3211 5605 l 3209 5579 l
 3206 5554 l 3203 5530 l 3200 5507 l 3196 5484 l 3192 5461 l
 3188 5438 l 3183 5416 l 3178 5394 l 3173 5371 l 3168 5347 l
 3162 5323 l 3156 5298 l 3150 5272 l 3143 5245 l 3137 5218 l
 3130 5190 l 3124 5161 l 3118 5132 l 3112 5103 l 3106 5074 l
 3100 5045 l 3095 5016 l 3091 4988 l 3087 4960 l 3083 4932 l
 3080 4905 l 3078 4878 l 3076 4852 l 3075 4826 l 3075 4800 l
 3075 4774 l 3076 4748 l 3078 4722 l 3080 4695 l 3083 4668 l
 3087 4640 l 3091 4612 l 3095 4584 l 3100 4555 l 3106 4526 l
 3112 4497 l 3118 4468 l 3124 4439 l 3130 4410 l 3137 4382 l
 3143 4355 l 3150 4328 l 3156 4302 l 3162 4277 l 3168 4253 l
 3173 4229 l 3178 4206 l 3183 4184 l 3188 4163 l 3192 4137 l
 3197 4112 l 3201 4086 l 3205 4061 l 3208 4036 l 3211 4010 l
 3214 3985 l 3216 3960 l 3218 3935 l 3220 3910 l 3221 3887 l
 3222 3863 l 3223 3841 l 3224 3820 l 3224 3799 l 3225 3780 l
 3225 3762 l 3225 3745 l 3225 3728 l 3225 3713 l 3225 3694 l
 3225 3675 l 3225 3657 l 3225 3638 l 3225 3619 l 3225 3599 l
 3225 3577 l 3225 3555 l 3225 3532 l 3225 3509 l 3225 3489 l

 3225 3450 l gs col4 s gr gr

% arrowhead
0 slj
3.750 slw
n 3240 3535 m 3225 3460 l 3210 3535 l 3225 3520 l 3240 3535 l 
 cp gs col4 1.00 shd ef gr  col4 s
% Polyline
2 slj
7.500 slw
gs  clippath
3690 3435 m 3660 3435 l 3660 3535 l 3675 3460 l 3690 3535 l cp
eoclip
n 3675 5925 m 3675 5922 l 3675 5915 l 3676 5903 l 3676 5885 l 3677 5862 l
 3678 5836 l 3680 5808 l 3681 5779 l 3683 5750 l 3686 5722 l
 3688 5695 l 3691 5669 l 3694 5644 l 3698 5618 l 3702 5592 l
 3707 5565 l 3713 5538 l 3717 5517 l 3721 5496 l 3726 5474 l
 3731 5451 l 3736 5427 l 3741 5402 l 3747 5376 l 3753 5349 l
 3759 5321 l 3765 5292 l 3771 5262 l 3777 5231 l 3782 5200 l
 3788 5169 l 3793 5137 l 3798 5105 l 3803 5073 l 3808 5042 l
 3811 5010 l 3815 4979 l 3818 4948 l 3820 4918 l 3822 4888 l
 3824 4858 l 3825 4829 l 3825 4800 l 3825 4771 l 3824 4742 l
 3822 4712 l 3820 4682 l 3818 4652 l 3815 4621 l 3811 4590 l
 3808 4558 l 3803 4527 l 3798 4495 l 3793 4463 l 3788 4431 l
 3782 4400 l 3777 4369 l 3771 4338 l 3765 4308 l 3759 4279 l
 3753 4251 l 3747 4224 l 3741 4198 l 3736 4173 l 3731 4149 l
 3726 4126 l 3721 4104 l 3717 4083 l 3713 4063 l 3707 4035 l
 3702 4008 l 3698 3981 l 3694 3956 l 3690 3931 l 3687 3907 l
 3684 3883 l 3682 3861 l 3680 3839 l 3679 3818 l 3677 3798 l
 3677 3779 l 3676 3762 l 3675 3745 l 3675 3730 l 3675 3715 l
 3675 3701 l 3675 3688 l 3675 3670 l 3675 3653 l 3675 3636 l
 3675 3617 l 3675 3596 l 3675 3574 l 3675 3550 l 3675 3525 l
 3675 3501 l 3675 3480 l
 3675 3450 l gs col4 s gr gr

% arrowhead
0 slj
3.750 slw
n 3690 3535 m 3675 3460 l 3660 3535 l 3675 3520 l 3690 3535 l 
 cp gs col4 1.00 shd ef gr  col4 s
% Polyline
2 slj
7.500 slw
gs  clippath
3615 3435 m 3585 3435 l 3585 3535 l 3600 3460 l 3615 3535 l cp
eoclip
n 3600 5925 m 3600 5922 l 3600 5917 l 3600 5906 l 3601 5891 l 3601 5870 l
 3602 5846 l 3603 5817 l 3604 5786 l 3605 5754 l 3606 5722 l
 3608 5691 l 3610 5661 l 3612 5632 l 3614 5605 l 3616 5579 l
 3619 5554 l 3622 5530 l 3625 5507 l 3629 5484 l 3633 5461 l
 3638 5438 l 3642 5416 l 3647 5394 l 3652 5371 l 3657 5347 l
 3663 5323 l 3669 5298 l 3675 5272 l 3682 5245 l 3688 5218 l
 3695 5190 l 3701 5161 l 3707 5132 l 3713 5103 l 3719 5074 l
 3725 5045 l 3730 5016 l 3734 4988 l 3738 4960 l 3742 4932 l
 3745 4905 l 3747 4878 l 3749 4852 l 3750 4826 l 3750 4800 l
 3750 4774 l 3749 4748 l 3747 4722 l 3745 4695 l 3742 4668 l
 3738 4640 l 3734 4612 l 3730 4584 l 3725 4555 l 3719 4526 l
 3713 4497 l 3707 4468 l 3701 4439 l 3695 4410 l 3688 4382 l
 3682 4355 l 3675 4328 l 3669 4302 l 3663 4277 l 3657 4253 l
 3652 4229 l 3647 4206 l 3642 4184 l 3638 4163 l 3633 4137 l
 3628 4112 l 3624 4086 l 3620 4061 l 3617 4036 l 3614 4010 l
 3611 3985 l 3609 3960 l 3607 3935 l 3605 3910 l 3604 3887 l
 3603 3863 l 3602 3841 l 3601 3820 l 3601 3799 l 3600 3780 l
 3600 3762 l 3600 3745 l 3600 3728 l 3600 3713 l 3600 3694 l
 3600 3675 l 3600 3657 l 3600 3638 l 3600 3619 l 3600 3599 l
 3600 3577 l 3600 3555 l 3600 3532 l 3600 3509 l 3600 3489 l

 3600 3450 l gs col4 s gr gr

% arrowhead
0 slj
3.750 slw
n 3615 3535 m 3600 3460 l 3585 3535 l 3600 3520 l 3615 3535 l 
 cp gs col4 1.00 shd ef gr  col4 s
% Polyline
2 slj
7.500 slw
gs  clippath
3540 3435 m 3510 3435 l 3510 3535 l 3525 3460 l 3540 3535 l cp
eoclip
n 3525 5925 m 3525 5922 l 3525 5914 l 3525 5901 l 3525 5882 l 3526 5856 l
 3526 5825 l 3527 5790 l 3528 5753 l 3528 5714 l 3529 5676 l
 3530 5640 l 3532 5606 l 3533 5574 l 3534 5545 l 3536 5518 l
 3538 5494 l 3540 5472 l 3542 5452 l 3544 5433 l 3547 5416 l
 3550 5400 l 3554 5381 l 3558 5364 l 3563 5347 l 3569 5330 l
 3574 5313 l 3580 5297 l 3587 5280 l 3593 5263 l 3600 5247 l
 3607 5229 l 3613 5212 l 3620 5194 l 3626 5176 l 3631 5157 l
 3637 5138 l 3642 5118 l 3646 5097 l 3650 5075 l 3653 5056 l
 3656 5035 l 3658 5013 l 3660 4990 l 3662 4966 l 3664 4940 l
 3665 4914 l 3667 4886 l 3667 4858 l 3668 4829 l 3668 4800 l
 3668 4771 l 3667 4742 l 3667 4714 l 3665 4686 l 3664 4660 l
 3662 4634 l 3660 4610 l 3658 4587 l 3656 4565 l 3653 4544 l
 3650 4525 l 3646 4503 l 3642 4482 l 3637 4462 l 3631 4443 l
 3626 4424 l 3620 4406 l 3613 4388 l 3607 4371 l 3600 4353 l
 3593 4337 l 3587 4320 l 3580 4303 l 3574 4287 l 3569 4270 l
 3563 4253 l 3558 4236 l 3554 4219 l 3550 4200 l 3547 4182 l
 3544 4163 l 3541 4143 l 3539 4122 l 3536 4100 l 3534 4076 l
 3533 4051 l 3531 4026 l 3530 4000 l 3528 3973 l 3528 3947 l
 3527 3920 l 3526 3894 l 3526 3869 l 3525 3845 l 3525 3821 l
 3525 3799 l 3525 3777 l 3525 3757 l 3525 3738 l 3525 3714 l
 3525 3693 l 3525 3671 l 3525 3650 l 3525 3628 l 3525 3606 l
 3525 3583 l 3525 3559 l 3525 3535 l 3525 3511 l 3525 3490 l

 3525 3450 l gs col4 s gr gr

% arrowhead
0 slj
3.750 slw
n 3540 3535 m 3525 3460 l 3510 3535 l 3525 3520 l 3540 3535 l 
 cp gs col4 1.00 shd ef gr  col4 s
% Polyline
2 slj
7.500 slw
gs  clippath
3465 3435 m 3435 3435 l 3435 3535 l 3450 3460 l 3465 3535 l cp
eoclip
n 3450 5925 m 3450 5921 l 3450 5913 l 3450 5899 l 3450 5877 l 3451 5849 l
 3451 5814 l 3452 5776 l 3453 5734 l 3453 5692 l 3454 5650 l
 3455 5610 l 3457 5573 l 3458 5539 l 3459 5507 l 3461 5479 l
 3463 5454 l 3465 5432 l 3467 5411 l 3469 5393 l 3472 5377 l
 3475 5363 l 3480 5344 l 3485 5328 l 3490 5313 l 3497 5298 l
 3503 5285 l 3510 5271 l 3518 5258 l 3525 5245 l 3532 5231 l
 3540 5216 l 3547 5201 l 3553 5184 l 3560 5166 l 3565 5146 l
 3570 5124 l 3575 5100 l 3578 5082 l 3580 5063 l 3583 5042 l
 3585 5020 l 3587 4996 l 3588 4971 l 3590 4945 l 3591 4917 l
 3592 4889 l 3593 4860 l 3593 4830 l 3593 4800 l 3593 4770 l
 3593 4740 l 3592 4711 l 3591 4683 l 3590 4655 l 3588 4629 l
 3587 4604 l 3585 4580 l 3583 4558 l 3580 4537 l 3578 4518 l
 3575 4500 l 3570 4476 l 3565 4454 l 3560 4434 l 3553 4416 l
 3547 4399 l 3540 4384 l 3532 4369 l 3525 4355 l 3518 4342 l
 3510 4329 l 3503 4315 l 3497 4302 l 3490 4287 l 3485 4272 l
 3480 4256 l 3475 4238 l 3472 4223 l 3469 4207 l 3467 4189 l
 3464 4171 l 3462 4151 l 3460 4129 l 3459 4107 l 3457 4083 l
 3456 4058 l 3454 4033 l 3453 4007 l 3453 3981 l 3452 3955 l
 3451 3929 l 3451 3904 l 3451 3879 l 3450 3855 l 3450 3832 l
 3450 3810 l 3450 3789 l 3450 3769 l 3450 3750 l 3450 3725 l
 3450 3701 l 3450 3678 l 3450 3656 l 3450 3633 l 3450 3610 l
 3450 3586 l 3450 3561 l 3450 3536 l 3450 3512 l 3450 3491 l

 3450 3450 l gs col4 s gr gr

% arrowhead
0 slj
3.750 slw
n 3465 3535 m 3450 3460 l 3435 3535 l 3450 3520 l 3465 3535 l 
 cp gs col4 1.00 shd ef gr  col4 s
% Polyline
2 slj
7.500 slw
gs  clippath
3390 3435 m 3360 3435 l 3360 3535 l 3375 3460 l 3390 3535 l cp
eoclip
n 3375 5925 m 3375 5921 l 3375 5913 l 3375 5899 l 3375 5877 l 3374 5849 l
 3374 5814 l 3373 5776 l 3372 5734 l 3372 5692 l 3371 5650 l
 3370 5610 l 3368 5573 l 3367 5539 l 3366 5507 l 3364 5479 l
 3362 5454 l 3360 5432 l 3358 5411 l 3356 5393 l 3353 5377 l
 3350 5363 l 3345 5344 l 3340 5328 l 3335 5313 l 3328 5298 l
 3322 5285 l 3315 5271 l 3307 5258 l 3300 5245 l 3293 5231 l
 3285 5216 l 3278 5201 l 3272 5184 l 3265 5166 l 3260 5146 l
 3255 5124 l 3250 5100 l 3247 5082 l 3245 5063 l 3242 5042 l
 3240 5020 l 3238 4996 l 3237 4971 l 3235 4945 l 3234 4917 l
 3233 4889 l 3232 4860 l 3232 4830 l 3232 4800 l 3232 4770 l
 3232 4740 l 3233 4711 l 3234 4683 l 3235 4655 l 3237 4629 l
 3238 4604 l 3240 4580 l 3242 4558 l 3245 4537 l 3247 4518 l
 3250 4500 l 3255 4476 l 3260 4454 l 3265 4434 l 3272 4416 l
 3278 4399 l 3285 4384 l 3293 4369 l 3300 4355 l 3307 4342 l
 3315 4329 l 3322 4315 l 3328 4302 l 3335 4287 l 3340 4272 l
 3345 4256 l 3350 4238 l 3353 4223 l 3356 4207 l 3358 4189 l
 3361 4171 l 3363 4151 l 3365 4129 l 3366 4107 l 3368 4083 l
 3369 4058 l 3371 4033 l 3372 4007 l 3372 3981 l 3373 3955 l
 3374 3929 l 3374 3904 l 3374 3879 l 3375 3855 l 3375 3832 l
 3375 3810 l 3375 3789 l 3375 3769 l 3375 3750 l 3375 3725 l
 3375 3701 l 3375 3678 l 3375 3656 l 3375 3633 l 3375 3610 l
 3375 3586 l 3375 3561 l 3375 3536 l 3375 3512 l 3375 3491 l

 3375 3450 l gs col4 s gr gr

% arrowhead
0 slj
3.750 slw
n 3390 3535 m 3375 3460 l 3360 3535 l 3375 3520 l 3390 3535 l 
 cp gs col4 1.00 shd ef gr  col4 s
% Polyline
2 slj
7.500 slw
gs  clippath
3315 3435 m 3285 3435 l 3285 3535 l 3300 3460 l 3315 3535 l cp
eoclip
n 3300 5925 m 3300 5922 l 3300 5914 l 3300 5901 l 3300 5882 l 3299 5856 l
 3299 5825 l 3298 5790 l 3297 5753 l 3297 5714 l 3296 5676 l
 3295 5640 l 3293 5606 l 3292 5574 l 3291 5545 l 3289 5518 l
 3287 5494 l 3285 5472 l 3283 5452 l 3281 5433 l 3278 5416 l
 3275 5400 l 3271 5381 l 3267 5364 l 3262 5347 l 3256 5330 l
 3251 5313 l 3245 5297 l 3238 5280 l 3232 5263 l 3225 5247 l
 3218 5229 l 3212 5212 l 3205 5194 l 3199 5176 l 3194 5157 l
 3188 5138 l 3183 5118 l 3179 5097 l 3175 5075 l 3172 5056 l
 3169 5035 l 3167 5013 l 3165 4990 l 3163 4966 l 3161 4940 l
 3160 4914 l 3158 4886 l 3158 4858 l 3157 4829 l 3157 4800 l
 3157 4771 l 3158 4742 l 3158 4714 l 3160 4686 l 3161 4660 l
 3163 4634 l 3165 4610 l 3167 4587 l 3169 4565 l 3172 4544 l
 3175 4525 l 3179 4503 l 3183 4482 l 3188 4462 l 3194 4443 l
 3199 4424 l 3205 4406 l 3212 4388 l 3218 4371 l 3225 4353 l
 3232 4337 l 3238 4320 l 3245 4303 l 3251 4287 l 3256 4270 l
 3262 4253 l 3267 4236 l 3271 4219 l 3275 4200 l 3278 4182 l
 3281 4163 l 3284 4143 l 3286 4122 l 3289 4100 l 3291 4076 l
 3292 4051 l 3294 4026 l 3295 4000 l 3297 3973 l 3297 3947 l
 3298 3920 l 3299 3894 l 3299 3869 l 3300 3845 l 3300 3821 l
 3300 3799 l 3300 3777 l 3300 3757 l 3300 3738 l 3300 3714 l
 3300 3693 l 3300 3671 l 3300 3650 l 3300 3628 l 3300 3606 l
 3300 3583 l 3300 3559 l 3300 3535 l 3300 3511 l 3300 3490 l

 3300 3450 l gs col4 s gr gr

% arrowhead
0 slj
3.750 slw
n 3315 3535 m 3300 3460 l 3285 3535 l 3300 3520 l 3315 3535 l 
 cp gs col4 1.00 shd ef gr  col4 s
% Polyline
2 slj
7.500 slw
gs  clippath
3165 3435 m 3135 3435 l 3135 3535 l 3150 3460 l 3165 3535 l cp
eoclip
n 3150 5925 m 3150 5922 l 3150 5915 l 3149 5903 l 3149 5885 l 3148 5862 l
 3147 5836 l 3145 5808 l 3144 5779 l 3142 5750 l 3139 5722 l
 3137 5695 l 3134 5669 l 3131 5644 l 3127 5618 l 3123 5592 l
 3118 5565 l 3113 5538 l 3108 5517 l 3104 5496 l 3099 5474 l
 3094 5451 l 3089 5427 l 3084 5402 l 3078 5376 l 3072 5349 l
 3066 5321 l 3060 5292 l 3054 5262 l 3048 5231 l 3043 5200 l
 3037 5169 l 3032 5137 l 3027 5105 l 3022 5073 l 3017 5042 l
 3014 5010 l 3010 4979 l 3007 4948 l 3005 4918 l 3003 4888 l
 3001 4858 l 3000 4829 l 3000 4800 l 3000 4771 l 3001 4742 l
 3003 4712 l 3005 4682 l 3007 4652 l 3010 4621 l 3014 4590 l
 3017 4558 l 3022 4527 l 3027 4495 l 3032 4463 l 3037 4431 l
 3043 4400 l 3048 4369 l 3054 4338 l 3060 4308 l 3066 4279 l
 3072 4251 l 3078 4224 l 3084 4198 l 3089 4173 l 3094 4149 l
 3099 4126 l 3104 4104 l 3108 4083 l 3113 4063 l 3118 4035 l
 3123 4008 l 3127 3981 l 3131 3956 l 3135 3931 l 3138 3907 l
 3141 3883 l 3143 3861 l 3145 3839 l 3146 3818 l 3148 3798 l
 3148 3779 l 3149 3762 l 3150 3745 l 3150 3730 l 3150 3715 l
 3150 3701 l 3150 3688 l 3150 3670 l 3150 3653 l 3150 3636 l
 3150 3617 l 3150 3596 l 3150 3574 l 3150 3550 l 3150 3525 l
 3150 3501 l 3150 3480 l
 3150 3450 l gs col4 s gr gr

% arrowhead
0 slj
3.750 slw
n 3165 3535 m 3150 3460 l 3135 3535 l 3150 3520 l 3165 3535 l 
 cp gs col4 1.00 shd ef gr  col4 s
% Polyline
2 slj
7.500 slw
gs  clippath
3765 3435 m 3735 3435 l 3735 3535 l 3750 3460 l 3765 3535 l cp
eoclip
n 3750 3450 m 3750 3479 l 3750 3500 l 3750 3523 l 3750 3546 l 3750 3568 l
 3750 3588 l 3750 3606 l 3750 3622 l 3750 3637 l 3750 3650 l
 3750 3663 l 3750 3673 l 3750 3684 l 3750 3695 l 3751 3707 l
 3751 3720 l 3752 3735 l 3753 3750 l 3755 3767 l 3757 3786 l
 3760 3806 l 3763 3828 l 3767 3851 l 3771 3876 l 3776 3903 l
 3781 3932 l 3788 3963 l 3791 3981 l 3795 4001 l 3800 4022 l
 3804 4045 l 3809 4068 l 3814 4093 l 3819 4119 l 3824 4146 l
 3830 4174 l 3835 4204 l 3841 4235 l 3846 4266 l 3852 4298 l
 3857 4332 l 3863 4365 l 3868 4399 l 3872 4434 l 3877 4468 l
 3881 4502 l 3885 4537 l 3888 4571 l 3891 4605 l 3894 4638 l
 3896 4671 l 3898 4704 l 3899 4736 l 3900 4768 l 3900 4800 l
 3900 4832 l 3899 4864 l 3898 4896 l 3896 4929 l 3894 4962 l
 3891 4995 l 3888 5029 l 3885 5063 l 3881 5098 l 3877 5132 l
 3872 5166 l 3868 5201 l 3863 5235 l 3857 5268 l 3852 5302 l
 3846 5334 l 3841 5365 l 3835 5396 l 3830 5426 l 3824 5454 l
 3819 5481 l 3814 5507 l 3809 5532 l 3804 5555 l 3800 5578 l
 3795 5599 l 3791 5619 l 3788 5638 l 3781 5668 l 3776 5696 l
 3772 5722 l 3768 5746 l 3764 5770 l 3761 5792 l 3759 5814 l
 3756 5836 l 3755 5857 l 3753 5877 l 3752 5894 l 3751 5907 l
 3750 5917 l 3750 5922 l
 3750 5925 l gs col4 s gr gr

% arrowhead
0 slj
3.750 slw
n 3765 3535 m 3750 3460 l 3735 3535 l 3750 3520 l 3765 3535 l 
 cp gs col4 1.00 shd ef gr  col4 s
% Polyline
7.500 slw
gs  clippath
3090 510 m 3060 510 l 3060 610 l 3075 535 l 3090 610 l cp
eoclip
n 3075 525 m
 3075 3000 l gs col4 s gr gr

% arrowhead
3.750 slw
n 3090 610 m 3075 535 l 3060 610 l 3075 595 l 3090 610 l 
 cp gs col4 1.00 shd ef gr  col4 s
% Polyline
7.500 slw
gs  clippath
3165 510 m 3135 510 l 3135 610 l 3150 535 l 3165 610 l cp
eoclip
n 3150 525 m
 3150 3000 l gs col4 s gr gr

% arrowhead
3.750 slw
n 3165 610 m 3150 535 l 3135 610 l 3150 595 l 3165 610 l 
 cp gs col4 1.00 shd ef gr  col4 s
% Polyline
7.500 slw
gs  clippath
3240 510 m 3210 510 l 3210 610 l 3225 535 l 3240 610 l cp
eoclip
n 3225 525 m
 3225 3000 l gs col4 s gr gr

% arrowhead
3.750 slw
n 3240 610 m 3225 535 l 3210 610 l 3225 595 l 3240 610 l 
 cp gs col4 1.00 shd ef gr  col4 s
% Polyline
7.500 slw
gs  clippath
3315 510 m 3285 510 l 3285 610 l 3300 535 l 3315 610 l cp
eoclip
n 3300 525 m
 3300 3000 l gs col4 s gr gr

% arrowhead
3.750 slw
n 3315 610 m 3300 535 l 3285 610 l 3300 595 l 3315 610 l 
 cp gs col4 1.00 shd ef gr  col4 s
% Polyline
2 slj
7.500 slw
gs  clippath
3090 3435 m 3060 3435 l 3060 3535 l 3075 3460 l 3090 3535 l cp
eoclip
n 3075 3450 m 3075 3479 l 3075 3500 l 3075 3523 l 3075 3546 l 3075 3568 l
 3075 3588 l 3075 3606 l 3075 3622 l 3075 3637 l 3075 3650 l
 3075 3663 l 3075 3673 l 3075 3684 l 3075 3695 l 3074 3707 l
 3074 3720 l 3073 3735 l 3072 3750 l 3070 3767 l 3068 3786 l
 3065 3806 l 3062 3828 l 3058 3851 l 3054 3876 l 3049 3903 l
 3044 3932 l 3038 3963 l 3034 3981 l 3030 4001 l 3025 4022 l
 3021 4045 l 3016 4068 l 3011 4093 l 3006 4119 l 3001 4146 l
 2995 4174 l 2990 4204 l 2984 4235 l 2979 4266 l 2973 4298 l
 2968 4332 l 2962 4365 l 2957 4399 l 2953 4434 l 2948 4468 l
 2944 4502 l 2940 4537 l 2937 4571 l 2934 4605 l 2931 4638 l
 2929 4671 l 2927 4704 l 2926 4736 l 2925 4768 l 2925 4800 l
 2925 4832 l 2926 4864 l 2927 4896 l 2929 4929 l 2931 4962 l
 2934 4995 l 2937 5029 l 2940 5063 l 2944 5098 l 2948 5132 l
 2953 5166 l 2957 5201 l 2962 5235 l 2968 5268 l 2973 5302 l
 2979 5334 l 2984 5365 l 2990 5396 l 2995 5426 l 3001 5454 l
 3006 5481 l 3011 5507 l 3016 5532 l 3021 5555 l 3025 5578 l
 3030 5599 l 3034 5619 l 3038 5638 l 3044 5668 l 3049 5696 l
 3053 5722 l 3057 5746 l 3061 5770 l 3064 5792 l 3066 5814 l
 3069 5836 l 3070 5857 l 3072 5877 l 3073 5894 l 3074 5907 l
 3075 5917 l 3075 5922 l
 3075 5925 l gs col4 s gr gr

% arrowhead
0 slj
3.750 slw
n 3090 3535 m 3075 3460 l 3060 3535 l 3075 3520 l 3090 3535 l 
 cp gs col4 1.00 shd ef gr  col4 s
% Polyline
7.500 slw
gs  clippath
3390 510 m 3360 510 l 3360 610 l 3375 535 l 3390 610 l cp
eoclip
n 3375 525 m
 3375 3000 l gs col4 s gr gr

% arrowhead
3.750 slw
n 3390 610 m 3375 535 l 3360 610 l 3375 595 l 3390 610 l 
 cp gs col4 1.00 shd ef gr  col4 s
% Polyline
7.500 slw
gs  clippath
3615 510 m 3585 510 l 3585 610 l 3600 535 l 3615 610 l cp
eoclip
n 3600 525 m
 3600 3000 l gs col4 s gr gr

% arrowhead
3.750 slw
n 3615 610 m 3600 535 l 3585 610 l 3600 595 l 3615 610 l 
 cp gs col4 1.00 shd ef gr  col4 s
% Polyline
7.500 slw
gs  clippath
3540 510 m 3510 510 l 3510 610 l 3525 535 l 3540 610 l cp
eoclip
n 3525 525 m
 3525 3000 l gs col4 s gr gr

% arrowhead
3.750 slw
n 3540 610 m 3525 535 l 3510 610 l 3525 595 l 3540 610 l 
 cp gs col4 1.00 shd ef gr  col4 s
% Polyline
7.500 slw
gs  clippath
3465 510 m 3435 510 l 3435 610 l 3450 535 l 3465 610 l cp
eoclip
n 3450 525 m
 3450 3000 l gs col4 s gr gr

% arrowhead
3.750 slw
n 3465 610 m 3450 535 l 3435 610 l 3450 595 l 3465 610 l 
 cp gs col4 1.00 shd ef gr  col4 s
7.500 slw
% Ellipse
n 3412 975 337 150 0 360 DrawEllipse gs col33 1.00 shd ef gr gs col0 s gr

% Polyline
n 3750 1125 m
 3750 825 l gs col7 1.00 shd ef gr gs col4 s gr 
% Polyline
n 3675 975 m
 3675 825 l gs col7 1.00 shd ef gr gs col4 s gr 
% Polyline
n 3600 975 m
 3600 750 l gs col7 1.00 shd ef gr gs col4 s gr 
% Polyline
n 3300 975 m
 3300 750 l gs col7 1.00 shd ef gr gs col4 s gr 
% Polyline
n 3075 1125 m
 3075 825 l gs col7 1.00 shd ef gr gs col4 s gr 
% Polyline
n 3225 975 m
 3225 750 l gs col7 1.00 shd ef gr gs col4 s gr 
% Polyline
n 3150 975 m
 3150 825 l gs col7 1.00 shd ef gr gs col4 s gr 
% Polyline
n 3375 975 m
 3375 750 l gs col7 1.00 shd ef gr gs col4 s gr 
% Polyline
n 3450 975 m
 3450 750 l gs col7 1.00 shd ef gr gs col4 s gr 
% Polyline
n 3525 975 m
 3525 750 l gs col7 1.00 shd ef gr gs col4 s gr 
% Polyline
gs  clippath
3503 1051 m 3526 1071 l 3590 993 l 3531 1042 l 3567 974 l cp
eoclip
n 3525 1050 m 3900 600 l
 4050 600 l gs col8 s gr gr

% arrowhead
3.750 slw
n 3567 974 m 3531 1042 l 3590 993 l 3569 995 l 3567 974 l 
 cp gs col8 1.00 shd ef gr  col8 s
% Polyline
7.500 slw
gs  clippath
4035 2790 m 4065 2790 l 4065 2690 l 4050 2765 l 4035 2690 l cp
4065 960 m 4035 960 l 4035 1060 l 4050 985 l 4065 1060 l cp
eoclip
n 4050 975 m
 4050 2775 l gs col0 s gr gr

% arrowhead
3.750 slw
n 4065 1060 m 4050 985 l 4035 1060 l 4050 1045 l 4065 1060 l 
 cp gs 0.00 setgray ef gr  col0 s
% arrowhead
n 4035 2690 m 4050 2765 l 4065 2690 l 4050 2705 l 4035 2690 l 
 cp gs 0.00 setgray ef gr  col0 s
% Polyline
7.500 slw
gs  clippath
3615 4290 m 3615 4260 l 3515 4260 l 3590 4275 l 3515 4290 l cp
3210 4260 m 3210 4290 l 3310 4290 l 3235 4275 l 3310 4260 l cp
eoclip
n 3225 4275 m
 3600 4275 l gs col0 s gr gr

% arrowhead
3.750 slw
n 3310 4260 m 3235 4275 l 3310 4290 l 3295 4275 l 3310 4260 l 
 cp gs 0.00 setgray ef gr  col0 s
% arrowhead
n 3515 4290 m 3590 4275 l 3515 4260 l 3530 4275 l 3515 4290 l 
 cp gs 0.00 setgray ef gr  col0 s
% Polyline
7.500 slw
gs  clippath
3660 5265 m 3690 5265 l 3690 5165 l 3675 5240 l 3660 5165 l cp
3690 4335 m 3660 4335 l 3660 4435 l 3675 4360 l 3690 4435 l cp
eoclip
n 3675 4350 m
 3675 5250 l gs col0 s gr gr

% arrowhead
3.750 slw
n 3690 4435 m 3675 4360 l 3660 4435 l 3675 4420 l 3690 4435 l 
 cp gs 0.00 setgray ef gr  col0 s
% arrowhead
n 3660 5165 m 3675 5240 l 3690 5165 l 3675 5180 l 3660 5165 l 
 cp gs 0.00 setgray ef gr  col0 s
/Times-Roman ff 180.00 scf sf
4125 1950 m
gs 1 -1 sc (L) col0 sh gr
/Times-Roman ff 180.00 scf sf
4125 675 m
gs 1 -1 sc (Area A) col8 sh gr
/Times-Roman ff 180.00 scf sf
3450 450 m
gs 1 -1 sc (Hext) dup sw pop 2 div neg 0 rm  col4 sh gr
/Times-Roman ff 180.00 scf sf
3750 4875 m
gs 1 -1 sc (ell) col0 sh gr
/Times-Roman ff 180.00 scf sf
3375 4200 m
gs 1 -1 sc (tee) col0 sh gr
% Arc
15.000 slw
n 6637.5 3337.5 265.2 -45.0 45.0 arc
gs col0 s gr

$F2psEnd
rs
