%!PS-Adobe-2.0 EPSF-2.0
%%Title: crystal.eps
%%Creator: fig2dev Version 3.2 Patchlevel 3d
%%CreationDate: Tue Aug 19 17:02:11 2003
%%For: dpeets@physics (Darren Peets)
%%BoundingBox: 0 0 461 195
%%Magnification: 1.0000
%%EndComments
/$F2psDict 200 dict def
$F2psDict begin
$F2psDict /mtrx matrix put
/col-1 {0 setgray} bind def
/col0 {0.000 0.000 0.000 srgb} bind def
/col1 {0.000 0.000 1.000 srgb} bind def
/col2 {0.000 1.000 0.000 srgb} bind def
/col3 {0.000 1.000 1.000 srgb} bind def
/col4 {1.000 0.000 0.000 srgb} bind def
/col5 {1.000 0.000 1.000 srgb} bind def
/col6 {1.000 1.000 0.000 srgb} bind def
/col7 {1.000 1.000 1.000 srgb} bind def
/col8 {0.000 0.000 0.560 srgb} bind def
/col9 {0.000 0.000 0.690 srgb} bind def
/col10 {0.000 0.000 0.820 srgb} bind def
/col11 {0.530 0.810 1.000 srgb} bind def
/col12 {0.000 0.560 0.000 srgb} bind def
/col13 {0.000 0.690 0.000 srgb} bind def
/col14 {0.000 0.820 0.000 srgb} bind def
/col15 {0.000 0.560 0.560 srgb} bind def
/col16 {0.000 0.690 0.690 srgb} bind def
/col17 {0.000 0.820 0.820 srgb} bind def
/col18 {0.560 0.000 0.000 srgb} bind def
/col19 {0.690 0.000 0.000 srgb} bind def
/col20 {0.820 0.000 0.000 srgb} bind def
/col21 {0.560 0.000 0.560 srgb} bind def
/col22 {0.690 0.000 0.690 srgb} bind def
/col23 {0.820 0.000 0.820 srgb} bind def
/col24 {0.500 0.190 0.000 srgb} bind def
/col25 {0.630 0.250 0.000 srgb} bind def
/col26 {0.750 0.380 0.000 srgb} bind def
/col27 {1.000 0.500 0.500 srgb} bind def
/col28 {1.000 0.630 0.630 srgb} bind def
/col29 {1.000 0.750 0.750 srgb} bind def
/col30 {1.000 0.880 0.880 srgb} bind def
/col31 {1.000 0.840 0.000 srgb} bind def
/col32 {0.816 0.816 0.816 srgb} bind def
/col33 {0.910 1.000 1.000 srgb} bind def

end
save
newpath 0 195 moveto 0 0 lineto 461 0 lineto 461 195 lineto closepath clip newpath
-116.3 270.7 translate
1 -1 scale

/cp {closepath} bind def
/ef {eofill} bind def
/gr {grestore} bind def
/gs {gsave} bind def
/sa {save} bind def
/rs {restore} bind def
/l {lineto} bind def
/m {moveto} bind def
/rm {rmoveto} bind def
/n {newpath} bind def
/s {stroke} bind def
/sh {show} bind def
/slc {setlinecap} bind def
/slj {setlinejoin} bind def
/slw {setlinewidth} bind def
/srgb {setrgbcolor} bind def
/rot {rotate} bind def
/sc {scale} bind def
/sd {setdash} bind def
/ff {findfont} bind def
/sf {setfont} bind def
/scf {scalefont} bind def
/sw {stringwidth} bind def
/tr {translate} bind def
/tnt {dup dup currentrgbcolor
  4 -2 roll dup 1 exch sub 3 -1 roll mul add
  4 -2 roll dup 1 exch sub 3 -1 roll mul add
  4 -2 roll dup 1 exch sub 3 -1 roll mul add srgb}
  bind def
/shd {dup dup currentrgbcolor 4 -2 roll mul 4 -2 roll mul
  4 -2 roll mul srgb} bind def
/$F2psBegin {$F2psDict begin /$F2psEnteredState save def} def
/$F2psEnd {$F2psEnteredState restore end} def

$F2psBegin
10 setmiterlimit
 0.06000 0.06000 sc
%
% Fig objects follow
%
% Polyline
1 slj
7.500 slw
n 2396 3593 m 5471 1793 l 9071 1793 l 5996 3593 l
 cp gs col32 1.00 shd ef gr gs col0 s gr 
% Polyline
n 6000 4050 m 6000 3600 l 9075 1800 l 9075 2250 l
 cp gs col32 1.00 shd ef gr gs col0 s gr 
% Polyline
0 slj
n 2400 3600 m 6000 3600 l 6000 4050 l 2400 4050 l
 cp gs col32 1.00 shd ef gr gs col0 s gr 
% Polyline
15.000 slw
gs  clippath
6330 3840 m 6420 3840 l 6420 3580 l 6375 3805 l 6330 3580 l cp
eoclip
n 2775 3375 m 6375 3375 l
 6375 3825 l gs col19 s gr gr

% arrowhead
7.500 slw
n 6330 3580 m 6375 3805 l 6420 3580 l 6375 3625 l 6330 3580 l 
 cp gs col19 1.00 shd ef gr  col19 s
% Polyline
15.000 slw
gs  clippath
6845 3540 m 6935 3540 l 6935 3280 l 6890 3505 l 6845 3280 l cp
eoclip
n 3290 3075 m 6890 3075 l
 6890 3525 l gs col19 s gr gr

% arrowhead
7.500 slw
n 6845 3280 m 6890 3505 l 6935 3280 l 6890 3325 l 6845 3280 l 
 cp gs col19 1.00 shd ef gr  col19 s
% Polyline
15.000 slw
gs  clippath
7351 3240 m 7441 3240 l 7441 2980 l 7396 3205 l 7351 2980 l cp
eoclip
n 3796 2775 m 7396 2775 l
 7396 3225 l gs col19 s gr gr

% arrowhead
7.500 slw
n 7351 2980 m 7396 3205 l 7441 2980 l 7396 3025 l 7351 2980 l 
 cp gs col19 1.00 shd ef gr  col19 s
% Polyline
15.000 slw
gs  clippath
7865 2940 m 7955 2940 l 7955 2680 l 7910 2905 l 7865 2680 l cp
eoclip
n 4310 2475 m 7910 2475 l
 7910 2925 l gs col19 s gr gr

% arrowhead
7.500 slw
n 7865 2680 m 7910 2905 l 7955 2680 l 7910 2725 l 7865 2680 l 
 cp gs col19 1.00 shd ef gr  col19 s
% Polyline
15.000 slw
gs  clippath
8379 2640 m 8469 2640 l 8469 2380 l 8424 2605 l 8379 2380 l cp
eoclip
n 4824 2175 m 8424 2175 l
 8424 2625 l gs col19 s gr gr

% arrowhead
7.500 slw
n 8379 2380 m 8424 2605 l 8469 2380 l 8424 2425 l 8379 2380 l 
 cp gs col19 1.00 shd ef gr  col19 s
% Polyline
15.000 slw
gs  clippath
8885 2340 m 8975 2340 l 8975 2080 l 8930 2305 l 8885 2080 l cp
eoclip
n 5330 1875 m 8930 1875 l
 8930 2325 l gs col19 s gr gr

% arrowhead
7.500 slw
n 8885 2080 m 8930 2305 l 8975 2080 l 8930 2125 l 8885 2080 l 
 cp gs col19 1.00 shd ef gr  col19 s
% Polyline
7.500 slw
 [60] 0 sd
n 2655 3675 m 2550 3675 2550 3870 105 arcto 4 {pop} repeat
  2550 3975 5670 3975 105 arcto 4 {pop} repeat
  5775 3975 5775 3780 105 arcto 4 {pop} repeat
  5775 3675 2655 3675 105 arcto 4 {pop} repeat
 cp gs col19 s gr  [] 0 sd
% Polyline
gs  clippath
5895 3615 m 5955 3615 l 5955 3430 l 5925 3580 l 5895 3430 l cp
eoclip
n 5925 3150 m
 5925 3600 l gs col0 s gr gr

% arrowhead
n 5895 3430 m 5925 3580 l 5955 3430 l 5925 3460 l 5895 3430 l 
 cp gs 0.00 setgray ef gr  col0 s
% Polyline
gs  clippath
2535 3795 m 2535 3855 l 2720 3855 l 2570 3825 l 2720 3795 l cp
eoclip
n 3000 3825 m
 2550 3825 l gs col0 s gr gr

% arrowhead
n 2720 3795 m 2570 3825 l 2720 3855 l 2690 3825 l 2720 3795 l 
 cp gs 0.00 setgray ef gr  col0 s
% Polyline
gs  clippath
5955 4035 m 5895 4035 l 5895 4220 l 5925 4070 l 5955 4220 l cp
eoclip
n 5925 4500 m
 5925 4050 l gs col0 s gr gr

% arrowhead
n 5955 4220 m 5925 4070 l 5895 4220 l 5925 4190 l 5955 4220 l 
 cp gs 0.00 setgray ef gr  col0 s
/Times-Roman ff 180.00 scf sf
4275 3900 m
gs 1 -1 sc (lambda2) col0 sh gr
/Times-Roman ff 180.00 scf sf
5850 3900 m
gs 1 -1 sc (d3) col0 sh gr
/Times-Roman ff 180.00 scf sf
3825 1800 m
gs 1 -1 sc (Hext) col0 sh gr
/Times-Roman ff 180.00 scf sf
3000 3900 m
gs 1 -1 sc (lambda3) col0 sh gr
/Times-Roman ff 180.00 scf sf
3900 2475 m
gs 1 -1 sc (d1) col0 sh gr
/Times-Roman ff 180.00 scf sf
7200 1575 m
gs 1 -1 sc (d2) col0 sh gr
% Polyline
gs  clippath
4230 3660 m 4170 3660 l 4170 3845 l 4200 3695 l 4230 3845 l cp
eoclip
n 4200 4125 m
 4200 3675 l gs col0 s gr gr

% arrowhead
n 4230 3845 m 4200 3695 l 4170 3845 l 4200 3815 l 4230 3845 l 
 cp gs 0.00 setgray ef gr  col0 s
% Polyline
gs  clippath
9615 3930 m 9615 3870 l 9430 3870 l 9580 3900 l 9430 3930 l cp
eoclip
n 8550 3900 m
 9600 3900 l gs col0 s gr gr

% arrowhead
n 9430 3930 m 9580 3900 l 9430 3870 l 9460 3900 l 9430 3930 l 
 cp gs 0.00 setgray ef gr  col0 s
% Polyline
gs  clippath
8580 2826 m 8520 2826 l 8520 3011 l 8550 2861 l 8580 3011 l cp
7621 4397 m 7652 4449 l 7811 4356 l 7667 4406 l 7781 4304 l cp
eoclip
n 7650 4416 m 8550 3891 l
 8550 2841 l gs col0 s gr gr

% arrowhead
n 7781 4304 m 7667 4406 l 7811 4356 l 7770 4345 l 7781 4304 l 
 cp gs 0.00 setgray ef gr  col0 s
% arrowhead
n 8580 3011 m 8550 2861 l 8520 3011 l 8550 2981 l 8580 3011 l 
 cp gs 0.00 setgray ef gr  col0 s
/Times-Roman ff 180.00 scf sf
7575 4275 m
gs 1 -1 sc (x1) col0 sh gr
/Times-Roman ff 180.00 scf sf
8625 3000 m
gs 1 -1 sc (x3) col0 sh gr
/Times-Roman ff 180.00 scf sf
9375 3750 m
gs 1 -1 sc (x2) col0 sh gr
% Polyline
gs  clippath
5503 1518 m 5472 1466 l 5313 1560 l 5458 1510 l 5343 1611 l cp
eoclip
n 4200 2250 m
 5475 1500 l gs col0 s gr gr

% arrowhead
n 5343 1611 m 5458 1510 l 5313 1560 l 5354 1570 l 5343 1611 l 
 cp gs 0.00 setgray ef gr  col0 s
% Polyline
gs  clippath
2371 3281 m 2402 3333 l 2561 3239 l 2417 3290 l 2531 3188 l cp
eoclip
n 3675 2550 m
 2400 3300 l gs col0 s gr gr

% arrowhead
n 2531 3188 m 2417 3290 l 2561 3239 l 2520 3229 l 2531 3188 l 
 cp gs 0.00 setgray ef gr  col0 s
% Polyline
gs  clippath
5460 1470 m 5460 1530 l 5645 1530 l 5495 1500 l 5645 1470 l cp
eoclip
n 5475 1500 m
 6975 1500 l gs col0 s gr gr

% arrowhead
n 5645 1470 m 5495 1500 l 5645 1530 l 5615 1500 l 5645 1470 l 
 cp gs 0.00 setgray ef gr  col0 s
% Polyline
gs  clippath
9090 1530 m 9090 1470 l 8905 1470 l 9055 1500 l 8905 1530 l cp
eoclip
n 9075 1500 m
 7575 1500 l gs col0 s gr gr

% arrowhead
n 8905 1530 m 9055 1500 l 8905 1470 l 8935 1500 l 8905 1530 l 
 cp gs 0.00 setgray ef gr  col0 s
% Polyline
n 2400 3525 m
 2400 3075 l gs col0 s gr 
% Polyline
n 5475 1725 m
 5475 1275 l gs col0 s gr 
% Polyline
n 9075 1725 m
 9075 1275 l gs col0 s gr 
% Polyline
gs  clippath
2821 2306 m 2852 2358 l 3011 2265 l 2867 2315 l 2981 2213 l cp
eoclip
n 2850 2325 m
 3750 1800 l gs col0 s gr gr

% arrowhead
n 2981 2213 m 2867 2315 l 3011 2265 l 2970 2254 l 2981 2213 l 
 cp gs 0.00 setgray ef gr  col0 s
% Polyline
gs  clippath
4170 3615 m 4230 3615 l 4230 3430 l 4200 3580 l 4170 3430 l cp
eoclip
n 4200 3150 m
 4200 3600 l gs col0 s gr gr

% arrowhead
n 4170 3430 m 4200 3580 l 4230 3430 l 4200 3460 l 4170 3430 l 
 cp gs 0.00 setgray ef gr  col0 s
% Polyline
gs  clippath
2415 3855 m 2415 3795 l 2230 3795 l 2380 3825 l 2230 3855 l cp
eoclip
n 1950 3825 m
 2400 3825 l gs col0 s gr gr

% arrowhead
n 2230 3855 m 2380 3825 l 2230 3795 l 2260 3825 l 2230 3855 l 
 cp gs 0.00 setgray ef gr  col0 s
$F2psEnd
rs
