%!PS-Adobe-2.0 EPSF-2.0
%%Title: probe.fig
%%Creator: fig2dev Version 3.2 Patchlevel 4
%%CreationDate: Sat Aug 13 00:28:35 2005
%%For: dpeets@image.physics.ubc.ca (Darren Peets)
%%BoundingBox: 0 0 758 740
%%Magnification: 1.0000
%%EndComments
/MyAppDict 100 dict dup begin def
/$F2psDict 200 dict def
$F2psDict begin
$F2psDict /mtrx matrix put
/col-1 {0 setgray} bind def
/col0 {0.000 0.000 0.000 srgb} bind def
/col1 {0.000 0.000 1.000 srgb} bind def
/col2 {0.000 1.000 0.000 srgb} bind def
/col3 {0.000 1.000 1.000 srgb} bind def
/col4 {1.000 0.000 0.000 srgb} bind def
/col5 {1.000 0.000 1.000 srgb} bind def
/col6 {1.000 1.000 0.000 srgb} bind def
/col7 {1.000 1.000 1.000 srgb} bind def
/col8 {0.000 0.000 0.560 srgb} bind def
/col9 {0.000 0.000 0.690 srgb} bind def
/col10 {0.000 0.000 0.820 srgb} bind def
/col11 {0.530 0.810 1.000 srgb} bind def
/col12 {0.000 0.560 0.000 srgb} bind def
/col13 {0.000 0.690 0.000 srgb} bind def
/col14 {0.000 0.820 0.000 srgb} bind def
/col15 {0.000 0.560 0.560 srgb} bind def
/col16 {0.000 0.690 0.690 srgb} bind def
/col17 {0.000 0.820 0.820 srgb} bind def
/col18 {0.560 0.000 0.000 srgb} bind def
/col19 {0.690 0.000 0.000 srgb} bind def
/col20 {0.820 0.000 0.000 srgb} bind def
/col21 {0.560 0.000 0.560 srgb} bind def
/col22 {0.690 0.000 0.690 srgb} bind def
/col23 {0.820 0.000 0.820 srgb} bind def
/col24 {0.500 0.190 0.000 srgb} bind def
/col25 {0.630 0.250 0.000 srgb} bind def
/col26 {0.750 0.380 0.000 srgb} bind def
/col27 {1.000 0.500 0.500 srgb} bind def
/col28 {1.000 0.630 0.630 srgb} bind def
/col29 {1.000 0.750 0.750 srgb} bind def
/col30 {1.000 0.880 0.880 srgb} bind def
/col31 {1.000 0.840 0.000 srgb} bind def
/col32 {0.812 0.812 0.812 srgb} bind def
/col33 {0.996 0.781 0.375 srgb} bind def
/col34 {0.906 0.906 0.906 srgb} bind def
/col35 {0.375 0.375 0.375 srgb} bind def
/col36 {0.812 0.996 0.996 srgb} bind def
/col37 {0.562 0.562 0.562 srgb} bind def

end
save
newpath 0 740 moveto 0 0 lineto 758 0 lineto 758 740 lineto closepath clip newpath
95.2 707.2 translate
1 -1 scale

% This junk string is used by the show operators
/PATsstr 1 string def
/PATawidthshow { 	% cx cy cchar rx ry string
  % Loop over each character in the string
  {  % cx cy cchar rx ry char
    % Show the character
    dup				% cx cy cchar rx ry char char
    PATsstr dup 0 4 -1 roll put	% cx cy cchar rx ry char (char)
    false charpath		% cx cy cchar rx ry char
    /clip load PATdraw
    % Move past the character (charpath modified the
    % current point)
    currentpoint			% cx cy cchar rx ry char x y
    newpath
    moveto			% cx cy cchar rx ry char
    % Reposition by cx,cy if the character in the string is cchar
    3 index eq {			% cx cy cchar rx ry
      4 index 4 index rmoveto
    } if
    % Reposition all characters by rx ry
    2 copy rmoveto		% cx cy cchar rx ry
  } forall
  pop pop pop pop pop		% -
  currentpoint
  newpath
  moveto
} bind def
/PATcg {
  7 dict dup begin
    /lw currentlinewidth def
    /lc currentlinecap def
    /lj currentlinejoin def
    /ml currentmiterlimit def
    /ds [ currentdash ] def
    /cc [ currentrgbcolor ] def
    /cm matrix currentmatrix def
  end
} bind def
% PATdraw - calculates the boundaries of the object and
% fills it with the current pattern
/PATdraw {			% proc
  save exch
    PATpcalc			% proc nw nh px py
    5 -1 roll exec		% nw nh px py
    newpath
    PATfill			% -
  restore
} bind def
% PATfill - performs the tiling for the shape
/PATfill { % nw nh px py PATfill -
  PATDict /CurrentPattern get dup begin
    setfont
    % Set the coordinate system to Pattern Space
    PatternGState PATsg
    % Set the color for uncolored pattezns
    PaintType 2 eq { PATDict /PColor get PATsc } if
    % Create the string for showing
    3 index string		% nw nh px py str
    % Loop for each of the pattern sources
    0 1 Multi 1 sub {		% nw nh px py str source
	% Move to the starting location
	3 index 3 index		% nw nh px py str source px py
	moveto			% nw nh px py str source
	% For multiple sources, set the appropriate color
	Multi 1 ne { dup PC exch get PATsc } if
	% Set the appropriate string for the source
	0 1 7 index 1 sub { 2 index exch 2 index put } for pop
	% Loop over the number of vertical cells
	3 index 		% nw nh px py str nh
	{			% nw nh px py str
	  currentpoint		% nw nh px py str cx cy
	  2 index oldshow	% nw nh px py str cx cy
	  YStep add moveto	% nw nh px py str
	} repeat		% nw nh px py str
    } for
    5 { pop } repeat
  end
} bind def

% PATkshow - kshow with the current pattezn
/PATkshow {			% proc string
  exch bind			% string proc
  1 index 0 get			% string proc char
  % Loop over all but the last character in the string
  0 1 4 index length 2 sub {
				% string proc char idx
    % Find the n+1th character in the string
    3 index exch 1 add get	% string proc char char+1
    exch 2 copy			% strinq proc char+1 char char+1 char
    % Now show the nth character
    PATsstr dup 0 4 -1 roll put	% string proc chr+1 chr chr+1 (chr)
    false charpath		% string proc char+1 char char+1
    /clip load PATdraw
    % Move past the character (charpath modified the current point)
    currentpoint newpath moveto
    % Execute the user proc (should consume char and char+1)
    mark 3 1 roll		% string proc char+1 mark char char+1
    4 index exec		% string proc char+1 mark...
    cleartomark			% string proc char+1
  } for
  % Now display the last character
  PATsstr dup 0 4 -1 roll put	% string proc (char+1)
  false charpath		% string proc
  /clip load PATdraw
  neewath
  pop pop			% -
} bind def
% PATmp - the makepattern equivalent
/PATmp {			% patdict patmtx PATmp patinstance
  exch dup length 7 add		% We will add 6 new entries plus 1 FID
  dict copy			% Create a new dictionary
  begin
    % Matrix to install when painting the pattern
    TilingType PATtcalc
    /PatternGState PATcg def
    PatternGState /cm 3 -1 roll put
    % Check for multi pattern sources (Level 1 fast color patterns)
    currentdict /Multi known not { /Multi 1 def } if
    % Font dictionary definitions
    /FontType 3 def
    % Create a dummy encoding vector
    /Encoding 256 array def
    3 string 0 1 255 {
      Encoding exch dup 3 index cvs cvn put } for pop
    /FontMatrix matrix def
    /FontBBox BBox def
    /BuildChar {
	mark 3 1 roll		% mark dict char
	exch begin
	Multi 1 ne {PaintData exch get}{pop} ifelse  % mark [paintdata]
	  PaintType 2 eq Multi 1 ne or
	  { XStep 0 FontBBox aload pop setcachedevice }
	  { XStep 0 setcharwidth } ifelse
	  currentdict		% mark [paintdata] dict
	  /PaintProc load	% mark [paintdata] dict paintproc
	end
	gsave
	  false PATredef exec true PATredef
	grestore
	cleartomark		% -
    } bind def
    currentdict
  end				% newdict
  /foo exch			% /foo newlict
  definefont			% newfont
} bind def
% PATpcalc - calculates the starting point and width/height
% of the tile fill for the shape
/PATpcalc {	% - PATpcalc nw nh px py
  PATDict /CurrentPattern get begin
    gsave
	% Set up the coordinate system to Pattern Space
	% and lock down pattern
	PatternGState /cm get setmatrix
	BBox aload pop pop pop translate
	% Determine the bounding box of the shape
	pathbbox			% llx lly urx ury
    grestore
    % Determine (nw, nh) the # of cells to paint width and height
    PatHeight div ceiling		% llx lly urx qh
    4 1 roll				% qh llx lly urx
    PatWidth div ceiling		% qh llx lly qw
    4 1 roll				% qw qh llx lly
    PatHeight div floor			% qw qh llx ph
    4 1 roll				% ph qw qh llx
    PatWidth div floor			% ph qw qh pw
    4 1 roll				% pw ph qw qh
    2 index sub cvi abs			% pw ph qs qh-ph
    exch 3 index sub cvi abs exch	% pw ph nw=qw-pw nh=qh-ph
    % Determine the starting point of the pattern fill
    %(px, py)
    4 2 roll				% nw nh pw ph
    PatHeight mul			% nw nh pw py
    exch				% nw nh py pw
    PatWidth mul exch			% nw nh px py
  end
} bind def

% Save the original routines so that we can use them later on
/oldfill	/fill load def
/oldeofill	/eofill load def
/oldstroke	/stroke load def
/oldshow	/show load def
/oldashow	/ashow load def
/oldwidthshow	/widthshow load def
/oldawidthshow	/awidthshow load def
/oldkshow	/kshow load def

% These defs are necessary so that subsequent procs don't bind in
% the originals
/fill	   { oldfill } bind def
/eofill	   { oldeofill } bind def
/stroke	   { oldstroke } bind def
/show	   { oldshow } bind def
/ashow	   { oldashow } bind def
/widthshow { oldwidthshow } bind def
/awidthshow { oldawidthshow } bind def
/kshow 	   { oldkshow } bind def
/PATredef {
  MyAppDict begin
    {
    /fill { /clip load PATdraw newpath } bind def
    /eofill { /eoclip load PATdraw newpath } bind def
    /stroke { PATstroke } bind def
    /show { 0 0 null 0 0 6 -1 roll PATawidthshow } bind def
    /ashow { 0 0 null 6 3 roll PATawidthshow }
    bind def
    /widthshow { 0 0 3 -1 roll PATawidthshow }
    bind def
    /awidthshow { PATawidthshow } bind def
    /kshow { PATkshow } bind def
  } {
    /fill   { oldfill } bind def
    /eofill { oldeofill } bind def
    /stroke { oldstroke } bind def
    /show   { oldshow } bind def
    /ashow  { oldashow } bind def
    /widthshow { oldwidthshow } bind def
    /awidthshow { oldawidthshow } bind def
    /kshow  { oldkshow } bind def
    } ifelse
  end
} bind def
false PATredef
% Conditionally define setcmykcolor if not available
/setcmykcolor where { pop } {
  /setcmykcolor {
    1 sub 4 1 roll
    3 {
	3 index add neg dup 0 lt { pop 0 } if 3 1 roll
    } repeat
    setrgbcolor - pop
  } bind def
} ifelse
/PATsc {		% colorarray
  aload length		% c1 ... cn length
    dup 1 eq { pop setgray } { 3 eq { setrgbcolor } { setcmykcolor
  } ifelse } ifelse
} bind def
/PATsg {		% dict
  begin
    lw setlinewidth
    lc setlinecap
    lj setlinejoin
    ml setmiterlimit
    ds aload pop setdash
    cc aload pop setrgbcolor
    cm setmatrix
  end
} bind def

/PATDict 3 dict def
/PATsp {
  true PATredef
  PATDict begin
    /CurrentPattern exch def
    % If it's an uncolored pattern, save the color
    CurrentPattern /PaintType get 2 eq {
      /PColor exch def
    } if
    /CColor [ currentrgbcolor ] def
  end
} bind def
% PATstroke - stroke with the current pattern
/PATstroke {
  countdictstack
  save
  mark
  {
    currentpoint strokepath moveto
    PATpcalc				% proc nw nh px py
    clip newpath PATfill
    } stopped {
	(*** PATstroke Warning: Path is too complex, stroking
	  with gray) =
    cleartomark
    restore
    countdictstack exch sub dup 0 gt
	{ { end } repeat } { pop } ifelse
    gsave 0.5 setgray oldstroke grestore
  } { pop restore pop } ifelse
  newpath
} bind def
/PATtcalc {		% modmtx tilingtype PATtcalc tilematrix
  % Note: tiling types 2 and 3 are not supported
  gsave
    exch concat					% tilingtype
    matrix currentmatrix exch			% cmtx tilingtype
    % Tiling type 1 and 3: constant spacing
    2 ne {
	% Distort the pattern so that it occupies
	% an integral number of device pixels
	dup 4 get exch dup 5 get exch		% tx ty cmtx
	XStep 0 dtransform
	round exch round exch			% tx ty cmtx dx.x dx.y
	XStep div exch XStep div exch		% tx ty cmtx a b
	0 YStep dtransform
	round exch round exch			% tx ty cmtx a b dy.x dy.y
	YStep div exch YStep div exch		% tx ty cmtx a b c d
	7 -3 roll astore			% { a b c d tx ty }
    } if
  grestore
} bind def
/PATusp {
  false PATredef
  PATDict begin
    CColor PATsc
  end
} bind def

% right45
11 dict begin
/PaintType 1 def
/PatternType 1 def
/TilingType 1 def
/BBox [0 0 1 1] def
/XStep 1 def
/YStep 1 def
/PatWidth 1 def
/PatHeight 1 def
/Multi 2 def
/PaintData [
  { clippath } bind
  { 20 20 true [ 20 0 0 -20 0 20 ]
	{<0040100080200100400200800401000802001004
	0020080040100080200000401000802001004002
	0080040100080200100400200800401000802000>}
     imagemask } bind
] def
/PaintProc {
	pop
	exec fill
} def
currentdict
end
/P5 exch def

/cp {closepath} bind def
/ef {eofill} bind def
/gr {grestore} bind def
/gs {gsave} bind def
/sa {save} bind def
/rs {restore} bind def
/l {lineto} bind def
/m {moveto} bind def
/rm {rmoveto} bind def
/n {newpath} bind def
/s {stroke} bind def
/sh {show} bind def
/slc {setlinecap} bind def
/slj {setlinejoin} bind def
/slw {setlinewidth} bind def
/srgb {setrgbcolor} bind def
/rot {rotate} bind def
/sc {scale} bind def
/sd {setdash} bind def
/ff {findfont} bind def
/sf {setfont} bind def
/scf {scalefont} bind def
/sw {stringwidth} bind def
/tr {translate} bind def
/tnt {dup dup currentrgbcolor
  4 -2 roll dup 1 exch sub 3 -1 roll mul add
  4 -2 roll dup 1 exch sub 3 -1 roll mul add
  4 -2 roll dup 1 exch sub 3 -1 roll mul add srgb}
  bind def
/shd {dup dup currentrgbcolor 4 -2 roll mul 4 -2 roll mul
  4 -2 roll mul srgb} bind def
/reencdict 12 dict def /ReEncode { reencdict begin
/newcodesandnames exch def /newfontname exch def /basefontname exch def
/basefontdict basefontname findfont def /newfont basefontdict maxlength dict def
basefontdict { exch dup /FID ne { dup /Encoding eq
{ exch dup length array copy newfont 3 1 roll put }
{ exch newfont 3 1 roll put } ifelse } { pop pop } ifelse } forall
newfont /FontName newfontname put newcodesandnames aload pop
128 1 255 { newfont /Encoding get exch /.notdef put } for
newcodesandnames length 2 idiv { newfont /Encoding get 3 1 roll put } repeat
newfontname newfont definefont pop end } def
/isovec [
8#055 /minus 8#200 /grave 8#201 /acute 8#202 /circumflex 8#203 /tilde
8#204 /macron 8#205 /breve 8#206 /dotaccent 8#207 /dieresis
8#210 /ring 8#211 /cedilla 8#212 /hungarumlaut 8#213 /ogonek 8#214 /caron
8#220 /dotlessi 8#230 /oe 8#231 /OE
8#240 /space 8#241 /exclamdown 8#242 /cent 8#243 /sterling
8#244 /currency 8#245 /yen 8#246 /brokenbar 8#247 /section 8#250 /dieresis
8#251 /copyright 8#252 /ordfeminine 8#253 /guillemotleft 8#254 /logicalnot
8#255 /hyphen 8#256 /registered 8#257 /macron 8#260 /degree 8#261 /plusminus
8#262 /twosuperior 8#263 /threesuperior 8#264 /acute 8#265 /mu 8#266 /paragraph
8#267 /periodcentered 8#270 /cedilla 8#271 /onesuperior 8#272 /ordmasculine
8#273 /guillemotright 8#274 /onequarter 8#275 /onehalf
8#276 /threequarters 8#277 /questiondown 8#300 /Agrave 8#301 /Aacute
8#302 /Acircumflex 8#303 /Atilde 8#304 /Adieresis 8#305 /Aring
8#306 /AE 8#307 /Ccedilla 8#310 /Egrave 8#311 /Eacute
8#312 /Ecircumflex 8#313 /Edieresis 8#314 /Igrave 8#315 /Iacute
8#316 /Icircumflex 8#317 /Idieresis 8#320 /Eth 8#321 /Ntilde 8#322 /Ograve
8#323 /Oacute 8#324 /Ocircumflex 8#325 /Otilde 8#326 /Odieresis 8#327 /multiply
8#330 /Oslash 8#331 /Ugrave 8#332 /Uacute 8#333 /Ucircumflex
8#334 /Udieresis 8#335 /Yacute 8#336 /Thorn 8#337 /germandbls 8#340 /agrave
8#341 /aacute 8#342 /acircumflex 8#343 /atilde 8#344 /adieresis 8#345 /aring
8#346 /ae 8#347 /ccedilla 8#350 /egrave 8#351 /eacute
8#352 /ecircumflex 8#353 /edieresis 8#354 /igrave 8#355 /iacute
8#356 /icircumflex 8#357 /idieresis 8#360 /eth 8#361 /ntilde 8#362 /ograve
8#363 /oacute 8#364 /ocircumflex 8#365 /otilde 8#366 /odieresis 8#367 /divide
8#370 /oslash 8#371 /ugrave 8#372 /uacute 8#373 /ucircumflex
8#374 /udieresis 8#375 /yacute 8#376 /thorn 8#377 /ydieresis] def
/Times-Roman /Times-Roman-iso isovec ReEncode
 /DrawEllipse {
	/endangle exch def
	/startangle exch def
	/yrad exch def
	/xrad exch def
	/y exch def
	/x exch def
	/savematrix mtrx currentmatrix def
	x y tr xrad yrad sc 0 0 1 startangle endangle arc
	closepath
	savematrix setmatrix
	} def

/$F2psBegin {$F2psDict begin /$F2psEnteredState save def} def
/$F2psEnd {$F2psEnteredState restore end} def

$F2psBegin
10 setmiterlimit
0 slj 0 slc
 0.06000 0.06000 sc
%
% Fig objects follow
%
% 
% here starts figure with depth 62
% Polyline
7.500 slw
gs  clippath
495 2715 m 555 2715 l 555 2530 l 525 2680 l 495 2530 l cp
eoclip
n 525 2175 m
 525 2700 l gs col0 s gr gr

% arrowhead
n 495 2530 m 525 2680 l 555 2530 l 525 2560 l 495 2530 l 
 cp gs 0.00 setgray ef gr  col0 s
% Polyline
gs  clippath
-1035 930 m -1035 870 l -1219 870 l -1069 900 l -1219 930 l cp
eoclip
n -1050 900 m
 -1575 900 l gs col0 s gr gr

% arrowhead
n -1219 930 m -1069 900 l -1219 870 l -1189 900 l -1219 930 l 
 cp gs 0.00 setgray ef gr  col0 s
% Polyline
2 slj
n 1363 4275 m 1371 4282 l 1381 4292 l 1391 4303 l 1402 4317 l 1414 4332 l
 1427 4347 l 1439 4361 l 1452 4374 l 1465 4385 l 1477 4393 l
 1488 4398 l 1500 4400 l 1512 4398 l 1523 4393 l 1536 4385 l
 1548 4375 l 1562 4363 l 1575 4350 l 1588 4337 l 1602 4325 l
 1614 4315 l 1627 4307 l 1638 4302 l 1650 4300 l 1662 4302 l
 1673 4307 l 1686 4315 l 1698 4325 l 1712 4337 l 1725 4350 l
 1738 4363 l 1752 4375 l 1764 4385 l 1777 4393 l 1788 4398 l
 1800 4400 l 1812 4398 l 1823 4393 l 1836 4385 l 1848 4375 l
 1862 4363 l 1875 4350 l 1888 4337 l 1902 4325 l 1914 4315 l
 1927 4307 l 1938 4302 l 1950 4300 l 1962 4302 l 1973 4307 l
 1986 4315 l 1998 4325 l 2012 4337 l 2025 4350 l 2038 4363 l
 2052 4375 l 2064 4385 l 2077 4393 l 2088 4398 l 2100 4400 l
 2112 4398 l 2123 4393 l 2136 4385 l 2149 4375 l 2163 4363 l
 2177 4350 l 2191 4337 l 2206 4325 l 2220 4315 l 2234 4307 l
 2248 4302 l 2263 4300 l 2270 4300 l 2277 4302 l 2285 4304 l
 2294 4307 l 2304 4311 l 2315 4316 l 2327 4321 l 2341 4327 l
 2356 4334 l 2373 4341 l 2392 4349 l 2413 4357 l 2436 4365 l
 2460 4374 l 2487 4382 l 2516 4391 l 2547 4400 l 2580 4408 l
 2615 4416 l 2652 4423 l 2692 4431 l 2734 4438 l 2778 4444 l
 2825 4450 l 2855 4453 l 2886 4457 l 2918 4460 l 2952 4462 l
 2986 4465 l 3023 4468 l 3060 4470 l 3099 4472 l 3138 4475 l
 3179 4477 l 3222 4478 l 3265 4480 l 3309 4481 l 3354 4483 l
 3400 4484 l 3446 4485 l 3493 4485 l 3540 4486 l 3588 4486 l
 3636 4486 l 3683 4486 l 3731 4486 l 3778 4485 l 3825 4485 l
 3871 4484 l 3917 4483 l 3961 4481 l 4005 4480 l 4048 4478 l
 4090 4477 l 4130 4475 l 4170 4472 l 4208 4470 l 4244 4468 l
 4280 4465 l 4314 4462 l 4347 4460 l 4378 4457 l 4409 4453 l
 4438 4450 l 4487 4443 l 4533 4436 l 4576 4429 l 4617 4421 l
 4654 4412 l 4689 4403 l 4721 4394 l 4751 4385 l 4778 4375 l
 4803 4366 l 4825 4357 l 4845 4348 l 4862 4340 l 4878 4332 l
 4891 4325 l 4903 4318 l 4913 4313 l 4922 4308 l 4930 4305 l
 4937 4302 l 4944 4301 l 4950 4300 l 4962 4302 l 4973 4307 l
 4986 4315 l 4998 4325 l 5012 4337 l 5025 4350 l 5038 4363 l
 5052 4375 l 5064 4385 l 5077 4393 l 5088 4398 l 5100 4400 l
 5112 4398 l 5123 4393 l 5136 4385 l 5148 4375 l 5162 4363 l
 5175 4350 l 5188 4337 l 5202 4325 l 5214 4315 l 5227 4307 l
 5238 4302 l 5250 4300 l 5262 4302 l 5273 4307 l 5286 4315 l
 5298 4325 l 5312 4337 l 5325 4350 l 5338 4363 l 5352 4375 l
 5364 4385 l 5377 4393 l 5388 4398 l 5400 4400 l 5412 4398 l
 5423 4393 l 5436 4385 l 5448 4375 l 5462 4363 l 5475 4350 l
 5488 4337 l 5502 4325 l 5514 4315 l 5527 4307 l 5538 4302 l
 5550 4300 l 5562 4302 l 5573 4307 l 5586 4315 l 5598 4325 l
 5612 4337 l 5625 4350 l 5638 4363 l 5652 4375 l 5664 4385 l
 5677 4393 l 5688 4398 l 5700 4400 l 5712 4398 l 5723 4393 l
 5735 4385 l 5748 4374 l 5761 4361 l 5773 4347 l 5786 4332 l
 5798 4317 l 5809 4303 l 5819 4292 l 5829 4282 l 5838 4275 l
 5841 4273 l 5844 4272 l 5847 4271 l 5850 4271 l 5853 4273 l
 5856 4275 l 5859 4280 l 5862 4286 l 5865 4294 l 5868 4304 l
 5871 4316 l 5873 4331 l 5876 4348 l 5879 4369 l 5881 4392 l
 5884 4419 l 5887 4449 l 5889 4482 l 5891 4518 l 5893 4558 l
 5896 4601 l 5898 4647 l 5900 4697 l 5901 4751 l 5903 4808 l
 5905 4869 l 5906 4933 l 5908 5001 l 5909 5072 l 5910 5148 l
 5911 5228 l 5913 5313 l 5913 5358 l 5914 5405 l 5914 5453 l
 5915 5503 l 5915 5554 l 5916 5607 l 5916 5661 l 5916 5716 l
 5917 5773 l 5917 5832 l 5918 5891 l 5918 5953 l 5918 6015 l
 5919 6079 l 5919 6144 l 5919 6211 l 5919 6279 l 5920 6348 l
 5920 6418 l 5920 6489 l 5920 6562 l 5920 6635 l 5920 6709 l
 5920 6784 l 5920 6859 l 5920 6936 l 5920 7012 l 5920 7090 l
 5920 7167 l 5920 7245 l 5920 7323 l 5920 7401 l 5919 7479 l
 5919 7557 l 5919 7634 l 5919 7712 l 5918 7789 l 5918 7865 l
 5917 7941 l 5917 8016 l 5917 8090 l 5916 8164 l 5916 8236 l
 5915 8308 l 5914 8379 l 5914 8448 l 5913 8517 l 5912 8584 l
 5912 8650 l 5911 8714 l 5910 8778 l 5910 8840 l 5909 8901 l
 5908 8960 l 5907 9018 l 5906 9075 l 5905 9130 l 5904 9184 l
 5903 9237 l 5902 9289 l 5901 9339 l 5900 9387 l 5900 9388 l
 5898 9461 l 5896 9531 l 5894 9600 l 5892 9665 l 5890 9729 l
 5887 9790 l 5884 9850 l 5881 9907 l 5878 9963 l 5874 10017 l
 5869 10068 l 5865 10119 l 5860 10167 l 5854 10213 l 5848 10258 l
 5842 10301 l 5835 10342 l 5827 10382 l 5819 10420 l 5810 10455 l
 5801 10490 l 5791 10522 l 5781 10553 l 5770 10583 l 5758 10610 l
 5746 10637 l 5733 10662 l 5720 10685 l 5706 10708 l 5691 10729 l
 5676 10749 l 5661 10768 l 5645 10787 l 5628 10804 l 5610 10821 l
 5592 10837 l 5573 10853 l 5554 10869 l 5534 10885 l 5513 10900 l
 5489 10916 l 5465 10933 l 5440 10949 l 5414 10966 l 5386 10983 l
 5358 11000 l 5328 11018 l 5297 11036 l 5265 11053 l 5232 11071 l
 5198 11090 l 5163 11108 l 5127 11126 l 5090 11145 l 5052 11163 l
 5014 11182 l 4975 11200 l 4935 11218 l 4895 11236 l 4855 11254 l
 4815 11272 l 4774 11289 l 4734 11306 l 4694 11322 l 4654 11338 l
 4614 11354 l 4575 11369 l 4537 11384 l 4499 11398 l 4461 11411 l
 4425 11424 l 4389 11437 l 4353 11449 l 4319 11460 l 4285 11471 l
 4252 11481 l 4219 11491 l 4188 11500 l 4152 11510 l 4118 11519 l
 4083 11528 l 4049 11536 l 4015 11544 l 3981 11551 l 3947 11558 l
 3913 11564 l 3879 11569 l 3845 11574 l 3810 11578 l 3775 11582 l
 3740 11585 l 3705 11587 l 3670 11589 l 3635 11590 l 3600 11590 l
 3565 11590 l 3530 11589 l 3495 11587 l 3460 11585 l 3425 11582 l
 3390 11578 l 3355 11574 l 3321 11569 l 3287 11564 l 3253 11558 l
 3219 11551 l 3185 11544 l 3151 11536 l 3117 11528 l 3082 11519 l
 3048 11510 l 3013 11500 l 2981 11491 l 2948 11481 l 2915 11471 l
 2881 11460 l 2847 11449 l 2811 11437 l 2775 11424 l 2739 11411 l
 2701 11398 l 2663 11384 l 2625 11369 l 2586 11354 l 2546 11338 l
 2506 11322 l 2466 11306 l 2426 11289 l 2385 11272 l 2345 11254 l
 2305 11236 l 2265 11218 l 2225 11200 l 2186 11182 l 2148 11163 l
 2110 11145 l 2073 11126 l 2037 11108 l 2002 11090 l 1968 11071 l
 1935 11053 l 1903 11036 l 1872 11018 l 1842 11000 l 1814 10983 l
 1786 10966 l 1760 10949 l 1735 10933 l 1711 10916 l 1688 10900 l
 1666 10885 l 1646 10869 l 1627 10853 l 1608 10837 l 1590 10821 l
 1572 10804 l 1555 10787 l 1539 10768 l 1524 10749 l 1509 10729 l
 1494 10708 l 1480 10685 l 1467 10662 l 1454 10637 l 1442 10610 l
 1430 10583 l 1419 10553 l 1409 10522 l 1399 10490 l 1390 10455 l
 1381 10420 l 1373 10382 l 1365 10342 l 1358 10301 l 1352 10258 l
 1346 10213 l 1340 10167 l 1335 10119 l 1331 10068 l 1326 10017 l
 1322 9963 l 1319 9907 l 1316 9850 l 1313 9790 l 1310 9729 l
 1308 9665 l 1306 9600 l 1304 9531 l 1302 9461 l 1300 9388 l
 1299 9339 l 1298 9289 l 1297 9237 l 1296 9184 l 1295 9130 l
 1294 9075 l 1293 9018 l 1292 8960 l 1291 8901 l 1290 8840 l
 1290 8778 l 1289 8714 l 1288 8650 l 1288 8584 l 1287 8517 l
 1286 8448 l 1286 8379 l 1285 8308 l 1284 8236 l 1284 8164 l
 1283 8090 l 1283 8016 l 1283 7941 l 1282 7865 l 1282 7789 l
 1281 7712 l 1281 7634 l 1281 7557 l 1281 7479 l 1280 7401 l
 1280 7323 l 1280 7245 l 1280 7167 l 1280 7090 l 1280 7012 l
 1280 6936 l 1280 6859 l 1280 6784 l 1280 6709 l 1280 6635 l
 1280 6562 l 1280 6489 l 1280 6418 l 1280 6348 l 1281 6279 l
 1281 6211 l 1281 6144 l 1281 6079 l 1282 6015 l 1282 5953 l
 1282 5891 l 1283 5832 l 1283 5773 l 1284 5716 l 1284 5661 l
 1284 5607 l 1285 5554 l 1285 5503 l 1286 5453 l 1286 5405 l
 1287 5358 l 1287 5313 l 1288 5313 l 1289 5228 l 1290 5148 l
 1291 5072 l 1292 5001 l 1294 4933 l 1295 4869 l 1297 4808 l
 1299 4751 l 1300 4697 l 1302 4647 l 1304 4601 l 1307 4558 l
 1309 4518 l 1311 4482 l 1313 4449 l 1316 4419 l 1319 4392 l
 1321 4369 l 1324 4348 l 1327 4331 l 1329 4316 l 1332 4304 l
 1335 4294 l 1338 4286 l 1341 4280 l 1344 4275 l 1347 4273 l
 1350 4271 l 1353 4271 l 1356 4272 l 1359 4273 l
 cp gs col36 1.00 shd ef gr gs col0 s gr 
/Times-Roman-iso ff 180.00 scf sf
0 3075 m
gs 1 -1 sc (to pump) col0 sh gr
/Times-Roman-iso ff 180.00 scf sf
-1575 1500 m
gs 1 -1 sc (He gas) col0 sh gr
% here ends figure;
% 
% here starts figure with depth 60
% Polyline
7.500 slw
n 2625 900 m 2325 900 2325 10125 300 arcto 4 {pop} repeat
  2325 10425 4575 10425 300 arcto 4 {pop} repeat
  4875 10425 4875 1200 300 arcto 4 {pop} repeat
  4875 900 2625 900 300 arcto 4 {pop} repeat
 cp gs col34 1.00 shd ef gr gs col0 s gr 
% Polyline
2 slj
n 1225 1875 m 1233 1868 l 1242 1861 l 1253 1854 l 1265 1847 l 1278 1841 l
 1293 1835 l 1307 1831 l 1322 1828 l 1336 1826 l 1350 1825 l
 1364 1826 l 1378 1828 l 1393 1831 l 1407 1835 l 1422 1841 l
 1435 1847 l 1447 1854 l 1458 1861 l 1467 1868 l 1475 1875 l
 1477 1877 l 1478 1879 l 1480 1881 l 1482 1884 l 1483 1888 l
 1484 1892 l 1486 1897 l 1487 1904 l 1488 1912 l 1489 1922 l
 1490 1934 l 1491 1948 l 1492 1963 l 1493 1982 l 1494 2002 l
 1495 2026 l 1495 2052 l 1496 2081 l 1497 2113 l 1497 2149 l
 1498 2188 l 1498 2230 l 1498 2275 l 1499 2324 l 1499 2376 l
 1499 2432 l 1499 2492 l 1500 2555 l 1500 2622 l 1500 2692 l
 1500 2766 l 1500 2844 l 1500 2926 l 1500 3012 l 1500 3102 l
 1500 3197 l 1500 3296 l 1500 3400 l 1500 3454 l 1500 3509 l
 1500 3566 l 1500 3624 l 1500 3684 l 1500 3745 l 1500 3807 l
 1500 3871 l 1500 3936 l 1500 4003 l 1500 4071 l 1500 4141 l
 1500 4212 l 1500 4284 l 1500 4357 l 1500 4432 l 1500 4509 l
 1500 4586 l 1500 4665 l 1500 4745 l 1500 4826 l 1500 4909 l
 1500 4992 l 1500 5077 l 1500 5162 l 1500 5249 l 1500 5336 l
 1500 5424 l 1500 5513 l 1500 5602 l 1500 5693 l 1500 5783 l
 1500 5874 l 1500 5966 l 1500 6058 l 1500 6150 l 1500 6242 l
 1500 6334 l 1500 6426 l 1500 6518 l 1500 6610 l 1500 6702 l
 1500 6793 l 1500 6884 l 1500 6975 l 1500 7065 l 1500 7154 l
 1500 7243 l 1500 7330 l 1500 7417 l 1500 7504 l 1500 7589 l
 1500 7673 l 1500 7756 l 1500 7838 l 1500 7919 l 1500 7998 l
 1500 8076 l 1500 8154 l 1500 8229 l 1500 8304 l 1500 8377 l
 1500 8448 l 1500 8519 l 1500 8587 l 1500 8655 l 1500 8721 l
 1500 8785 l 1500 8848 l 1500 8910 l 1500 8970 l 1500 9029 l
 1500 9086 l 1500 9142 l 1500 9197 l 1500 9250 l 1500 9339 l
 1500 9423 l 1500 9505 l 1500 9583 l 1501 9657 l 1501 9729 l
 1501 9797 l 1502 9863 l 1503 9926 l 1504 9986 l 1506 10044 l
 1508 10099 l 1510 10151 l 1512 10201 l 1515 10248 l 1518 10293 l
 1522 10335 l 1526 10375 l 1531 10413 l 1536 10448 l 1542 10481 l
 1549 10513 l 1555 10542 l 1563 10569 l 1571 10594 l 1580 10617 l
 1589 10639 l 1599 10659 l 1610 10677 l 1621 10695 l 1633 10711 l
 1645 10725 l 1658 10739 l 1672 10752 l 1687 10764 l 1702 10776 l
 1718 10787 l 1734 10798 l 1752 10808 l 1770 10819 l 1788 10829 l
 1808 10840 l 1829 10851 l 1850 10863 l 1873 10875 l 1898 10888 l
 1924 10902 l 1951 10917 l 1979 10932 l 2008 10947 l 2039 10964 l
 2071 10981 l 2104 10998 l 2139 11016 l 2175 11034 l 2213 11052 l
 2251 11071 l 2291 11090 l 2332 11110 l 2374 11129 l 2417 11149 l
 2461 11168 l 2506 11187 l 2552 11207 l 2599 11226 l 2646 11244 l
 2693 11263 l 2742 11281 l 2790 11298 l 2839 11315 l 2888 11331 l
 2936 11346 l 2985 11361 l 3034 11374 l 3083 11387 l 3131 11399 l
 3179 11410 l 3227 11420 l 3275 11429 l 3322 11437 l 3369 11444 l
 3416 11450 l 3462 11455 l 3508 11459 l 3554 11461 l 3600 11463 l
 3646 11463 l 3692 11462 l 3738 11460 l 3784 11457 l 3831 11452 l
 3878 11447 l 3925 11441 l 3973 11433 l 4021 11425 l 4069 11416 l
 4117 11405 l 4166 11394 l 4215 11382 l 4264 11369 l 4312 11355 l
 4361 11340 l 4410 11325 l 4458 11309 l 4507 11293 l 4554 11276 l
 4601 11258 l 4648 11240 l 4694 11222 l 4739 11204 l 4783 11185 l
 4826 11166 l 4868 11148 l 4909 11129 l 4949 11110 l 4987 11092 l
 5025 11074 l 5061 11056 l 5096 11038 l 5129 11021 l 5161 11004 l
 5192 10988 l 5221 10972 l 5249 10957 l 5276 10942 l 5302 10927 l
 5327 10913 l 5350 10900 l 5372 10887 l 5394 10875 l 5414 10862 l
 5434 10850 l 5453 10838 l 5471 10825 l 5488 10813 l 5504 10799 l
 5520 10785 l 5535 10770 l 5549 10754 l 5562 10737 l 5575 10719 l
 5587 10699 l 5598 10678 l 5609 10655 l 5619 10631 l 5628 10604 l
 5636 10576 l 5644 10545 l 5651 10513 l 5658 10478 l 5664 10440 l
 5670 10400 l 5674 10358 l 5679 10314 l 5683 10266 l 5686 10216 l
 5689 10164 l 5691 10109 l 5693 10051 l 5695 9990 l 5696 9926 l
 5697 9860 l 5698 9791 l 5699 9718 l 5699 9643 l 5700 9564 l
 5700 9482 l 5700 9396 l 5700 9306 l 5700 9213 l 5700 9159 l
 5700 9104 l 5700 9048 l 5700 8990 l 5700 8931 l 5700 8870 l
 5700 8809 l 5700 8745 l 5700 8681 l 5700 8614 l 5700 8547 l
 5700 8478 l 5700 8408 l 5700 8336 l 5700 8263 l 5700 8189 l
 5700 8113 l 5700 8036 l 5700 7958 l 5700 7878 l 5700 7798 l
 5700 7716 l 5700 7633 l 5700 7549 l 5700 7464 l 5700 7378 l
 5700 7292 l 5700 7204 l 5700 7116 l 5700 7027 l 5700 6938 l
 5700 6848 l 5700 6757 l 5700 6666 l 5700 6575 l 5700 6483 l
 5700 6392 l 5700 6300 l 5700 6208 l 5700 6117 l 5700 6025 l
 5700 5934 l 5700 5843 l 5700 5752 l 5700 5662 l 5700 5573 l
 5700 5484 l 5700 5396 l 5700 5308 l 5700 5222 l 5700 5136 l
 5700 5051 l 5700 4967 l 5700 4884 l 5700 4802 l 5700 4722 l
 5700 4642 l 5700 4564 l 5700 4487 l 5700 4411 l 5700 4337 l
 5700 4264 l 5700 4192 l 5700 4122 l 5700 4053 l 5700 3986 l
 5700 3919 l 5700 3855 l 5700 3791 l 5700 3730 l 5700 3669 l
 5700 3610 l 5700 3552 l 5700 3496 l 5700 3441 l 5700 3388 l
 5700 3284 l 5700 3186 l 5700 3092 l 5700 3003 l 5700 2918 l
 5700 2837 l 5700 2759 l 5700 2686 l 5700 2616 l 5700 2550 l
 5701 2487 l 5701 2428 l 5701 2373 l 5701 2321 l 5702 2272 l
 5702 2227 l 5702 2185 l 5703 2147 l 5703 2112 l 5704 2080 l
 5705 2051 l 5705 2025 l 5706 2001 l 5707 1981 l 5708 1963 l
 5709 1947 l 5710 1934 l 5711 1922 l 5712 1912 l 5713 1904 l
 5714 1897 l 5716 1892 l 5717 1888 l 5718 1884 l 5720 1881 l
 5722 1879 l 5723 1877 l 5725 1875 l 5733 1868 l 5742 1861 l
 5753 1854 l 5765 1847 l 5778 1841 l 5793 1835 l 5807 1831 l
 5822 1828 l 5836 1826 l 5850 1825 l 5864 1826 l 5878 1828 l
 5893 1831 l 5907 1835 l 5922 1841 l 5935 1847 l 5947 1854 l
 5958 1861 l 5967 1868 l 5975 1875 l 5977 1877 l 5978 1879 l
 5980 1881 l 5982 1884 l 5983 1888 l 5984 1892 l 5986 1897 l
 5987 1904 l 5988 1912 l 5989 1922 l 5990 1934 l 5991 1947 l
 5992 1963 l 5993 1981 l 5994 2001 l 5995 2025 l 5995 2051 l
 5996 2080 l 5997 2112 l 5997 2147 l 5998 2185 l 5998 2227 l
 5998 2272 l 5999 2321 l 5999 2373 l 5999 2428 l 5999 2487 l
 6000 2550 l 6000 2616 l 6000 2686 l 6000 2759 l 6000 2837 l
 6000 2918 l 6000 3003 l 6000 3092 l 6000 3186 l 6000 3284 l
 6000 3388 l 6000 3441 l 6000 3496 l 6000 3552 l 6000 3610 l
 6000 3669 l 6000 3730 l 6000 3791 l 6000 3855 l 6000 3919 l
 6000 3986 l 6000 4053 l 6000 4122 l 6000 4192 l 6000 4264 l
 6000 4337 l 6000 4412 l 6000 4487 l 6000 4564 l 6000 4643 l
 6000 4722 l 6000 4803 l 6000 4885 l 6000 4968 l 6000 5052 l
 6000 5137 l 6000 5223 l 6000 5309 l 6000 5397 l 6000 5485 l
 6000 5575 l 6000 5664 l 6000 5755 l 6000 5845 l 6000 5936 l
 6000 6028 l 6000 6120 l 6000 6211 l 6000 6303 l 6000 6395 l
 6000 6487 l 6000 6579 l 6000 6671 l 6000 6762 l 6000 6853 l
 6000 6943 l 6000 7033 l 6000 7123 l 6000 7211 l 6000 7299 l
 6000 7386 l 6000 7473 l 6000 7558 l 6000 7642 l 6000 7726 l
 6000 7808 l 6000 7889 l 6000 7969 l 6000 8048 l 6000 8125 l
 6000 8202 l 6000 8277 l 6000 8350 l 6000 8423 l 6000 8494 l
 6000 8563 l 6000 8631 l 6000 8698 l 6000 8764 l 6000 8828 l
 6000 8890 l 6000 8952 l 6000 9012 l 6000 9070 l 6000 9127 l
 6000 9183 l 6000 9238 l 6000 9329 l 6000 9416 l 6000 9500 l
 6000 9581 l 5999 9659 l 5999 9734 l 5998 9806 l 5997 9875 l
 5996 9942 l 5995 10006 l 5993 10068 l 5991 10127 l 5989 10184 l
 5986 10238 l 5983 10290 l 5979 10340 l 5975 10388 l 5970 10433 l
 5964 10476 l 5958 10517 l 5952 10556 l 5945 10593 l 5937 10627 l
 5928 10660 l 5919 10691 l 5909 10720 l 5898 10748 l 5887 10774 l
 5875 10798 l 5862 10821 l 5848 10843 l 5834 10863 l 5819 10883 l
 5803 10901 l 5787 10919 l 5769 10936 l 5751 10952 l 5732 10968 l
 5712 10984 l 5692 10999 l 5670 11015 l 5648 11031 l 5624 11046 l
 5600 11063 l 5576 11078 l 5550 11095 l 5524 11112 l 5496 11129 l
 5467 11147 l 5437 11165 l 5406 11184 l 5373 11203 l 5339 11223 l
 5304 11242 l 5268 11263 l 5230 11283 l 5191 11304 l 5151 11325 l
 5110 11346 l 5068 11367 l 5024 11389 l 4980 11410 l 4935 11431 l
 4888 11452 l 4841 11473 l 4793 11493 l 4745 11514 l 4695 11533 l
 4646 11553 l 4596 11572 l 4545 11590 l 4494 11608 l 4443 11625 l
 4392 11641 l 4341 11656 l 4290 11671 l 4239 11685 l 4189 11698 l
 4138 11710 l 4088 11721 l 4038 11731 l 3988 11740 l 3939 11748 l
 3889 11755 l 3841 11761 l 3792 11766 l 3744 11770 l 3696 11773 l
 3648 11774 l 3600 11775 l 3552 11774 l 3504 11773 l 3456 11770 l
 3408 11766 l 3359 11761 l 3311 11755 l 3261 11748 l 3212 11740 l
 3162 11731 l 3112 11721 l 3062 11710 l 3011 11698 l 2961 11685 l
 2910 11671 l 2859 11656 l 2808 11641 l 2757 11625 l 2706 11608 l
 2655 11590 l 2604 11572 l 2554 11553 l 2505 11533 l 2455 11514 l
 2407 11493 l 2359 11473 l 2312 11452 l 2265 11431 l 2220 11410 l
 2176 11389 l 2132 11367 l 2090 11346 l 2049 11325 l 2009 11304 l
 1970 11283 l 1932 11263 l 1896 11242 l 1861 11223 l 1827 11203 l
 1794 11184 l 1763 11165 l 1733 11147 l 1704 11129 l 1676 11112 l
 1650 11095 l 1624 11078 l 1600 11063 l 1576 11046 l 1552 11031 l
 1530 11015 l 1508 10999 l 1488 10984 l 1468 10968 l 1449 10952 l
 1431 10936 l 1413 10919 l 1397 10901 l 1381 10883 l 1366 10863 l
 1352 10843 l 1338 10821 l 1325 10798 l 1313 10774 l 1302 10748 l
 1291 10720 l 1281 10691 l 1272 10660 l 1263 10627 l 1255 10593 l
 1248 10556 l 1242 10517 l 1236 10476 l 1230 10433 l 1225 10388 l
 1221 10340 l 1217 10290 l 1214 10238 l 1211 10184 l 1209 10127 l
 1207 10068 l 1205 10006 l 1204 9942 l 1203 9875 l 1202 9806 l
 1201 9734 l 1201 9659 l 1200 9581 l 1200 9500 l 1200 9416 l
 1200 9329 l 1200 9238 l 1200 9183 l 1200 9127 l 1200 9070 l
 1200 9012 l 1200 8952 l 1200 8890 l 1200 8828 l 1200 8764 l
 1200 8698 l 1200 8631 l 1200 8563 l 1200 8494 l 1200 8423 l
 1200 8350 l 1200 8277 l 1200 8202 l 1200 8125 l 1200 8048 l
 1200 7969 l 1200 7889 l 1200 7808 l 1200 7726 l 1200 7642 l
 1200 7558 l 1200 7473 l 1200 7386 l 1200 7299 l 1200 7211 l
 1200 7123 l 1200 7033 l 1200 6943 l 1200 6853 l 1200 6762 l
 1200 6671 l 1200 6579 l 1200 6487 l 1200 6395 l 1200 6303 l
 1200 6211 l 1200 6120 l 1200 6028 l 1200 5936 l 1200 5845 l
 1200 5755 l 1200 5664 l 1200 5575 l 1200 5485 l 1200 5397 l
 1200 5309 l 1200 5223 l 1200 5137 l 1200 5052 l 1200 4968 l
 1200 4885 l 1200 4803 l 1200 4722 l 1200 4643 l 1200 4564 l
 1200 4487 l 1200 4412 l 1200 4337 l 1200 4264 l 1200 4192 l
 1200 4122 l 1200 4053 l 1200 3986 l 1200 3919 l 1200 3855 l
 1200 3791 l 1200 3730 l 1200 3669 l 1200 3610 l 1200 3552 l
 1200 3496 l 1200 3441 l 1200 3388 l 1200 3284 l 1200 3186 l
 1200 3092 l 1200 3003 l 1200 2918 l 1200 2837 l 1200 2759 l
 1200 2686 l 1200 2616 l 1200 2550 l 1201 2487 l 1201 2428 l
 1201 2373 l 1201 2321 l 1202 2272 l 1202 2227 l 1202 2185 l
 1203 2147 l 1203 2112 l 1204 2080 l 1205 2051 l 1205 2025 l
 1206 2001 l 1207 1981 l 1208 1963 l 1209 1947 l 1210 1934 l
 1211 1922 l 1212 1912 l 1213 1904 l 1214 1897 l 1216 1892 l
 1217 1888 l 1218 1884 l 1220 1881 l 1222 1879 l 1223 1877 l

 cp gs col32 1.00 shd ef gr gs col0 s gr 
% Polyline
0 slj
n 2685 975 m 2475 975 2475 10065 210 arcto 4 {pop} repeat
  2475 10275 4515 10275 210 arcto 4 {pop} repeat
  4725 10275 4725 1185 210 arcto 4 {pop} repeat
  4725 975 2685 975 210 arcto 4 {pop} repeat
 cp gs col7 1.00 shd ef gr gs col0 s gr 
% Polyline
n 2250 825 m 4950 825 l 4950 1575 l 2250 1575 l
 cp gs col7 1.00 shd ef gr gs col7 s gr 
% Arc
n 3712.5 8812.5 1238.1 144.9 -144.9 arc
gs col26 1.00 shd ef gr gs col0 s gr

% Arc
n 3494.5 8812.5 1238.1 35.1 -35.1 arcn
gs col26 1.00 shd ef gr gs col0 s gr

% Polyline
n 2325 1575 m
 2475 1575 l gs col0 s gr 
% Polyline
n 4725 1575 m
 4875 1575 l gs col0 s gr 
% Polyline
n 2700 8100 m 2775 8100 l 2775 9525 l 2700 9525 l
 cp gs col26 1.00 shd ef gr gs col26 s gr 
% Polyline
n 2700 8100 m
 2775 8100 l gs col26 1.00 shd ef gr gs col0 s gr 
% Polyline
n 4507 8100 m 4432 8100 l 4432 9525 l 4507 9525 l
 cp gs col26 1.00 shd ef gr gs col26 s gr 
% Polyline
n 4507 8100 m
 4432 8100 l gs col26 1.00 shd ef gr gs col0 s gr 
% Polyline
n 3375 1425 m 2400 1425 l 2700 2100 l 3375 2100 l
 cp gs col35 1.00 shd ef gr gs col0 s gr 
% Polyline
n 3825 1425 m 4800 1425 l 4500 2100 l 3825 2100 l
 cp gs col35 1.00 shd ef gr gs col0 s gr 
% Polyline
n 3825 2100 m 3900 2100 l 3900 2550 l 3825 2550 l
 cp gs col37 1.00 shd ef gr gs col0 s gr 
% Polyline
n 3375 2100 m 3300 2100 l 3300 2550 l 3375 2550 l
 cp gs col37 1.00 shd ef gr gs col0 s gr 
% Polyline
n 3375 2775 m 3300 2775 l 3300 5550 l 3375 5550 l
 cp gs col37 1.00 shd ef gr gs col0 s gr 
% Polyline
n 3825 2775 m 3900 2775 l 3900 5550 l 3825 5550 l
 cp gs col37 1.00 shd ef gr gs col0 s gr 
% Polyline
n 3825 5850 m 4500 5850 l 4500 5550 l 3825 5550 l 3825 5100 l 3375 5100 l
 3375 5550 l 2700 5550 l 2700 5850 l
 3825 5850 l  cp gs /PC [[1.00 1.00 1.00] [0.00 0.00 0.00]] def
15.00 15.00 sc P5 [16 0 0 -16 180.00 340.00] PATmp PATsp ef gr PATusp gs col0 s gr 
% Polyline
n 3825 9525 m 3375 9525 l 2700 9525 l 2700 9825 l 4500 9825 l 4500 9525 l

 3825 9525 l  cp gs /PC [[1.00 1.00 1.00] [0.00 0.00 0.00]] def
15.00 15.00 sc P5 [16 0 0 -16 180.00 635.00] PATmp PATsp ef gr PATusp gs col0 s gr 
% Polyline
n 3675 5850 m 3750 5850 l 3750 7350 l 3675 7350 l
 cp gs col7 1.00 shd ef gr gs col0 s gr 
% Polyline
2 slj
n 4125 6300 m 4129 6301 l 4137 6304 l 4150 6309 l 4170 6316 l 4194 6325 l
 4222 6335 l 4251 6345 l 4280 6355 l 4307 6363 l 4333 6371 l
 4356 6377 l 4376 6382 l 4395 6386 l 4411 6388 l 4425 6389 l
 4438 6389 l 4450 6388 l 4460 6385 l 4469 6382 l 4478 6378 l
 4487 6373 l 4495 6367 l 4503 6359 l 4510 6350 l 4517 6340 l
 4523 6328 l 4529 6315 l 4534 6301 l 4539 6285 l 4543 6269 l
 4547 6251 l 4551 6232 l 4554 6213 l 4556 6192 l 4559 6171 l
 4561 6148 l 4563 6125 l 4564 6104 l 4565 6083 l 4566 6060 l
 4567 6037 l 4568 6012 l 4569 5986 l 4570 5959 l 4571 5931 l
 4572 5903 l 4572 5874 l 4573 5845 l 4573 5816 l 4574 5787 l
 4574 5758 l 4574 5730 l 4574 5703 l 4575 5676 l 4575 5651 l
 4575 5627 l 4575 5604 l 4575 5582 l 4575 5562 l 4575 5543 l
 4575 5525 l 4575 5505 l 4575 5487 l 4575 5470 l 4574 5454 l
 4574 5439 l 4573 5425 l 4572 5413 l 4571 5401 l 4569 5391 l
 4566 5382 l 4563 5373 l 4560 5366 l 4556 5360 l 4552 5355 l
 4547 5351 l 4541 5347 l 4535 5344 l 4528 5341 l 4521 5339 l
 4513 5338 l 4499 5335 l 4484 5333 l 4468 5331 l 4449 5330 l
 4430 5328 l 4409 5326 l 4387 5325 l 4366 5324 l 4345 5322 l
 4326 5320 l 4307 5319 l 4291 5317 l 4276 5315 l 4263 5313 l
 4255 5311 l 4248 5309 l 4242 5306 l 4236 5302 l 4231 5298 l
 4226 5291 l 4222 5283 l 4218 5273 l 4214 5261 l 4211 5246 l
 4209 5229 l 4206 5208 l 4205 5185 l 4203 5159 l 4202 5130 l
 4201 5098 l 4201 5063 l 4200 5025 l 4200 4983 l 4200 4939 l
 4200 4890 l 4200 4838 l 4200 4807 l 4200 4775 l 4200 4741 l
 4200 4706 l 4200 4669 l 4200 4631 l 4200 4592 l 4200 4551 l
 4200 4508 l 4200 4465 l 4200 4420 l 4200 4374 l 4200 4326 l
 4199 4278 l 4199 4229 l 4199 4179 l 4199 4129 l 4199 4078 l
 4199 4026 l 4198 3975 l 4198 3924 l 4198 3872 l 4197 3821 l
 4197 3771 l 4197 3721 l 4196 3672 l 4196 3624 l 4195 3576 l
 4195 3530 l 4194 3485 l 4194 3442 l 4193 3399 l 4193 3358 l
 4192 3319 l 4191 3281 l 4191 3244 l 4190 3209 l 4189 3175 l
 4188 3143 l 4188 3113 l 4186 3064 l 4184 3019 l 4183 2978 l
 4181 2939 l 4178 2902 l 4176 2869 l 4173 2838 l 4170 2810 l
 4167 2784 l 4163 2761 l 4160 2740 l 4156 2721 l 4151 2705 l
 4147 2691 l 4142 2680 l 4137 2670 l 4131 2662 l 4126 2655 l
 4120 2650 l 4114 2646 l 4108 2643 l 4101 2641 l 4094 2639 l
 4088 2638 l 4075 2635 l 4061 2633 l 4045 2631 l 4029 2630 l
 4012 2628 l 3994 2626 l 3975 2625 l 3956 2624 l 3938 2622 l
 3921 2620 l 3905 2619 l 3889 2617 l 3875 2615 l 3863 2613 l
 3855 2611 l 3848 2609 l 3841 2606 l 3834 2603 l 3827 2598 l
 3821 2592 l 3815 2585 l 3810 2576 l 3804 2565 l 3799 2551 l
 3794 2536 l 3790 2517 l 3786 2497 l 3782 2473 l 3779 2448 l
 3776 2419 l 3773 2388 l 3770 2354 l 3768 2317 l 3766 2277 l
 3764 2234 l 3763 2188 l 3762 2162 l 3761 2134 l 3760 2106 l
 3760 2076 l 3759 2044 l 3758 2011 l 3758 1976 l 3757 1938 l
 3757 1899 l 3756 1857 l 3756 1812 l 3755 1765 l 3755 1715 l
 3754 1663 l 3754 1607 l 3754 1549 l 3753 1488 l 3753 1424 l
 3753 1358 l 3752 1289 l 3752 1218 l 3752 1146 l 3752 1072 l
 3751 998 l 3751 924 l 3751 851 l 3751 780 l 3751 712 l
 3751 647 l 3750 586 l 3750 531 l 3750 481 l 3750 437 l
 3750 400 l 3750 369 l 3750 345 l 3750 327 l 3750 314 l
 3750 306 l 3750 302 l
 3750 300 l gs col10 s gr 
% Polyline
n 3975 4350 m 3975 4348 l 3975 4343 l 3975 4334 l 3975 4321 l 3975 4301 l
 3975 4276 l 3975 4244 l 3975 4206 l 3975 4163 l 3974 4115 l
 3974 4062 l 3974 4006 l 3974 3947 l 3974 3887 l 3973 3826 l
 3973 3766 l 3973 3707 l 3973 3649 l 3972 3593 l 3972 3540 l
 3971 3489 l 3971 3440 l 3971 3395 l 3970 3352 l 3970 3312 l
 3969 3274 l 3969 3239 l 3968 3206 l 3967 3175 l 3967 3146 l
 3966 3119 l 3965 3093 l 3964 3069 l 3963 3047 l 3963 3025 l
 3961 2989 l 3959 2955 l 3956 2925 l 3954 2896 l 3951 2870 l
 3948 2847 l 3945 2825 l 3941 2806 l 3937 2789 l 3932 2774 l
 3928 2761 l 3923 2750 l 3917 2741 l 3912 2734 l 3906 2728 l
 3900 2723 l 3894 2719 l 3888 2717 l 3882 2714 l 3875 2713 l
 3863 2710 l 3850 2708 l 3836 2705 l 3820 2704 l 3804 2702 l
 3787 2700 l 3771 2698 l 3755 2696 l 3739 2695 l 3725 2692 l
 3712 2690 l 3700 2688 l 3694 2686 l 3688 2684 l 3682 2681 l
 3677 2678 l 3671 2673 l 3666 2667 l 3661 2660 l 3656 2650 l
 3651 2639 l 3647 2625 l 3643 2609 l 3639 2590 l 3635 2569 l
 3631 2545 l 3628 2518 l 3625 2489 l 3623 2457 l 3620 2421 l
 3618 2383 l 3616 2342 l 3614 2298 l 3613 2250 l 3612 2224 l
 3611 2198 l 3610 2170 l 3610 2141 l 3609 2110 l 3608 2077 l
 3608 2043 l 3607 2007 l 3607 1969 l 3606 1928 l 3606 1886 l
 3605 1841 l 3605 1793 l 3605 1743 l 3604 1690 l 3604 1635 l
 3604 1577 l 3603 1516 l 3603 1452 l 3603 1387 l 3602 1319 l
 3602 1249 l 3602 1177 l 3602 1105 l 3601 1032 l 3601 959 l
 3601 887 l 3601 816 l 3601 747 l 3601 682 l 3601 621 l
 3600 564 l 3600 512 l 3600 465 l 3600 425 l 3600 391 l
 3600 363 l 3600 341 l 3600 324 l 3600 313 l 3600 306 l
 3600 302 l
 3600 300 l gs col12 s gr 
% Polyline
n 3075 4350 m 3075 4348 l 3075 4343 l 3075 4334 l 3075 4321 l 3075 4301 l
 3075 4276 l 3075 4244 l 3075 4206 l 3075 4163 l 3076 4115 l
 3076 4062 l 3076 4006 l 3076 3947 l 3076 3887 l 3077 3826 l
 3077 3766 l 3077 3707 l 3077 3649 l 3078 3593 l 3078 3540 l
 3079 3489 l 3079 3440 l 3079 3395 l 3080 3352 l 3080 3312 l
 3081 3274 l 3081 3239 l 3082 3206 l 3083 3175 l 3083 3146 l
 3084 3119 l 3085 3093 l 3086 3069 l 3087 3047 l 3088 3025 l
 3090 2985 l 3092 2948 l 3094 2915 l 3097 2885 l 3101 2857 l
 3104 2832 l 3108 2810 l 3113 2791 l 3118 2774 l 3123 2760 l
 3129 2748 l 3134 2738 l 3141 2731 l 3147 2725 l 3154 2720 l
 3160 2717 l 3168 2715 l 3175 2713 l 3187 2710 l 3200 2708 l
 3214 2705 l 3230 2704 l 3246 2702 l 3263 2700 l 3279 2698 l
 3295 2696 l 3311 2695 l 3325 2692 l 3338 2690 l 3350 2688 l
 3356 2686 l 3362 2684 l 3368 2681 l 3373 2678 l 3379 2673 l
 3384 2667 l 3389 2660 l 3394 2650 l 3399 2639 l 3403 2625 l
 3407 2609 l 3411 2590 l 3415 2569 l 3419 2545 l 3422 2518 l
 3425 2489 l 3427 2457 l 3430 2421 l 3432 2383 l 3434 2342 l
 3436 2298 l 3438 2250 l 3438 2224 l 3439 2198 l 3440 2170 l
 3440 2141 l 3441 2110 l 3442 2077 l 3442 2043 l 3443 2007 l
 3443 1969 l 3444 1928 l 3444 1886 l 3445 1841 l 3445 1793 l
 3445 1743 l 3446 1690 l 3446 1635 l 3446 1577 l 3447 1516 l
 3447 1452 l 3447 1387 l 3448 1319 l 3448 1249 l 3448 1177 l
 3448 1105 l 3449 1032 l 3449 959 l 3449 887 l 3449 816 l
 3449 747 l 3449 682 l 3449 621 l 3450 564 l 3450 512 l
 3450 465 l 3450 425 l 3450 391 l 3450 363 l 3450 341 l
 3450 324 l 3450 313 l 3450 306 l 3450 302 l
 3450 300 l gs col20 s gr 
% Polyline
0 slj
15.000 slw
n 675 3450 m 3225 3450 l 3450 3150 l 3750 3750 l 3975 3450 l 6525 3450 l
 6525 4050 l 3975 4050 l 3750 4350 l 3450 3750 l 3225 4050 l
 675 4050 l
 cp gs col7 1.00 shd ef gr gs col0 s gr 
% Polyline
n 450 4350 m 1125 4350 l 1125 11025 l 450 11025 l
 cp gs col10 s gr 
% Polyline
n 450 4350 m
 1125 11025 l gs col10 s gr 
% Polyline
n 1125 4350 m
 450 11025 l gs col10 s gr 
% Polyline
n 6075 4350 m 6750 4350 l 6750 11025 l 6075 11025 l
 cp gs col10 s gr 
% Polyline
n 6075 4350 m
 6750 11025 l gs col10 s gr 
% Polyline
n 6750 4350 m
 6075 11025 l gs col10 s gr 
% Polyline
7.500 slw
n 6784 11394 m
 7165 11394 l gs col10 s gr 
% Polyline
n 6854 11464 m
 7096 11464 l gs col10 s gr 
% Polyline
n 6923 11533 m
 7027 11533 l gs col10 s gr 
% Polyline
n 6750 11025 m 6975 11175 l
 6975 11400 l gs col10 s gr 
% Polyline
n 7609 5844 m
 7990 5844 l gs col10 s gr 
% Polyline
n 7679 5914 m
 7921 5914 l gs col10 s gr 
% Polyline
n 7748 5983 m
 7852 5983 l gs col10 s gr 
% Polyline
n 7800 5625 m
 7800 5850 l gs col10 s gr 
% Ellipse
n 7800 5175 450 450 0 360 DrawEllipse gs col0 s gr

% Polyline
2 slj
n 7500 5175 m 7500 5174 l 7502 5171 l 7507 5163 l 7515 5150 l 7526 5133 l
 7539 5112 l 7554 5091 l 7570 5070 l 7585 5052 l 7599 5037 l
 7613 5026 l 7626 5018 l 7638 5015 l 7650 5015 l 7662 5018 l
 7675 5025 l 7687 5034 l 7699 5045 l 7712 5059 l 7725 5074 l
 7739 5092 l 7754 5111 l 7769 5132 l 7784 5153 l 7800 5175 l
 7816 5197 l 7831 5218 l 7846 5239 l 7861 5258 l 7875 5276 l
 7888 5291 l 7901 5305 l 7913 5316 l 7925 5325 l 7938 5332 l
 7950 5335 l 7962 5335 l 7974 5332 l 7987 5324 l 8001 5313 l
 8015 5298 l 8030 5280 l 8046 5259 l 8061 5238 l 8074 5217 l
 8085 5200 l 8093 5187 l 8098 5179 l 8100 5176 l
 8100 5175 l gs col0 s gr 
/Times-Roman-iso ff 180.00 scf sf
8325 5100 m
gs 1 -1 sc (10Vpp) col0 sh gr
/Times-Roman-iso ff 180.00 scf sf
8325 5475 m
gs 1 -1 sc (1kHz) col0 sh gr
% Arc
n 3787.5 8812.5 1238.1 -144.9 144.9 arcn
gs col7 1.00 shd ef gr gs col0 s gr

% Arc
n 3419.5 8812.5 1238.1 -35.1 35.1 arc
gs col7 1.00 shd ef gr gs col0 s gr

% Ellipse
n 8475 3300 212 212 0 360 DrawEllipse gs col0 s gr

% Polyline
0 slj
n 8925 3300 m 8250 3690 l 8250 2910 l
 cp gs col0 s gr 
% Polyline
n 8325 3150 m
 8625 3450 l gs col0 s gr 
% Polyline
n 8325 3450 m
 8625 3150 l gs col0 s gr 
% Polyline
n 7800 4725 m 7800 4200 l 6900 4200 l
 6750 4350 l gs col10 s gr 
% Polyline
n 7800 4200 m 7800 3525 l
 8250 3525 l gs col10 s gr 
% Polyline
n 7875 3075 m
 8250 3075 l gs col10 s gr 
% Polyline
45.000 slw
n 3375 6450 m
 3675 6450 l gs col20 1.00 shd ef gr gs col20 s gr 
% Polyline
7.500 slw
n 3505 6450 m 3635 6225 l 3375 6225 l
 cp gs col20 1.00 shd ef gr gs col20 s gr 
% Polyline
n 3600 6225 m 3525 6225 l 3525 5700 l 3075 5700 l
 3075 4350 l gs col20 s gr 
% Polyline
30.000 slw
n 3600 6125 m 3675 6085 l 3525 6045 l 3675 6005 l 3525 5965 l 3675 5925 l
 3525 5885 l
 3600 5845 l gs col12 s gr 
% Polyline
7.500 slw
n 3975 4350 m 3975 5700 l 3600 5700 l
 3600 5850 l gs col12 s gr 
% Polyline
15.000 slw
n 600 3375 m 750 3375 l 750 4125 l 600 4125 l
 cp gs col7 1.00 shd ef gr gs col7 s gr 
% Polyline
n 6450 3375 m 6600 3375 l 6600 4125 l 6450 4125 l
 cp gs col7 1.00 shd ef gr gs col7 s gr 
% Polyline
7.500 slw
n 2400 225 m 3375 225 l 3375 825 l 3150 825 l 3150 450 l 2400 450 l

 cp gs col33 1.00 shd ef gr gs col0 s gr 
% Polyline
n 4800 225 m 3825 225 l 3825 1425 l 4050 1425 l 4050 450 l 4800 450 l

 cp gs col33 1.00 shd ef gr gs col0 s gr 
% Polyline
n 2400 0 m 4800 0 l 4800 225 l 2400 225 l
 cp gs col33 1.00 shd ef gr gs col0 s gr 
% Polyline
n 3375 1050 m 3150 1050 l 3150 1425 l 3375 1425 l
 cp gs col33 1.00 shd ef gr gs col0 s gr 
% Polyline
n 3750 300 m 3750 -150 l 7050 -150 l 7050 3075 l
 7875 3075 l gs col10 s gr 
% Polyline
n 3450 300 m 3450 -300 l 7575 -300 l 7575 1275 l
 8100 1275 l gs col20 s gr 
% Polyline
n 3375 1050 m 600 1050 l
 600 2400 l gs col0 s gr 
% Polyline
n -1200 1050 m 375 1050 l
 375 2400 l gs col0 s gr 
% Polyline
n 3375 825 m
 -1200 825 l gs col0 s gr 
% Polyline
n 3600 300 m 3600 -225 l
 8100 -225 l gs col12 s gr 
/Times-Roman-iso ff 180.00 scf sf
8175 3975 m
gs 1 -1 sc (Lock-in) col0 sh gr
/Times-Roman-iso ff 180.00 scf sf
8250 -75 m
gs 1 -1 sc (Power) col0 sh gr
/Times-Roman-iso ff 180.00 scf sf
8175 300 m
gs 1 -1 sc (Supply) col0 sh gr
% Ellipse
n 487 1612 322 322 0 360 DrawEllipse gs col7 1.00 shd ef gr gs col0 s gr

% Ellipse
n -487 937 322 322 0 360 DrawEllipse gs col7 1.00 shd ef gr gs col0 s gr

% Polyline
n 675 1350 m 300 1350 l 675 1875 l 300 1875 l
 cp gs col0 s gr 
% Polyline
n -300 675 m -675 675 l -300 1200 l -675 1200 l
 cp gs col0 s gr 
% here ends figure;
% 
% here starts figure with depth 50
% Polyline
7.500 slw
n 2700 5850 m 3375 5850 l 3375 9525 l 2700 9525 l 2700 9075 l 3300 9075 l
 3300 7800 l 2700 7800 l 2700 7575 l 3300 7575 l 3300 6300 l
 2700 6300 l
 cp gs col26 1.00 shd ef gr gs col0 s gr 
% Polyline
n 3300 7800 m 3075 7800 l 3075 9075 l 3300 9075 l
 cp gs col10 s gr 
% Polyline
n 3075 7800 m
 3300 9075 l gs col10 s gr 
% Polyline
n 3300 7800 m
 3075 9075 l gs col10 s gr 
% Polyline
n 3300 6300 m
 3075 7575 l gs col10 s gr 
% Polyline
n 3075 6300 m
 3300 7575 l gs col10 s gr 
% Polyline
n 3300 6300 m 3075 6300 l 3075 7575 l 3300 7575 l
 cp gs col10 s gr 
% Polyline
n 3525 6525 m 3675 6525 l 3675 7350 l 3525 7350 l
 cp gs 0.00 setgray ef gr gs col0 s gr 
% Polyline
n 4500 5850 m 3825 5850 l 3825 9525 l 4500 9525 l 4500 9075 l 3900 9075 l
 3900 7800 l 4500 7800 l 4500 7575 l 3900 7575 l 3900 6300 l
 4500 6300 l
 cp gs col26 1.00 shd ef gr gs col0 s gr 
% Polyline
n 3900 6300 m 4125 6300 l 4125 7575 l 3900 7575 l
 cp gs col10 s gr 
% Polyline
n 3900 6300 m
 4125 7575 l gs col10 s gr 
% Polyline
n 4125 6300 m
 3900 7575 l gs col10 s gr 
% Polyline
n 3900 7800 m 4125 7800 l 4125 9075 l 3900 9075 l
 cp gs col10 s gr 
% Polyline
n 3900 7800 m
 4125 9075 l gs col10 s gr 
% Polyline
n 4125 7800 m
 3900 9075 l gs col10 s gr 
% Polyline
n 10050 1350 m 11025 1350 l 11025 3000 l 10050 3000 l
 cp gs col0 s gr 
% Polyline
n 8100 -525 m 9225 -525 l 9225 525 l 8100 525 l
 cp gs col0 s gr 
% Polyline
n 8100 900 m 9225 900 l 9225 1650 l 8100 1650 l
 cp gs col0 s gr 
% Polyline
n 9225 1275 m 9450 1050 l 9450 1125 l 9525 1125 l 9750 1125 l 9750 2025 l
 9825 2025 l 9825 1950 l 10050 2175 l 9825 2400 l 9825 2325 l
 9450 2325 l 8775 3000 l 8850 3075 l 8550 3075 l 8550 2775 l
 8625 2850 l 9450 2025 l 9525 2025 l 9525 1425 l 9450 1425 l
 9450 1500 l
 cp gs col34 1.00 shd ef gr gs col0 s gr 
/Times-Roman-iso ff 180.00 scf sf
5100 7200 m
gs 1 -1 sc  270.0 rot (LN2) col0 sh gr
/Times-Roman-iso ff 180.00 scf sf
6825 7200 m
gs 1 -1 sc  270.0 rot (Field coil) col0 sh gr
/Times-Roman-iso ff 180.00 scf sf
10350 2325 m
gs 1 -1 sc (PC) col0 sh gr
/Times-Roman-iso ff 180.00 scf sf
8325 1425 m
gs 1 -1 sc (DMM) col0 sh gr
/Times-Roman-iso ff 180.00 scf sf
8100 1950 m
gs 1 -1 sc (4w-ohm) col0 sh gr
/Times-Roman-iso ff 180.00 scf sf
9150 3075 m
gs 1 -1 sc  45.0 rot (GPIB) col0 sh gr
% here ends figure;
$F2psEnd
rs
end
showpage
