%!PS-Adobe-2.0 EPSF-2.0
%%Title: htsc-diode.eps
%%Creator: fig2dev Version 3.2 Patchlevel 3d
%%CreationDate: Thu Jan  1 22:45:50 2004
%%For: dpeets@physics (Darren Peets)
%%BoundingBox: 0 0 370 238
%%Magnification: 1.0000
%%EndComments
/$F2psDict 200 dict def
$F2psDict begin
$F2psDict /mtrx matrix put
/col-1 {0 setgray} bind def
/col0 {0.000 0.000 0.000 srgb} bind def
/col1 {0.000 0.000 1.000 srgb} bind def
/col2 {0.000 1.000 0.000 srgb} bind def
/col3 {0.000 1.000 1.000 srgb} bind def
/col4 {1.000 0.000 0.000 srgb} bind def
/col5 {1.000 0.000 1.000 srgb} bind def
/col6 {1.000 1.000 0.000 srgb} bind def
/col7 {1.000 1.000 1.000 srgb} bind def
/col8 {0.000 0.000 0.560 srgb} bind def
/col9 {0.000 0.000 0.690 srgb} bind def
/col10 {0.000 0.000 0.820 srgb} bind def
/col11 {0.530 0.810 1.000 srgb} bind def
/col12 {0.000 0.560 0.000 srgb} bind def
/col13 {0.000 0.690 0.000 srgb} bind def
/col14 {0.000 0.820 0.000 srgb} bind def
/col15 {0.000 0.560 0.560 srgb} bind def
/col16 {0.000 0.690 0.690 srgb} bind def
/col17 {0.000 0.820 0.820 srgb} bind def
/col18 {0.560 0.000 0.000 srgb} bind def
/col19 {0.690 0.000 0.000 srgb} bind def
/col20 {0.820 0.000 0.000 srgb} bind def
/col21 {0.560 0.000 0.560 srgb} bind def
/col22 {0.690 0.000 0.690 srgb} bind def
/col23 {0.820 0.000 0.820 srgb} bind def
/col24 {0.500 0.190 0.000 srgb} bind def
/col25 {0.630 0.250 0.000 srgb} bind def
/col26 {0.750 0.380 0.000 srgb} bind def
/col27 {1.000 0.500 0.500 srgb} bind def
/col28 {1.000 0.630 0.630 srgb} bind def
/col29 {1.000 0.750 0.750 srgb} bind def
/col30 {1.000 0.880 0.880 srgb} bind def
/col31 {1.000 0.840 0.000 srgb} bind def

end
save
newpath 0 238 moveto 0 0 lineto 370 0 lineto 370 238 lineto closepath clip newpath
-81.0 274.5 translate
1 -1 scale

/cp {closepath} bind def
/ef {eofill} bind def
/gr {grestore} bind def
/gs {gsave} bind def
/sa {save} bind def
/rs {restore} bind def
/l {lineto} bind def
/m {moveto} bind def
/rm {rmoveto} bind def
/n {newpath} bind def
/s {stroke} bind def
/sh {show} bind def
/slc {setlinecap} bind def
/slj {setlinejoin} bind def
/slw {setlinewidth} bind def
/srgb {setrgbcolor} bind def
/rot {rotate} bind def
/sc {scale} bind def
/sd {setdash} bind def
/ff {findfont} bind def
/sf {setfont} bind def
/scf {scalefont} bind def
/sw {stringwidth} bind def
/tr {translate} bind def
/tnt {dup dup currentrgbcolor
  4 -2 roll dup 1 exch sub 3 -1 roll mul add
  4 -2 roll dup 1 exch sub 3 -1 roll mul add
  4 -2 roll dup 1 exch sub 3 -1 roll mul add srgb}
  bind def
/shd {dup dup currentrgbcolor 4 -2 roll mul 4 -2 roll mul
  4 -2 roll mul srgb} bind def
/reencdict 12 dict def /ReEncode { reencdict begin
/newcodesandnames exch def /newfontname exch def /basefontname exch def
/basefontdict basefontname findfont def /newfont basefontdict maxlength dict def
basefontdict { exch dup /FID ne { dup /Encoding eq
{ exch dup length array copy newfont 3 1 roll put }
{ exch newfont 3 1 roll put } ifelse } { pop pop } ifelse } forall
newfont /FontName newfontname put newcodesandnames aload pop
128 1 255 { newfont /Encoding get exch /.notdef put } for
newcodesandnames length 2 idiv { newfont /Encoding get 3 1 roll put } repeat
newfontname newfont definefont pop end } def
/isovec [
8#055 /minus 8#200 /grave 8#201 /acute 8#202 /circumflex 8#203 /tilde
8#204 /macron 8#205 /breve 8#206 /dotaccent 8#207 /dieresis
8#210 /ring 8#211 /cedilla 8#212 /hungarumlaut 8#213 /ogonek 8#214 /caron
8#220 /dotlessi 8#230 /oe 8#231 /OE
8#240 /space 8#241 /exclamdown 8#242 /cent 8#243 /sterling
8#244 /currency 8#245 /yen 8#246 /brokenbar 8#247 /section 8#250 /dieresis
8#251 /copyright 8#252 /ordfeminine 8#253 /guillemotleft 8#254 /logicalnot
8#255 /hyphen 8#256 /registered 8#257 /macron 8#260 /degree 8#261 /plusminus
8#262 /twosuperior 8#263 /threesuperior 8#264 /acute 8#265 /mu 8#266 /paragraph
8#267 /periodcentered 8#270 /cedilla 8#271 /onesuperior 8#272 /ordmasculine
8#273 /guillemotright 8#274 /onequarter 8#275 /onehalf
8#276 /threequarters 8#277 /questiondown 8#300 /Agrave 8#301 /Aacute
8#302 /Acircumflex 8#303 /Atilde 8#304 /Adieresis 8#305 /Aring
8#306 /AE 8#307 /Ccedilla 8#310 /Egrave 8#311 /Eacute
8#312 /Ecircumflex 8#313 /Edieresis 8#314 /Igrave 8#315 /Iacute
8#316 /Icircumflex 8#317 /Idieresis 8#320 /Eth 8#321 /Ntilde 8#322 /Ograve
8#323 /Oacute 8#324 /Ocircumflex 8#325 /Otilde 8#326 /Odieresis 8#327 /multiply
8#330 /Oslash 8#331 /Ugrave 8#332 /Uacute 8#333 /Ucircumflex
8#334 /Udieresis 8#335 /Yacute 8#336 /Thorn 8#337 /germandbls 8#340 /agrave
8#341 /aacute 8#342 /acircumflex 8#343 /atilde 8#344 /adieresis 8#345 /aring
8#346 /ae 8#347 /ccedilla 8#350 /egrave 8#351 /eacute
8#352 /ecircumflex 8#353 /edieresis 8#354 /igrave 8#355 /iacute
8#356 /icircumflex 8#357 /idieresis 8#360 /eth 8#361 /ntilde 8#362 /ograve
8#363 /oacute 8#364 /ocircumflex 8#365 /otilde 8#366 /odieresis 8#367 /divide
8#370 /oslash 8#371 /ugrave 8#372 /uacute 8#373 /ucircumflex
8#374 /udieresis 8#375 /yacute 8#376 /thorn 8#377 /ydieresis] def
/Times-Roman /Times-Roman-iso isovec ReEncode
 /DrawEllipse {
	/endangle exch def
	/startangle exch def
	/yrad exch def
	/xrad exch def
	/y exch def
	/x exch def
	/savematrix mtrx currentmatrix def
	x y tr xrad yrad sc 0 0 1 startangle endangle arc
	closepath
	savematrix setmatrix
	} def

/$F2psBegin {$F2psDict begin /$F2psEnteredState save def} def
/$F2psEnd {$F2psEnteredState restore end} def

$F2psBegin
10 setmiterlimit
 0.06000 0.06000 sc
%
% Fig objects follow
%
% Polyline
7.500 slw
n 4350 4275 m 4350 2475 l 4200 2475 l 4575 2100 l 4950 2475 l 4800 2475 l

 4800 4275 l gs col0 s gr 
% Polyline
n 6150 1200 m 5400 1200 l 5400 4350 l 6000 4350 l 6075 4275 l
 6225 4275 l gs col0 s gr 
% Polyline
n 6750 2025 m 6900 2025 l 6900 4200 l
 6825 4275 l gs col0 s gr 
% Polyline
n 6675 4275 m 6825 4275 l 6900 4350 l 7500 4350 l 7500 1200 l
 6750 1200 l gs col0 s gr 
% Polyline
n 6150 2025 m 6000 2025 l 6000 4200 l 6000 4200 l 6000 4200 l
 6075 4275 l gs col0 s gr 
/Times-Roman-iso ff 180.00 scf sf
6150 750 m
gs 1 -1 sc (DMM) col0 sh gr
/Times-Roman-iso ff 180.00 scf sf
6975 2625 m
gs 1 -1 sc (I-) col0 sh gr
/Times-Roman-iso ff 180.00 scf sf
7200 1125 m
gs 1 -1 sc (V-) col0 sh gr
/Times-Roman-iso ff 180.00 scf sf
5025 4500 m
gs 1 -1 sc (bee) col0 sh gr
/Times-Roman-iso ff 180.00 scf sf
1350 4500 m
gs 1 -1 sc (eh) col0 sh gr
/Times-Roman-iso ff 180.00 scf sf
2175 2250 m
gs 1 -1 sc (a) col0 sh gr
/Times-Roman-iso ff 180.00 scf sf
3075 2250 m
gs 1 -1 sc (b) col0 sh gr
/Times-Roman-iso ff 180.00 scf sf
3450 2250 m
gs 1 -1 sc (I-) col0 sh gr
/Times-Roman-iso ff 180.00 scf sf
1800 2250 m
gs 1 -1 sc (I+) col0 sh gr
/Times-Roman-iso ff 180.00 scf sf
2400 750 m
gs 1 -1 sc (DMM) col0 sh gr
/Times-Roman-iso ff 180.00 scf sf
5475 1125 m
gs 1 -1 sc (V+) col0 sh gr
/Times-Roman-iso ff 180.00 scf sf
4425 4575 m
gs 1 -1 sc (TN2) col0 sh gr
/Times-Roman-iso ff 180.00 scf sf
2625 1275 m
gs 1 -1 sc (V) col0 sh gr
/Times-Roman-iso ff 180.00 scf sf
6375 1275 m
gs 1 -1 sc (V) col0 sh gr
/Times-Roman-iso ff 180.00 scf sf
5775 2625 m
gs 1 -1 sc (I+) col0 sh gr
/Times-Roman-iso ff 180.00 scf sf
4275 2025 m
gs 1 -1 sc (Troom) col0 sh gr
/Times-Roman-iso ff 180.00 scf sf
4650 4200 m
gs 1 -1 sc  90.0 rot (Thermal Gradient) col0 sh gr
/Times-Roman-iso ff 180.00 scf sf
6000 4575 m
gs 1 -1 sc (a) col0 sh gr
/Times-Roman-iso ff 180.00 scf sf
6750 4575 m
gs 1 -1 sc (b) col0 sh gr
% Polyline
gs  clippath
6210 1995 m 6210 2055 l 6395 2055 l 6245 2025 l 6395 1995 l cp
eoclip
n 6225 2025 m
 6675 2025 l gs col0 s gr gr

% arrowhead
n 6395 1995 m 6245 2025 l 6395 2055 l 6365 2025 l 6395 1995 l 
 cp gs 0.00 setgray ef gr  col0 s
% Polyline
30.000 slw
n 6675 4050 m
 6675 4500 l gs col0 s gr 
% Polyline
7.500 slw
n 6675 4275 m 6225 4535 l 6225 4015 l
 cp gs col0 s gr 
% Polyline
30.000 slw
n 2925 4050 m
 2925 4500 l gs col0 s gr 
% Polyline
7.500 slw
n 2925 4275 m 2475 4535 l 2475 4015 l
 cp gs col0 s gr 
% Ellipse
n 2700 1200 300 300 0 360 DrawEllipse gs col0 s gr

% Ellipse
n 2700 2025 300 300 0 360 DrawEllipse gs col0 s gr

% Ellipse
n 6450 1200 300 300 0 360 DrawEllipse gs col0 s gr

% Ellipse
n 6450 2025 300 300 0 360 DrawEllipse gs col0 s gr

% Ellipse
n 6000 2437 38 38 0 360 DrawEllipse gs 0.00 setgray ef gr gs col0 s gr

% Ellipse
n 6900 2437 38 38 0 360 DrawEllipse gs 0.00 setgray ef gr gs col0 s gr

% Ellipse
n 7162 1200 38 38 0 360 DrawEllipse gs 0.00 setgray ef gr gs col0 s gr

% Ellipse
n 5737 1200 37 37 0 360 DrawEllipse gs 0.00 setgray ef gr gs col0 s gr

% Ellipse
n 3412 2025 38 38 0 360 DrawEllipse gs 0.00 setgray ef gr gs col0 s gr

% Ellipse
n 1987 2025 37 37 0 360 DrawEllipse gs 0.00 setgray ef gr gs col0 s gr

% Polyline
 [60] 0 sd
n 5775 825 m 7125 825 l 7125 2400 l 5775 2400 l
 cp gs col0 s gr  [] 0 sd
% Polyline
n 1575 3075 m 1650 3150 l
 1725 3075 l gs col0 s gr 
% Polyline
n 5925 3075 m 6000 3150 l
 6075 3075 l gs col0 s gr 
% Polyline
n 3675 3150 m 3750 3075 l
 3825 3150 l gs col0 s gr 
% Polyline
n 6825 3150 m 6900 3075 l
 6975 3150 l gs col0 s gr 
% Polyline
n 2925 4275 m 3750 4275 l 3750 2025 l
 3000 2025 l gs col0 s gr 
% Polyline
n 2400 2025 m 1650 2025 l 1650 4275 l
 2475 4275 l gs col0 s gr 
% Polyline
n 2400 1200 m 2250 1200 l
 2250 2025 l gs col0 s gr 
% Polyline
n 3000 1200 m 3150 1200 l
 3150 2025 l gs col0 s gr 
% Polyline
 [60] 0 sd
n 2025 825 m 3375 825 l 3375 2400 l 2025 2400 l
 cp gs col0 s gr  [] 0 sd
% Polyline
gs  clippath
2460 1995 m 2460 2055 l 2645 2055 l 2495 2025 l 2645 1995 l cp
eoclip
n 2475 2025 m
 2925 2025 l gs col0 s gr gr

% arrowhead
n 2645 1995 m 2495 2025 l 2645 2055 l 2615 2025 l 2645 1995 l 
 cp gs 0.00 setgray ef gr  col0 s
$F2psEnd
rs
