%!PS-Adobe-2.0 EPSF-2.0
%%Title: lc-apparatus.eps
%%Creator: fig2dev Version 3.2 Patchlevel 1
%%CreationDate: Mon Apr  1 16:15:02 2002
%%For: dpeets@physics (Darren Peets)
%%Orientation: Portrait
%%BoundingBox: 0 0 359 228
%%Pages: 0
%%BeginSetup
%%EndSetup
%%Magnification: 1.0000
%%EndComments
/$F2psDict 200 dict def
$F2psDict begin
$F2psDict /mtrx matrix put
/col-1 {0 setgray} bind def
/col0 {0.000 0.000 0.000 srgb} bind def
/col1 {0.000 0.000 1.000 srgb} bind def
/col2 {0.000 1.000 0.000 srgb} bind def
/col3 {0.000 1.000 1.000 srgb} bind def
/col4 {1.000 0.000 0.000 srgb} bind def
/col5 {1.000 0.000 1.000 srgb} bind def
/col6 {1.000 1.000 0.000 srgb} bind def
/col7 {1.000 1.000 1.000 srgb} bind def
/col8 {0.000 0.000 0.560 srgb} bind def
/col9 {0.000 0.000 0.690 srgb} bind def
/col10 {0.000 0.000 0.820 srgb} bind def
/col11 {0.530 0.810 1.000 srgb} bind def
/col12 {0.000 0.560 0.000 srgb} bind def
/col13 {0.000 0.690 0.000 srgb} bind def
/col14 {0.000 0.820 0.000 srgb} bind def
/col15 {0.000 0.560 0.560 srgb} bind def
/col16 {0.000 0.690 0.690 srgb} bind def
/col17 {0.000 0.820 0.820 srgb} bind def
/col18 {0.560 0.000 0.000 srgb} bind def
/col19 {0.690 0.000 0.000 srgb} bind def
/col20 {0.820 0.000 0.000 srgb} bind def
/col21 {0.560 0.000 0.560 srgb} bind def
/col22 {0.690 0.000 0.690 srgb} bind def
/col23 {0.820 0.000 0.820 srgb} bind def
/col24 {0.500 0.190 0.000 srgb} bind def
/col25 {0.630 0.250 0.000 srgb} bind def
/col26 {0.750 0.380 0.000 srgb} bind def
/col27 {1.000 0.500 0.500 srgb} bind def
/col28 {1.000 0.630 0.630 srgb} bind def
/col29 {1.000 0.750 0.750 srgb} bind def
/col30 {1.000 0.880 0.880 srgb} bind def
/col31 {1.000 0.840 0.000 srgb} bind def
/col32 {0.816 0.816 0.816 srgb} bind def

end
save
-3.0 231.0 translate
1 -1 scale

/cp {closepath} bind def
/ef {eofill} bind def
/gr {grestore} bind def
/gs {gsave} bind def
/sa {save} bind def
/rs {restore} bind def
/l {lineto} bind def
/m {moveto} bind def
/rm {rmoveto} bind def
/n {newpath} bind def
/s {stroke} bind def
/sh {show} bind def
/slc {setlinecap} bind def
/slj {setlinejoin} bind def
/slw {setlinewidth} bind def
/srgb {setrgbcolor} bind def
/rot {rotate} bind def
/sc {scale} bind def
/sd {setdash} bind def
/ff {findfont} bind def
/sf {setfont} bind def
/scf {scalefont} bind def
/sw {stringwidth} bind def
/tr {translate} bind def
/tnt {dup dup currentrgbcolor
  4 -2 roll dup 1 exch sub 3 -1 roll mul add
  4 -2 roll dup 1 exch sub 3 -1 roll mul add
  4 -2 roll dup 1 exch sub 3 -1 roll mul add srgb}
  bind def
/shd {dup dup currentrgbcolor 4 -2 roll mul 4 -2 roll mul
  4 -2 roll mul srgb} bind def
 /DrawEllipse {
	/endangle exch def
	/startangle exch def
	/yrad exch def
	/xrad exch def
	/y exch def
	/x exch def
	/savematrix mtrx currentmatrix def
	x y tr xrad yrad sc 0 0 1 startangle endangle arc
	closepath
	savematrix setmatrix
	} def

/$F2psBegin {$F2psDict begin /$F2psEnteredState save def} def
/$F2psEnd {$F2psEnteredState restore end} def
%%EndProlog

$F2psBegin
10 setmiterlimit
n -1000 4847 m -1000 -1000 l 7022 -1000 l 7022 4847 l cp clip
 0.06000 0.06000 sc
% Polyline
7.500 slw
n 1500 2100 m 1800 2100 l gs col0 s gr 
% Polyline
n 1725 2175 m 1575 2175 l gs col0 s gr 
% Polyline
n 1425 2025 m 1875 2025 l gs col0 s gr 
% Polyline
n 1425 1200 m 1650 1200 l 1650 1275 l 1725 1350 l 1575 1425 l 1725 1500 l
 1575 1575 l 1725 1650 l 1575 1725 l 1725 1800 l 1650 1875 l gs col0 s gr 
% Polyline
n 1650 1875 m 1650 2025 l gs col0 s gr 
% Polyline
n 3525 2700 m 3825 2700 l gs col0 s gr 
% Polyline
n 3750 2775 m 3600 2775 l gs col0 s gr 
% Polyline
n 3450 2625 m 3900 2625 l gs col0 s gr 
% Polyline
n 3675 2175 m 3675 2625 l gs col0 s gr 
% Polyline
n 2550 2400 m 2550 2175 l 2700 2175 l gs col0 s gr 
% Polyline
n 3975 900 m 4050 900 l 4050 1500 l gs col0 s gr 
% Polyline
 [15 45] 45 sd
n 4050 900 m 4500 900 l gs col0 s gr  [] 0 sd
% Polyline
n 5100 900 m 5175 900 l 5175 1500 l gs col0 s gr 
% Polyline
n 3375 900 m 3375 1500 l gs col0 s gr 
% Polyline
n 2775 900 m 2700 900 l 2700 1500 l gs col0 s gr 
% Polyline
n 4575 900 m 4500 900 l 4500 1500 l gs col0 s gr 
% Polyline
n 5175 900 m 5625 900 l 5625 1200 l 5700 1275 l 5550 1350 l 5700 1425 l
 5550 1500 l 5700 1575 l 5550 1650 l 5700 1725 l 5625 1800 l
 5625 2175 l 5175 2175 l gs col0 s gr 
% Polyline
n 2700 1575 m 2700 2175 l 5175 2175 l gs col0 s gr 
% Polyline
n 3900 1575 m 4200 1575 l gs col0 s gr 
% Polyline
n 4050 1575 m 4050 2175 l gs col0 s gr 
% Polyline
n 3375 1575 m 3375 2175 l gs col0 s gr 
% Polyline
n 2550 1575 m 2850 1575 l gs col0 s gr 
% Polyline
n 5025 1500 m 5325 1500 l gs col0 s gr 
% Polyline
n 5025 1575 m 5325 1575 l gs col0 s gr 
% Polyline
n 5175 1575 m 5175 2175 l gs col0 s gr 
% Polyline
n 3225 1500 m 3525 1500 l gs col0 s gr 
% Polyline
n 3225 1575 m 3525 1575 l gs col0 s gr 
% Polyline
n 2550 1500 m 2850 1500 l gs col0 s gr 
% Polyline
n 3900 1500 m 4200 1500 l gs col0 s gr 
% Polyline
n 4350 1500 m 4650 1500 l gs col0 s gr 
% Polyline
n 4350 1575 m 4650 1575 l gs col0 s gr 
% Polyline
n 4500 1575 m 4500 2175 l gs col0 s gr 
% Polyline
n 2775 900 m 2775 899 l 2777 894 l 2782 881 l 2789 862 l 2798 841 l
 2808 819 l 2817 801 l 2825 786 l 2832 777 l 2838 772 l
 2844 771 l 2850 775 l 2856 783 l 2862 794 l 2867 808 l
 2873 825 l 2879 844 l 2884 864 l 2889 885 l 2893 905 l
 2896 923 l 2898 939 l 2900 952 l 2900 962 l 2900 963 l
 2900 967 l 2899 971 l 2899 973 l 2898 974 l 2896 975 l
 2895 974 l 2893 972 l 2891 969 l 2889 966 l 2887 961 l
 2886 956 l 2884 950 l 2882 943 l 2880 936 l 2879 929 l
 2877 921 l 2876 913 l 2876 904 l 2875 896 l 2875 888 l
 2875 875 l 2876 862 l 2878 849 l 2880 836 l 2883 823 l
 2887 811 l 2891 800 l 2895 790 l 2900 782 l 2905 776 l
 2910 772 l 2915 770 l 2920 771 l 2925 775 l 2931 783 l
 2937 794 l 2942 808 l 2948 825 l 2954 844 l 2959 864 l
 2964 885 l 2968 905 l 2971 923 l 2973 939 l 2975 952 l
 2975 962 l 2975 963 l 2975 967 l 2974 971 l 2974 973 l
 2973 974 l 2971 975 l 2970 974 l 2968 972 l 2966 969 l
 2964 966 l 2962 961 l 2961 956 l 2959 950 l 2957 943 l
 2955 936 l 2954 929 l 2952 921 l 2951 913 l 2951 904 l
 2950 896 l 2950 888 l 2950 875 l 2951 862 l 2953 849 l
 2955 836 l 2958 823 l 2962 811 l 2966 800 l 2970 790 l
 2975 782 l 2980 776 l 2985 772 l 2990 770 l 2995 771 l
 3000 775 l 3006 783 l 3012 794 l 3017 808 l 3023 825 l
 3029 844 l 3034 864 l 3039 885 l 3043 905 l 3046 923 l
 3048 939 l 3050 952 l 3050 962 l 3050 963 l 3050 967 l
 3049 971 l 3049 973 l 3048 974 l 3046 975 l 3045 974 l
 3043 972 l 3041 969 l 3039 966 l 3037 961 l 3036 956 l
 3034 950 l 3032 943 l 3030 936 l 3029 929 l 3027 921 l
 3026 913 l 3026 904 l 3025 896 l 3025 888 l 3025 875 l
 3026 862 l 3028 849 l 3030 836 l 3033 823 l 3037 811 l
 3041 800 l 3045 790 l 3050 782 l 3055 776 l 3060 772 l
 3065 770 l 3070 771 l 3075 775 l 3081 783 l 3087 794 l
 3092 808 l 3098 825 l 3104 844 l 3109 864 l 3114 885 l
 3118 905 l 3121 923 l 3123 939 l 3125 952 l 3125 962 l
 3125 963 l 3125 967 l 3124 971 l 3124 973 l 3123 974 l
 3121 975 l 3120 974 l 3118 972 l 3116 969 l 3114 966 l
 3112 961 l 3111 956 l 3109 950 l 3107 943 l 3105 936 l
 3104 929 l 3102 921 l 3101 913 l 3101 904 l 3100 896 l
 3100 888 l 3100 875 l 3101 862 l 3103 849 l 3105 836 l
 3108 823 l 3112 811 l 3116 800 l 3120 790 l 3125 782 l
 3130 776 l 3135 772 l 3140 770 l 3145 771 l 3150 775 l
 3156 783 l 3162 794 l 3167 808 l 3173 825 l 3179 844 l
 3184 864 l 3189 885 l 3193 905 l 3196 923 l 3198 939 l
 3200 952 l 3200 962 l 3200 963 l 3200 967 l 3199 971 l
 3199 973 l 3198 974 l 3196 975 l 3195 974 l 3193 972 l
 3191 969 l 3189 966 l 3187 961 l 3186 956 l 3184 950 l
 3182 943 l 3180 936 l 3179 929 l 3177 921 l 3176 913 l
 3176 904 l 3175 896 l 3175 888 l 3175 875 l 3176 862 l
 3178 849 l 3180 835 l 3183 822 l 3187 809 l 3191 796 l
 3195 785 l 3200 774 l 3205 766 l 3210 759 l 3215 754 l
 3220 751 l 3225 750 l 3231 751 l 3237 756 l 3243 765 l
 3250 777 l 3258 794 l 3267 815 l 3277 838 l 3286 861 l
 3293 880 l 3298 893 l 3300 899 l 3300 900 l gs col0 s gr 
% Polyline
n 3450 900 m 3450 899 l 3452 894 l 3457 881 l 3464 862 l 3473 841 l
 3483 819 l 3492 801 l 3500 786 l 3507 777 l 3513 772 l
 3519 771 l 3525 775 l 3531 783 l 3537 794 l 3542 808 l
 3548 825 l 3554 844 l 3559 864 l 3564 885 l 3568 905 l
 3571 923 l 3573 939 l 3575 952 l 3575 962 l 3575 963 l
 3575 967 l 3574 971 l 3574 973 l 3573 974 l 3571 975 l
 3570 974 l 3568 972 l 3566 969 l 3564 966 l 3562 961 l
 3561 956 l 3559 950 l 3557 943 l 3555 936 l 3554 929 l
 3552 921 l 3551 913 l 3551 904 l 3550 896 l 3550 888 l
 3550 875 l 3551 862 l 3553 849 l 3555 836 l 3558 823 l
 3562 811 l 3566 800 l 3570 790 l 3575 782 l 3580 776 l
 3585 772 l 3590 770 l 3595 771 l 3600 775 l 3606 783 l
 3612 794 l 3617 808 l 3623 825 l 3629 844 l 3634 864 l
 3639 885 l 3643 905 l 3646 923 l 3648 939 l 3650 952 l
 3650 962 l 3650 963 l 3650 967 l 3649 971 l 3649 973 l
 3648 974 l 3646 975 l 3645 974 l 3643 972 l 3641 969 l
 3639 966 l 3637 961 l 3636 956 l 3634 950 l 3632 943 l
 3630 936 l 3629 929 l 3627 921 l 3626 913 l 3626 904 l
 3625 896 l 3625 888 l 3625 875 l 3626 862 l 3628 849 l
 3630 836 l 3633 823 l 3637 811 l 3641 800 l 3645 790 l
 3650 782 l 3655 776 l 3660 772 l 3665 770 l 3670 771 l
 3675 775 l 3681 783 l 3687 794 l 3692 808 l 3698 825 l
 3704 844 l 3709 864 l 3714 885 l 3718 905 l 3721 923 l
 3723 939 l 3725 952 l 3725 962 l 3725 963 l 3725 967 l
 3724 971 l 3724 973 l 3723 974 l 3721 975 l 3720 974 l
 3718 972 l 3716 969 l 3714 966 l 3712 961 l 3711 956 l
 3709 950 l 3707 943 l 3705 936 l 3704 929 l 3702 921 l
 3701 913 l 3701 904 l 3700 896 l 3700 888 l 3700 875 l
 3701 862 l 3703 849 l 3705 836 l 3708 823 l 3712 811 l
 3716 800 l 3720 790 l 3725 782 l 3730 776 l 3735 772 l
 3740 770 l 3745 771 l 3750 775 l 3756 783 l 3762 794 l
 3767 808 l 3773 825 l 3779 844 l 3784 864 l 3789 885 l
 3793 905 l 3796 923 l 3798 939 l 3800 952 l 3800 962 l
 3800 963 l 3800 967 l 3799 971 l 3799 973 l 3798 974 l
 3796 975 l 3795 974 l 3793 972 l 3791 969 l 3789 966 l
 3787 961 l 3786 956 l 3784 950 l 3782 943 l 3780 936 l
 3779 929 l 3777 921 l 3776 913 l 3776 904 l 3775 896 l
 3775 888 l 3775 875 l 3776 862 l 3778 849 l 3780 836 l
 3783 823 l 3787 811 l 3791 800 l 3795 790 l 3800 782 l
 3805 776 l 3810 772 l 3815 770 l 3820 771 l 3825 775 l
 3831 783 l 3837 794 l 3842 808 l 3848 825 l 3854 844 l
 3859 864 l 3864 885 l 3868 905 l 3871 923 l 3873 939 l
 3875 952 l 3875 962 l 3875 963 l 3875 967 l 3874 971 l
 3874 973 l 3873 974 l 3871 975 l 3870 974 l 3868 972 l
 3866 969 l 3864 966 l 3862 961 l 3861 956 l 3859 950 l
 3857 943 l 3855 936 l 3854 929 l 3852 921 l 3851 913 l
 3851 904 l 3850 896 l 3850 888 l 3850 875 l 3851 862 l
 3853 849 l 3855 835 l 3858 822 l 3862 809 l 3866 796 l
 3870 785 l 3875 774 l 3880 766 l 3885 759 l 3890 754 l
 3895 751 l 3900 750 l 3906 751 l 3912 756 l 3918 765 l
 3925 777 l 3933 794 l 3942 815 l 3952 838 l 3961 861 l
 3968 880 l 3973 893 l 3975 899 l 3975 900 l gs col0 s gr 
% Polyline
n 4575 900 m 4575 899 l 4577 894 l 4582 881 l 4589 862 l 4598 841 l
 4608 819 l 4617 801 l 4625 786 l 4632 777 l 4638 772 l
 4644 771 l 4650 775 l 4656 783 l 4662 794 l 4667 808 l
 4673 825 l 4679 844 l 4684 864 l 4689 885 l 4693 905 l
 4696 923 l 4698 939 l 4700 952 l 4700 962 l 4700 963 l
 4700 967 l 4699 971 l 4699 973 l 4698 974 l 4696 975 l
 4695 974 l 4693 972 l 4691 969 l 4689 966 l 4687 961 l
 4686 956 l 4684 950 l 4682 943 l 4680 936 l 4679 929 l
 4677 921 l 4676 913 l 4676 904 l 4675 896 l 4675 888 l
 4675 875 l 4676 862 l 4678 849 l 4680 836 l 4683 823 l
 4687 811 l 4691 800 l 4695 790 l 4700 782 l 4705 776 l
 4710 772 l 4715 770 l 4720 771 l 4725 775 l 4731 783 l
 4737 794 l 4742 808 l 4748 825 l 4754 844 l 4759 864 l
 4764 885 l 4768 905 l 4771 923 l 4773 939 l 4775 952 l
 4775 962 l 4775 963 l 4775 967 l 4774 971 l 4774 973 l
 4773 974 l 4771 975 l 4770 974 l 4768 972 l 4766 969 l
 4764 966 l 4762 961 l 4761 956 l 4759 950 l 4757 943 l
 4755 936 l 4754 929 l 4752 921 l 4751 913 l 4751 904 l
 4750 896 l 4750 888 l 4750 875 l 4751 862 l 4753 849 l
 4755 836 l 4758 823 l 4762 811 l 4766 800 l 4770 790 l
 4775 782 l 4780 776 l 4785 772 l 4790 770 l 4795 771 l
 4800 775 l 4806 783 l 4812 794 l 4817 808 l 4823 825 l
 4829 844 l 4834 864 l 4839 885 l 4843 905 l 4846 923 l
 4848 939 l 4850 952 l 4850 962 l 4850 963 l 4850 967 l
 4849 971 l 4849 973 l 4848 974 l 4846 975 l 4845 974 l
 4843 972 l 4841 969 l 4839 966 l 4837 961 l 4836 956 l
 4834 950 l 4832 943 l 4830 936 l 4829 929 l 4827 921 l
 4826 913 l 4826 904 l 4825 896 l 4825 888 l 4825 875 l
 4826 862 l 4828 849 l 4830 836 l 4833 823 l 4837 811 l
 4841 800 l 4845 790 l 4850 782 l 4855 776 l 4860 772 l
 4865 770 l 4870 771 l 4875 775 l 4881 783 l 4887 794 l
 4892 808 l 4898 825 l 4904 844 l 4909 864 l 4914 885 l
 4918 905 l 4921 923 l 4923 939 l 4925 952 l 4925 962 l
 4925 963 l 4925 967 l 4924 971 l 4924 973 l 4923 974 l
 4921 975 l 4920 974 l 4918 972 l 4916 969 l 4914 966 l
 4912 961 l 4911 956 l 4909 950 l 4907 943 l 4905 936 l
 4904 929 l 4902 921 l 4901 913 l 4901 904 l 4900 896 l
 4900 888 l 4900 875 l 4901 862 l 4903 849 l 4905 836 l
 4908 823 l 4912 811 l 4916 800 l 4920 790 l 4925 782 l
 4930 776 l 4935 772 l 4940 770 l 4945 771 l 4950 775 l
 4956 783 l 4962 794 l 4967 808 l 4973 825 l 4979 844 l
 4984 864 l 4989 885 l 4993 905 l 4996 923 l 4998 939 l
 5000 952 l 5000 962 l 5000 963 l 5000 967 l 4999 971 l
 4999 973 l 4998 974 l 4996 975 l 4995 974 l 4993 972 l
 4991 969 l 4989 966 l 4987 961 l 4986 956 l 4984 950 l
 4982 943 l 4980 936 l 4979 929 l 4977 921 l 4976 913 l
 4976 904 l 4975 896 l 4975 888 l 4975 875 l 4976 862 l
 4978 849 l 4980 835 l 4983 822 l 4987 809 l 4991 796 l
 4995 785 l 5000 774 l 5005 766 l 5010 759 l 5015 754 l
 5020 751 l 5025 750 l 5031 751 l 5037 756 l 5043 765 l
 5050 777 l 5058 794 l 5067 815 l 5077 838 l 5086 861 l
 5093 880 l 5098 893 l 5100 899 l 5100 900 l gs col0 s gr 
/Times-Roman ff 180.00 scf sf
5475 825 m
gs 1 -1 sc (VC) col0 sh gr
/Times-Roman ff 180.00 scf sf
5775 1575 m
gs 1 -1 sc (Zt) col0 sh gr
% Polyline
n 3300 900 m 3450 900 l gs col0 s gr 
% Polyline
n 150 1050 m 1350 1050 l 1350 1650 l 150 1650 l cp gs col0 s gr 
/Times-Roman ff 180.00 scf sf
450 1275 m
gs 1 -1 sc (Function) col0 sh gr
/Times-Roman ff 180.00 scf sf
375 1500 m
gs 1 -1 sc (Generator) col0 sh gr
% Polyline
n 600 2400 m 1575 2400 l 1575 3000 l 600 3000 l cp gs col0 s gr 
/Times-Roman ff 180.00 scf sf
900 2775 m
gs 1 -1 sc (DVM) col0 sh gr
% Polyline
n 1725 2400 m 2700 2400 l 2700 3000 l 1725 3000 l cp gs col0 s gr 
/Times-Roman ff 180.00 scf sf
1875 2850 m
gs 1 -1 sc (Voltmeter) col0 sh gr
/Times-Roman ff 180.00 scf sf
2100 2625 m
gs 1 -1 sc (AC) col0 sh gr
% Polyline
n 1575 2625 m 1725 2625 l gs col0 s gr 
% Polyline
n 1575 2775 m 1725 2775 l gs col0 s gr 
% Polyline
n 1050 3150 m 2175 3150 l 2175 3750 l 1050 3750 l cp gs col0 s gr 
/Times-Roman ff 180.00 scf sf
1275 3525 m
gs 1 -1 sc (Computer) col0 sh gr
% Polyline
n 150 150 m 1350 150 l 1350 750 l 150 750 l cp gs col0 s gr 
/Times-Roman ff 180.00 scf sf
300 525 m
gs 1 -1 sc (Oscilloscope) col0 sh gr
% Ellipse
n 2325 900 36 36 0 360 DrawEllipse gs 0.00 setgray ef gr gs col0 s gr

% Polyline
n 1350 600 m 1425 600 l 1425 1200 l 1350 1200 l gs col0 s gr 
% Polyline
n 2700 900 m 2175 900 l 2100 825 l 2025 975 l 1950 825 l 1875 975 l
 1800 825 l 1725 975 l 1650 825 l 1575 900 l 1425 900 l gs col0 s gr 
% Polyline
n 1350 300 m 2325 300 l 2325 2400 l gs col0 s gr 
% Polyline
n 300 750 m 300 1050 l gs col0 s gr 
% Polyline
n 300 1650 m 150 1725 l 225 1725 l 225 3525 l 975 3525 l 975 3600 l
 1050 3450 l 975 3300 l 975 3375 l 375 3375 l 375 2775 l
 525 2775 l 525 2850 l 600 2700 l 525 2550 l 525 2625 l
 375 2625 l 375 1725 l 450 1725 l cp gs col32 1.00 shd ef gr gs col0 s gr 
% Polyline
15.000 slw
n 225 75 m 75 75 75 3675 150 arcto 4 {pop} repeat
  75 3825 5850 3825 150 arcto 4 {pop} repeat
  6000 3825 6000 225 150 arcto 4 {pop} repeat
  6000 75 225 75 150 arcto 4 {pop} repeat
 cp gs col0 s gr 
/Times-Roman ff 180.00 scf sf
1800 1650 m
gs 1 -1 sc (50W) col0 sh gr
/Times-Roman ff 180.00 scf sf
1425 675 m
gs 1 -1 sc (VA) col0 sh gr
/Times-Roman ff 180.00 scf sf
2325 825 m
gs 1 -1 sc (VB) col0 sh gr
/Times-Roman ff 180.00 scf sf
375 3750 m
gs 1 -1 sc (GPIB) col0 sh gr
/Times-Roman ff 180.00 scf sf
1800 750 m
gs 1 -1 sc (Zin) col0 sh gr
/Times-Roman ff 180.00 scf sf
375 975 m
gs 1 -1 sc (Trigger) col0 sh gr
$F2psEnd
rs
