%!PS-Adobe-2.0 EPSF-2.0
%%Title: micro-setup.eps
%%Creator: fig2dev Version 3.2 Patchlevel 3d
%%CreationDate: Tue Oct  4 11:17:48 2005
%%For: phys352@physics (Tongkai Huang)
%%BoundingBox: 0 0 510 249
%%Magnification: 1.0000
%%EndComments
/$F2psDict 200 dict def
$F2psDict begin
$F2psDict /mtrx matrix put
/col-1 {0 setgray} bind def
/col0 {0.000 0.000 0.000 srgb} bind def
/col1 {0.000 0.000 1.000 srgb} bind def
/col2 {0.000 1.000 0.000 srgb} bind def
/col3 {0.000 1.000 1.000 srgb} bind def
/col4 {1.000 0.000 0.000 srgb} bind def
/col5 {1.000 0.000 1.000 srgb} bind def
/col6 {1.000 1.000 0.000 srgb} bind def
/col7 {1.000 1.000 1.000 srgb} bind def
/col8 {0.000 0.000 0.560 srgb} bind def
/col9 {0.000 0.000 0.690 srgb} bind def
/col10 {0.000 0.000 0.820 srgb} bind def
/col11 {0.530 0.810 1.000 srgb} bind def
/col12 {0.000 0.560 0.000 srgb} bind def
/col13 {0.000 0.690 0.000 srgb} bind def
/col14 {0.000 0.820 0.000 srgb} bind def
/col15 {0.000 0.560 0.560 srgb} bind def
/col16 {0.000 0.690 0.690 srgb} bind def
/col17 {0.000 0.820 0.820 srgb} bind def
/col18 {0.560 0.000 0.000 srgb} bind def
/col19 {0.690 0.000 0.000 srgb} bind def
/col20 {0.820 0.000 0.000 srgb} bind def
/col21 {0.560 0.000 0.560 srgb} bind def
/col22 {0.690 0.000 0.690 srgb} bind def
/col23 {0.820 0.000 0.820 srgb} bind def
/col24 {0.500 0.190 0.000 srgb} bind def
/col25 {0.630 0.250 0.000 srgb} bind def
/col26 {0.750 0.380 0.000 srgb} bind def
/col27 {1.000 0.500 0.500 srgb} bind def
/col28 {1.000 0.630 0.630 srgb} bind def
/col29 {1.000 0.750 0.750 srgb} bind def
/col30 {1.000 0.880 0.880 srgb} bind def
/col31 {1.000 0.840 0.000 srgb} bind def
/col32 {0.816 0.816 0.816 srgb} bind def

end
save
newpath 0 249 moveto 0 0 lineto 510 0 lineto 510 249 lineto closepath clip newpath
-71.3 279.7 translate
1 -1 scale

/cp {closepath} bind def
/ef {eofill} bind def
/gr {grestore} bind def
/gs {gsave} bind def
/sa {save} bind def
/rs {restore} bind def
/l {lineto} bind def
/m {moveto} bind def
/rm {rmoveto} bind def
/n {newpath} bind def
/s {stroke} bind def
/sh {show} bind def
/slc {setlinecap} bind def
/slj {setlinejoin} bind def
/slw {setlinewidth} bind def
/srgb {setrgbcolor} bind def
/rot {rotate} bind def
/sc {scale} bind def
/sd {setdash} bind def
/ff {findfont} bind def
/sf {setfont} bind def
/scf {scalefont} bind def
/sw {stringwidth} bind def
/tr {translate} bind def
/tnt {dup dup currentrgbcolor
  4 -2 roll dup 1 exch sub 3 -1 roll mul add
  4 -2 roll dup 1 exch sub 3 -1 roll mul add
  4 -2 roll dup 1 exch sub 3 -1 roll mul add srgb}
  bind def
/shd {dup dup currentrgbcolor 4 -2 roll mul 4 -2 roll mul
  4 -2 roll mul srgb} bind def
/$F2psBegin {$F2psDict begin /$F2psEnteredState save def} def
/$F2psEnd {$F2psEnteredState restore end} def

$F2psBegin
10 setmiterlimit
 0.06000 0.06000 sc
%
% Fig objects follow
%
% Polyline
7.500 slw
n 6675 3375 m 8325 3375 l 8325 3300 l 8400 3300 l 8400 3900 l 8325 3900 l
 8325 3825 l 6675 3825 l
 cp gs col32 1.00 shd ef gr gs col0 s gr 
/Times-Roman ff 180.00 scf sf
6975 1350 m
gs 1 -1 sc (Voltmeter) col0 sh gr
/Times-Roman ff 180.00 scf sf
5475 3675 m
gs 1 -1 sc (Attenuator) col0 sh gr
/Times-Roman ff 180.00 scf sf
4050 3675 m
gs 1 -1 sc (Wavemeter) col0 sh gr
/Times-Roman ff 180.00 scf sf
8925 2775 m
gs 1 -1 sc  295.0 rot (Reflecting Sheet) col0 sh gr
/Times-Roman ff 180.00 scf sf
7050 2775 m
gs 1 -1 sc (Detector) col0 sh gr
/Times-Roman ff 180.00 scf sf
1275 3825 m
gs 1 -1 sc (Oscillator) col0 sh gr
/Times-Roman ff 180.00 scf sf
1500 3450 m
gs 1 -1 sc (Gunn) col0 sh gr
/Times-Roman ff 180.00 scf sf
7125 1050 m
gs 1 -1 sc (Digital) col0 sh gr
/Times-Roman ff 180.00 scf sf
7200 2475 m
gs 1 -1 sc (Diode) col0 sh gr
/Times-Roman ff 180.00 scf sf
1425 2400 m
gs 1 -1 sc (Supply) col0 sh gr
/Times-Roman ff 180.00 scf sf
1425 2100 m
gs 1 -1 sc (Power) col0 sh gr
/Times-Roman ff 180.00 scf sf
2850 3675 m
gs 1 -1 sc (Isolator) col0 sh gr
% Polyline
n 7500 1950 m
 7500 1725 l gs col32 1.00 shd ef gr gs col0 s gr 
% Polyline
n 1200 3000 m 2400 3000 l 2400 4200 l 1200 4200 l
 cp gs col0 s gr 
% Polyline
n 1800 2775 m
 1800 3000 l gs col0 s gr 
% Polyline
n 4050 3000 m 5250 3000 l 5250 4200 l 4050 4200 l
 cp gs col0 s gr 
% Polyline
n 2625 3000 m 3825 3000 l 3825 4200 l 2625 4200 l
 cp gs col0 s gr 
% Polyline
n 1200 1575 m 2400 1575 l 2400 2775 l 1200 2775 l
 cp gs col0 s gr 
% Polyline
n 2400 3375 m 2625 3375 l 2625 3825 l 2400 3825 l
 cp gs col32 1.00 shd ef gr gs col0 s gr 
% Polyline
n 3825 3375 m 4050 3375 l 4050 3825 l 3825 3825 l
 cp gs col32 1.00 shd ef gr gs col0 s gr 
% Polyline
n 5250 3375 m 5475 3375 l 5475 3825 l 5250 3825 l
 cp gs col32 1.00 shd ef gr gs col0 s gr 
% Polyline
n 5475 3000 m 6675 3000 l 6675 4200 l 5475 4200 l
 cp gs col0 s gr 
% Polyline
n 8700 2550 m 8700 4650 l 9675 4650 l
 cp gs col0 s gr 
% Polyline
n 6900 1950 m 8100 1950 l 8100 3150 l 6900 3150 l
 cp gs col0 s gr 
% Polyline
n 6900 525 m 8100 525 l 8100 1725 l 6900 1725 l
 cp gs col0 s gr 
% Polyline
n 6900 3450 m
 8100 3450 l gs col32 1.00 shd ef gr gs col0 s gr 
% Polyline
n 7350 3150 m 7425 3450 l 7575 3450 l 7650 3150 l
 cp gs col7 1.00 shd ef gr gs col0 s gr 
/Times-Roman ff 180.00 scf sf
6825 3750 m
gs 1 -1 sc (Slotted Guide) col0 sh gr
$F2psEnd
rs
