%!PS-Adobe-2.0 EPSF-2.0
%%Title: micro-guide.eps
%%Creator: fig2dev Version 3.2 Patchlevel 3d
%%CreationDate: Tue Oct  4 10:29:18 2005
%%For: phys352@physics (Tongkai Huang)
%%BoundingBox: 0 0 348 281
%%Magnification: 1.0000
%%EndComments
/$F2psDict 200 dict def
$F2psDict begin
$F2psDict /mtrx matrix put
/col-1 {0 setgray} bind def
/col0 {0.000 0.000 0.000 srgb} bind def
/col1 {0.000 0.000 1.000 srgb} bind def
/col2 {0.000 1.000 0.000 srgb} bind def
/col3 {0.000 1.000 1.000 srgb} bind def
/col4 {1.000 0.000 0.000 srgb} bind def
/col5 {1.000 0.000 1.000 srgb} bind def
/col6 {1.000 1.000 0.000 srgb} bind def
/col7 {1.000 1.000 1.000 srgb} bind def
/col8 {0.000 0.000 0.560 srgb} bind def
/col9 {0.000 0.000 0.690 srgb} bind def
/col10 {0.000 0.000 0.820 srgb} bind def
/col11 {0.530 0.810 1.000 srgb} bind def
/col12 {0.000 0.560 0.000 srgb} bind def
/col13 {0.000 0.690 0.000 srgb} bind def
/col14 {0.000 0.820 0.000 srgb} bind def
/col15 {0.000 0.560 0.560 srgb} bind def
/col16 {0.000 0.690 0.690 srgb} bind def
/col17 {0.000 0.820 0.820 srgb} bind def
/col18 {0.560 0.000 0.000 srgb} bind def
/col19 {0.690 0.000 0.000 srgb} bind def
/col20 {0.820 0.000 0.000 srgb} bind def
/col21 {0.560 0.000 0.560 srgb} bind def
/col22 {0.690 0.000 0.690 srgb} bind def
/col23 {0.820 0.000 0.820 srgb} bind def
/col24 {0.500 0.190 0.000 srgb} bind def
/col25 {0.630 0.250 0.000 srgb} bind def
/col26 {0.750 0.380 0.000 srgb} bind def
/col27 {1.000 0.500 0.500 srgb} bind def
/col28 {1.000 0.630 0.630 srgb} bind def
/col29 {1.000 0.750 0.750 srgb} bind def
/col30 {1.000 0.880 0.880 srgb} bind def
/col31 {1.000 0.840 0.000 srgb} bind def

end
save
newpath 0 281 moveto 0 0 lineto 348 0 lineto 348 281 lineto closepath clip newpath
-21.8 284.2 translate
1 -1 scale

/cp {closepath} bind def
/ef {eofill} bind def
/gr {grestore} bind def
/gs {gsave} bind def
/sa {save} bind def
/rs {restore} bind def
/l {lineto} bind def
/m {moveto} bind def
/rm {rmoveto} bind def
/n {newpath} bind def
/s {stroke} bind def
/sh {show} bind def
/slc {setlinecap} bind def
/slj {setlinejoin} bind def
/slw {setlinewidth} bind def
/srgb {setrgbcolor} bind def
/rot {rotate} bind def
/sc {scale} bind def
/sd {setdash} bind def
/ff {findfont} bind def
/sf {setfont} bind def
/scf {scalefont} bind def
/sw {stringwidth} bind def
/tr {translate} bind def
/tnt {dup dup currentrgbcolor
  4 -2 roll dup 1 exch sub 3 -1 roll mul add
  4 -2 roll dup 1 exch sub 3 -1 roll mul add
  4 -2 roll dup 1 exch sub 3 -1 roll mul add srgb}
  bind def
/shd {dup dup currentrgbcolor 4 -2 roll mul 4 -2 roll mul
  4 -2 roll mul srgb} bind def
/$F2psBegin {$F2psDict begin /$F2psEnteredState save def} def
/$F2psEnd {$F2psEnteredState restore end} def

$F2psBegin
10 setmiterlimit
 0.06000 0.06000 sc
%
% Fig objects follow
%
/Times-Roman ff 180.00 scf sf
1875 2775 m
gs 1 -1 sc (y) col0 sh gr
/Times-Roman ff 180.00 scf sf
1275 2250 m
gs 1 -1 sc (z) col0 sh gr
/Times-Roman ff 180.00 scf sf
1875 3150 m
gs 1 -1 sc (x) col0 sh gr
/Times-Roman ff 180.00 scf sf
525 2325 m
gs 1 -1 sc (b) col0 sh gr
% Polyline
30.000 slw
gs  clippath
2158 3447 m 2220 3278 l 1708 3091 l 2100 3331 l 1646 3260 l cp
1290 2010 m 1110 2010 l 1110 2554 l 1200 2104 l 1290 2554 l cp
eoclip
n 1200 2025 m 1200 3000 l
 2175 3358 l gs col0 s gr gr

% arrowhead
n 1290 2554 m 1200 2104 l 1110 2554 l 1200 2464 l 1290 2554 l 
 cp gs 0.00 setgray ef gr  col0 s
% arrowhead
n 1646 3260 m 2100 3331 l 1708 3091 l 1762 3206 l 1646 3260 l 
 cp gs 0.00 setgray ef gr  col0 s
% Polyline
7.500 slw
gs  clippath
3453 4533 m 3474 4476 l 3300 4413 l 3431 4493 l 3279 4469 l cp
1196 3641 m 1175 3698 l 1349 3761 l 1219 3682 l 1370 3705 l cp
eoclip
n 1200 3675 m
 3450 4500 l gs col0 s gr gr

% arrowhead
n 1370 3705 m 1219 3682 l 1349 3761 l 1331 3723 l 1370 3705 l 
 cp gs 0.00 setgray ef gr  col0 s
% arrowhead
n 3279 4469 m 3431 4493 l 3300 4413 l 3318 4451 l 3279 4469 l 
 cp gs 0.00 setgray ef gr  col0 s
% Polyline
gs  clippath
570 2790 m 630 2790 l 630 2605 l 600 2755 l 570 2605 l cp
eoclip
n 600 2400 m
 600 2775 l gs col0 s gr gr

% arrowhead
n 570 2605 m 600 2755 l 630 2605 l 600 2635 l 570 2605 l 
 cp gs 0.00 setgray ef gr  col0 s
% Polyline
gs  clippath
630 1560 m 570 1560 l 570 1745 l 600 1595 l 630 1745 l cp
eoclip
n 600 2025 m
 600 1575 l gs col0 s gr gr

% arrowhead
n 630 1745 m 600 1595 l 570 1745 l 600 1715 l 630 1745 l 
 cp gs 0.00 setgray ef gr  col0 s
% Polyline
n 975 1725 m
 375 1500 l gs col0 s gr 
% Polyline
n 3450 4050 m
 3450 4725 l gs col0 s gr 
% Polyline
n 975 2925 m
 375 2700 l gs col0 s gr 
% Polyline
n 1200 3300 m
 1200 3975 l gs col0 s gr 
% Polyline
30.000 slw
gs  clippath
2159 2543 m 2068 2387 l 1598 2662 l 2032 2513 l 1689 2817 l cp
eoclip
n 1200 3000 m
 2101 2473 l gs col0 s gr gr

% arrowhead
n 1689 2817 m 2032 2513 l 1598 2662 l 1721 2694 l 1689 2817 l 
 cp gs 0.00 setgray ef gr  col0 s
% Polyline
7.500 slw
n 4875 3300 m
 6150 2550 l gs col0 s gr 
% Polyline
n 4875 1725 m
 6150 975 l gs col0 s gr 
% Polyline
n 2325 825 m
 3600 75 l gs col0 s gr 
% Polyline
n 3600 4050 m
 4875 3300 l gs col0 s gr 
% Polyline
n 3600 2475 m
 4875 1725 l gs col0 s gr 
% Polyline
n 1050 1575 m
 2325 825 l gs col0 s gr 
% Polyline
n 1200 3000 m
 2455 2263 l gs col0 s gr 
% Polyline
n 1050 1575 m 1050 3150 l 3600 4050 l 3600 2475 l
 cp gs col0 s gr 
% Polyline
n 1200 1800 m 1200 3000 l 3450 3825 l 3450 2625 l
 cp gs col0 s gr 
% Polyline
n 2100 3900 m 2550 3900 l 2550 4350 l 2100 4350 l
 cp gs col7 1.00 shd ef gr gs col7 s gr 
/Times-Roman ff 180.00 scf sf
2250 4200 m
gs 1 -1 sc (a) col0 sh gr
$F2psEnd
rs
