%!PS-Adobe-2.0 EPSF-2.0
%%Title: nmr-block.eps
%%Creator: fig2dev Version 3.2 Patchlevel 1
%%CreationDate: Thu Mar  7 15:30:03 2002
%%For: phys409@physics (Doug Bonn)
%%Orientation: Portrait
%%BoundingBox: 1 1 583 232
%%Pages: 0
%%BeginSetup
%%EndSetup
%%Magnification: 1.0000
%%EndComments
/$F2psDict 200 dict def
$F2psDict begin
$F2psDict /mtrx matrix put
/col-1 {0 setgray} bind def
/col0 {0.000 0.000 0.000 srgb} bind def
/col1 {0.000 0.000 1.000 srgb} bind def
/col2 {0.000 1.000 0.000 srgb} bind def
/col3 {0.000 1.000 1.000 srgb} bind def
/col4 {1.000 0.000 0.000 srgb} bind def
/col5 {1.000 0.000 1.000 srgb} bind def
/col6 {1.000 1.000 0.000 srgb} bind def
/col7 {1.000 1.000 1.000 srgb} bind def
/col8 {0.000 0.000 0.560 srgb} bind def
/col9 {0.000 0.000 0.690 srgb} bind def
/col10 {0.000 0.000 0.820 srgb} bind def
/col11 {0.530 0.810 1.000 srgb} bind def
/col12 {0.000 0.560 0.000 srgb} bind def
/col13 {0.000 0.690 0.000 srgb} bind def
/col14 {0.000 0.820 0.000 srgb} bind def
/col15 {0.000 0.560 0.560 srgb} bind def
/col16 {0.000 0.690 0.690 srgb} bind def
/col17 {0.000 0.820 0.820 srgb} bind def
/col18 {0.560 0.000 0.000 srgb} bind def
/col19 {0.690 0.000 0.000 srgb} bind def
/col20 {0.820 0.000 0.000 srgb} bind def
/col21 {0.560 0.000 0.560 srgb} bind def
/col22 {0.690 0.000 0.690 srgb} bind def
/col23 {0.820 0.000 0.820 srgb} bind def
/col24 {0.500 0.190 0.000 srgb} bind def
/col25 {0.630 0.250 0.000 srgb} bind def
/col26 {0.750 0.380 0.000 srgb} bind def
/col27 {1.000 0.500 0.500 srgb} bind def
/col28 {1.000 0.630 0.630 srgb} bind def
/col29 {1.000 0.750 0.750 srgb} bind def
/col30 {1.000 0.880 0.880 srgb} bind def
/col31 {1.000 0.840 0.000 srgb} bind def

end
save
-34.0 281.0 translate
1 -1 scale

/cp {closepath} bind def
/ef {eofill} bind def
/gr {grestore} bind def
/gs {gsave} bind def
/sa {save} bind def
/rs {restore} bind def
/l {lineto} bind def
/m {moveto} bind def
/rm {rmoveto} bind def
/n {newpath} bind def
/s {stroke} bind def
/sh {show} bind def
/slc {setlinecap} bind def
/slj {setlinejoin} bind def
/slw {setlinewidth} bind def
/srgb {setrgbcolor} bind def
/rot {rotate} bind def
/sc {scale} bind def
/sd {setdash} bind def
/ff {findfont} bind def
/sf {setfont} bind def
/scf {scalefont} bind def
/sw {stringwidth} bind def
/tr {translate} bind def
/tnt {dup dup currentrgbcolor
  4 -2 roll dup 1 exch sub 3 -1 roll mul add
  4 -2 roll dup 1 exch sub 3 -1 roll mul add
  4 -2 roll dup 1 exch sub 3 -1 roll mul add srgb}
  bind def
/shd {dup dup currentrgbcolor 4 -2 roll mul 4 -2 roll mul
  4 -2 roll mul srgb} bind def
/reencdict 12 dict def /ReEncode { reencdict begin
/newcodesandnames exch def /newfontname exch def /basefontname exch def
/basefontdict basefontname findfont def /newfont basefontdict maxlength dict def
basefontdict { exch dup /FID ne { dup /Encoding eq
{ exch dup length array copy newfont 3 1 roll put }
{ exch newfont 3 1 roll put } ifelse } { pop pop } ifelse } forall
newfont /FontName newfontname put newcodesandnames aload pop
128 1 255 { newfont /Encoding get exch /.notdef put } for
newcodesandnames length 2 idiv { newfont /Encoding get 3 1 roll put } repeat
newfontname newfont definefont pop end } def
/isovec [
8#200 /grave 8#201 /acute 8#202 /circumflex 8#203 /tilde
8#204 /macron 8#205 /breve 8#206 /dotaccent 8#207 /dieresis
8#210 /ring 8#211 /cedilla 8#212 /hungarumlaut 8#213 /ogonek 8#214 /caron
8#220 /dotlessi 8#230 /oe 8#231 /OE
8#240 /space 8#241 /exclamdown 8#242 /cent 8#243 /sterling
8#244 /currency 8#245 /yen 8#246 /brokenbar 8#247 /section 8#250 /dieresis
8#251 /copyright 8#252 /ordfeminine 8#253 /guillemotleft 8#254 /logicalnot
8#255 /endash 8#256 /registered 8#257 /macron 8#260 /degree 8#261 /plusminus
8#262 /twosuperior 8#263 /threesuperior 8#264 /acute 8#265 /mu 8#266 /paragraph
8#267 /periodcentered 8#270 /cedilla 8#271 /onesuperior 8#272 /ordmasculine
8#273 /guillemotright 8#274 /onequarter 8#275 /onehalf
8#276 /threequarters 8#277 /questiondown 8#300 /Agrave 8#301 /Aacute
8#302 /Acircumflex 8#303 /Atilde 8#304 /Adieresis 8#305 /Aring
8#306 /AE 8#307 /Ccedilla 8#310 /Egrave 8#311 /Eacute
8#312 /Ecircumflex 8#313 /Edieresis 8#314 /Igrave 8#315 /Iacute
8#316 /Icircumflex 8#317 /Idieresis 8#320 /Eth 8#321 /Ntilde 8#322 /Ograve
8#323 /Oacute 8#324 /Ocircumflex 8#325 /Otilde 8#326 /Odieresis 8#327 /multiply
8#330 /Oslash 8#331 /Ugrave 8#332 /Uacute 8#333 /Ucircumflex
8#334 /Udieresis 8#335 /Yacute 8#336 /Thorn 8#337 /germandbls 8#340 /agrave
8#341 /aacute 8#342 /acircumflex 8#343 /atilde 8#344 /adieresis 8#345 /aring
8#346 /ae 8#347 /ccedilla 8#350 /egrave 8#351 /eacute
8#352 /ecircumflex 8#353 /edieresis 8#354 /igrave 8#355 /iacute
8#356 /icircumflex 8#357 /idieresis 8#360 /eth 8#361 /ntilde 8#362 /ograve
8#363 /oacute 8#364 /ocircumflex 8#365 /otilde 8#366 /odieresis 8#367 /divide
8#370 /oslash 8#371 /ugrave 8#372 /uacute 8#373 /ucircumflex
8#374 /udieresis 8#375 /yacute 8#376 /thorn 8#377 /ydieresis] def
/Times-Roman /Times-Roman-iso isovec ReEncode
 /DrawEllipse {
	/endangle exch def
	/startangle exch def
	/yrad exch def
	/xrad exch def
	/y exch def
	/x exch def
	/savematrix mtrx currentmatrix def
	x y tr xrad yrad sc 0 0 1 startangle endangle arc
	closepath
	savematrix setmatrix
	} def

/$F2psBegin {$F2psDict begin /$F2psEnteredState save def} def
/$F2psEnd {$F2psEnteredState restore end} def
%%EndProlog

$F2psBegin
10 setmiterlimit
n -1000 5672 m -1000 -1000 l 11297 -1000 l 11297 5672 l cp clip
 0.06000 0.06000 sc
% Arc
7.500 slw
gs n 9450.0 2343.8 243.8 -22.6 -157.4 arcn
gs col0 s gr
 gr

% Arc
gs n 9450.0 2418.8 243.8 -22.6 -157.4 arcn
gs col7 1.00 shd ef gr gs col0 s gr
 gr

% Polyline
n 8100 1275 m 7950 1275 l gs col0 s gr 
% Polyline
n 8550 1275 m 8700 1275 l gs col0 s gr 
% Polyline
n 4875 2625 m 4875 2624 l 4876 2620 l 4878 2610 l 4881 2593 l 4885 2572 l
 4890 2548 l 4895 2524 l 4900 2502 l 4905 2486 l 4909 2476 l
 4913 2472 l 4916 2475 l 4919 2482 l 4921 2492 l 4924 2507 l
 4926 2526 l 4929 2549 l 4932 2575 l 4934 2603 l 4937 2632 l
 4940 2661 l 4942 2688 l 4945 2713 l 4948 2735 l 4950 2752 l
 4953 2765 l 4955 2773 l 4958 2775 l 4961 2773 l 4963 2765 l
 4966 2752 l 4968 2733 l 4971 2711 l 4973 2684 l 4976 2655 l
 4978 2625 l 4980 2595 l 4983 2566 l 4985 2539 l 4988 2517 l
 4990 2498 l 4993 2485 l 4995 2477 l 4998 2475 l 5001 2477 l
 5003 2485 l 5006 2498 l 5008 2517 l 5011 2539 l 5014 2566 l
 5016 2595 l 5019 2625 l 5022 2655 l 5024 2684 l 5027 2711 l
 5030 2733 l 5032 2752 l 5035 2765 l 5037 2773 l 5040 2775 l
 5043 2773 l 5045 2765 l 5048 2752 l 5050 2733 l 5053 2711 l
 5055 2684 l 5058 2655 l 5061 2625 l 5063 2595 l 5066 2566 l
 5068 2539 l 5071 2517 l 5073 2498 l 5076 2485 l 5078 2477 l
 5081 2475 l 5084 2477 l 5086 2485 l 5089 2498 l 5091 2517 l
 5094 2539 l 5097 2566 l 5099 2595 l 5102 2625 l 5105 2655 l
 5107 2684 l 5110 2711 l 5113 2733 l 5115 2752 l 5118 2765 l
 5120 2773 l 5123 2775 l 5126 2773 l 5128 2765 l 5131 2752 l
 5133 2733 l 5136 2711 l 5138 2684 l 5141 2655 l 5143 2625 l
 5145 2595 l 5148 2566 l 5150 2539 l 5153 2517 l 5155 2498 l
 5158 2485 l 5160 2477 l 5163 2475 l 5166 2477 l 5168 2485 l
 5171 2498 l 5173 2517 l 5176 2539 l 5179 2566 l 5181 2595 l
 5184 2625 l 5187 2655 l 5189 2684 l 5192 2711 l 5195 2733 l
 5197 2752 l 5200 2765 l 5202 2773 l 5205 2775 l 5208 2773 l
 5210 2765 l 5213 2752 l 5215 2733 l 5218 2711 l 5220 2684 l
 5223 2655 l 5225 2625 l 5227 2595 l 5230 2566 l 5232 2539 l
 5235 2517 l 5237 2498 l 5240 2485 l 5242 2477 l 5245 2475 l
 5248 2477 l 5250 2485 l 5253 2498 l 5255 2517 l 5258 2539 l
 5261 2566 l 5263 2595 l 5266 2625 l 5269 2655 l 5271 2684 l
 5274 2711 l 5277 2733 l 5279 2752 l 5282 2765 l 5284 2773 l
 5287 2775 l 5290 2773 l 5292 2765 l 5295 2752 l 5297 2733 l
 5300 2711 l 5302 2684 l 5305 2655 l 5307 2625 l 5309 2595 l
 5312 2566 l 5314 2539 l 5317 2517 l 5319 2498 l 5322 2485 l
 5324 2477 l 5327 2475 l 5330 2477 l 5332 2485 l 5335 2498 l
 5337 2517 l 5340 2539 l 5343 2566 l 5345 2595 l 5348 2625 l
 5351 2655 l 5353 2684 l 5356 2711 l 5358 2733 l 5361 2752 l
 5364 2765 l 5366 2773 l 5369 2775 l 5372 2773 l 5374 2765 l
 5377 2752 l 5380 2733 l 5382 2711 l 5385 2684 l 5387 2655 l
 5390 2625 l 5393 2595 l 5395 2566 l 5398 2539 l 5401 2517 l
 5403 2498 l 5406 2485 l 5408 2477 l 5411 2475 l 5414 2477 l
 5416 2485 l 5419 2498 l 5421 2517 l 5424 2539 l 5426 2566 l
 5429 2595 l 5432 2625 l 5434 2655 l 5437 2684 l 5439 2711 l
 5442 2733 l 5444 2752 l 5447 2765 l 5449 2773 l 5452 2775 l
 5455 2773 l 5457 2765 l 5460 2752 l 5462 2733 l 5465 2711 l
 5467 2684 l 5469 2655 l 5472 2625 l 5474 2595 l 5477 2566 l
 5479 2539 l 5482 2517 l 5484 2498 l 5487 2485 l 5489 2477 l
 5492 2475 l 5495 2477 l 5497 2485 l 5500 2498 l 5502 2515 l
 5505 2537 l 5508 2562 l 5510 2589 l 5513 2618 l 5516 2647 l
 5518 2675 l 5521 2701 l 5524 2724 l 5526 2743 l 5529 2758 l
 5531 2768 l 5534 2775 l 5537 2778 l 5541 2774 l 5545 2764 l
 5550 2748 l 5555 2726 l 5560 2703 l 5565 2678 l 5569 2657 l
 5572 2640 l 5574 2630 l 5575 2626 l 5575 2625 l gs col0 s gr 
% Polyline
n 6000 1425 m 6000 1426 l 6001 1430 l 6003 1440 l 6006 1457 l 6010 1478 l
 6015 1503 l 6020 1526 l 6025 1548 l 6030 1564 l 6034 1574 l
 6038 1578 l 6041 1575 l 6044 1568 l 6046 1558 l 6049 1543 l
 6051 1524 l 6054 1501 l 6056 1475 l 6059 1447 l 6062 1418 l
 6064 1389 l 6067 1362 l 6069 1337 l 6072 1315 l 6074 1298 l
 6077 1285 l 6079 1277 l 6082 1275 l 6085 1277 l 6087 1285 l
 6090 1298 l 6092 1317 l 6095 1339 l 6097 1366 l 6099 1395 l
 6102 1425 l 6104 1455 l 6107 1484 l 6109 1511 l 6112 1533 l
 6114 1552 l 6117 1565 l 6119 1573 l 6122 1575 l 6125 1573 l
 6127 1565 l 6130 1552 l 6132 1533 l 6135 1511 l 6138 1484 l
 6140 1455 l 6143 1425 l 6146 1395 l 6148 1366 l 6151 1339 l
 6154 1317 l 6156 1298 l 6159 1285 l 6161 1277 l 6164 1275 l
 6167 1277 l 6169 1285 l 6172 1298 l 6174 1317 l 6177 1339 l
 6179 1366 l 6182 1395 l 6184 1425 l 6186 1455 l 6189 1484 l
 6191 1511 l 6194 1533 l 6196 1552 l 6199 1565 l 6201 1573 l
 6204 1575 l 6207 1573 l 6209 1565 l 6212 1552 l 6214 1533 l
 6217 1511 l 6220 1484 l 6222 1455 l 6225 1425 l 6228 1395 l
 6230 1366 l 6233 1339 l 6236 1317 l 6238 1298 l 6241 1285 l
 6243 1277 l 6246 1275 l 6249 1277 l 6251 1285 l 6254 1298 l
 6256 1317 l 6259 1339 l 6261 1366 l 6264 1395 l 6266 1425 l
 6268 1455 l 6271 1484 l 6273 1511 l 6276 1533 l 6278 1552 l
 6281 1565 l 6283 1573 l 6286 1575 l 6289 1573 l 6291 1565 l
 6294 1552 l 6296 1533 l 6299 1511 l 6302 1484 l 6304 1455 l
 6307 1425 l 6310 1395 l 6312 1366 l 6315 1339 l 6318 1317 l
 6320 1298 l 6323 1285 l 6325 1277 l 6328 1275 l 6331 1277 l
 6333 1285 l 6336 1298 l 6338 1317 l 6341 1339 l 6343 1366 l
 6346 1395 l 6348 1425 l 6350 1455 l 6353 1484 l 6355 1511 l
 6358 1533 l 6360 1552 l 6363 1565 l 6365 1573 l 6368 1575 l
 6371 1573 l 6373 1565 l 6376 1552 l 6378 1535 l 6381 1513 l
 6384 1488 l 6386 1461 l 6389 1432 l 6392 1403 l 6394 1375 l
 6397 1349 l 6400 1326 l 6402 1307 l 6405 1292 l 6407 1282 l
 6410 1275 l 6413 1272 l 6417 1276 l 6421 1286 l 6426 1302 l
 6430 1324 l 6435 1348 l 6440 1372 l 6444 1393 l 6447 1410 l
 6449 1420 l 6450 1424 l 6450 1425 l gs col0 s gr 
% Polyline
n 6000 1425 m 5850 1425 l gs col0 s gr 
% Polyline
n 6450 1425 m 6600 1425 l gs col0 s gr 
% Polyline
n 3852 3070 m 3975 3070 l gs col0 s gr 
% Polyline
n 3198 3070 m 3198 3069 l 3199 3064 l 3201 3052 l 3204 3032 l 3208 3007 l
 3213 2978 l 3218 2949 l 3223 2924 l 3228 2905 l 3232 2892 l
 3236 2887 l 3239 2890 l 3241 2896 l 3243 2906 l 3246 2920 l
 3248 2937 l 3250 2958 l 3252 2982 l 3255 3009 l 3257 3037 l
 3259 3066 l 3261 3094 l 3263 3122 l 3265 3148 l 3268 3171 l
 3270 3191 l 3272 3208 l 3274 3219 l 3277 3227 l 3279 3230 l
 3282 3229 l 3284 3222 l 3287 3209 l 3290 3191 l 3292 3169 l
 3295 3143 l 3298 3114 l 3301 3084 l 3303 3053 l 3306 3024 l
 3309 2998 l 3311 2975 l 3314 2956 l 3317 2942 l 3319 2934 l
 3322 2930 l 3325 2931 l 3327 2937 l 3330 2948 l 3332 2963 l
 3335 2983 l 3337 3006 l 3340 3031 l 3342 3057 l 3345 3084 l
 3347 3109 l 3350 3132 l 3352 3152 l 3355 3168 l 3357 3180 l
 3360 3187 l 3362 3190 l 3365 3188 l 3368 3180 l 3370 3167 l
 3373 3148 l 3376 3125 l 3379 3099 l 3381 3072 l 3384 3044 l
 3387 3018 l 3390 2995 l 3392 2976 l 3395 2962 l 3398 2953 l
 3401 2950 l 3404 2952 l 3407 2959 l 3410 2971 l 3413 2988 l
 3416 3009 l 3419 3033 l 3422 3058 l 3425 3083 l 3428 3107 l
 3431 3129 l 3434 3146 l 3437 3159 l 3440 3167 l 3443 3170 l
 3446 3168 l 3449 3162 l 3452 3151 l 3455 3136 l 3458 3116 l
 3461 3095 l 3464 3072 l 3466 3049 l 3469 3027 l 3472 3008 l
 3475 2992 l 3478 2980 l 3481 2973 l 3484 2970 l 3487 2972 l
 3491 2980 l 3494 2993 l 3498 3012 l 3502 3034 l 3505 3058 l
 3509 3082 l 3512 3105 l 3516 3124 l 3519 3138 l 3523 3147 l
 3526 3150 l 3529 3148 l 3533 3141 l 3536 3129 l 3539 3113 l
 3543 3093 l 3546 3072 l 3549 3050 l 3553 3031 l 3556 3014 l
 3559 3001 l 3563 2993 l 3566 2990 l 3569 2991 l 3573 2997 l
 3576 3008 l 3580 3022 l 3583 3039 l 3586 3058 l 3590 3077 l
 3593 3094 l 3597 3109 l 3600 3120 l 3604 3127 l 3607 3130 l
 3611 3128 l 3615 3121 l 3620 3108 l 3624 3091 l 3628 3072 l
 3632 3053 l 3637 3035 l 3641 3022 l 3645 3013 l 3649 3010 l
 3653 3011 l 3657 3018 l 3661 3028 l 3665 3042 l 3669 3058 l
 3672 3074 l 3676 3089 l 3680 3100 l 3684 3107 l 3688 3110 l
 3693 3108 l 3698 3100 l 3704 3088 l 3709 3072 l 3714 3056 l
 3720 3043 l 3725 3034 l 3730 3030 l 3735 3031 l 3740 3037 l
 3745 3046 l 3751 3058 l 3756 3070 l 3761 3080 l 3766 3087 l
 3771 3090 l 3778 3089 l 3784 3082 l 3791 3072 l 3798 3061 l
 3804 3054 l 3811 3050 l 3818 3050 l 3827 3054 l 3837 3060 l
 3846 3066 l 3851 3069 l 3852 3070 l gs col0 s gr 
% Polyline
n 3232 3975 m 3075 3975 l gs col0 s gr 
% Polyline
n 3818 3975 m 3975 3975 l gs col0 s gr 
% Polyline
n 3232 3975 m 3232 3974 l 3232 3970 l 3232 3958 l 3232 3939 l 3232 3913 l
 3233 3883 l 3233 3850 l 3233 3817 l 3234 3787 l 3234 3759 l
 3234 3736 l 3235 3716 l 3236 3700 l 3237 3687 l 3237 3677 l
 3239 3670 l 3240 3663 l 3242 3659 l 3244 3657 l 3246 3658 l
 3249 3661 l 3253 3665 l 3257 3672 l 3262 3679 l 3267 3689 l
 3273 3699 l 3280 3709 l 3287 3720 l 3295 3731 l 3304 3742 l
 3312 3751 l 3321 3761 l 3331 3771 l 3342 3781 l 3354 3791 l
 3367 3802 l 3380 3812 l 3395 3823 l 3410 3833 l 3425 3843 l
 3441 3852 l 3457 3861 l 3472 3869 l 3488 3877 l 3503 3885 l
 3519 3892 l 3535 3898 l 3551 3904 l 3569 3910 l 3588 3916 l
 3608 3923 l 3631 3929 l 3657 3936 l 3684 3943 l 3713 3950 l
 3741 3957 l 3767 3963 l 3789 3968 l 3804 3972 l 3814 3974 l
 3817 3975 l 3818 3975 l gs col0 s gr 
% Polyline
n 3198 3070 m 3075 3070 l gs col0 s gr 
% Polyline
n 8100 1275 m 8100 1276 l 8100 1279 l 8101 1289 l 8103 1305 l 8105 1329 l
 8108 1359 l 8111 1393 l 8115 1430 l 8119 1466 l 8123 1500 l
 8126 1529 l 8130 1553 l 8133 1570 l 8136 1579 l 8138 1581 l
 8141 1575 l 8143 1567 l 8144 1556 l 8146 1540 l 8148 1521 l
 8150 1499 l 8151 1472 l 8153 1442 l 8155 1410 l 8156 1375 l
 8158 1338 l 8160 1300 l 8162 1261 l 8163 1222 l 8165 1185 l
 8167 1149 l 8168 1115 l 8170 1083 l 8172 1055 l 8174 1031 l
 8175 1011 l 8177 995 l 8179 984 l 8180 977 l 8182 975 l
 8184 977 l 8185 984 l 8187 995 l 8189 1012 l 8190 1033 l
 8192 1058 l 8194 1088 l 8195 1121 l 8197 1157 l 8199 1195 l
 8200 1235 l 8202 1275 l 8204 1315 l 8205 1355 l 8207 1393 l
 8209 1429 l 8210 1462 l 8212 1492 l 8214 1517 l 8215 1538 l
 8217 1555 l 8219 1566 l 8220 1573 l 8222 1575 l 8224 1573 l
 8225 1566 l 8227 1555 l 8229 1538 l 8231 1517 l 8232 1492 l
 8234 1462 l 8236 1429 l 8238 1393 l 8239 1355 l 8241 1315 l
 8243 1275 l 8245 1235 l 8247 1195 l 8248 1157 l 8250 1121 l
 8252 1088 l 8254 1058 l 8255 1033 l 8257 1012 l 8259 995 l
 8261 984 l 8262 977 l 8264 975 l 8266 977 l 8267 984 l
 8269 995 l 8271 1012 l 8272 1033 l 8274 1058 l 8276 1088 l
 8277 1121 l 8279 1157 l 8281 1195 l 8282 1235 l 8284 1275 l
 8286 1315 l 8287 1355 l 8289 1393 l 8291 1429 l 8292 1462 l
 8294 1492 l 8296 1517 l 8297 1538 l 8299 1555 l 8301 1566 l
 8302 1573 l 8304 1575 l 8306 1573 l 8307 1566 l 8309 1555 l
 8311 1538 l 8313 1517 l 8314 1492 l 8316 1462 l 8318 1429 l
 8320 1393 l 8321 1355 l 8323 1315 l 8325 1275 l 8327 1235 l
 8329 1195 l 8330 1157 l 8332 1121 l 8334 1088 l 8336 1058 l
 8337 1033 l 8339 1012 l 8341 995 l 8343 984 l 8344 977 l
 8346 975 l 8348 977 l 8349 984 l 8351 995 l 8353 1012 l
 8354 1033 l 8356 1058 l 8358 1088 l 8359 1121 l 8361 1157 l
 8363 1195 l 8364 1235 l 8366 1275 l 8368 1315 l 8369 1355 l
 8371 1393 l 8373 1429 l 8374 1462 l 8376 1492 l 8378 1517 l
 8379 1538 l 8381 1555 l 8383 1566 l 8384 1573 l 8386 1575 l
 8388 1573 l 8389 1566 l 8391 1555 l 8393 1538 l 8395 1517 l
 8396 1492 l 8398 1462 l 8400 1429 l 8402 1393 l 8403 1355 l
 8405 1315 l 8407 1275 l 8409 1235 l 8411 1195 l 8412 1157 l
 8414 1121 l 8416 1088 l 8418 1058 l 8419 1033 l 8421 1012 l
 8423 995 l 8425 984 l 8426 977 l 8428 975 l 8430 977 l
 8431 984 l 8433 995 l 8435 1012 l 8436 1033 l 8438 1058 l
 8440 1088 l 8441 1121 l 8443 1157 l 8445 1195 l 8446 1235 l
 8448 1275 l 8450 1315 l 8451 1355 l 8453 1393 l 8455 1429 l
 8456 1462 l 8458 1492 l 8460 1517 l 8461 1538 l 8463 1555 l
 8465 1566 l 8466 1573 l 8468 1575 l 8470 1573 l 8471 1566 l
 8473 1555 l 8475 1539 l 8477 1519 l 8478 1495 l 8480 1467 l
 8482 1435 l 8484 1401 l 8485 1365 l 8487 1328 l 8489 1289 l
 8491 1250 l 8493 1212 l 8494 1175 l 8496 1140 l 8498 1108 l
 8500 1078 l 8501 1051 l 8503 1029 l 8505 1010 l 8507 994 l
 8508 983 l 8510 975 l 8513 969 l 8515 971 l 8518 980 l
 8521 997 l 8524 1021 l 8528 1050 l 8532 1084 l 8535 1120 l
 8539 1157 l 8542 1191 l 8545 1221 l 8547 1245 l 8549 1261 l
 8550 1271 l 8550 1274 l 8550 1275 l gs col0 s gr 
% Ellipse
n 2475 4012 37 37 0 360 DrawEllipse gs 0.00 setgray ef gr gs col0 s gr

% Ellipse
n 2100 4012 37 37 0 360 DrawEllipse gs 0.00 setgray ef gr gs col0 s gr

% Ellipse
n 1125 4050 37 37 0 360 DrawEllipse gs 0.00 setgray ef gr gs col0 s gr

% Polyline
n 900 1200 m 2700 1200 l 2700 2100 l 900 2100 l cp gs col0 s gr 
% Polyline
n 3900 1200 m 5700 1200 l 5700 2100 l 3900 2100 l cp gs col0 s gr 
% Polyline
n 900 3000 m 2700 3000 l 2700 4200 l 900 4200 l cp gs col0 s gr 
% Polyline
n 7875 1650 m 6863 1065 l 6863 2235 l cp gs col0 s gr 
% Polyline
n 6900 3600 m 7912 3015 l 7912 4185 l cp gs col0 s gr 
% Polyline
gs  clippath
3756 1620 m 3900 1650 l 3756 1680 l 3915 1680 l 3915 1620 l cp
clip
n 2700 1650 m 3900 1650 l gs col0 s gr gr

% arrowhead
n 3756 1620 m 3900 1650 l 3756 1680 l 3780 1650 l 3756 1620 l  cp gs 0.00 setgray ef gr  col0 s
% Polyline
gs  clippath
4830 2856 m 4800 3000 l 4770 2856 l 4770 3015 l 4830 3015 l cp
clip
n 4800 2100 m 4800 3000 l gs col0 s gr gr

% arrowhead
n 4830 2856 m 4800 3000 l 4770 2856 l 4800 2880 l 4830 2856 l  cp gs 0.00 setgray ef gr  col0 s
% Polyline
gs  clippath
5619 3330 m 5475 3300 l 5619 3270 l 5460 3270 l 5460 3330 l cp
clip
n 6900 3600 m 6000 3600 l 6000 3300 l 5475 3300 l gs col0 s gr gr

% arrowhead
n 5619 3330 m 5475 3300 l 5619 3270 l 5595 3300 l 5619 3330 l  cp gs 0.00 setgray ef gr  col0 s
% Polyline
gs  clippath
5619 4080 m 5475 4050 l 5619 4020 l 5460 4020 l 5460 4080 l cp
clip
n 6000 3600 m 6000 4050 l 5475 4050 l gs col0 s gr gr

% arrowhead
n 5619 4080 m 5475 4050 l 5619 4020 l 5595 4050 l 5619 4080 l  cp gs 0.00 setgray ef gr  col0 s
% Polyline
gs  clippath
3819 4080 m 3675 4050 l 3819 4020 l 3660 4020 l 3660 4080 l cp
clip
n 4125 4050 m 3675 4050 l gs col0 s gr gr

% arrowhead
n 3819 4080 m 3675 4050 l 3819 4020 l 3795 4050 l 3819 4080 l  cp gs 0.00 setgray ef gr  col0 s
% Polyline
gs  clippath
3819 3330 m 3675 3300 l 3819 3270 l 3660 3270 l 3660 3330 l cp
clip
n 4125 3300 m 3675 3300 l gs col0 s gr gr

% arrowhead
n 3819 3330 m 3675 3300 l 3819 3270 l 3795 3300 l 3819 3330 l  cp gs 0.00 setgray ef gr  col0 s
% Polyline
n 900 1650 m 750 1650 l 750 4350 l 1125 4350 l 1125 4050 l gs col0 s gr 
% Polyline
n 3825 3300 m 2850 3300 l 2850 4350 l 2475 4350 l 2475 4050 l gs col0 s gr 
% Polyline
n 3825 4050 m 3000 4050 l 3000 4500 l 2100 4500 l 2100 4050 l gs col0 s gr 
% Polyline
n 3000 1575 m 3150 1575 l 3150 1275 l 3450 1275 l 3450 1575 l 3600 1575 l gs col0 s gr 
% Polyline
n 9225 2250 m 9000 2250 l 9000 2700 l 9225 2700 l cp gs col0 s gr 
% Polyline
n 9675 2250 m 9900 2250 l 9900 2700 l 9675 2700 l cp gs col0 s gr 
% Polyline
gs  clippath
8094 3630 m 7950 3600 l 8094 3570 l 7935 3570 l 7935 3630 l cp
clip
n 7950 3600 m 9150 3600 l 9150 2850 l 9300 2700 l gs col0 s gr gr

% arrowhead
n 8094 3630 m 7950 3600 l 8094 3570 l 8070 3600 l 8094 3630 l  cp gs 0.00 setgray ef gr  col0 s
% Polyline
n 4125 3750 m 5475 3750 l 5475 4350 l 4125 4350 l cp gs col0 s gr 
% Polyline
n 4125 3000 m 5475 3000 l 5475 3600 l 4125 3600 l cp gs col0 s gr 
/Times-Roman-iso ff 180.00 scf sf
4125 3975 m
gs 1 -1 sc (RF Amplitude) col0 sh gr
/Times-Roman-iso ff 180.00 scf sf
8100 2550 m
gs 1 -1 sc (Coils) col0 sh gr
/Times-Roman-iso ff 180.00 scf sf
7875 2325 m
gs 1 -1 sc (Helmholtz) col0 sh gr
/Times-Roman-iso ff 180.00 scf sf
1200 3300 m
gs 1 -1 sc (Oscilloscope) col0 sh gr
/Times-Roman-iso ff 180.00 scf sf
1200 1725 m
gs 1 -1 sc (Programmer) col0 sh gr
/Times-Roman-iso ff 180.00 scf sf
6900 1500 m
gs 1 -1 sc (ReF) col0 sh gr
/Times-Roman-iso ff 180.00 scf sf
975 3900 m
gs 1 -1 sc (Sync) col0 sh gr
/Times-Roman-iso ff 180.00 scf sf
2025 3900 m
gs 1 -1 sc (Signal) col0 sh gr
/Times-Roman-iso ff 180.00 scf sf
1500 1500 m
gs 1 -1 sc (Pulse) col0 sh gr
/Times-Roman-iso ff 180.00 scf sf
4350 1725 m
gs 1 -1 sc (Oscillator) col0 sh gr
/Times-Roman-iso ff 180.00 scf sf
4125 1500 m
gs 1 -1 sc (RF Synthesized) col0 sh gr
% Polyline
gs  clippath
9420 2844 m 9450 2700 l 9480 2844 l 9480 2685 l 9420 2685 l cp
clip
n 9450 2700 m 9450 3000 l 9525 2850 l 9525 3300 l gs col0 s gr gr

% arrowhead
n 9420 2844 m 9450 2700 l 9480 2844 l 9450 2820 l 9420 2844 l  cp gs 0.00 setgray ef gr  col0 s
% Polyline
gs  clippath
8856 2445 m 9000 2475 l 8856 2505 l 9015 2505 l 9015 2445 l cp
clip
n 8625 2475 m 9000 2475 l gs col0 s gr gr

% arrowhead
n 8856 2445 m 9000 2475 l 8856 2505 l 8880 2475 l 8856 2445 l  cp gs 0.00 setgray ef gr  col0 s
% Polyline
gs  clippath
8919 2127 m 9000 2250 l 8877 2169 l 8989 2282 l 9032 2239 l cp
clip
n 9000 2250 m 8850 2100 l 8850 1650 l 7875 1650 l gs col7 1.00 shd ef gr gs col0 s gr gr

% arrowhead
n 8919 2127 m 9000 2250 l 8877 2169 l 8915 2165 l 8919 2127 l  cp gs 0.00 setgray ef gr  col0 s
% Polyline
gs  clippath
6681 1620 m 6825 1650 l 6681 1680 l 6840 1680 l 6840 1620 l cp
clip
n 5700 1650 m 6825 1650 l gs col0 s gr gr

% arrowhead
n 6681 1620 m 6825 1650 l 6681 1680 l 6705 1650 l 6681 1620 l  cp gs 0.00 setgray ef gr  col0 s
% Polyline
n 9225 1125 m 9300 1200 l 9300 2700 l 9600 2700 l 9600 1200 l 9675 1125 l gs col7 1.00 shd ef gr gs col0 s gr 
% Polyline
15.000 slw
n 750 825 m 600 825 600 4500 150 arcto 4 {pop} repeat
  600 4650 10125 4650 150 arcto 4 {pop} repeat
  10275 4650 10275 975 150 arcto 4 {pop} repeat
  10275 825 750 825 150 arcto 4 {pop} repeat
 cp gs col0 s gr 
/Times-Roman-iso ff 180.00 scf sf
6900 1725 m
gs 1 -1 sc (Amplifier) col0 sh gr
/Times-Roman-iso ff 180.00 scf sf
7125 3675 m
gs 1 -1 sc (Receiver) col0 sh gr
/Times-Roman-iso ff 180.00 scf sf
9675 2100 m
gs 1 -1 sc (xBo) col0 sh gr
/Times-Roman-iso ff 180.00 scf sf
9375 3525 m
gs 1 -1 sc (Sample) col0 sh gr
/Times-Roman-iso ff 180.00 scf sf
4875 2400 m
gs 1 -1 sc (CW-RF) col0 sh gr
/Times-Roman-iso ff 180.00 scf sf
4500 3375 m
gs 1 -1 sc (Mixer) col0 sh gr
/Times-Roman-iso ff 180.00 scf sf
4425 4200 m
gs 1 -1 sc (Detector) col0 sh gr
% Polyline
7.500 slw
n 9300 2625 m 9600 2550 l gs col0 s gr 
% Polyline
n 9300 2700 m 9600 2625 l gs col0 s gr 
% Polyline
n 9825 2250 m 9900 2700 l gs col0 s gr 
% Polyline
n 9300 2550 m 9600 2475 l gs col0 s gr 
% Polyline
n 9750 2250 m 9825 2700 l gs col0 s gr 
% Polyline
n 9675 2250 m 9750 2700 l gs col0 s gr 
% Polyline
n 9150 2250 m 9225 2700 l gs col0 s gr 
% Polyline
n 9075 2250 m 9150 2700 l gs col0 s gr 
% Polyline
n 9000 2250 m 9075 2700 l gs col0 s gr 
% Polyline
n 9300 2250 m 9600 2250 l gs col0 s gr 
% Polyline
n 9300 2325 m 9600 2250 l gs col0 s gr 
% Polyline
n 9300 2400 m 9600 2325 l gs col0 s gr 
% Polyline
n 9300 2475 m 9600 2400 l gs col0 s gr 
$F2psEnd
rs
