%!PS-Adobe-2.0 EPSF-2.0
%%Title: nmr-rotating.eps
%%Creator: fig2dev Version 3.2 Patchlevel 1
%%CreationDate: Sun Mar 17 20:10:36 2002
%%For: dpeets@physics (Darren Peets)
%%Orientation: Portrait
%%BoundingBox: 0 0 706 463
%%Pages: 0
%%BeginSetup
%%EndSetup
%%Magnification: 1.0000
%%EndComments
/$F2psDict 200 dict def
$F2psDict begin
$F2psDict /mtrx matrix put
/col-1 {0 setgray} bind def
/col0 {0.000 0.000 0.000 srgb} bind def
/col1 {0.000 0.000 1.000 srgb} bind def
/col2 {0.000 1.000 0.000 srgb} bind def
/col3 {0.000 1.000 1.000 srgb} bind def
/col4 {1.000 0.000 0.000 srgb} bind def
/col5 {1.000 0.000 1.000 srgb} bind def
/col6 {1.000 1.000 0.000 srgb} bind def
/col7 {1.000 1.000 1.000 srgb} bind def
/col8 {0.000 0.000 0.560 srgb} bind def
/col9 {0.000 0.000 0.690 srgb} bind def
/col10 {0.000 0.000 0.820 srgb} bind def
/col11 {0.530 0.810 1.000 srgb} bind def
/col12 {0.000 0.560 0.000 srgb} bind def
/col13 {0.000 0.690 0.000 srgb} bind def
/col14 {0.000 0.820 0.000 srgb} bind def
/col15 {0.000 0.560 0.560 srgb} bind def
/col16 {0.000 0.690 0.690 srgb} bind def
/col17 {0.000 0.820 0.820 srgb} bind def
/col18 {0.560 0.000 0.000 srgb} bind def
/col19 {0.690 0.000 0.000 srgb} bind def
/col20 {0.820 0.000 0.000 srgb} bind def
/col21 {0.560 0.000 0.560 srgb} bind def
/col22 {0.690 0.000 0.690 srgb} bind def
/col23 {0.820 0.000 0.820 srgb} bind def
/col24 {0.500 0.190 0.000 srgb} bind def
/col25 {0.630 0.250 0.000 srgb} bind def
/col26 {0.750 0.380 0.000 srgb} bind def
/col27 {1.000 0.500 0.500 srgb} bind def
/col28 {1.000 0.630 0.630 srgb} bind def
/col29 {1.000 0.750 0.750 srgb} bind def
/col30 {1.000 0.880 0.880 srgb} bind def
/col31 {1.000 0.840 0.000 srgb} bind def
/col32 {0.878 0.878 0.878 srgb} bind def

end
save
2.0 461.0 translate
1 -1 scale

/cp {closepath} bind def
/ef {eofill} bind def
/gr {grestore} bind def
/gs {gsave} bind def
/sa {save} bind def
/rs {restore} bind def
/l {lineto} bind def
/m {moveto} bind def
/rm {rmoveto} bind def
/n {newpath} bind def
/s {stroke} bind def
/sh {show} bind def
/slc {setlinecap} bind def
/slj {setlinejoin} bind def
/slw {setlinewidth} bind def
/srgb {setrgbcolor} bind def
/rot {rotate} bind def
/sc {scale} bind def
/sd {setdash} bind def
/ff {findfont} bind def
/sf {setfont} bind def
/scf {scalefont} bind def
/sw {stringwidth} bind def
/tr {translate} bind def
/tnt {dup dup currentrgbcolor
  4 -2 roll dup 1 exch sub 3 -1 roll mul add
  4 -2 roll dup 1 exch sub 3 -1 roll mul add
  4 -2 roll dup 1 exch sub 3 -1 roll mul add srgb}
  bind def
/shd {dup dup currentrgbcolor 4 -2 roll mul 4 -2 roll mul
  4 -2 roll mul srgb} bind def
/reencdict 12 dict def /ReEncode { reencdict begin
/newcodesandnames exch def /newfontname exch def /basefontname exch def
/basefontdict basefontname findfont def /newfont basefontdict maxlength dict def
basefontdict { exch dup /FID ne { dup /Encoding eq
{ exch dup length array copy newfont 3 1 roll put }
{ exch newfont 3 1 roll put } ifelse } { pop pop } ifelse } forall
newfont /FontName newfontname put newcodesandnames aload pop
128 1 255 { newfont /Encoding get exch /.notdef put } for
newcodesandnames length 2 idiv { newfont /Encoding get 3 1 roll put } repeat
newfontname newfont definefont pop end } def
/isovec [
8#200 /grave 8#201 /acute 8#202 /circumflex 8#203 /tilde
8#204 /macron 8#205 /breve 8#206 /dotaccent 8#207 /dieresis
8#210 /ring 8#211 /cedilla 8#212 /hungarumlaut 8#213 /ogonek 8#214 /caron
8#220 /dotlessi 8#230 /oe 8#231 /OE
8#240 /space 8#241 /exclamdown 8#242 /cent 8#243 /sterling
8#244 /currency 8#245 /yen 8#246 /brokenbar 8#247 /section 8#250 /dieresis
8#251 /copyright 8#252 /ordfeminine 8#253 /guillemotleft 8#254 /logicalnot
8#255 /endash 8#256 /registered 8#257 /macron 8#260 /degree 8#261 /plusminus
8#262 /twosuperior 8#263 /threesuperior 8#264 /acute 8#265 /mu 8#266 /paragraph
8#267 /periodcentered 8#270 /cedilla 8#271 /onesuperior 8#272 /ordmasculine
8#273 /guillemotright 8#274 /onequarter 8#275 /onehalf
8#276 /threequarters 8#277 /questiondown 8#300 /Agrave 8#301 /Aacute
8#302 /Acircumflex 8#303 /Atilde 8#304 /Adieresis 8#305 /Aring
8#306 /AE 8#307 /Ccedilla 8#310 /Egrave 8#311 /Eacute
8#312 /Ecircumflex 8#313 /Edieresis 8#314 /Igrave 8#315 /Iacute
8#316 /Icircumflex 8#317 /Idieresis 8#320 /Eth 8#321 /Ntilde 8#322 /Ograve
8#323 /Oacute 8#324 /Ocircumflex 8#325 /Otilde 8#326 /Odieresis 8#327 /multiply
8#330 /Oslash 8#331 /Ugrave 8#332 /Uacute 8#333 /Ucircumflex
8#334 /Udieresis 8#335 /Yacute 8#336 /Thorn 8#337 /germandbls 8#340 /agrave
8#341 /aacute 8#342 /acircumflex 8#343 /atilde 8#344 /adieresis 8#345 /aring
8#346 /ae 8#347 /ccedilla 8#350 /egrave 8#351 /eacute
8#352 /ecircumflex 8#353 /edieresis 8#354 /igrave 8#355 /iacute
8#356 /icircumflex 8#357 /idieresis 8#360 /eth 8#361 /ntilde 8#362 /ograve
8#363 /oacute 8#364 /ocircumflex 8#365 /otilde 8#366 /odieresis 8#367 /divide
8#370 /oslash 8#371 /ugrave 8#372 /uacute 8#373 /ucircumflex
8#374 /udieresis 8#375 /yacute 8#376 /thorn 8#377 /ydieresis] def
/Times-Roman /Times-Roman-iso isovec ReEncode
/$F2psBegin {$F2psDict begin /$F2psEnteredState save def} def
/$F2psEnd {$F2psEnteredState restore end} def
%%EndProlog

$F2psBegin
10 setmiterlimit
n -1000 8672 m -1000 -1000 l 12723 -1000 l 12723 8672 l cp clip
 0.06000 0.06000 sc
% Arc
7.500 slw
gs  clippath
10108 3311 m 9975 3375 l 10071 3264 l 9945 3360 l 9981 3408 l cp
10071 2136 m 9975 2025 l 10108 2089 l 9981 1992 l 9945 2040 l cp
clip
n 9555.0 2700.0 795.0 -58.1 58.1 arc
gs col0 s gr
 gr

% arrowhead
n 10108 3311 m 9975 3375 l 10071 3264 l 10070 3302 l 10108 3311 l  cp gs 0.00 setgray ef gr  col0 s
% arrowhead
n 10071 2136 m 9975 2025 l 10108 2089 l 10070 2098 l 10071 2136 l  cp gs 0.00 setgray ef gr  col0 s
% Polyline
n 10575 2175 m 9000 2700 l 10575 3225 l cp gs col32 1.00 shd ef gr gs col32 s gr 
% Polyline
15.000 slw
n 150 0 m 0 0 0 7500 150 arcto 4 {pop} repeat
  0 7650 11550 7650 150 arcto 4 {pop} repeat
  11700 7650 11700 150 150 arcto 4 {pop} repeat
  11700 0 150 0 150 arcto 4 {pop} repeat
 cp gs col0 s gr 
% Arc
7.500 slw
gs n 10075.0 2700.0 725.0 -46.4 46.4 arc
gs col32 1.00 shd ef gr gs col32 s gr
 gr

/Times-Roman-iso ff 180.00 scf sf
6375 1350 m
gs 1 -1 sc (pulse1) col0 sh gr
/Times-Roman-iso ff 180.00 scf sf
150 4200 m
gs 1 -1 sc (Dee) col0 sh gr
/Times-Roman-iso ff 180.00 scf sf
3225 5100 m
gs 1 -1 sc (pulse2) col0 sh gr
/Times-Roman-iso ff 180.00 scf sf
7950 450 m
gs 1 -1 sc (See) col0 sh gr
/Times-Roman-iso ff 180.00 scf sf
9375 1350 m
gs 1 -1 sc (t=tau-) col0 sh gr
/Times-Roman-iso ff 180.00 scf sf
5925 2925 m
gs 1 -1 sc (My=Mo) col0 sh gr
/Times-Roman-iso ff 180.00 scf sf
75 7200 m
gs 1 -1 sc (DMslow) col0 sh gr
% Polyline
n 375 5925 m 1950 6450 l 375 6975 l cp gs col32 1.00 shd ef gr gs col32 s gr 
/Times-Roman-iso ff 180.00 scf sf
10275 2175 m
gs 1 -1 sc (DMfast) col0 sh gr
/Times-Roman-iso ff 180.00 scf sf
10275 3450 m
gs 1 -1 sc (DMslow) col0 sh gr
/Times-Roman-iso ff 180.00 scf sf
9375 6825 m
gs 1 -1 sc (t=2tau) col0 sh gr
/Times-Roman-iso ff 180.00 scf sf
150 450 m
gs 1 -1 sc (Eh) col0 sh gr
/Times-Roman-iso ff 180.00 scf sf
1575 1350 m
gs 1 -1 sc (Equilibrium) col0 sh gr
/Times-Roman-iso ff 180.00 scf sf
1275 2175 m
gs 1 -1 sc (Mz=Mo) col0 sh gr
/Times-Roman-iso ff 180.00 scf sf
4050 450 m
gs 1 -1 sc (Bee) col0 sh gr
% Arc
gs n 875.0 6450.0 725.0 -133.6 133.6 arcn
gs col32 1.00 shd ef gr gs col32 s gr
 gr

/Times-Roman-iso ff 180.00 scf sf
75 5925 m
gs 1 -1 sc (DMfast) col0 sh gr
/Times-Roman-iso ff 180.00 scf sf
7950 4200 m
gs 1 -1 sc (Eee) col0 sh gr
% Polyline
gs  clippath
279 3529 m 150 3600 l 240 3484 l 119 3587 l 158 3633 l cp
clip
n 1200 2700 m 150 3600 l gs col0 s gr gr

% arrowhead
n 279 3529 m 150 3600 l 240 3484 l 241 3522 l 279 3529 l  cp gs 0.00 setgray ef gr  col0 s
% Polyline
gs  clippath
3456 2670 m 3600 2700 l 3456 2730 l 3615 2730 l 3615 2670 l cp
1170 444 m 1200 300 l 1230 444 l 1230 285 l 1170 285 l cp
clip
n 1200 300 m 1200 2700 l 3600 2700 l gs col0 s gr gr

% arrowhead
n 1170 444 m 1200 300 l 1230 444 l 1200 420 l 1170 444 l  cp gs 0.00 setgray ef gr  col0 s
% arrowhead
n 3456 2670 m 3600 2700 l 3456 2730 l 3480 2700 l 3456 2670 l  cp gs 0.00 setgray ef gr  col0 s
/Times-Roman-iso ff 180.00 scf sf
1125 300 m
gs 1 -1 sc (zed) col0 sh gr
% Polyline
gs  clippath
7356 2670 m 7500 2700 l 7356 2730 l 7515 2730 l 7515 2670 l cp
5070 444 m 5100 300 l 5130 444 l 5130 285 l 5070 285 l cp
clip
n 5100 300 m 5100 2700 l 7500 2700 l gs col0 s gr gr

% arrowhead
n 5070 444 m 5100 300 l 5130 444 l 5100 420 l 5070 444 l  cp gs 0.00 setgray ef gr  col0 s
% arrowhead
n 7356 2670 m 7500 2700 l 7356 2730 l 7380 2700 l 7356 2670 l  cp gs 0.00 setgray ef gr  col0 s
% Polyline
30.000 slw
gs  clippath
1170 1044 m 1200 900 l 1230 1044 l 1230 855 l 1170 855 l cp
clip
n 1200 2700 m 1200 900 l gs col0 s gr gr

% arrowhead
7.500 slw
n 1170 1044 m 1200 900 l 1230 1044 l 1200 1020 l 1170 1044 l  cp gs 0.00 setgray ef gr  col0 s
/Times-Roman-iso ff 180.00 scf sf
3600 2775 m
gs 1 -1 sc (why) col0 sh gr
/Times-Roman-iso ff 180.00 scf sf
75 3825 m
gs 1 -1 sc (ecks) col0 sh gr
/Times-Roman-iso ff 180.00 scf sf
7500 2775 m
gs 1 -1 sc (why) col0 sh gr
/Times-Roman-iso ff 180.00 scf sf
5025 300 m
gs 1 -1 sc (zed) col0 sh gr
% Polyline
30.000 slw
gs  clippath
10429 2192 m 10575 2175 l 10448 2249 l 10627 2189 l 10608 2132 l cp
clip
n 9000 2700 m 10575 2175 l gs col0 s gr gr

% arrowhead
7.500 slw
n 10429 2192 m 10575 2175 l 10448 2249 l 10461 2213 l 10429 2192 l  cp gs 0.00 setgray ef gr  col0 s
/Times-Roman-iso ff 180.00 scf sf
7875 3825 m
gs 1 -1 sc (ecks) col0 sh gr
% Arc
gs  clippath
6925 2555 m 6900 2700 l 6865 2557 l 6871 2716 l 6930 2714 l cp
clip
 [60] 0 sd
n 5112.5 2687.5 1787.5 -90.4 0.4 arc
gs col0 s gr
 gr
 [] 0 sd
% arrowhead
n 6925 2555 m 6900 2700 l 6865 2557 l 6896 2580 l 6925 2555 l  cp gs 0.00 setgray ef gr  col0 s
% Polyline
gs  clippath
8079 7279 m 7950 7350 l 8040 7234 l 7919 7337 l 7958 7383 l cp
clip
n 9000 6450 m 7950 7350 l gs col0 s gr gr

% arrowhead
n 8079 7279 m 7950 7350 l 8040 7234 l 8041 7272 l 8079 7279 l  cp gs 0.00 setgray ef gr  col0 s
% Polyline
30.000 slw
gs  clippath
7344 6480 m 7200 6450 l 7344 6420 l 7155 6420 l 7155 6480 l cp
clip
n 9000 6450 m 7200 6450 l gs col0 s gr gr

% arrowhead
7.500 slw
n 7344 6480 m 7200 6450 l 7344 6420 l 7320 6450 l 7344 6480 l  cp gs 0.00 setgray ef gr  col0 s
% Polyline
gs  clippath
4179 3529 m 4050 3600 l 4140 3484 l 4019 3587 l 4058 3633 l cp
clip
n 5100 2700 m 4050 3600 l gs col0 s gr gr

% arrowhead
n 4179 3529 m 4050 3600 l 4140 3484 l 4141 3522 l 4179 3529 l  cp gs 0.00 setgray ef gr  col0 s
/Times-Roman-iso ff 180.00 scf sf
11400 6525 m
gs 1 -1 sc (why) col0 sh gr
/Times-Roman-iso ff 180.00 scf sf
8925 4050 m
gs 1 -1 sc (zed) col0 sh gr
/Times-Roman-iso ff 180.00 scf sf
7875 7575 m
gs 1 -1 sc (ecks) col0 sh gr
% Polyline
30.000 slw
gs  clippath
6756 2670 m 6900 2700 l 6756 2730 l 6945 2730 l 6945 2670 l cp
clip
n 5100 2700 m 6900 2700 l gs col0 s gr gr

% arrowhead
7.500 slw
n 6756 2670 m 6900 2700 l 6756 2730 l 6780 2700 l 6756 2670 l  cp gs 0.00 setgray ef gr  col0 s
/Times-Roman-iso ff 180.00 scf sf
7125 6375 m
gs 1 -1 sc (My=-Mo) col0 sh gr
/Times-Roman-iso ff 180.00 scf sf
3975 3825 m
gs 1 -1 sc (ecks) col0 sh gr
% Polyline
30.000 slw
gs  clippath
502 5999 m 375 5925 l 521 5942 l 342 5882 l 323 5939 l cp
clip
n 1950 6450 m 375 5925 l gs col0 s gr gr

% arrowhead
7.500 slw
n 502 5999 m 375 5925 l 521 5942 l 489 5963 l 502 5999 l  cp gs 0.00 setgray ef gr  col0 s
% Polyline
30.000 slw
gs  clippath
521 6958 m 375 6975 l 502 6901 l 323 6961 l 342 7018 l cp
clip
n 1950 6450 m 375 6975 l gs col0 s gr gr

% arrowhead
7.500 slw
n 521 6958 m 375 6975 l 502 6901 l 489 6937 l 521 6958 l  cp gs 0.00 setgray ef gr  col0 s
/Times-Roman-iso ff 180.00 scf sf
11400 2775 m
gs 1 -1 sc (why) col0 sh gr
% Arc
gs  clippath
186 6307 m 150 6450 l 126 6305 l 119 6464 l 179 6466 l cp
clip
 [60] 0 sd
n 1950.0 6450.0 1800.0 0.0 180.0 arcn
gs col0 s gr
 gr
 [] 0 sd
% arrowhead
n 186 6307 m 150 6450 l 126 6305 l 155 6330 l 186 6307 l  cp gs 0.00 setgray ef gr  col0 s
% Polyline
gs  clippath
1029 7279 m 900 7350 l 990 7234 l 869 7337 l 908 7383 l cp
clip
n 1950 6450 m 900 7350 l gs col0 s gr gr

% arrowhead
n 1029 7279 m 900 7350 l 990 7234 l 991 7272 l 1029 7279 l  cp gs 0.00 setgray ef gr  col0 s
% Polyline
gs  clippath
4206 6420 m 4350 6450 l 4206 6480 l 4365 6480 l 4365 6420 l cp
1920 4194 m 1950 4050 l 1980 4194 l 1980 4035 l 1920 4035 l cp
clip
n 1950 4050 m 1950 6450 l 4350 6450 l gs col0 s gr gr

% arrowhead
n 1920 4194 m 1950 4050 l 1980 4194 l 1950 4170 l 1920 4194 l  cp gs 0.00 setgray ef gr  col0 s
% arrowhead
n 4206 6420 m 4350 6450 l 4206 6480 l 4230 6450 l 4206 6420 l  cp gs 0.00 setgray ef gr  col0 s
% Polyline
gs  clippath
767 6746 m 750 6600 l 824 6727 l 774 6576 l 717 6595 l cp
clip
n 825 6825 m 750 6600 l gs col0 s gr gr

% arrowhead
n 767 6746 m 750 6600 l 824 6727 l 788 6714 l 767 6746 l  cp gs 0.00 setgray ef gr  col0 s
% Polyline
gs  clippath
824 6173 m 750 6300 l 767 6154 l 717 6305 l 774 6324 l cp
clip
n 825 6075 m 750 6300 l gs col0 s gr gr

% arrowhead
n 824 6173 m 750 6300 l 767 6154 l 788 6186 l 824 6173 l  cp gs 0.00 setgray ef gr  col0 s
/Times-Roman-iso ff 180.00 scf sf
4350 6525 m
gs 1 -1 sc (why) col0 sh gr
/Times-Roman-iso ff 180.00 scf sf
1875 4050 m
gs 1 -1 sc (zed) col0 sh gr
/Times-Roman-iso ff 180.00 scf sf
825 7575 m
gs 1 -1 sc (ecks) col0 sh gr
% Polyline
gs  clippath
11256 6420 m 11400 6450 l 11256 6480 l 11415 6480 l 11415 6420 l cp
8970 4194 m 9000 4050 l 9030 4194 l 9030 4035 l 8970 4035 l cp
clip
n 9000 4050 m 9000 6450 l 11400 6450 l gs col0 s gr gr

% arrowhead
n 8970 4194 m 9000 4050 l 9030 4194 l 9000 4170 l 8970 4194 l  cp gs 0.00 setgray ef gr  col0 s
% arrowhead
n 11256 6420 m 11400 6450 l 11256 6480 l 11280 6450 l 11256 6420 l  cp gs 0.00 setgray ef gr  col0 s
/Times-Roman-iso ff 180.00 scf sf
8925 300 m
gs 1 -1 sc (zed) col0 sh gr
% Polyline
gs  clippath
11256 2670 m 11400 2700 l 11256 2730 l 11415 2730 l 11415 2670 l cp
8970 444 m 9000 300 l 9030 444 l 9030 285 l 8970 285 l cp
clip
n 9000 300 m 9000 2700 l 11400 2700 l gs col0 s gr gr

% arrowhead
n 8970 444 m 9000 300 l 9030 444 l 9000 420 l 8970 444 l  cp gs 0.00 setgray ef gr  col0 s
% arrowhead
n 11256 2670 m 11400 2700 l 11256 2730 l 11280 2700 l 11256 2670 l  cp gs 0.00 setgray ef gr  col0 s
% Polyline
gs  clippath
8079 3529 m 7950 3600 l 8040 3484 l 7919 3587 l 7958 3633 l cp
clip
n 9000 2700 m 7950 3600 l gs col0 s gr gr

% arrowhead
n 8079 3529 m 7950 3600 l 8040 3484 l 8041 3522 l 8079 3529 l  cp gs 0.00 setgray ef gr  col0 s
% Polyline
30.000 slw
gs  clippath
10448 3151 m 10575 3225 l 10429 3208 l 10608 3268 l 10627 3211 l cp
clip
n 9000 2700 m 10575 3225 l gs col0 s gr gr

% arrowhead
7.500 slw
n 10448 3151 m 10575 3225 l 10429 3208 l 10461 3187 l 10448 3151 l  cp gs 0.00 setgray ef gr  col0 s
$F2psEnd
rs
