%!PS-Adobe-2.0 EPSF-2.0
%%Title: nmr-splitting.eps
%%Creator: fig2dev Version 3.2 Patchlevel 1
%%CreationDate: Wed Feb 27 17:54:01 2002
%%For: dpeets@physics (Darren Peets)
%%Orientation: Portrait
%%BoundingBox: 1 0 205 97
%%Pages: 0
%%BeginSetup
%%EndSetup
%%Magnification: 1.0000
%%EndComments
/$F2psDict 200 dict def
$F2psDict begin
$F2psDict /mtrx matrix put
/col-1 {0 setgray} bind def
/col0 {0.000 0.000 0.000 srgb} bind def
/col1 {0.000 0.000 1.000 srgb} bind def
/col2 {0.000 1.000 0.000 srgb} bind def
/col3 {0.000 1.000 1.000 srgb} bind def
/col4 {1.000 0.000 0.000 srgb} bind def
/col5 {1.000 0.000 1.000 srgb} bind def
/col6 {1.000 1.000 0.000 srgb} bind def
/col7 {1.000 1.000 1.000 srgb} bind def
/col8 {0.000 0.000 0.560 srgb} bind def
/col9 {0.000 0.000 0.690 srgb} bind def
/col10 {0.000 0.000 0.820 srgb} bind def
/col11 {0.530 0.810 1.000 srgb} bind def
/col12 {0.000 0.560 0.000 srgb} bind def
/col13 {0.000 0.690 0.000 srgb} bind def
/col14 {0.000 0.820 0.000 srgb} bind def
/col15 {0.000 0.560 0.560 srgb} bind def
/col16 {0.000 0.690 0.690 srgb} bind def
/col17 {0.000 0.820 0.820 srgb} bind def
/col18 {0.560 0.000 0.000 srgb} bind def
/col19 {0.690 0.000 0.000 srgb} bind def
/col20 {0.820 0.000 0.000 srgb} bind def
/col21 {0.560 0.000 0.560 srgb} bind def
/col22 {0.690 0.000 0.690 srgb} bind def
/col23 {0.820 0.000 0.820 srgb} bind def
/col24 {0.500 0.190 0.000 srgb} bind def
/col25 {0.630 0.250 0.000 srgb} bind def
/col26 {0.750 0.380 0.000 srgb} bind def
/col27 {1.000 0.500 0.500 srgb} bind def
/col28 {1.000 0.630 0.630 srgb} bind def
/col29 {1.000 0.750 0.750 srgb} bind def
/col30 {1.000 0.880 0.880 srgb} bind def
/col31 {1.000 0.840 0.000 srgb} bind def

end
save
2.0 96.0 translate
1 -1 scale

/cp {closepath} bind def
/ef {eofill} bind def
/gr {grestore} bind def
/gs {gsave} bind def
/sa {save} bind def
/rs {restore} bind def
/l {lineto} bind def
/m {moveto} bind def
/rm {rmoveto} bind def
/n {newpath} bind def
/s {stroke} bind def
/sh {show} bind def
/slc {setlinecap} bind def
/slj {setlinejoin} bind def
/slw {setlinewidth} bind def
/srgb {setrgbcolor} bind def
/rot {rotate} bind def
/sc {scale} bind def
/sd {setdash} bind def
/ff {findfont} bind def
/sf {setfont} bind def
/scf {scalefont} bind def
/sw {stringwidth} bind def
/tr {translate} bind def
/tnt {dup dup currentrgbcolor
  4 -2 roll dup 1 exch sub 3 -1 roll mul add
  4 -2 roll dup 1 exch sub 3 -1 roll mul add
  4 -2 roll dup 1 exch sub 3 -1 roll mul add srgb}
  bind def
/shd {dup dup currentrgbcolor 4 -2 roll mul 4 -2 roll mul
  4 -2 roll mul srgb} bind def
/$F2psBegin {$F2psDict begin /$F2psEnteredState save def} def
/$F2psEnd {$F2psEnteredState restore end} def
%%EndProlog

$F2psBegin
10 setmiterlimit
n -1000 2597 m -1000 -1000 l 4397 -1000 l 4397 2597 l cp clip
 0.06000 0.06000 sc
% Polyline
7.500 slw
n 1875 900 m 1050 900 l gs col0 s gr 
% Polyline
n 2475 600 m 3300 600 l gs col0 s gr 
% Polyline
n 2475 1200 m 3300 1200 l gs col0 s gr 
% Polyline
 [60] 0 sd
n 2475 600 m 1875 900 l 2475 1200 l gs col0 s gr  [] 0 sd
% Polyline
gs  clippath
2655 1056 m 2625 1200 l 2595 1056 l 2595 1215 l 2655 1215 l cp
2595 744 m 2625 600 l 2655 744 l 2655 585 l 2595 585 l cp
clip
n 2625 600 m 2625 1200 l gs col0 s gr gr

% arrowhead
n 2595 744 m 2625 600 l 2655 744 l 2625 720 l 2595 744 l  cp gs 0.00 setgray ef gr  col0 s
% arrowhead
n 2655 1056 m 2625 1200 l 2595 1056 l 2625 1080 l 2655 1056 l  cp gs 0.00 setgray ef gr  col0 s
% Polyline
n 900 900 m 75 900 l gs col0 s gr 
% Polyline
15.000 slw
n 150 0 m 0 0 0 1425 150 arcto 4 {pop} repeat
  0 1575 3225 1575 150 arcto 4 {pop} repeat
  3375 1575 3375 150 150 arcto 4 {pop} repeat
  3375 0 150 0 150 arcto 4 {pop} repeat
 cp gs col0 s gr 
/Times-Roman ff 180.00 scf sf
750 225 m
gs 1 -1 sc (B=0) col0 sh gr
/Times-Roman ff 180.00 scf sf
2625 225 m
gs 1 -1 sc (B=Bo) col0 sh gr
/Times-Roman ff 180.00 scf sf
2550 525 m
gs 1 -1 sc (spindown) col0 sh gr
/Times-Roman ff 180.00 scf sf
2550 1425 m
gs 1 -1 sc (spinup) col0 sh gr
/Times-Roman ff 180.00 scf sf
2625 975 m
gs 1 -1 sc (DelU) col0 sh gr
$F2psEnd
rs
