%!PS-Adobe-2.0 EPSF-2.0
%%Title: noisefig.eps
%%Creator: fig2dev Version 3.2 Patchlevel 1
%%CreationDate: Tue Feb 26 12:57:05 2002
%%For: dpeets@physics (Darren Peets)
%%Orientation: Portrait
%%BoundingBox: 0 0 440 242
%%Pages: 0
%%BeginSetup
%%EndSetup
%%Magnification: 1.0000
%%EndComments
/$F2psDict 200 dict def
$F2psDict begin
$F2psDict /mtrx matrix put
/col-1 {0 setgray} bind def
/col0 {0.000 0.000 0.000 srgb} bind def
/col1 {0.000 0.000 1.000 srgb} bind def
/col2 {0.000 1.000 0.000 srgb} bind def
/col3 {0.000 1.000 1.000 srgb} bind def
/col4 {1.000 0.000 0.000 srgb} bind def
/col5 {1.000 0.000 1.000 srgb} bind def
/col6 {1.000 1.000 0.000 srgb} bind def
/col7 {1.000 1.000 1.000 srgb} bind def
/col8 {0.000 0.000 0.560 srgb} bind def
/col9 {0.000 0.000 0.690 srgb} bind def
/col10 {0.000 0.000 0.820 srgb} bind def
/col11 {0.530 0.810 1.000 srgb} bind def
/col12 {0.000 0.560 0.000 srgb} bind def
/col13 {0.000 0.690 0.000 srgb} bind def
/col14 {0.000 0.820 0.000 srgb} bind def
/col15 {0.000 0.560 0.560 srgb} bind def
/col16 {0.000 0.690 0.690 srgb} bind def
/col17 {0.000 0.820 0.820 srgb} bind def
/col18 {0.560 0.000 0.000 srgb} bind def
/col19 {0.690 0.000 0.000 srgb} bind def
/col20 {0.820 0.000 0.000 srgb} bind def
/col21 {0.560 0.000 0.560 srgb} bind def
/col22 {0.690 0.000 0.690 srgb} bind def
/col23 {0.820 0.000 0.820 srgb} bind def
/col24 {0.500 0.190 0.000 srgb} bind def
/col25 {0.630 0.250 0.000 srgb} bind def
/col26 {0.750 0.380 0.000 srgb} bind def
/col27 {1.000 0.500 0.500 srgb} bind def
/col28 {1.000 0.630 0.630 srgb} bind def
/col29 {1.000 0.750 0.750 srgb} bind def
/col30 {1.000 0.880 0.880 srgb} bind def
/col31 {1.000 0.840 0.000 srgb} bind def
/col32 {0.878 0.878 0.878 srgb} bind def

end
save
2.0 240.0 translate
1 -1 scale

/cp {closepath} bind def
/ef {eofill} bind def
/gr {grestore} bind def
/gs {gsave} bind def
/sa {save} bind def
/rs {restore} bind def
/l {lineto} bind def
/m {moveto} bind def
/rm {rmoveto} bind def
/n {newpath} bind def
/s {stroke} bind def
/sh {show} bind def
/slc {setlinecap} bind def
/slj {setlinejoin} bind def
/slw {setlinewidth} bind def
/srgb {setrgbcolor} bind def
/rot {rotate} bind def
/sc {scale} bind def
/sd {setdash} bind def
/ff {findfont} bind def
/sf {setfont} bind def
/scf {scalefont} bind def
/sw {stringwidth} bind def
/tr {translate} bind def
/tnt {dup dup currentrgbcolor
  4 -2 roll dup 1 exch sub 3 -1 roll mul add
  4 -2 roll dup 1 exch sub 3 -1 roll mul add
  4 -2 roll dup 1 exch sub 3 -1 roll mul add srgb}
  bind def
/shd {dup dup currentrgbcolor 4 -2 roll mul 4 -2 roll mul
  4 -2 roll mul srgb} bind def
 /DrawEllipse {
	/endangle exch def
	/startangle exch def
	/yrad exch def
	/xrad exch def
	/y exch def
	/x exch def
	/savematrix mtrx currentmatrix def
	x y tr xrad yrad sc 0 0 1 startangle endangle arc
	closepath
	savematrix setmatrix
	} def

/$F2psBegin {$F2psDict begin /$F2psEnteredState save def} def
/$F2psEnd {$F2psEnteredState restore end} def
%%EndProlog

$F2psBegin
10 setmiterlimit
n -1000 4997 m -1000 -1000 l 8297 -1000 l 8297 4997 l cp clip
 0.06000 0.06000 sc
% Polyline
15.000 slw
n 150 0 m 0 0 0 3825 150 arcto 4 {pop} repeat
  0 3975 7125 3975 150 arcto 4 {pop} repeat
  7275 3975 7275 150 150 arcto 4 {pop} repeat
  7275 0 150 0 150 arcto 4 {pop} repeat
 cp gs col0 s gr 
7.500 slw
% Ellipse
n 2700 1012 38 38 0 360 DrawEllipse gs 0.00 setgray ef gr gs col0 s gr

% Ellipse
n 1500 3187 38 38 0 360 DrawEllipse gs 0.00 setgray ef gr gs col0 s gr

% Ellipse
n 2737 3675 37 37 0 360 DrawEllipse gs 0.00 setgray ef gr gs col0 s gr

% Ellipse
n 4125 3112 38 38 0 360 DrawEllipse gs 0.00 setgray ef gr gs col0 s gr

% Ellipse
n 937 2025 37 37 0 360 DrawEllipse gs 0.00 setgray ef gr gs col0 s gr

% Polyline
n 2400 75 m 5100 75 l 5100 1200 l 2400 1200 l cp gs col0 s gr 
/Times-Roman ff 300.00 scf sf
3450 2850 m
gs 1 -1 sc (Generator) col0 sh gr
/Times-Roman ff 300.00 scf sf
3525 2475 m
gs 1 -1 sc (Function) col0 sh gr
/Times-Roman ff 300.00 scf sf
1875 2100 m
gs 1 -1 sc (Preamp) col0 sh gr
% Polyline
gs  clippath
705 1581 m 675 1725 l 645 1581 l 645 1740 l 705 1740 l cp
clip
n 675 975 m 675 1725 l gs col0 s gr gr

% arrowhead
n 705 1581 m 675 1725 l 645 1581 l 675 1605 l 705 1581 l  cp gs 0.00 setgray ef gr  col0 s
% Polyline
n 975 2025 m 1800 2025 l gs col0 s gr 
% Polyline
n 1800 1725 m 3000 1725 l 3000 2325 l 1800 2325 l cp gs col0 s gr 
% Polyline
n 2700 1050 m 2700 1725 l gs 0.00 setgray ef gr gs col0 s gr 
% Polyline
gs  clippath
645 2469 m 675 2325 l 705 2469 l 705 2310 l 645 2310 l cp
clip
n 675 2325 m 675 2700 l 1500 2700 l 1500 3150 l gs col0 s gr gr

% arrowhead
n 645 2469 m 675 2325 l 705 2469 l 675 2445 l 645 2469 l  cp gs 0.00 setgray ef gr  col0 s
% Polyline
n 1200 3000 m 3000 3000 l 3000 3900 l 1200 3900 l cp gs col0 s gr 
% Polyline
n 3225 3300 m 5025 3300 l 5025 2100 l 3225 2100 l cp gs col0 s gr 
% Polyline
n 5850 75 m 7050 75 l 7050 1200 l 5850 1200 l cp gs col0 s gr 
% Polyline
n 5250 2100 m 7050 2100 l 7050 3300 l 5250 3300 l cp gs col32 1.00 shd ef gr gs col0 s gr 
/Times-Roman ff 300.00 scf sf
1275 3525 m
gs 1 -1 sc (Attenuator) col0 sh gr
/Times-Roman ff 300.00 scf sf
6075 375 m
gs 1 -1 sc (DVM) col0 sh gr
/Times-Roman ff 300.00 scf sf
300 1425 m
gs 1 -1 sc (Task1) col0 sh gr
/Times-Roman ff 300.00 scf sf
2475 900 m
gs 1 -1 sc (input) col0 sh gr
% Polyline
n 75 750 m 300 750 l 375 675 l 450 825 l 525 675 l 600 825 l
 675 675 l 750 825 l 825 675 l 900 825 l 975 675 l
 1050 750 l 1275 750 l gs col0 s gr 
/Times-Roman ff 300.00 scf sf
2475 375 m
gs 1 -1 sc (Amplifier) col0 sh gr
/Times-Roman ff 300.00 scf sf
300 3000 m
gs 1 -1 sc (Task2) col0 sh gr
% Polyline
n 4800 825 m 5400 825 l 5400 1800 l 7200 1800 l 7200 3675 l 6750 3675 l
 6750 3150 l gs col0 s gr 
% Ellipse
n 5550 3112 37 37 0 360 DrawEllipse gs 0.00 setgray ef gr gs col0 s gr

% Ellipse
n 6750 3112 37 37 0 360 DrawEllipse gs 0.00 setgray ef gr gs col0 s gr

% Ellipse
n 6187 600 38 38 0 360 DrawEllipse gs 0.00 setgray ef gr gs col0 s gr

% Ellipse
n 4762 600 37 37 0 360 DrawEllipse gs 0.00 setgray ef gr gs col0 s gr

% Polyline
n 2775 3675 m 5550 3675 l 5550 3150 l gs col0 s gr 
% Polyline
n 4125 3150 m 4125 3675 l gs col0 s gr 
/Times-Roman ff 300.00 scf sf
5325 2475 m
gs 1 -1 sc (Oscilloscope) col0 sh gr
% Ellipse
n 4762 825 37 37 0 360 DrawEllipse gs 0.00 setgray ef gr gs col0 s gr

% Polyline
n 4800 600 m 6150 600 l gs col0 s gr 
/Times-Roman ff 300.00 scf sf
3900 525 m
gs 1 -1 sc (DCmonitor) col0 sh gr
/Times-Roman ff 300.00 scf sf
3900 1125 m
gs 1 -1 sc (ACmonitor) col0 sh gr
$F2psEnd
rs
