%!PS-Adobe-2.0 EPSF-2.0
%%Title: servo-2.eps
%%Creator: fig2dev Version 3.2 Patchlevel 3d
%%CreationDate: Wed Jul 21 18:59:10 2004
%%For: dpeets@physics (Darren Peets)
%%BoundingBox: 0 0 222 147
%%Magnification: 1.0000
%%EndComments
/$F2psDict 200 dict def
$F2psDict begin
$F2psDict /mtrx matrix put
/col-1 {0 setgray} bind def
/col0 {0.000 0.000 0.000 srgb} bind def
/col1 {0.000 0.000 1.000 srgb} bind def
/col2 {0.000 1.000 0.000 srgb} bind def
/col3 {0.000 1.000 1.000 srgb} bind def
/col4 {1.000 0.000 0.000 srgb} bind def
/col5 {1.000 0.000 1.000 srgb} bind def
/col6 {1.000 1.000 0.000 srgb} bind def
/col7 {1.000 1.000 1.000 srgb} bind def
/col8 {0.000 0.000 0.560 srgb} bind def
/col9 {0.000 0.000 0.690 srgb} bind def
/col10 {0.000 0.000 0.820 srgb} bind def
/col11 {0.530 0.810 1.000 srgb} bind def
/col12 {0.000 0.560 0.000 srgb} bind def
/col13 {0.000 0.690 0.000 srgb} bind def
/col14 {0.000 0.820 0.000 srgb} bind def
/col15 {0.000 0.560 0.560 srgb} bind def
/col16 {0.000 0.690 0.690 srgb} bind def
/col17 {0.000 0.820 0.820 srgb} bind def
/col18 {0.560 0.000 0.000 srgb} bind def
/col19 {0.690 0.000 0.000 srgb} bind def
/col20 {0.820 0.000 0.000 srgb} bind def
/col21 {0.560 0.000 0.560 srgb} bind def
/col22 {0.690 0.000 0.690 srgb} bind def
/col23 {0.820 0.000 0.820 srgb} bind def
/col24 {0.500 0.190 0.000 srgb} bind def
/col25 {0.630 0.250 0.000 srgb} bind def
/col26 {0.750 0.380 0.000 srgb} bind def
/col27 {1.000 0.500 0.500 srgb} bind def
/col28 {1.000 0.630 0.630 srgb} bind def
/col29 {1.000 0.750 0.750 srgb} bind def
/col30 {1.000 0.880 0.880 srgb} bind def
/col31 {1.000 0.840 0.000 srgb} bind def

end
save
newpath 0 147 moveto 0 0 lineto 222 0 lineto 222 147 lineto closepath clip newpath
-6.2 163.7 translate
1 -1 scale

/cp {closepath} bind def
/ef {eofill} bind def
/gr {grestore} bind def
/gs {gsave} bind def
/sa {save} bind def
/rs {restore} bind def
/l {lineto} bind def
/m {moveto} bind def
/rm {rmoveto} bind def
/n {newpath} bind def
/s {stroke} bind def
/sh {show} bind def
/slc {setlinecap} bind def
/slj {setlinejoin} bind def
/slw {setlinewidth} bind def
/srgb {setrgbcolor} bind def
/rot {rotate} bind def
/sc {scale} bind def
/sd {setdash} bind def
/ff {findfont} bind def
/sf {setfont} bind def
/scf {scalefont} bind def
/sw {stringwidth} bind def
/tr {translate} bind def
/tnt {dup dup currentrgbcolor
  4 -2 roll dup 1 exch sub 3 -1 roll mul add
  4 -2 roll dup 1 exch sub 3 -1 roll mul add
  4 -2 roll dup 1 exch sub 3 -1 roll mul add srgb}
  bind def
/shd {dup dup currentrgbcolor 4 -2 roll mul 4 -2 roll mul
  4 -2 roll mul srgb} bind def
/reencdict 12 dict def /ReEncode { reencdict begin
/newcodesandnames exch def /newfontname exch def /basefontname exch def
/basefontdict basefontname findfont def /newfont basefontdict maxlength dict def
basefontdict { exch dup /FID ne { dup /Encoding eq
{ exch dup length array copy newfont 3 1 roll put }
{ exch newfont 3 1 roll put } ifelse } { pop pop } ifelse } forall
newfont /FontName newfontname put newcodesandnames aload pop
128 1 255 { newfont /Encoding get exch /.notdef put } for
newcodesandnames length 2 idiv { newfont /Encoding get 3 1 roll put } repeat
newfontname newfont definefont pop end } def
/isovec [
8#055 /minus 8#200 /grave 8#201 /acute 8#202 /circumflex 8#203 /tilde
8#204 /macron 8#205 /breve 8#206 /dotaccent 8#207 /dieresis
8#210 /ring 8#211 /cedilla 8#212 /hungarumlaut 8#213 /ogonek 8#214 /caron
8#220 /dotlessi 8#230 /oe 8#231 /OE
8#240 /space 8#241 /exclamdown 8#242 /cent 8#243 /sterling
8#244 /currency 8#245 /yen 8#246 /brokenbar 8#247 /section 8#250 /dieresis
8#251 /copyright 8#252 /ordfeminine 8#253 /guillemotleft 8#254 /logicalnot
8#255 /hyphen 8#256 /registered 8#257 /macron 8#260 /degree 8#261 /plusminus
8#262 /twosuperior 8#263 /threesuperior 8#264 /acute 8#265 /mu 8#266 /paragraph
8#267 /periodcentered 8#270 /cedilla 8#271 /onesuperior 8#272 /ordmasculine
8#273 /guillemotright 8#274 /onequarter 8#275 /onehalf
8#276 /threequarters 8#277 /questiondown 8#300 /Agrave 8#301 /Aacute
8#302 /Acircumflex 8#303 /Atilde 8#304 /Adieresis 8#305 /Aring
8#306 /AE 8#307 /Ccedilla 8#310 /Egrave 8#311 /Eacute
8#312 /Ecircumflex 8#313 /Edieresis 8#314 /Igrave 8#315 /Iacute
8#316 /Icircumflex 8#317 /Idieresis 8#320 /Eth 8#321 /Ntilde 8#322 /Ograve
8#323 /Oacute 8#324 /Ocircumflex 8#325 /Otilde 8#326 /Odieresis 8#327 /multiply
8#330 /Oslash 8#331 /Ugrave 8#332 /Uacute 8#333 /Ucircumflex
8#334 /Udieresis 8#335 /Yacute 8#336 /Thorn 8#337 /germandbls 8#340 /agrave
8#341 /aacute 8#342 /acircumflex 8#343 /atilde 8#344 /adieresis 8#345 /aring
8#346 /ae 8#347 /ccedilla 8#350 /egrave 8#351 /eacute
8#352 /ecircumflex 8#353 /edieresis 8#354 /igrave 8#355 /iacute
8#356 /icircumflex 8#357 /idieresis 8#360 /eth 8#361 /ntilde 8#362 /ograve
8#363 /oacute 8#364 /ocircumflex 8#365 /otilde 8#366 /odieresis 8#367 /divide
8#370 /oslash 8#371 /ugrave 8#372 /uacute 8#373 /ucircumflex
8#374 /udieresis 8#375 /yacute 8#376 /thorn 8#377 /ydieresis] def
/Times-Roman /Times-Roman-iso isovec ReEncode
 /DrawEllipse {
	/endangle exch def
	/startangle exch def
	/yrad exch def
	/xrad exch def
	/y exch def
	/x exch def
	/savematrix mtrx currentmatrix def
	x y tr xrad yrad sc 0 0 1 startangle endangle arc
	closepath
	savematrix setmatrix
	} def

/$F2psBegin {$F2psDict begin /$F2psEnteredState save def} def
/$F2psEnd {$F2psEnteredState restore end} def

$F2psBegin
10 setmiterlimit
 0.06000 0.06000 sc
%
% Fig objects follow
%
% Polyline
7.500 slw
n 1050 900 m 3450 900 l 3450 2700 l 1050 2700 l
 cp gs col0 s gr 
% Polyline
gs  clippath
3795 1746 m 3795 1686 l 3610 1686 l 3760 1716 l 3610 1746 l cp
eoclip
n 3780 1716 m
 3184 1716 l gs col0 s gr gr

% arrowhead
n 3610 1746 m 3760 1716 l 3610 1686 l 3640 1716 l 3610 1746 l 
 cp gs 0.00 setgray ef gr  col0 s
% Polyline
gs  clippath
750 1885 m 750 1945 l 935 1945 l 785 1915 l 935 1885 l cp
eoclip
n 765 1915 m
 1363 1915 l gs col0 s gr gr

% arrowhead
n 935 1885 m 785 1915 l 935 1945 l 905 1915 l 935 1885 l 
 cp gs 0.00 setgray ef gr  col0 s
% Polyline
n 1694 1431 m 2811 1431 l 2811 2293 l 1694 2293 l
 cp gs col0 s gr 
% Polyline
gs  clippath
3795 2220 m 3795 2160 l 3610 2160 l 3760 2190 l 3610 2220 l cp
eoclip
n 3780 2190 m
 3184 2190 l gs col0 s gr gr

% arrowhead
n 3610 2220 m 3760 2190 l 3610 2160 l 3640 2190 l 3610 2220 l 
 cp gs 0.00 setgray ef gr  col0 s
% Polyline
n 703 1615 m 554 1615 l
 554 1736 l gs col0 s gr 
% Polyline
gs  clippath
2725 637 m 2665 637 l 2665 822 l 2695 672 l 2725 822 l cp
eoclip
n 2695 652 m
 2695 1082 l gs col0 s gr gr

% arrowhead
n 2725 822 m 2695 672 l 2665 822 l 2695 792 l 2725 822 l 
 cp gs 0.00 setgray ef gr  col0 s
% Polyline
gs  clippath
485 2188 m 485 2233 l 624 2233 l 512 2211 l 624 2188 l cp
eoclip
n 693 2211 m
 500 2211 l gs col0 s gr gr

% arrowhead
4.500 slw
n 624 2188 m 512 2211 l 624 2233 l 602 2211 l 624 2188 l 
 cp gs 0.00 setgray ef gr  col0 s
% Polyline
7.500 slw
gs  clippath
1829 637 m 1769 637 l 1769 822 l 1799 672 l 1829 822 l cp
eoclip
n 1799 652 m
 1799 1082 l gs col0 s gr gr

% arrowhead
n 1829 822 m 1799 672 l 1769 822 l 1799 792 l 1829 822 l 
 cp gs 0.00 setgray ef gr  col0 s
/Times-Roman-iso ff 180.00 scf sf
2673 2554 m
gs 1 -1 sc (PA150C) col0 sh gr
% Polyline
n 507 1760 m
 607 1760 l gs col0 s gr 
% Polyline
n 528 1785 m
 584 1785 l gs col0 s gr 
% Polyline
n 479 1735 m
 627 1734 l gs col0 s gr 
% Polyline
gs  clippath
2284 637 m 2224 637 l 2224 822 l 2254 672 l 2284 822 l cp
eoclip
n 2254 652 m
 2254 1082 l gs col0 s gr gr

% arrowhead
n 2284 822 m 2254 672 l 2224 822 l 2254 792 l 2284 822 l 
 cp gs 0.00 setgray ef gr  col0 s
/Times-Roman-iso ff 180.00 scf sf
2214 632 m
gs 1 -1 sc (0) col0 sh gr
% Polyline
n 495 2360 m 351 2287 l 496 2212 l 349 2139 l
 496 2058 l gs col0 s gr 
% Polyline
n 496 2358 m 422 2393 l
 422 2506 l gs col0 s gr 
% Polyline
n 498 2060 m 424 2025 l
 424 1912 l gs col0 s gr 
% Polyline
n 765 2065 m 621 1992 l 766 1917 l 619 1844 l
 766 1763 l gs col0 s gr 
% Polyline
n 766 2063 m 692 2098 l
 692 2211 l gs col0 s gr 
/Times-Roman-iso ff 180.00 scf sf
1819 436 m
gs 1 -1 sc (PowerSupply) col0 sh gr
% Polyline
n 768 1765 m 694 1730 l
 694 1617 l gs col0 s gr 
/Times-Roman-iso ff 180.00 scf sf
338 2729 m
gs 1 -1 sc (P1) col0 sh gr
/Times-Roman-iso ff 180.00 scf sf
609 1526 m
gs 1 -1 sc (P2) col0 sh gr
/Times-Roman-iso ff 180.00 scf sf
103 1956 m
gs 1 -1 sc (+15) col0 sh gr
/Times-Roman-iso ff 180.00 scf sf
3521 2106 m
gs 1 -1 sc (V4) col0 sh gr
/Times-Roman-iso ff 180.00 scf sf
1634 636 m
gs 1 -1 sc (+15) col0 sh gr
/Times-Roman-iso ff 180.00 scf sf
109 2572 m
gs 1 -1 sc (-15) col0 sh gr
/Times-Roman-iso ff 180.00 scf sf
2541 636 m
gs 1 -1 sc (-15) col0 sh gr
/Times-Roman-iso ff 180.00 scf sf
3518 1623 m
gs 1 -1 sc (V3) col0 sh gr
/Times-Roman-iso ff 180.00 scf sf
825 1837 m
gs 1 -1 sc (V1) col0 sh gr
% Polyline
n 2532 1857 m 2040 1573 l 2040 2141 l
 cp gs col0 s gr 
% Ellipse
n 3201 2193 50 50 0 360 DrawEllipse gs col7 1.00 shd ef gr gs col0 s gr

% Ellipse
n 3201 1719 50 50 0 360 DrawEllipse gs col7 1.00 shd ef gr gs col0 s gr

% Ellipse
n 1328 1532 50 50 0 360 DrawEllipse gs col7 1.00 shd ef gr gs col0 s gr

% Ellipse
n 1328 1904 50 50 0 360 DrawEllipse gs col7 1.00 shd ef gr gs col0 s gr

% Ellipse
n 1328 2280 50 50 0 360 DrawEllipse gs col7 1.00 shd ef gr gs col0 s gr

% Ellipse
n 690 2211 23 23 0 360 DrawEllipse gs col7 1.00 shd ef gr gs col0 s gr

% Ellipse
n 695 1613 23 23 0 360 DrawEllipse gs col7 1.00 shd ef gr gs col0 s gr

% Ellipse
n 420 2506 23 23 0 360 DrawEllipse gs col7 1.00 shd ef gr gs col0 s gr

% Ellipse
n 425 1908 23 23 0 360 DrawEllipse gs col7 1.00 shd ef gr gs col0 s gr

% Ellipse
n 2696 1082 50 50 0 360 DrawEllipse gs col7 1.00 shd ef gr gs col0 s gr

% Ellipse
n 2251 1082 50 50 0 360 DrawEllipse gs col7 1.00 shd ef gr gs col0 s gr

% Ellipse
n 1800 1082 50 50 0 360 DrawEllipse gs col7 1.00 shd ef gr gs col0 s gr

$F2psEnd
rs
