%!PS-Adobe-2.0 EPSF-2.0
%%Title: servo-7.eps
%%Creator: fig2dev Version 3.2 Patchlevel 3d
%%CreationDate: Wed Jul 21 18:41:35 2004
%%For: dpeets@physics (Darren Peets)
%%BoundingBox: 0 0 379 205
%%Magnification: 1.0000
%%EndComments
/$F2psDict 200 dict def
$F2psDict begin
$F2psDict /mtrx matrix put
/col-1 {0 setgray} bind def
/col0 {0.000 0.000 0.000 srgb} bind def
/col1 {0.000 0.000 1.000 srgb} bind def
/col2 {0.000 1.000 0.000 srgb} bind def
/col3 {0.000 1.000 1.000 srgb} bind def
/col4 {1.000 0.000 0.000 srgb} bind def
/col5 {1.000 0.000 1.000 srgb} bind def
/col6 {1.000 1.000 0.000 srgb} bind def
/col7 {1.000 1.000 1.000 srgb} bind def
/col8 {0.000 0.000 0.560 srgb} bind def
/col9 {0.000 0.000 0.690 srgb} bind def
/col10 {0.000 0.000 0.820 srgb} bind def
/col11 {0.530 0.810 1.000 srgb} bind def
/col12 {0.000 0.560 0.000 srgb} bind def
/col13 {0.000 0.690 0.000 srgb} bind def
/col14 {0.000 0.820 0.000 srgb} bind def
/col15 {0.000 0.560 0.560 srgb} bind def
/col16 {0.000 0.690 0.690 srgb} bind def
/col17 {0.000 0.820 0.820 srgb} bind def
/col18 {0.560 0.000 0.000 srgb} bind def
/col19 {0.690 0.000 0.000 srgb} bind def
/col20 {0.820 0.000 0.000 srgb} bind def
/col21 {0.560 0.000 0.560 srgb} bind def
/col22 {0.690 0.000 0.690 srgb} bind def
/col23 {0.820 0.000 0.820 srgb} bind def
/col24 {0.500 0.190 0.000 srgb} bind def
/col25 {0.630 0.250 0.000 srgb} bind def
/col26 {0.750 0.380 0.000 srgb} bind def
/col27 {1.000 0.500 0.500 srgb} bind def
/col28 {1.000 0.630 0.630 srgb} bind def
/col29 {1.000 0.750 0.750 srgb} bind def
/col30 {1.000 0.880 0.880 srgb} bind def
/col31 {1.000 0.840 0.000 srgb} bind def

end
save
newpath 0 205 moveto 0 0 lineto 379 0 lineto 379 205 lineto closepath clip newpath
-10.0 212.8 translate
1 -1 scale

/cp {closepath} bind def
/ef {eofill} bind def
/gr {grestore} bind def
/gs {gsave} bind def
/sa {save} bind def
/rs {restore} bind def
/l {lineto} bind def
/m {moveto} bind def
/rm {rmoveto} bind def
/n {newpath} bind def
/s {stroke} bind def
/sh {show} bind def
/slc {setlinecap} bind def
/slj {setlinejoin} bind def
/slw {setlinewidth} bind def
/srgb {setrgbcolor} bind def
/rot {rotate} bind def
/sc {scale} bind def
/sd {setdash} bind def
/ff {findfont} bind def
/sf {setfont} bind def
/scf {scalefont} bind def
/sw {stringwidth} bind def
/tr {translate} bind def
/tnt {dup dup currentrgbcolor
  4 -2 roll dup 1 exch sub 3 -1 roll mul add
  4 -2 roll dup 1 exch sub 3 -1 roll mul add
  4 -2 roll dup 1 exch sub 3 -1 roll mul add srgb}
  bind def
/shd {dup dup currentrgbcolor 4 -2 roll mul 4 -2 roll mul
  4 -2 roll mul srgb} bind def
/reencdict 12 dict def /ReEncode { reencdict begin
/newcodesandnames exch def /newfontname exch def /basefontname exch def
/basefontdict basefontname findfont def /newfont basefontdict maxlength dict def
basefontdict { exch dup /FID ne { dup /Encoding eq
{ exch dup length array copy newfont 3 1 roll put }
{ exch newfont 3 1 roll put } ifelse } { pop pop } ifelse } forall
newfont /FontName newfontname put newcodesandnames aload pop
128 1 255 { newfont /Encoding get exch /.notdef put } for
newcodesandnames length 2 idiv { newfont /Encoding get 3 1 roll put } repeat
newfontname newfont definefont pop end } def
/isovec [
8#055 /minus 8#200 /grave 8#201 /acute 8#202 /circumflex 8#203 /tilde
8#204 /macron 8#205 /breve 8#206 /dotaccent 8#207 /dieresis
8#210 /ring 8#211 /cedilla 8#212 /hungarumlaut 8#213 /ogonek 8#214 /caron
8#220 /dotlessi 8#230 /oe 8#231 /OE
8#240 /space 8#241 /exclamdown 8#242 /cent 8#243 /sterling
8#244 /currency 8#245 /yen 8#246 /brokenbar 8#247 /section 8#250 /dieresis
8#251 /copyright 8#252 /ordfeminine 8#253 /guillemotleft 8#254 /logicalnot
8#255 /hyphen 8#256 /registered 8#257 /macron 8#260 /degree 8#261 /plusminus
8#262 /twosuperior 8#263 /threesuperior 8#264 /acute 8#265 /mu 8#266 /paragraph
8#267 /periodcentered 8#270 /cedilla 8#271 /onesuperior 8#272 /ordmasculine
8#273 /guillemotright 8#274 /onequarter 8#275 /onehalf
8#276 /threequarters 8#277 /questiondown 8#300 /Agrave 8#301 /Aacute
8#302 /Acircumflex 8#303 /Atilde 8#304 /Adieresis 8#305 /Aring
8#306 /AE 8#307 /Ccedilla 8#310 /Egrave 8#311 /Eacute
8#312 /Ecircumflex 8#313 /Edieresis 8#314 /Igrave 8#315 /Iacute
8#316 /Icircumflex 8#317 /Idieresis 8#320 /Eth 8#321 /Ntilde 8#322 /Ograve
8#323 /Oacute 8#324 /Ocircumflex 8#325 /Otilde 8#326 /Odieresis 8#327 /multiply
8#330 /Oslash 8#331 /Ugrave 8#332 /Uacute 8#333 /Ucircumflex
8#334 /Udieresis 8#335 /Yacute 8#336 /Thorn 8#337 /germandbls 8#340 /agrave
8#341 /aacute 8#342 /acircumflex 8#343 /atilde 8#344 /adieresis 8#345 /aring
8#346 /ae 8#347 /ccedilla 8#350 /egrave 8#351 /eacute
8#352 /ecircumflex 8#353 /edieresis 8#354 /igrave 8#355 /iacute
8#356 /icircumflex 8#357 /idieresis 8#360 /eth 8#361 /ntilde 8#362 /ograve
8#363 /oacute 8#364 /ocircumflex 8#365 /otilde 8#366 /odieresis 8#367 /divide
8#370 /oslash 8#371 /ugrave 8#372 /uacute 8#373 /ucircumflex
8#374 /udieresis 8#375 /yacute 8#376 /thorn 8#377 /ydieresis] def
/Times-Roman /Times-Roman-iso isovec ReEncode
 /DrawEllipse {
	/endangle exch def
	/startangle exch def
	/yrad exch def
	/xrad exch def
	/y exch def
	/x exch def
	/savematrix mtrx currentmatrix def
	x y tr xrad yrad sc 0 0 1 startangle endangle arc
	closepath
	savematrix setmatrix
	} def

/$F2psBegin {$F2psDict begin /$F2psEnteredState save def} def
/$F2psEnd {$F2psEnteredState restore end} def

$F2psBegin
10 setmiterlimit
 0.06000 0.06000 sc
%
% Fig objects follow
%
% Polyline
7.500 slw
n 4164 152 m 5265 152 l 5265 1135 l 4164 1135 l
 cp gs col7 1.00 shd ef gr gs col0 s gr 
% Polyline
n 4079 1857 m 3233 1857 l 3233 2223 l 4079 2223 l
 cp gs col7 1.00 shd ef gr gs col0 s gr 
% Polyline
n 5103 2006 m 5683 2006 l 5683 2075 l 5103 2075 l
 cp gs col7 1.00 shd ef gr gs col0 s gr 
/Times-Roman-iso ff 180.00 scf sf
2502 1230 m
gs 1 -1 sc (r3) col0 sh gr
% Polyline
n 1241 154 m 2289 154 l 2289 1137 l 1241 1137 l
 cp gs col7 1.00 shd ef gr gs col0 s gr 
% Polyline
n 2938 154 m 3986 154 l 3986 1137 l 2938 1137 l
 cp gs col7 1.00 shd ef gr gs col0 s gr 
% Polyline
n 2418 1394 m
 2418 1570 l gs col0 s gr 
% Polyline
n 3573 1913 m 4105 1913 l 4105 2161 l 3573 2161 l
 cp gs col7 1.00 shd ef gr gs col0 s gr 
% Polyline
n 3574 2019 m 3837 2019 l 3837 2053 l 3574 2053 l
 cp gs col0 s gr 
% Polyline
n 4306 664 m
 3840 663 l gs col0 s gr 
/Times-Roman-iso ff 180.00 scf sf
3061 1867 m
gs 1 -1 sc (r4) col0 sh gr
% Polyline
gs  clippath
4787 769 m 4801 742 l 4730 705 l 4777 747 l 4716 732 l cp
eoclip
n 4682 697 m
 4781 749 l gs col0 s gr gr

% arrowhead
2.250 slw
n 4716 732 m 4777 747 l 4730 705 l 4716 732 l  cp gs 0.00 setgray ef gr  col0 s
% Polyline
7.500 slw
n 4487 959 m 4486 1026 l 5078 1026 l
 5078 1134 l gs col0 s gr 
% Polyline
gs  clippath
4514 990 m 4528 963 l 4457 926 l 4504 968 l 4443 953 l cp
eoclip
n 4409 918 m
 4508 970 l gs col0 s gr gr

% arrowhead
2.250 slw
n 4443 953 m 4504 968 l 4457 926 l 4443 953 l  cp gs 0.00 setgray ef gr  col0 s
% Polyline
7.500 slw
n 5115 1136 m 5115 925 l 4758 925 l
 4759 736 l gs col0 s gr 
/Times-Roman-iso ff 180.00 scf sf
2225 1300 m
gs 1 -1 sc (P3) col0 sh gr
% Polyline
n 4412 866 m 4483 829 l 4483 750 l 4483 710 l 4483 496 l
 5264 497 l gs col0 s gr 
% Polyline
n 4679 587 m
 4679 738 l gs col0 s gr 
% Polyline
n 4685 636 m 4756 599 l
 4756 496 l gs col0 s gr 
% Polyline
n 4412 891 m
 4299 891 l gs col0 s gr 
% Polyline
n 4406 817 m
 4406 968 l gs col0 s gr 
/Times-Roman-iso ff 180.00 scf sf
4880 3492 m
gs 1 -1 sc (Vp=kpq) col0 sh gr
% Polyline
n 3804 1947 m 4053 1947 l 4053 2126 l 3804 2126 l
 cp gs col7 1.00 shd ef gr gs col0 s gr 
/Times-Roman-iso ff 180.00 scf sf
2823 1922 m
gs 1 -1 sc (P4) col0 sh gr
% Polyline
n 4306 896 m
 3840 895 l gs col0 s gr 
/Times-Roman-iso ff 180.00 scf sf
2632 719 m
gs 1 -1 sc (Vin) col0 sh gr
/Times-Roman-iso ff 180.00 scf sf
167 580 m
gs 1 -1 sc (ChAOutput) col0 sh gr
/Times-Roman-iso ff 180.00 scf sf
4441 1544 m
gs 1 -1 sc (Vt) col0 sh gr
/Times-Roman-iso ff 180.00 scf sf
4601 2869 m
gs 1 -1 sc (+15) col0 sh gr
/Times-Roman-iso ff 180.00 scf sf
1417 415 m
gs 1 -1 sc (OU150A) col0 sh gr
% Polyline
n 5264 541 m 5264 458 l 5735 458 l 5735 541 l
 cp gs col7 0.50 shd ef gr gs col0 s gr 
% Polyline
n 5057 1136 m 5140 1136 l 5140 1617 l 5057 1617 l
 cp gs col7 0.50 shd ef gr gs col0 s gr 
% Polyline
gs  clippath
2486 1074 m 2486 1119 l 2623 1119 l 2511 1097 l 2623 1074 l cp
eoclip
n 3118 778 m 2677 778 l 2677 1097 l
 2501 1097 l gs col0 s gr gr

% arrowhead
3.750 slw
n 2623 1074 m 2511 1097 l 2623 1119 l 2601 1097 l 2623 1074 l 
 cp gs 0.00 setgray ef gr  col0 s
% Polyline
7.500 slw
gs  clippath
1395 801 m 1395 756 l 1236 756 l 1368 779 l 1236 801 l cp
eoclip
n 1380 779 m
 901 779 l gs col0 s gr gr

% arrowhead
3.750 slw
n 1236 801 m 1368 779 l 1236 756 l 1263 779 l 1236 801 l 
 cp gs 0.00 setgray ef gr  col0 s
% Polyline
15.000 slw
n 222 855 m 450 855 l 450 708 l 750 708 l 750 855 l
 983 855 l gs col0 s gr 
% Polyline
7.500 slw
n 3022 1967 m
 3021 2106 l gs col0 s gr 
% Polyline
gs  clippath
2947 1695 m 2947 1650 l 2809 1650 l 2922 1673 l 2809 1695 l cp
eoclip
n 3116 960 m 2768 960 l 2768 1673 l
 2932 1673 l gs col0 s gr gr

% arrowhead
3.750 slw
n 2809 1695 m 2922 1673 l 2809 1650 l 2832 1673 l 2809 1695 l 
 cp gs 0.00 setgray ef gr  col0 s
% Polyline
7.500 slw
n 1915 768 m 1678 631 l 1678 905 l
 cp gs col0 s gr 
/Times-Roman-iso ff 180.00 scf sf
3130 415 m
gs 1 -1 sc (PA150C) col0 sh gr
% Polyline
n 3612 768 m 3375 631 l 3375 905 l
 cp gs col0 s gr 
% Polyline
n 3241 594 m 3723 594 l 3723 951 l 3241 951 l
 cp gs col0 s gr 
/Times-Roman-iso ff 180.00 scf sf
4307 381 m
gs 1 -1 sc (ServoAmp) col0 sh gr
% Polyline
n 4685 661 m
 4299 661 l gs col0 s gr 
% Polyline
n 2493 947 m 2419 912 l
 2419 799 l gs col0 s gr 
% Polyline
n 2491 1245 m 2417 1280 l
 2417 1393 l gs col0 s gr 
% Polyline
n 2490 1247 m 2346 1174 l 2491 1099 l 2344 1026 l
 2491 945 l gs col0 s gr 
% Polyline
n 3732 1651 m
 3830 1651 l gs col0 s gr 
% Polyline
n 3755 1681 m
 3805 1681 l gs col0 s gr 
% Polyline
n 3710 1620 m
 3848 1620 l gs col0 s gr 
% Polyline
n 2347 1569 m
 2485 1569 l gs col0 s gr 
% Polyline
n 2951 2107 m
 3089 2107 l gs col0 s gr 
% Polyline
n 2996 2168 m
 3046 2168 l gs col0 s gr 
% Polyline
n 2942 1521 m 3016 1486 l
 3016 1373 l gs col0 s gr 
% Polyline
n 2944 1819 m 3018 1854 l
 3018 1967 l gs col0 s gr 
% Polyline
n 2945 1821 m 3089 1748 l 2944 1673 l 3091 1600 l
 2944 1519 l gs col0 s gr 
% Polyline
n 5337 2799 m 5205 2799 l 5205 2816 l 5203 2971 l 5274 2922 l 5256 3008 l
 5342 2992 l 5293 3057 l 5377 3070 l 5307 3123 l 5379 3172 l
 5295 3190 l 5342 3264 l 5258 3243 l 5270 3333 l 5203 3284 l
 5182 3362 l 5140 3292 l 5088 3362 l 5074 3280 l 5003 3325 l
 5019 3245 l 4939 3256 l 4984 3184 l 4905 3170 l 4972 3121 l
 4907 3074 l 4988 3059 l 4939 2992 l 5023 3010 l 5005 2927 l
 5078 2974 l 5078 2816 l 5078 2799 l
 4949 2799 l gs col0 s gr 
% Polyline
n 5504 1941 m 5649 1941 l 5649 2134 l 5504 2134 l
 cp gs col7 1.00 shd ef gr gs col0 s gr 
% Polyline
n 2392 1630 m
 2442 1630 l gs col0 s gr 
% Polyline
n 2369 1600 m
 2467 1600 l gs col0 s gr 
% Polyline
n 2973 2138 m
 3071 2138 l gs col0 s gr 
/Times-Roman-iso ff 180.00 scf sf
5438 2871 m
gs 1 -1 sc (-15) col0 sh gr
% Polyline
15.000 slw
gs  clippath
5229 3305 m 5280 3274 l 5219 3174 l 5241 3267 l 5168 3205 l cp
eoclip
n 5247 3277 m 5141 3103 l
 5141 3109 l gs col0 s gr gr

% arrowhead
7.500 slw
n 5168 3205 m 5241 3267 l 5219 3174 l 5178 3164 l 5168 3205 l 
 cp gs col7 1.00 shd ef gr  col0 s
% Polyline
n 2117 790 m
 2423 792 l gs col0 s gr 
% Ellipse
n 5334 2797 30 30 0 360 DrawEllipse gs col7 1.00 shd ef gr gs col0 s gr

% Ellipse
n 4954 2797 30 30 0 360 DrawEllipse gs col7 1.00 shd ef gr gs col0 s gr

% Ellipse
n 5141 3125 240 240 0 360 DrawEllipse gs col0 s gr

% Polyline
n 5560 1548 m 5596 1548 l 5596 2540 l 5560 2540 l
 cp gs col7 1.00 shd ef gr gs col0 s gr 
% Polyline
n 5128 2445 m 5156 2445 l 5156 3120 l 5128 3120 l
 cp gs col0 s gr 
% Polyline
n 1430 965 m 1430 3112 l
 5143 3112 l gs col0 s gr 
% Polyline
n 4037 1609 m 5268 1609 l 5268 2467 l 4037 2467 l
 cp gs col7 1.00 shd ef gr gs col0 s gr 
% Polyline
n 1424 961 m 1432 961 l gs col0 s gr
% Polyline
n 5072 2567 m 5210 2567 l 5210 2678 l 5072 2678 l
 cp gs col7 1.00 shd ef gr gs col0 s gr 
% Ellipse
n 2415 1393 23 23 0 360 DrawEllipse gs col7 1.00 shd ef gr gs col0 s gr

% Ellipse
n 2420 795 23 23 0 360 DrawEllipse gs col7 1.00 shd ef gr gs col0 s gr

% Polyline
n 5419 154 m 6467 154 l 6467 1137 l 5419 1137 l
 cp gs col7 1.00 shd ef gr gs col0 s gr 
/Times-Roman-iso ff 180.00 scf sf
5720 529 m
gs 1 -1 sc (Power) col0 sh gr
/Times-Roman-iso ff 180.00 scf sf
5698 842 m
gs 1 -1 sc (Supply) col0 sh gr
% Polyline
15.000 slw
n 4227 1747 m
 4380 1748 l gs col0 s gr 
% Polyline
n 4706 1747 m
 4871 1745 l gs col0 s gr 
% Polyline
7.500 slw
n 4404 1748 m 4404 1496 l 3778 1496 l
 3778 1622 l gs col0 s gr 
% Polyline
n 3010 1364 m 4682 1364 l
 4682 1753 l gs col0 s gr 
% Ellipse
n 5142 3113 22 22 0 360 DrawEllipse gs col7 1.00 shd ef gr gs col0 s gr

% Ellipse
n 4219 1751 48 48 0 360 DrawEllipse gs col7 1.00 shd ef gr gs col0 s gr

% Ellipse
n 4401 1751 48 48 0 360 DrawEllipse gs col7 1.00 shd ef gr gs col0 s gr

% Ellipse
n 4682 1751 48 48 0 360 DrawEllipse gs col7 1.00 shd ef gr gs col0 s gr

% Ellipse
n 2124 788 48 48 0 360 DrawEllipse gs col7 1.00 shd ef gr gs col0 s gr

/Times-Roman-iso ff 180.00 scf sf
4521 2372 m
gs 1 -1 sc (MT150F) col0 sh gr
% Ellipse
n 1428 576 48 48 0 360 DrawEllipse gs col7 1.00 shd ef gr gs col0 s gr

% Ellipse
n 1428 965 48 48 0 360 DrawEllipse gs col7 1.00 shd ef gr gs col0 s gr

% Ellipse
n 3115 776 48 48 0 360 DrawEllipse gs col7 1.00 shd ef gr gs col0 s gr

% Ellipse
n 1428 776 48 48 0 360 DrawEllipse gs col7 1.00 shd ef gr gs col0 s gr

% Ellipse
n 4871 1751 48 48 0 360 DrawEllipse gs col7 1.00 shd ef gr gs col0 s gr

% Ellipse
n 3115 576 48 48 0 360 DrawEllipse gs col7 1.00 shd ef gr gs col0 s gr

% Ellipse
n 4300 888 48 48 0 360 DrawEllipse gs col7 1.00 shd ef gr gs col0 s gr

% Ellipse
n 4300 661 48 48 0 360 DrawEllipse gs col7 1.00 shd ef gr gs col0 s gr

% Ellipse
n 3828 661 48 48 0 360 DrawEllipse gs col7 1.00 shd ef gr gs col0 s gr

% Ellipse
n 3115 965 48 48 0 360 DrawEllipse gs col7 1.00 shd ef gr gs col0 s gr

% Ellipse
n 3833 888 48 48 0 360 DrawEllipse gs col7 1.00 shd ef gr gs col0 s gr

% Ellipse
n 3015 1369 23 23 0 360 DrawEllipse gs col7 1.00 shd ef gr gs col0 s gr

% Ellipse
n 3020 1967 23 23 0 360 DrawEllipse gs col7 1.00 shd ef gr gs col0 s gr

$F2psEnd
rs
