%!PS-Adobe-2.0 EPSF-2.0
%%Title: servo-6.eps
%%Creator: fig2dev Version 3.2 Patchlevel 3d
%%CreationDate: Wed Jul 21 18:39:49 2004
%%For: dpeets@physics (Darren Peets)
%%BoundingBox: 0 0 334 205
%%Magnification: 1.0000
%%EndComments
/$F2psDict 200 dict def
$F2psDict begin
$F2psDict /mtrx matrix put
/col-1 {0 setgray} bind def
/col0 {0.000 0.000 0.000 srgb} bind def
/col1 {0.000 0.000 1.000 srgb} bind def
/col2 {0.000 1.000 0.000 srgb} bind def
/col3 {0.000 1.000 1.000 srgb} bind def
/col4 {1.000 0.000 0.000 srgb} bind def
/col5 {1.000 0.000 1.000 srgb} bind def
/col6 {1.000 1.000 0.000 srgb} bind def
/col7 {1.000 1.000 1.000 srgb} bind def
/col8 {0.000 0.000 0.560 srgb} bind def
/col9 {0.000 0.000 0.690 srgb} bind def
/col10 {0.000 0.000 0.820 srgb} bind def
/col11 {0.530 0.810 1.000 srgb} bind def
/col12 {0.000 0.560 0.000 srgb} bind def
/col13 {0.000 0.690 0.000 srgb} bind def
/col14 {0.000 0.820 0.000 srgb} bind def
/col15 {0.000 0.560 0.560 srgb} bind def
/col16 {0.000 0.690 0.690 srgb} bind def
/col17 {0.000 0.820 0.820 srgb} bind def
/col18 {0.560 0.000 0.000 srgb} bind def
/col19 {0.690 0.000 0.000 srgb} bind def
/col20 {0.820 0.000 0.000 srgb} bind def
/col21 {0.560 0.000 0.560 srgb} bind def
/col22 {0.690 0.000 0.690 srgb} bind def
/col23 {0.820 0.000 0.820 srgb} bind def
/col24 {0.500 0.190 0.000 srgb} bind def
/col25 {0.630 0.250 0.000 srgb} bind def
/col26 {0.750 0.380 0.000 srgb} bind def
/col27 {1.000 0.500 0.500 srgb} bind def
/col28 {1.000 0.630 0.630 srgb} bind def
/col29 {1.000 0.750 0.750 srgb} bind def
/col30 {1.000 0.880 0.880 srgb} bind def
/col31 {1.000 0.840 0.000 srgb} bind def

end
save
newpath 0 205 moveto 0 0 lineto 334 0 lineto 334 205 lineto closepath clip newpath
-8.9 211.6 translate
1 -1 scale

/cp {closepath} bind def
/ef {eofill} bind def
/gr {grestore} bind def
/gs {gsave} bind def
/sa {save} bind def
/rs {restore} bind def
/l {lineto} bind def
/m {moveto} bind def
/rm {rmoveto} bind def
/n {newpath} bind def
/s {stroke} bind def
/sh {show} bind def
/slc {setlinecap} bind def
/slj {setlinejoin} bind def
/slw {setlinewidth} bind def
/srgb {setrgbcolor} bind def
/rot {rotate} bind def
/sc {scale} bind def
/sd {setdash} bind def
/ff {findfont} bind def
/sf {setfont} bind def
/scf {scalefont} bind def
/sw {stringwidth} bind def
/tr {translate} bind def
/tnt {dup dup currentrgbcolor
  4 -2 roll dup 1 exch sub 3 -1 roll mul add
  4 -2 roll dup 1 exch sub 3 -1 roll mul add
  4 -2 roll dup 1 exch sub 3 -1 roll mul add srgb}
  bind def
/shd {dup dup currentrgbcolor 4 -2 roll mul 4 -2 roll mul
  4 -2 roll mul srgb} bind def
/reencdict 12 dict def /ReEncode { reencdict begin
/newcodesandnames exch def /newfontname exch def /basefontname exch def
/basefontdict basefontname findfont def /newfont basefontdict maxlength dict def
basefontdict { exch dup /FID ne { dup /Encoding eq
{ exch dup length array copy newfont 3 1 roll put }
{ exch newfont 3 1 roll put } ifelse } { pop pop } ifelse } forall
newfont /FontName newfontname put newcodesandnames aload pop
128 1 255 { newfont /Encoding get exch /.notdef put } for
newcodesandnames length 2 idiv { newfont /Encoding get 3 1 roll put } repeat
newfontname newfont definefont pop end } def
/isovec [
8#055 /minus 8#200 /grave 8#201 /acute 8#202 /circumflex 8#203 /tilde
8#204 /macron 8#205 /breve 8#206 /dotaccent 8#207 /dieresis
8#210 /ring 8#211 /cedilla 8#212 /hungarumlaut 8#213 /ogonek 8#214 /caron
8#220 /dotlessi 8#230 /oe 8#231 /OE
8#240 /space 8#241 /exclamdown 8#242 /cent 8#243 /sterling
8#244 /currency 8#245 /yen 8#246 /brokenbar 8#247 /section 8#250 /dieresis
8#251 /copyright 8#252 /ordfeminine 8#253 /guillemotleft 8#254 /logicalnot
8#255 /hyphen 8#256 /registered 8#257 /macron 8#260 /degree 8#261 /plusminus
8#262 /twosuperior 8#263 /threesuperior 8#264 /acute 8#265 /mu 8#266 /paragraph
8#267 /periodcentered 8#270 /cedilla 8#271 /onesuperior 8#272 /ordmasculine
8#273 /guillemotright 8#274 /onequarter 8#275 /onehalf
8#276 /threequarters 8#277 /questiondown 8#300 /Agrave 8#301 /Aacute
8#302 /Acircumflex 8#303 /Atilde 8#304 /Adieresis 8#305 /Aring
8#306 /AE 8#307 /Ccedilla 8#310 /Egrave 8#311 /Eacute
8#312 /Ecircumflex 8#313 /Edieresis 8#314 /Igrave 8#315 /Iacute
8#316 /Icircumflex 8#317 /Idieresis 8#320 /Eth 8#321 /Ntilde 8#322 /Ograve
8#323 /Oacute 8#324 /Ocircumflex 8#325 /Otilde 8#326 /Odieresis 8#327 /multiply
8#330 /Oslash 8#331 /Ugrave 8#332 /Uacute 8#333 /Ucircumflex
8#334 /Udieresis 8#335 /Yacute 8#336 /Thorn 8#337 /germandbls 8#340 /agrave
8#341 /aacute 8#342 /acircumflex 8#343 /atilde 8#344 /adieresis 8#345 /aring
8#346 /ae 8#347 /ccedilla 8#350 /egrave 8#351 /eacute
8#352 /ecircumflex 8#353 /edieresis 8#354 /igrave 8#355 /iacute
8#356 /icircumflex 8#357 /idieresis 8#360 /eth 8#361 /ntilde 8#362 /ograve
8#363 /oacute 8#364 /ocircumflex 8#365 /otilde 8#366 /odieresis 8#367 /divide
8#370 /oslash 8#371 /ugrave 8#372 /uacute 8#373 /ucircumflex
8#374 /udieresis 8#375 /yacute 8#376 /thorn 8#377 /ydieresis] def
/Times-Roman /Times-Roman-iso isovec ReEncode
 /DrawEllipse {
	/endangle exch def
	/startangle exch def
	/yrad exch def
	/xrad exch def
	/y exch def
	/x exch def
	/savematrix mtrx currentmatrix def
	x y tr xrad yrad sc 0 0 1 startangle endangle arc
	closepath
	savematrix setmatrix
	} def

/$F2psBegin {$F2psDict begin /$F2psEnteredState save def} def
/$F2psEnd {$F2psEnteredState restore end} def

$F2psBegin
10 setmiterlimit
 0.06000 0.06000 sc
%
% Fig objects follow
%
% Polyline
7.500 slw
n 3388 136 m 4489 136 l 4489 1119 l 3388 1119 l
 cp gs col7 1.00 shd ef gr gs col0 s gr 
% Polyline
n 3303 1841 m 2457 1841 l 2457 2207 l 3303 2207 l
 cp gs col7 1.00 shd ef gr gs col0 s gr 
% Polyline
n 2162 138 m 3210 138 l 3210 1121 l 2162 1121 l
 cp gs col7 1.00 shd ef gr gs col0 s gr 
% Polyline
n 465 138 m 1513 138 l 1513 1121 l 465 1121 l
 cp gs col7 1.00 shd ef gr gs col0 s gr 
/Times-Roman-iso ff 180.00 scf sf
1802 1242 m
gs 1 -1 sc (r1) col0 sh gr
% Polyline
n 1686 1378 m
 1686 1554 l gs col0 s gr 
% Polyline
n 4327 1990 m 4907 1990 l 4907 2059 l 4327 2059 l
 cp gs col7 1.00 shd ef gr gs col0 s gr 
% Polyline
n 2797 1897 m 3329 1897 l 3329 2145 l 2797 2145 l
 cp gs col7 1.00 shd ef gr gs col0 s gr 
% Polyline
n 2798 2003 m 3061 2003 l 3061 2037 l 2798 2037 l
 cp gs col0 s gr 
% Polyline
n 3636 850 m 3707 813 l 3707 734 l 3707 694 l 3707 480 l
 4493 478 l gs col0 s gr 
% Polyline
n 4339 1118 m 4339 909 l 3983 909 l
 3983 720 l gs col0 s gr 
% Polyline
n 3909 645 m
 3523 645 l gs col0 s gr 
% Polyline
n 3711 943 m 3711 1011 l 4302 1010 l
 4302 1118 l gs col0 s gr 
% Polyline
n 3909 620 m 3980 583 l
 3980 480 l gs col0 s gr 
% Polyline
gs  clippath
4011 753 m 4025 726 l 3954 689 l 4001 731 l 3940 716 l cp
eoclip
n 3906 681 m
 4005 733 l gs col0 s gr gr

% arrowhead
2.250 slw
n 3940 716 m 4001 731 l 3954 689 l 3940 716 l  cp gs 0.00 setgray ef gr  col0 s
% Polyline
7.500 slw
n 3636 875 m
 3523 875 l gs col0 s gr 
% Polyline
n 3630 801 m
 3630 952 l gs col0 s gr 
% Polyline
n 3530 648 m
 3064 647 l gs col0 s gr 
% Polyline
n 3530 880 m
 3064 879 l gs col0 s gr 
% Polyline
gs  clippath
3738 974 m 3752 947 l 3681 910 l 3728 952 l 3667 937 l cp
eoclip
n 3633 902 m
 3732 954 l gs col0 s gr gr

% arrowhead
2.250 slw
n 3667 937 m 3728 952 l 3681 910 l 3667 937 l  cp gs 0.00 setgray ef gr  col0 s
/Times-Roman-iso ff 180.00 scf sf
293 2307 m
gs 1 -1 sc (Vr=kpqr) col0 sh gr
% Polyline
7.500 slw
n 2465 578 m 2947 578 l 2947 935 l 2465 935 l
 cp gs col0 s gr 
/Times-Roman-iso ff 180.00 scf sf
4104 3473 m
gs 1 -1 sc (Vp=kpq) col0 sh gr
/Times-Roman-iso ff 180.00 scf sf
1517 1264 m
gs 1 -1 sc (P1) col0 sh gr
/Times-Roman-iso ff 180.00 scf sf
1871 694 m
gs 1 -1 sc (Vin) col0 sh gr
/Times-Roman-iso ff 180.00 scf sf
3553 373 m
gs 1 -1 sc (ServoAmp) col0 sh gr
/Times-Roman-iso ff 180.00 scf sf
2355 399 m
gs 1 -1 sc (PA150C) col0 sh gr
/Times-Roman-iso ff 180.00 scf sf
642 392 m
gs 1 -1 sc (OU150A) col0 sh gr
/Times-Roman-iso ff 180.00 scf sf
3825 2853 m
gs 1 -1 sc (+15) col0 sh gr
/Times-Roman-iso ff 180.00 scf sf
242 1547 m
gs 1 -1 sc (+15) col0 sh gr
% Polyline
n 4281 1119 m 4364 1119 l 4364 1601 l 4281 1601 l
 cp gs col7 0.50 shd ef gr gs col0 s gr 
% Polyline
n 4489 525 m 4489 442 l 4959 442 l 4959 525 l
 cp gs col7 0.50 shd ef gr gs col0 s gr 
% Polyline
n 609 1938 m 160 1938 l 160 754 l
 657 753 l gs col0 s gr 
% Polyline
n 1139 752 m 902 615 l 902 889 l
 cp gs col0 s gr 
% Polyline
gs  clippath
1742 1058 m 1742 1103 l 1879 1103 l 1767 1081 l 1879 1058 l cp
eoclip
n 2342 762 m 1926 761 l 1926 1081 l
 1757 1081 l gs col0 s gr gr

% arrowhead
3.750 slw
n 1879 1058 m 1767 1081 l 1879 1103 l 1857 1081 l 1879 1058 l 
 cp gs 0.00 setgray ef gr  col0 s
% Polyline
7.500 slw
n 2836 752 m 2599 615 l 2599 889 l
 cp gs col0 s gr 
% Polyline
n 3904 571 m
 3903 722 l gs col0 s gr 
% Polyline
n 3028 1931 m 3277 1931 l 3277 2110 l 3028 2110 l
 cp gs col7 1.00 shd ef gr gs col0 s gr 
% Polyline
n 1631 1586 m
 1731 1586 l gs col0 s gr 
% Polyline
n 1654 1613 m
 1708 1613 l gs col0 s gr 
% Polyline
n 4561 2783 m 4429 2783 l 4429 2800 l 4427 2955 l 4498 2906 l 4480 2992 l
 4566 2976 l 4517 3041 l 4601 3054 l 4531 3107 l 4603 3156 l
 4519 3174 l 4566 3248 l 4482 3227 l 4494 3317 l 4427 3268 l
 4406 3346 l 4364 3276 l 4312 3346 l 4298 3264 l 4227 3309 l
 4243 3229 l 4163 3240 l 4208 3168 l 4129 3154 l 4196 3105 l
 4131 3058 l 4212 3043 l 4163 2976 l 4247 2994 l 4229 2911 l
 4302 2958 l 4302 2800 l 4302 2783 l
 4173 2783 l gs col0 s gr 
% Polyline
n 1758 1231 m 1614 1158 l 1759 1083 l 1612 1010 l
 1759 929 l gs col0 s gr 
% Polyline
n 4728 1925 m 4873 1925 l 4873 2118 l 4728 2118 l
 cp gs col7 1.00 shd ef gr gs col0 s gr 
% Polyline
n 1759 1229 m 1685 1264 l
 1685 1377 l gs col0 s gr 
% Polyline
n 1761 931 m 1687 896 l
 1687 783 l gs col0 s gr 
% Polyline
n 1609 1559 m
 1755 1559 l gs col0 s gr 
% Polyline
n 797 1621 m 665 1621 l 665 1638 l 663 1793 l 734 1744 l 716 1830 l
 802 1814 l 753 1879 l 837 1892 l 767 1945 l 839 1994 l
 755 2012 l 802 2086 l 718 2065 l 730 2155 l 663 2106 l
 642 2184 l 600 2114 l 548 2184 l 534 2102 l 463 2147 l
 479 2067 l 399 2078 l 444 2006 l 365 1992 l 432 1943 l
 367 1896 l 448 1881 l 399 1814 l 483 1832 l 465 1749 l
 538 1796 l 538 1638 l 538 1621 l
 409 1621 l gs col0 s gr 
/Times-Roman-iso ff 180.00 scf sf
4662 2855 m
gs 1 -1 sc (-15) col0 sh gr
/Times-Roman-iso ff 180.00 scf sf
622 1549 m
gs 1 -1 sc (-15) col0 sh gr
% Polyline
15.000 slw
gs  clippath
451 2090 m 498 2127 l 569 2035 l 491 2088 l 522 1998 l cp
eoclip
n 484 2097 m
 612 1931 l gs col0 s gr gr

% arrowhead
7.500 slw
n 522 1998 m 491 2088 l 569 2035 l 564 1992 l 522 1998 l 
 cp gs col7 1.00 shd ef gr  col0 s
% Polyline
15.000 slw
gs  clippath
4453 3289 m 4504 3258 l 4443 3158 l 4465 3251 l 4392 3189 l cp
eoclip
n 4471 3261 m 4365 3087 l
 4365 3093 l gs col0 s gr gr

% arrowhead
7.500 slw
n 4392 3189 m 4465 3251 l 4443 3158 l 4402 3148 l 4392 3189 l 
 cp gs col7 1.00 shd ef gr  col0 s
% Polyline
n 1336 779 m
 1694 779 l gs col0 s gr 
% Ellipse
n 794 1619 30 30 0 360 DrawEllipse gs col7 1.00 shd ef gr gs col0 s gr

% Ellipse
n 414 1619 30 30 0 360 DrawEllipse gs col7 1.00 shd ef gr gs col0 s gr

% Ellipse
n 4558 2781 30 30 0 360 DrawEllipse gs col7 1.00 shd ef gr gs col0 s gr

% Ellipse
n 4178 2781 30 30 0 360 DrawEllipse gs col7 1.00 shd ef gr gs col0 s gr

% Ellipse
n 601 1947 240 240 0 360 DrawEllipse gs col0 s gr

% Ellipse
n 4365 3109 240 240 0 360 DrawEllipse gs col0 s gr

% Polyline
n 4352 2429 m 4380 2429 l 4380 3104 l 4352 3104 l
 cp gs col0 s gr 
% Polyline
n 4784 1532 m 4820 1532 l 4820 2524 l 4784 2524 l
 cp gs col7 1.00 shd ef gr gs col0 s gr 
% Polyline
n 652 945 m 652 1232 l 1171 1232 l 1171 3095 l
 4367 3095 l gs col0 s gr 
% Polyline
n 4296 2551 m 4434 2551 l 4434 2662 l 4296 2662 l
 cp gs col7 1.00 shd ef gr gs col0 s gr 
% Polyline
n 3261 1593 m 4492 1593 l 4492 2451 l 3261 2451 l
 cp gs col7 1.00 shd ef gr gs col0 s gr 
/Times-Roman-iso ff 180.00 scf sf
4907 826 m
gs 1 -1 sc (Supply) col0 sh gr
/Times-Roman-iso ff 180.00 scf sf
4906 520 m
gs 1 -1 sc (Power) col0 sh gr
% Ellipse
n 602 1935 22 22 0 360 DrawEllipse gs col7 1.00 shd ef gr gs col0 s gr

% Ellipse
n 1688 779 23 23 0 360 DrawEllipse gs col7 1.00 shd ef gr gs col0 s gr

% Ellipse
n 1683 1377 23 23 0 360 DrawEllipse gs col7 1.00 shd ef gr gs col0 s gr

% Polyline
n 4643 138 m 5691 138 l 5691 1121 l 4643 1121 l
 cp gs col7 1.00 shd ef gr gs col0 s gr 
% Polyline
15.000 slw
n 3451 1731 m
 3604 1732 l gs col0 s gr 
% Polyline
n 3930 1731 m
 4095 1729 l gs col0 s gr 
7.500 slw
% Ellipse
n 4366 3097 22 22 0 360 DrawEllipse gs col7 1.00 shd ef gr gs col0 s gr

% Ellipse
n 3906 1735 48 48 0 360 DrawEllipse gs col7 1.00 shd ef gr gs col0 s gr

% Ellipse
n 3625 1735 48 48 0 360 DrawEllipse gs col7 1.00 shd ef gr gs col0 s gr

% Ellipse
n 4095 1735 48 48 0 360 DrawEllipse gs col7 1.00 shd ef gr gs col0 s gr

% Ellipse
n 3443 1735 48 48 0 360 DrawEllipse gs col7 1.00 shd ef gr gs col0 s gr

% Ellipse
n 3524 872 48 48 0 360 DrawEllipse gs col7 1.00 shd ef gr gs col0 s gr

% Ellipse
n 3524 645 48 48 0 360 DrawEllipse gs col7 1.00 shd ef gr gs col0 s gr

% Ellipse
n 3052 645 48 48 0 360 DrawEllipse gs col7 1.00 shd ef gr gs col0 s gr

/Times-Roman-iso ff 180.00 scf sf
3760 2364 m
gs 1 -1 sc (MT150F) col0 sh gr
% Ellipse
n 3057 872 48 48 0 360 DrawEllipse gs col7 1.00 shd ef gr gs col0 s gr

% Ellipse
n 1348 772 48 48 0 360 DrawEllipse gs col7 1.00 shd ef gr gs col0 s gr

% Ellipse
n 2339 760 48 48 0 360 DrawEllipse gs col7 1.00 shd ef gr gs col0 s gr

% Ellipse
n 652 560 48 48 0 360 DrawEllipse gs col7 1.00 shd ef gr gs col0 s gr

% Ellipse
n 2339 949 48 48 0 360 DrawEllipse gs col7 1.00 shd ef gr gs col0 s gr

% Ellipse
n 652 949 48 48 0 360 DrawEllipse gs col7 1.00 shd ef gr gs col0 s gr

% Ellipse
n 2339 560 48 48 0 360 DrawEllipse gs col7 1.00 shd ef gr gs col0 s gr

% Ellipse
n 652 760 48 48 0 360 DrawEllipse gs col7 1.00 shd ef gr gs col0 s gr

$F2psEnd
rs
