%!PS-Adobe-2.0 EPSF-2.0
%%Title: servo-5.eps
%%Creator: fig2dev Version 3.2 Patchlevel 3d
%%CreationDate: Wed Jul 21 18:55:46 2004
%%For: dpeets@physics (Darren Peets)
%%BoundingBox: 0 0 320 195
%%Magnification: 1.0000
%%EndComments
/$F2psDict 200 dict def
$F2psDict begin
$F2psDict /mtrx matrix put
/col-1 {0 setgray} bind def
/col0 {0.000 0.000 0.000 srgb} bind def
/col1 {0.000 0.000 1.000 srgb} bind def
/col2 {0.000 1.000 0.000 srgb} bind def
/col3 {0.000 1.000 1.000 srgb} bind def
/col4 {1.000 0.000 0.000 srgb} bind def
/col5 {1.000 0.000 1.000 srgb} bind def
/col6 {1.000 1.000 0.000 srgb} bind def
/col7 {1.000 1.000 1.000 srgb} bind def
/col8 {0.000 0.000 0.560 srgb} bind def
/col9 {0.000 0.000 0.690 srgb} bind def
/col10 {0.000 0.000 0.820 srgb} bind def
/col11 {0.530 0.810 1.000 srgb} bind def
/col12 {0.000 0.560 0.000 srgb} bind def
/col13 {0.000 0.690 0.000 srgb} bind def
/col14 {0.000 0.820 0.000 srgb} bind def
/col15 {0.000 0.560 0.560 srgb} bind def
/col16 {0.000 0.690 0.690 srgb} bind def
/col17 {0.000 0.820 0.820 srgb} bind def
/col18 {0.560 0.000 0.000 srgb} bind def
/col19 {0.690 0.000 0.000 srgb} bind def
/col20 {0.820 0.000 0.000 srgb} bind def
/col21 {0.560 0.000 0.560 srgb} bind def
/col22 {0.690 0.000 0.690 srgb} bind def
/col23 {0.820 0.000 0.820 srgb} bind def
/col24 {0.500 0.190 0.000 srgb} bind def
/col25 {0.630 0.250 0.000 srgb} bind def
/col26 {0.750 0.380 0.000 srgb} bind def
/col27 {1.000 0.500 0.500 srgb} bind def
/col28 {1.000 0.630 0.630 srgb} bind def
/col29 {1.000 0.750 0.750 srgb} bind def
/col30 {1.000 0.880 0.880 srgb} bind def
/col31 {1.000 0.840 0.000 srgb} bind def

end
save
newpath 0 195 moveto 0 0 lineto 320 0 lineto 320 195 lineto closepath clip newpath
-9.4 202.4 translate
1 -1 scale

/cp {closepath} bind def
/ef {eofill} bind def
/gr {grestore} bind def
/gs {gsave} bind def
/sa {save} bind def
/rs {restore} bind def
/l {lineto} bind def
/m {moveto} bind def
/rm {rmoveto} bind def
/n {newpath} bind def
/s {stroke} bind def
/sh {show} bind def
/slc {setlinecap} bind def
/slj {setlinejoin} bind def
/slw {setlinewidth} bind def
/srgb {setrgbcolor} bind def
/rot {rotate} bind def
/sc {scale} bind def
/sd {setdash} bind def
/ff {findfont} bind def
/sf {setfont} bind def
/scf {scalefont} bind def
/sw {stringwidth} bind def
/tr {translate} bind def
/tnt {dup dup currentrgbcolor
  4 -2 roll dup 1 exch sub 3 -1 roll mul add
  4 -2 roll dup 1 exch sub 3 -1 roll mul add
  4 -2 roll dup 1 exch sub 3 -1 roll mul add srgb}
  bind def
/shd {dup dup currentrgbcolor 4 -2 roll mul 4 -2 roll mul
  4 -2 roll mul srgb} bind def
/reencdict 12 dict def /ReEncode { reencdict begin
/newcodesandnames exch def /newfontname exch def /basefontname exch def
/basefontdict basefontname findfont def /newfont basefontdict maxlength dict def
basefontdict { exch dup /FID ne { dup /Encoding eq
{ exch dup length array copy newfont 3 1 roll put }
{ exch newfont 3 1 roll put } ifelse } { pop pop } ifelse } forall
newfont /FontName newfontname put newcodesandnames aload pop
128 1 255 { newfont /Encoding get exch /.notdef put } for
newcodesandnames length 2 idiv { newfont /Encoding get 3 1 roll put } repeat
newfontname newfont definefont pop end } def
/isovec [
8#055 /minus 8#200 /grave 8#201 /acute 8#202 /circumflex 8#203 /tilde
8#204 /macron 8#205 /breve 8#206 /dotaccent 8#207 /dieresis
8#210 /ring 8#211 /cedilla 8#212 /hungarumlaut 8#213 /ogonek 8#214 /caron
8#220 /dotlessi 8#230 /oe 8#231 /OE
8#240 /space 8#241 /exclamdown 8#242 /cent 8#243 /sterling
8#244 /currency 8#245 /yen 8#246 /brokenbar 8#247 /section 8#250 /dieresis
8#251 /copyright 8#252 /ordfeminine 8#253 /guillemotleft 8#254 /logicalnot
8#255 /hyphen 8#256 /registered 8#257 /macron 8#260 /degree 8#261 /plusminus
8#262 /twosuperior 8#263 /threesuperior 8#264 /acute 8#265 /mu 8#266 /paragraph
8#267 /periodcentered 8#270 /cedilla 8#271 /onesuperior 8#272 /ordmasculine
8#273 /guillemotright 8#274 /onequarter 8#275 /onehalf
8#276 /threequarters 8#277 /questiondown 8#300 /Agrave 8#301 /Aacute
8#302 /Acircumflex 8#303 /Atilde 8#304 /Adieresis 8#305 /Aring
8#306 /AE 8#307 /Ccedilla 8#310 /Egrave 8#311 /Eacute
8#312 /Ecircumflex 8#313 /Edieresis 8#314 /Igrave 8#315 /Iacute
8#316 /Icircumflex 8#317 /Idieresis 8#320 /Eth 8#321 /Ntilde 8#322 /Ograve
8#323 /Oacute 8#324 /Ocircumflex 8#325 /Otilde 8#326 /Odieresis 8#327 /multiply
8#330 /Oslash 8#331 /Ugrave 8#332 /Uacute 8#333 /Ucircumflex
8#334 /Udieresis 8#335 /Yacute 8#336 /Thorn 8#337 /germandbls 8#340 /agrave
8#341 /aacute 8#342 /acircumflex 8#343 /atilde 8#344 /adieresis 8#345 /aring
8#346 /ae 8#347 /ccedilla 8#350 /egrave 8#351 /eacute
8#352 /ecircumflex 8#353 /edieresis 8#354 /igrave 8#355 /iacute
8#356 /icircumflex 8#357 /idieresis 8#360 /eth 8#361 /ntilde 8#362 /ograve
8#363 /oacute 8#364 /ocircumflex 8#365 /otilde 8#366 /odieresis 8#367 /divide
8#370 /oslash 8#371 /ugrave 8#372 /uacute 8#373 /ucircumflex
8#374 /udieresis 8#375 /yacute 8#376 /thorn 8#377 /ydieresis] def
/Times-Roman /Times-Roman-iso isovec ReEncode
 /DrawEllipse {
	/endangle exch def
	/startangle exch def
	/yrad exch def
	/xrad exch def
	/y exch def
	/x exch def
	/savematrix mtrx currentmatrix def
	x y tr xrad yrad sc 0 0 1 startangle endangle arc
	closepath
	savematrix setmatrix
	} def

/$F2psBegin {$F2psDict begin /$F2psEnteredState save def} def
/$F2psEnd {$F2psEnteredState restore end} def

$F2psBegin
10 setmiterlimit
 0.06000 0.06000 sc
%
% Fig objects follow
%
% Polyline
7.500 slw
n 4295 1268 m 4678 1268 l 4678 1470 l 4295 1470 l
 cp gs col7 0.00 shd ef gr gs col0 s gr 
% Polyline
n 3066 152 m 4167 152 l 4167 1135 l 3066 1135 l
 cp gs col7 1.00 shd ef gr gs col0 s gr 
% Polyline
n 473 154 m 1521 154 l 1521 1137 l 473 1137 l
 cp gs col7 1.00 shd ef gr gs col0 s gr 
% Polyline
n 4005 2006 m 4585 2006 l 4585 2075 l 4005 2075 l
 cp gs col7 1.00 shd ef gr gs col0 s gr 
% Polyline
n 2981 1857 m 2135 1857 l 2135 2223 l 2981 2223 l
 cp gs col7 1.00 shd ef gr gs col0 s gr 
% Polyline
n 1840 154 m 2888 154 l 2888 1137 l 1840 1137 l
 cp gs col7 1.00 shd ef gr gs col0 s gr 
% Polyline
n 2475 1913 m 3007 1913 l 3007 2161 l 2475 2161 l
 cp gs col7 1.00 shd ef gr gs col0 s gr 
% Polyline
n 2476 2019 m 2739 2019 l 2739 2053 l 2476 2053 l
 cp gs col0 s gr 
% Polyline
n 2514 768 m 2277 631 l 2277 905 l
 cp gs col0 s gr 
% Polyline
n 2143 594 m 2625 594 l 2625 951 l 2143 951 l
 cp gs col0 s gr 
% Polyline
n 3208 896 m
 2742 895 l gs col0 s gr 
% Polyline
n 3208 664 m
 2742 663 l gs col0 s gr 
% Polyline
gs  clippath
3689 769 m 3703 742 l 3632 705 l 3679 747 l 3618 732 l cp
eoclip
n 3584 697 m
 3683 749 l gs col0 s gr gr

% arrowhead
2.250 slw
n 3618 732 m 3679 747 l 3632 705 l 3618 732 l  cp gs 0.00 setgray ef gr  col0 s
% Polyline
7.500 slw
n 3389 959 m 3388 1026 l 3980 1026 l
 3980 1134 l gs col0 s gr 
% Polyline
gs  clippath
3416 990 m 3430 963 l 3359 926 l 3406 968 l 3345 953 l cp
eoclip
n 3311 918 m
 3410 970 l gs col0 s gr gr

% arrowhead
2.250 slw
n 3345 953 m 3406 968 l 3359 926 l 3345 953 l  cp gs 0.00 setgray ef gr  col0 s
% Polyline
7.500 slw
n 4017 1134 m 4017 925 l 3662 925 l
 3661 736 l gs col0 s gr 
% Polyline
n 3314 866 m 3385 829 l 3385 750 l 3385 710 l 3385 496 l
 4166 497 l gs col0 s gr 
% Polyline
n 3587 636 m 3658 599 l
 3658 496 l gs col0 s gr 
% Polyline
n 3314 891 m
 3201 891 l gs col0 s gr 
/Times-Roman-iso ff 180.00 scf sf
3330 1425 m
gs 1 -1 sc (Vt) col0 sh gr
% Polyline
n 2020 778 m
 1362 778 l gs col0 s gr 
/Times-Roman-iso ff 180.00 scf sf
2055 415 m
gs 1 -1 sc (PA150C) col0 sh gr
/Times-Roman-iso ff 180.00 scf sf
665 415 m
gs 1 -1 sc (OU150A) col0 sh gr
/Times-Roman-iso ff 180.00 scf sf
4618 1801 m
gs 1 -1 sc (EddyBrake) col0 sh gr
/Times-Roman-iso ff 180.00 scf sf
250 1563 m
gs 1 -1 sc (-15) col0 sh gr
/Times-Roman-iso ff 180.00 scf sf
3208 399 m
gs 1 -1 sc (ServoAmp) col0 sh gr
/Times-Roman-iso ff 180.00 scf sf
223 680 m
gs 1 -1 sc (Vr) col0 sh gr
/Times-Roman-iso ff 180.00 scf sf
1010 2467 m
gs 1 -1 sc (InputPot) col0 sh gr
/Times-Roman-iso ff 180.00 scf sf
1549 673 m
gs 1 -1 sc (Vin) col0 sh gr
% Polyline
n 3959 1136 m 4042 1136 l 4042 1617 l 3959 1617 l
 cp gs col7 0.50 shd ef gr gs col0 s gr 
% Polyline
n 3585 587 m
 3585 738 l gs col0 s gr 
% Polyline
n 3312 817 m
 3313 968 l gs col0 s gr 
% Polyline
n 4166 541 m 4166 458 l 4637 458 l 4637 541 l
 cp gs col7 0.50 shd ef gr gs col0 s gr 
% Polyline
gs  clippath
4660 1412 m 4645 1455 l 4774 1500 l 4676 1442 l 4789 1457 l cp
eoclip
n 4667 1439 m 4955 1540 l
 4955 1652 l gs col0 s gr gr

% arrowhead
3.750 slw
n 4789 1457 m 4676 1442 l 4774 1500 l 4760 1471 l 4789 1457 l 
 cp gs 0.00 setgray ef gr  col0 s
% Polyline
7.500 slw
gs  clippath
726 2170 m 686 2190 l 745 2314 l 717 2203 l 786 2294 l cp
eoclip
n 713 2194 m 819 2413 l
 980 2413 l gs col0 s gr gr

% arrowhead
3.750 slw
n 786 2294 m 717 2203 l 745 2314 l 756 2284 l 786 2294 l 
 cp gs 0.00 setgray ef gr  col0 s
% Polyline
7.500 slw
n 617 1954 m 168 1954 l 170 775 l
 665 774 l gs col0 s gr 
% Polyline
n 1147 768 m 910 631 l 910 905 l
 cp gs col0 s gr 
% Polyline
n 3587 661 m
 3201 661 l gs col0 s gr 
% Polyline
n 3692 1479 m
 3786 1479 l gs col0 s gr 
% Polyline
n 4524 1345 m 4679 1345 l 4679 1542 l 4524 1542 l
 cp gs col7 1.00 shd ef gr gs col0 s gr 
% Polyline
n 2706 1947 m 2955 1947 l 2955 2126 l 2706 2126 l
 cp gs col7 1.00 shd ef gr gs col0 s gr 
% Polyline
n 4294 1345 m 4449 1345 l 4449 1542 l 4294 1542 l
 cp gs col7 1.00 shd ef gr gs col0 s gr 
% Polyline
n 4406 1941 m 4551 1941 l 4551 2134 l 4406 2134 l
 cp gs col7 1.00 shd ef gr gs col0 s gr 
% Polyline
n 4239 2799 m 4107 2799 l 4107 2816 l 4105 2971 l 4176 2922 l 4158 3008 l
 4244 2992 l 4195 3057 l 4279 3070 l 4209 3123 l 4281 3172 l
 4197 3190 l 4244 3264 l 4160 3243 l 4172 3333 l 4105 3284 l
 4084 3362 l 4042 3292 l 3990 3362 l 3976 3280 l 3905 3325 l
 3921 3245 l 3841 3256 l 3886 3184 l 3807 3170 l 3874 3121 l
 3809 3074 l 3890 3059 l 3841 2992 l 3925 3010 l 3907 2927 l
 3980 2974 l 3980 2816 l 3980 2799 l
 3851 2799 l gs col0 s gr 
% Polyline
n 3806 1454 m
 3669 1454 l gs col0 s gr 
% Polyline
n 3763 1504 m
 3713 1504 l gs col0 s gr 
% Polyline
n 4524 1280 m 4679 1280 l 4679 1340 l 4524 1340 l
 cp gs col7 0.50 shd ef gr gs col0 s gr 
% Polyline
n 4294 1285 m 4449 1285 l 4449 1345 l 4294 1345 l
 cp gs col7 0.50 shd ef gr gs col0 s gr 
% Polyline
n 805 1637 m 673 1637 l 673 1654 l 671 1809 l 742 1760 l 724 1846 l
 810 1830 l 761 1895 l 845 1908 l 775 1961 l 847 2010 l
 763 2028 l 810 2102 l 726 2081 l 738 2171 l 671 2122 l
 650 2200 l 608 2130 l 556 2200 l 542 2118 l 471 2163 l
 487 2083 l 407 2094 l 452 2022 l 373 2008 l 440 1959 l
 375 1912 l 456 1897 l 407 1830 l 491 1848 l 473 1765 l
 546 1812 l 546 1654 l 546 1637 l
 417 1637 l gs col0 s gr 
/Times-Roman-iso ff 180.00 scf sf
630 1565 m
gs 1 -1 sc (+15) col0 sh gr
% Polyline
15.000 slw
gs  clippath
4131 3305 m 4182 3274 l 4121 3174 l 4143 3267 l 4070 3205 l cp
eoclip
n 4149 3277 m 4043 3103 l
 4043 3109 l gs col0 s gr gr

% arrowhead
7.500 slw
n 4070 3205 m 4143 3267 l 4121 3174 l 4080 3164 l 4070 3205 l 
 cp gs col7 1.00 shd ef gr  col0 s
% Polyline
15.000 slw
gs  clippath
575 2174 m 635 2175 l 637 2058 l 606 2148 l 577 2057 l cp
eoclip
n 606 2160 m 609 1941 l
 609 1947 l gs col0 s gr gr

% arrowhead
7.500 slw
n 577 2057 m 606 2148 l 637 2058 l 607 2028 l 577 2057 l 
 cp gs col7 1.00 shd ef gr  col0 s
% Ellipse
n 802 1635 30 30 0 360 DrawEllipse gs col7 1.00 shd ef gr gs col0 s gr

% Ellipse
n 422 1635 30 30 0 360 DrawEllipse gs col7 1.00 shd ef gr gs col0 s gr

% Ellipse
n 609 1963 240 240 0 360 DrawEllipse gs col0 s gr

% Ellipse
n 4236 2797 30 30 0 360 DrawEllipse gs col7 1.00 shd ef gr gs col0 s gr

% Ellipse
n 3856 2797 30 30 0 360 DrawEllipse gs col7 1.00 shd ef gr gs col0 s gr

% Ellipse
n 4043 3125 240 240 0 360 DrawEllipse gs col0 s gr

% Polyline
n 4030 2445 m 4058 2445 l 4058 3120 l 4030 3120 l
 cp gs col0 s gr 
% Polyline
n 4462 1548 m 4498 1548 l 4498 2540 l 4462 2540 l
 cp gs col7 1.00 shd ef gr gs col0 s gr 
% Polyline
n 3974 2567 m 4112 2567 l 4112 2678 l 3974 2678 l
 cp gs col7 1.00 shd ef gr gs col0 s gr 
% Ellipse
n 4044 3113 22 22 0 360 DrawEllipse gs col7 1.00 shd ef gr gs col0 s gr

/Times-Roman-iso ff 180.00 scf sf
4622 842 m
gs 1 -1 sc (Supply) col0 sh gr
/Times-Roman-iso ff 180.00 scf sf
4614 529 m
gs 1 -1 sc (Power) col0 sh gr
% Polyline
n 2939 1609 m 4170 1609 l 4170 2467 l 2939 2467 l
 cp gs col7 1.00 shd ef gr gs col0 s gr 
% Polyline
n 4346 143 m 5394 143 l 5394 1126 l 4346 1126 l
 cp gs col7 1.00 shd ef gr gs col0 s gr 
% Ellipse
n 610 1951 22 22 0 360 DrawEllipse gs col7 1.00 shd ef gr gs col0 s gr

% Polyline
n 3736 1456 m 3736 1335 l 3587 1335 l 3587 1440 l
 3587 1736 l gs col0 s gr 
% Polyline
n 665 945 m 665 1238 l 3302 1239 l 3302 1559 l
 3301 1736 l gs col0 s gr 
% Polyline
15.000 slw
n 3129 1747 m
 3282 1748 l gs col0 s gr 
% Polyline
n 3608 1747 m
 3773 1745 l gs col0 s gr 
/Times-Roman-iso ff 180.00 scf sf
3438 2388 m
gs 1 -1 sc (MT150F) col0 sh gr
7.500 slw
% Ellipse
n 2017 576 48 48 0 360 DrawEllipse gs col7 1.00 shd ef gr gs col0 s gr

% Ellipse
n 2017 965 48 48 0 360 DrawEllipse gs col7 1.00 shd ef gr gs col0 s gr

% Ellipse
n 2017 776 48 48 0 360 DrawEllipse gs col7 1.00 shd ef gr gs col0 s gr

% Ellipse
n 3303 1751 48 48 0 360 DrawEllipse gs col7 1.00 shd ef gr gs col0 s gr

% Ellipse
n 660 576 48 48 0 360 DrawEllipse gs col7 1.00 shd ef gr gs col0 s gr

% Ellipse
n 660 965 48 48 0 360 DrawEllipse gs col7 1.00 shd ef gr gs col0 s gr

% Ellipse
n 1340 776 48 48 0 360 DrawEllipse gs col7 1.00 shd ef gr gs col0 s gr

% Ellipse
n 2735 888 48 48 0 360 DrawEllipse gs col7 1.00 shd ef gr gs col0 s gr

% Ellipse
n 2730 661 48 48 0 360 DrawEllipse gs col7 1.00 shd ef gr gs col0 s gr

% Ellipse
n 3202 661 48 48 0 360 DrawEllipse gs col7 1.00 shd ef gr gs col0 s gr

% Ellipse
n 3202 888 48 48 0 360 DrawEllipse gs col7 1.00 shd ef gr gs col0 s gr

% Ellipse
n 3773 1751 48 48 0 360 DrawEllipse gs col7 1.00 shd ef gr gs col0 s gr

% Ellipse
n 3121 1751 48 48 0 360 DrawEllipse gs col7 1.00 shd ef gr gs col0 s gr

% Ellipse
n 3584 1751 48 48 0 360 DrawEllipse gs col7 1.00 shd ef gr gs col0 s gr

% Ellipse
n 660 776 48 48 0 360 DrawEllipse gs col7 1.00 shd ef gr gs col0 s gr

$F2psEnd
rs
