%!PS-Adobe-2.0 EPSF-2.0
%%Title: servo-3.eps
%%Creator: fig2dev Version 3.2 Patchlevel 3d
%%CreationDate: Wed Jul 21 19:00:49 2004
%%For: dpeets@physics (Darren Peets)
%%BoundingBox: 0 0 295 212
%%Magnification: 1.0000
%%EndComments
/$F2psDict 200 dict def
$F2psDict begin
$F2psDict /mtrx matrix put
/col-1 {0 setgray} bind def
/col0 {0.000 0.000 0.000 srgb} bind def
/col1 {0.000 0.000 1.000 srgb} bind def
/col2 {0.000 1.000 0.000 srgb} bind def
/col3 {0.000 1.000 1.000 srgb} bind def
/col4 {1.000 0.000 0.000 srgb} bind def
/col5 {1.000 0.000 1.000 srgb} bind def
/col6 {1.000 1.000 0.000 srgb} bind def
/col7 {1.000 1.000 1.000 srgb} bind def
/col8 {0.000 0.000 0.560 srgb} bind def
/col9 {0.000 0.000 0.690 srgb} bind def
/col10 {0.000 0.000 0.820 srgb} bind def
/col11 {0.530 0.810 1.000 srgb} bind def
/col12 {0.000 0.560 0.000 srgb} bind def
/col13 {0.000 0.690 0.000 srgb} bind def
/col14 {0.000 0.820 0.000 srgb} bind def
/col15 {0.000 0.560 0.560 srgb} bind def
/col16 {0.000 0.690 0.690 srgb} bind def
/col17 {0.000 0.820 0.820 srgb} bind def
/col18 {0.560 0.000 0.000 srgb} bind def
/col19 {0.690 0.000 0.000 srgb} bind def
/col20 {0.820 0.000 0.000 srgb} bind def
/col21 {0.560 0.000 0.560 srgb} bind def
/col22 {0.690 0.000 0.690 srgb} bind def
/col23 {0.820 0.000 0.820 srgb} bind def
/col24 {0.500 0.190 0.000 srgb} bind def
/col25 {0.630 0.250 0.000 srgb} bind def
/col26 {0.750 0.380 0.000 srgb} bind def
/col27 {1.000 0.500 0.500 srgb} bind def
/col28 {1.000 0.630 0.630 srgb} bind def
/col29 {1.000 0.750 0.750 srgb} bind def
/col30 {1.000 0.880 0.880 srgb} bind def
/col31 {1.000 0.840 0.000 srgb} bind def

end
save
newpath 0 212 moveto 0 0 lineto 295 0 lineto 295 212 lineto closepath clip newpath
-9.1 219.8 translate
1 -1 scale

/cp {closepath} bind def
/ef {eofill} bind def
/gr {grestore} bind def
/gs {gsave} bind def
/sa {save} bind def
/rs {restore} bind def
/l {lineto} bind def
/m {moveto} bind def
/rm {rmoveto} bind def
/n {newpath} bind def
/s {stroke} bind def
/sh {show} bind def
/slc {setlinecap} bind def
/slj {setlinejoin} bind def
/slw {setlinewidth} bind def
/srgb {setrgbcolor} bind def
/rot {rotate} bind def
/sc {scale} bind def
/sd {setdash} bind def
/ff {findfont} bind def
/sf {setfont} bind def
/scf {scalefont} bind def
/sw {stringwidth} bind def
/tr {translate} bind def
/tnt {dup dup currentrgbcolor
  4 -2 roll dup 1 exch sub 3 -1 roll mul add
  4 -2 roll dup 1 exch sub 3 -1 roll mul add
  4 -2 roll dup 1 exch sub 3 -1 roll mul add srgb}
  bind def
/shd {dup dup currentrgbcolor 4 -2 roll mul 4 -2 roll mul
  4 -2 roll mul srgb} bind def
/reencdict 12 dict def /ReEncode { reencdict begin
/newcodesandnames exch def /newfontname exch def /basefontname exch def
/basefontdict basefontname findfont def /newfont basefontdict maxlength dict def
basefontdict { exch dup /FID ne { dup /Encoding eq
{ exch dup length array copy newfont 3 1 roll put }
{ exch newfont 3 1 roll put } ifelse } { pop pop } ifelse } forall
newfont /FontName newfontname put newcodesandnames aload pop
128 1 255 { newfont /Encoding get exch /.notdef put } for
newcodesandnames length 2 idiv { newfont /Encoding get 3 1 roll put } repeat
newfontname newfont definefont pop end } def
/isovec [
8#055 /minus 8#200 /grave 8#201 /acute 8#202 /circumflex 8#203 /tilde
8#204 /macron 8#205 /breve 8#206 /dotaccent 8#207 /dieresis
8#210 /ring 8#211 /cedilla 8#212 /hungarumlaut 8#213 /ogonek 8#214 /caron
8#220 /dotlessi 8#230 /oe 8#231 /OE
8#240 /space 8#241 /exclamdown 8#242 /cent 8#243 /sterling
8#244 /currency 8#245 /yen 8#246 /brokenbar 8#247 /section 8#250 /dieresis
8#251 /copyright 8#252 /ordfeminine 8#253 /guillemotleft 8#254 /logicalnot
8#255 /hyphen 8#256 /registered 8#257 /macron 8#260 /degree 8#261 /plusminus
8#262 /twosuperior 8#263 /threesuperior 8#264 /acute 8#265 /mu 8#266 /paragraph
8#267 /periodcentered 8#270 /cedilla 8#271 /onesuperior 8#272 /ordmasculine
8#273 /guillemotright 8#274 /onequarter 8#275 /onehalf
8#276 /threequarters 8#277 /questiondown 8#300 /Agrave 8#301 /Aacute
8#302 /Acircumflex 8#303 /Atilde 8#304 /Adieresis 8#305 /Aring
8#306 /AE 8#307 /Ccedilla 8#310 /Egrave 8#311 /Eacute
8#312 /Ecircumflex 8#313 /Edieresis 8#314 /Igrave 8#315 /Iacute
8#316 /Icircumflex 8#317 /Idieresis 8#320 /Eth 8#321 /Ntilde 8#322 /Ograve
8#323 /Oacute 8#324 /Ocircumflex 8#325 /Otilde 8#326 /Odieresis 8#327 /multiply
8#330 /Oslash 8#331 /Ugrave 8#332 /Uacute 8#333 /Ucircumflex
8#334 /Udieresis 8#335 /Yacute 8#336 /Thorn 8#337 /germandbls 8#340 /agrave
8#341 /aacute 8#342 /acircumflex 8#343 /atilde 8#344 /adieresis 8#345 /aring
8#346 /ae 8#347 /ccedilla 8#350 /egrave 8#351 /eacute
8#352 /ecircumflex 8#353 /edieresis 8#354 /igrave 8#355 /iacute
8#356 /icircumflex 8#357 /idieresis 8#360 /eth 8#361 /ntilde 8#362 /ograve
8#363 /oacute 8#364 /ocircumflex 8#365 /otilde 8#366 /odieresis 8#367 /divide
8#370 /oslash 8#371 /ugrave 8#372 /uacute 8#373 /ucircumflex
8#374 /udieresis 8#375 /yacute 8#376 /thorn 8#377 /ydieresis] def
/Times-Roman /Times-Roman-iso isovec ReEncode
 /DrawEllipse {
	/endangle exch def
	/startangle exch def
	/yrad exch def
	/xrad exch def
	/y exch def
	/x exch def
	/savematrix mtrx currentmatrix def
	x y tr xrad yrad sc 0 0 1 startangle endangle arc
	closepath
	savematrix setmatrix
	} def

/$F2psBegin {$F2psDict begin /$F2psEnteredState save def} def
/$F2psEnd {$F2psEnteredState restore end} def

$F2psBegin
10 setmiterlimit
 0.06000 0.06000 sc
%
% Fig objects follow
%
% Polyline
7.500 slw
n 2740 154 m 3841 154 l 3841 1137 l 2740 1137 l
 cp gs col7 1.00 shd ef gr gs col0 s gr 
% Polyline
n 3679 2008 m 4259 2008 l 4259 2077 l 3679 2077 l
 cp gs col7 1.00 shd ef gr gs col0 s gr 
% Polyline
n 2655 1859 m 1809 1859 l 1809 2225 l 2655 2225 l
 cp gs col7 1.00 shd ef gr gs col0 s gr 
% Polyline
n 1316 156 m 2364 156 l 2364 1139 l 1316 1139 l
 cp gs col7 1.00 shd ef gr gs col0 s gr 
% Polyline
n 2149 1915 m 2681 1915 l 2681 2163 l 2149 2163 l
 cp gs col7 1.00 shd ef gr gs col0 s gr 
% Polyline
n 2150 2021 m 2413 2021 l 2413 2055 l 2150 2055 l
 cp gs col0 s gr 
% Polyline
n 1619 596 m 2101 596 l 2101 953 l 1619 953 l
 cp gs col0 s gr 
% Polyline
n 2882 666 m
 2211 665 l gs col0 s gr 
% Polyline
n 2873 894 m
 2207 891 l gs col0 s gr 
% Polyline
n 1990 770 m 1753 633 l 1753 907 l
 cp gs col0 s gr 
% Polyline
gs  clippath
3713 2494 m 3687 2457 l 3575 2537 l 3680 2491 l 3600 2574 l cp
eoclip
n 3688 2485 m 3475 2635 l
 3331 2635 l gs col0 s gr gr

% arrowhead
3.750 slw
n 3600 2574 m 3680 2491 l 3575 2537 l 3606 2542 l 3600 2574 l 
 cp gs 0.00 setgray ef gr  col0 s
% Polyline
7.500 slw
gs  clippath
3363 771 m 3377 744 l 3306 707 l 3353 749 l 3292 734 l cp
eoclip
n 3258 699 m
 3357 751 l gs col0 s gr gr

% arrowhead
2.250 slw
n 3292 734 m 3353 749 l 3306 707 l 3292 734 l  cp gs 0.00 setgray ef gr  col0 s
% Polyline
7.500 slw
gs  clippath
3090 992 m 3104 965 l 3033 928 l 3080 970 l 3019 955 l cp
eoclip
n 2985 920 m
 3084 972 l gs col0 s gr gr

% arrowhead
2.250 slw
n 3019 955 m 3080 970 l 3033 928 l 3019 955 l  cp gs 0.00 setgray ef gr  col0 s
% Polyline
7.500 slw
n 3063 961 m 3062 1029 l 3654 1028 l
 3654 1136 l gs col0 s gr 
% Polyline
n 3691 1136 m 3691 927 l 3334 927 l
 3335 738 l gs col0 s gr 
% Polyline
gs  clippath
4315 2412 m 4360 2412 l 4360 2274 l 4338 2387 l 4315 2274 l cp
4360 1674 m 4315 1674 l 4315 1811 l 4338 1699 l 4360 1811 l cp
eoclip
n 4338 1689 m
 4338 2397 l gs col0 s gr gr

% arrowhead
3.750 slw
n 4360 1811 m 4338 1699 l 4315 1811 l 4338 1789 l 4360 1811 l 
 cp gs 0.00 setgray ef gr  col0 s
% arrowhead
n 4315 2274 m 4338 2387 l 4360 2274 l 4338 2297 l 4315 2274 l 
 cp gs 0.00 setgray ef gr  col0 s
% Polyline
7.500 slw
n 2988 868 m 3059 831 l 3059 752 l 3059 712 l 3059 498 l
 3840 502 l gs col0 s gr 
% Polyline
n 3261 663 m
 2875 663 l gs col0 s gr 
% Polyline
n 3261 638 m 3332 601 l
 3332 498 l gs col0 s gr 
% Polyline
n 2988 893 m
 2875 893 l gs col0 s gr 
% Polyline
n 2979 819 m
 2979 970 l gs col0 s gr 
% Polyline
gs  clippath
821 752 m 821 797 l 979 797 l 848 775 l 979 752 l cp
eoclip
n 1496 775 m
 836 775 l gs col0 s gr gr

% arrowhead
3.750 slw
n 979 752 m 848 775 l 979 797 l 953 775 l 979 752 l 
 cp gs 0.00 setgray ef gr  col0 s
/Times-Roman-iso ff 180.00 scf sf
3657 3624 m
gs 1 -1 sc (-q) col0 sh gr
/Times-Roman-iso ff 180.00 scf sf
4374 2092 m
gs 1 -1 sc (+q') col0 sh gr
/Times-Roman-iso ff 180.00 scf sf
4273 2957 m
gs 1 -1 sc (q=-30q') col0 sh gr
/Times-Roman-iso ff 180.00 scf sf
2898 391 m
gs 1 -1 sc (ServoAmp) col0 sh gr
/Times-Roman-iso ff 180.00 scf sf
1524 417 m
gs 1 -1 sc (PA150C) col0 sh gr
/Times-Roman-iso ff 180.00 scf sf
2604 2682 m
gs 1 -1 sc (30:1Gear) col0 sh gr
/Times-Roman-iso ff 180.00 scf sf
2227 2991 m
gs 1 -1 sc (OutputPot) col0 sh gr
/Times-Roman-iso ff 180.00 scf sf
724 2602 m
gs 1 -1 sc (Tachometer) col0 sh gr
/Times-Roman-iso ff 180.00 scf sf
982 701 m
gs 1 -1 sc (Vin) col0 sh gr
/Times-Roman-iso ff 180.00 scf sf
484 1576 m
gs 1 -1 sc (P1) col0 sh gr
/Times-Roman-iso ff 180.00 scf sf
754 396 m
gs 1 -1 sc (P2) col0 sh gr
/Times-Roman-iso ff 180.00 scf sf
170 812 m
gs 1 -1 sc (+15) col0 sh gr
/Times-Roman-iso ff 180.00 scf sf
3011 1438 m
gs 1 -1 sc (Vt) col0 sh gr
% Polyline
7.500 slw
n 3633 1136 m 3716 1136 l 3716 1619 l 3633 1619 l
 cp gs col7 0.50 shd ef gr gs col0 s gr 
% Polyline
n 3840 543 m 3840 460 l 4311 460 l 4311 543 l
 cp gs col7 0.50 shd ef gr gs col0 s gr 
% Polyline
gs  clippath
3473 3070 m 3485 3027 l 3351 2991 l 3455 3042 l 3340 3035 l cp
eoclip
n 3465 3045 m 3201 2976 l
 3035 2977 l gs col0 s gr gr

% arrowhead
3.750 slw
n 3340 3035 m 3455 3042 l 3351 2991 l 3367 3019 l 3340 3035 l 
 cp gs 0.00 setgray ef gr  col0 s
% Polyline
7.500 slw
gs  clippath
1981 2241 m 1943 2217 l 1869 2332 l 1949 2250 l 1907 2357 l cp
eoclip
n 1954 2242 m 1753 2559 l
 1609 2558 l gs col0 s gr gr

% arrowhead
3.750 slw
n 1907 2357 m 1949 2250 l 1869 2332 l 1900 2326 l 1907 2357 l 
 cp gs 0.00 setgray ef gr  col0 s
% Polyline
7.500 slw
gs  clippath
548 1044 m 548 1089 l 706 1089 l 575 1067 l 706 1044 l cp
eoclip
n 773 1067 m
 563 1067 l gs col0 s gr gr

% arrowhead
3.750 slw
n 706 1044 m 575 1067 l 706 1089 l 680 1067 l 706 1044 l 
 cp gs 0.00 setgray ef gr  col0 s
% Polyline
7.500 slw
n 770 471 m 621 471 l
 621 592 l gs col0 s gr 
% Polyline
n 3255 589 m
 3255 735 l gs col0 s gr 
% Polyline
n 583 622 m
 663 622 l gs col0 s gr 
% Arc
gs  clippath
4068 3260 m 4029 3236 l 3957 3352 l 4036 3269 l 3995 3376 l cp
3404 3226 m 3366 3249 l 3435 3368 l 3398 3260 l 3474 3345 l cp
eoclip
n 3719.1 3117.7 352.3 157.8 24.0 arcn
gs col0 s gr
 gr

% arrowhead
3.750 slw
n 3995 3376 m 4036 3269 l 3957 3352 l 3988 3345 l 3995 3376 l 
 cp gs 0.00 setgray ef gr  col0 s
% arrowhead
n 3474 3345 m 3398 3260 l 3435 3368 l 3443 3337 l 3474 3345 l 
 cp gs 0.00 setgray ef gr  col0 s
% Polyline
7.500 slw
n 605 652 m
 637 652 l gs col0 s gr 
% Polyline
n 553 592 m
 693 592 l gs col0 s gr 
% Polyline
n 835 621 m 761 586 l
 761 473 l gs col0 s gr 
% Polyline
n 833 919 m 759 954 l
 759 1067 l gs col0 s gr 
% Polyline
n 832 921 m 688 848 l 833 773 l 686 700 l
 833 619 l gs col0 s gr 
% Polyline
n 563 1214 m 489 1249 l
 489 1362 l gs col0 s gr 
% Polyline
n 4080 1943 m 4225 1943 l 4225 2136 l 4080 2136 l
 cp gs col7 1.00 shd ef gr gs col0 s gr 
% Polyline
n 565 916 m 491 881 l
 491 768 l gs col0 s gr 
% Polyline
n 2380 1949 m 2629 1949 l 2629 2128 l 2380 2128 l
 cp gs col7 1.00 shd ef gr gs col0 s gr 
% Polyline
n 562 1216 m 418 1143 l 563 1068 l 416 995 l
 563 914 l gs col0 s gr 
% Polyline
n 3913 2801 m 3781 2801 l 3781 2818 l 3779 2973 l 3850 2924 l 3832 3010 l
 3918 2994 l 3869 3059 l 3953 3072 l 3883 3125 l 3955 3174 l
 3871 3192 l 3918 3266 l 3834 3245 l 3846 3335 l 3779 3286 l
 3758 3364 l 3716 3294 l 3664 3364 l 3650 3282 l 3579 3327 l
 3595 3247 l 3515 3258 l 3560 3186 l 3481 3172 l 3548 3123 l
 3483 3076 l 3564 3061 l 3515 2994 l 3599 3012 l 3581 2929 l
 3654 2976 l 3654 2818 l 3654 2801 l
 3525 2801 l gs col0 s gr 
/Times-Roman-iso ff 180.00 scf sf
151 1428 m
gs 1 -1 sc (-15) col0 sh gr
% Polyline
15.000 slw
gs  clippath
3805 3307 m 3856 3276 l 3795 3176 l 3817 3269 l 3744 3207 l cp
eoclip
n 3823 3279 m 3717 3105 l
 3717 3111 l gs col0 s gr gr

% arrowhead
7.500 slw
n 3744 3207 m 3817 3269 l 3795 3176 l 3754 3166 l 3744 3207 l 
 cp gs col7 1.00 shd ef gr  col0 s
% Ellipse
n 492 764 23 23 0 360 DrawEllipse gs col7 1.00 shd ef gr gs col0 s gr

% Ellipse
n 487 1362 23 23 0 360 DrawEllipse gs col7 1.00 shd ef gr gs col0 s gr

% Polyline
n 3704 2447 m 3732 2447 l 3732 3122 l 3704 3122 l
 cp gs col0 s gr 
% Polyline
n 4136 1550 m 4172 1550 l 4172 2542 l 4136 2542 l
 cp gs col7 1.00 shd ef gr gs col0 s gr 
% Ellipse
n 762 469 23 23 0 360 DrawEllipse gs col7 1.00 shd ef gr gs col0 s gr

% Ellipse
n 757 1067 23 23 0 360 DrawEllipse gs col7 1.00 shd ef gr gs col0 s gr

% Ellipse
n 3910 2799 30 30 0 360 DrawEllipse gs col7 1.00 shd ef gr gs col0 s gr

% Ellipse
n 3530 2799 30 30 0 360 DrawEllipse gs col7 1.00 shd ef gr gs col0 s gr

% Ellipse
n 3717 3127 240 240 0 360 DrawEllipse gs col0 s gr

/Times-Roman-iso ff 180.00 scf sf
4273 531 m
gs 1 -1 sc (Power) col0 sh gr
/Times-Roman-iso ff 180.00 scf sf
4274 844 m
gs 1 -1 sc (Supply) col0 sh gr
% Polyline
15.000 slw
n 3282 1749 m
 3447 1747 l gs col0 s gr 
7.500 slw
% Ellipse
n 3718 3115 22 22 0 360 DrawEllipse gs col7 1.00 shd ef gr gs col0 s gr

% Polyline
15.000 slw
n 2803 1749 m
 2956 1750 l gs col0 s gr 
% Polyline
7.500 slw
n 2613 1611 m 3844 1611 l 3844 2469 l 2613 2469 l
 cp gs col7 1.00 shd ef gr gs col0 s gr 
% Polyline
n 3648 2569 m 3786 2569 l 3786 2680 l 3648 2680 l
 cp gs col7 1.00 shd ef gr gs col0 s gr 
% Polyline
n 3995 156 m 5043 156 l 5043 1139 l 3995 1139 l
 cp gs col7 1.00 shd ef gr gs col0 s gr 
% Polyline
gs  clippath
2996 1426 m 2951 1427 l 2951 1564 l 2974 1452 l 2996 1564 l cp
eoclip
n 2974 1442 m
 2975 1738 l gs col0 s gr gr

% arrowhead
3.750 slw
n 2996 1564 m 2974 1452 l 2951 1564 l 2974 1541 l 2996 1564 l 
 cp gs 0.00 setgray ef gr  col0 s
% Polyline
7.500 slw
gs  clippath
3280 1427 m 3235 1426 l 3235 1564 l 3258 1452 l 3280 1564 l cp
eoclip
n 3258 1442 m
 3257 1738 l gs col0 s gr gr

% arrowhead
3.750 slw
n 3280 1564 m 3258 1452 l 3235 1564 l 3257 1541 l 3280 1564 l 
 cp gs 0.00 setgray ef gr  col0 s
/Times-Roman-iso ff 180.00 scf sf
3117 2390 m
gs 1 -1 sc (MT150F) col0 sh gr
7.500 slw
% Ellipse
n 1493 578 48 48 0 360 DrawEllipse gs col7 1.00 shd ef gr gs col0 s gr

% Ellipse
n 1493 967 48 48 0 360 DrawEllipse gs col7 1.00 shd ef gr gs col0 s gr

% Ellipse
n 1493 778 48 48 0 360 DrawEllipse gs col7 1.00 shd ef gr gs col0 s gr

% Ellipse
n 2211 890 48 48 0 360 DrawEllipse gs col7 1.00 shd ef gr gs col0 s gr

% Ellipse
n 2206 663 48 48 0 360 DrawEllipse gs col7 1.00 shd ef gr gs col0 s gr

% Ellipse
n 2876 663 48 48 0 360 DrawEllipse gs col7 1.00 shd ef gr gs col0 s gr

% Ellipse
n 2876 890 48 48 0 360 DrawEllipse gs col7 1.00 shd ef gr gs col0 s gr

% Ellipse
n 3447 1753 48 48 0 360 DrawEllipse gs col7 1.00 shd ef gr gs col0 s gr

% Ellipse
n 3258 1753 48 48 0 360 DrawEllipse gs col7 1.00 shd ef gr gs col0 s gr

% Ellipse
n 2977 1753 48 48 0 360 DrawEllipse gs col7 1.00 shd ef gr gs col0 s gr

% Ellipse
n 2795 1753 48 48 0 360 DrawEllipse gs col7 1.00 shd ef gr gs col0 s gr

$F2psEnd
rs
