%!PS-Adobe-2.0 EPSF-2.0
%%Title: servo-1.eps
%%Creator: fig2dev Version 3.2 Patchlevel 3d
%%CreationDate: Wed Jul 21 18:57:54 2004
%%For: dpeets@physics (Darren Peets)
%%BoundingBox: 0 0 214 151
%%Magnification: 1.0000
%%EndComments
/$F2psDict 200 dict def
$F2psDict begin
$F2psDict /mtrx matrix put
/col-1 {0 setgray} bind def
/col0 {0.000 0.000 0.000 srgb} bind def
/col1 {0.000 0.000 1.000 srgb} bind def
/col2 {0.000 1.000 0.000 srgb} bind def
/col3 {0.000 1.000 1.000 srgb} bind def
/col4 {1.000 0.000 0.000 srgb} bind def
/col5 {1.000 0.000 1.000 srgb} bind def
/col6 {1.000 1.000 0.000 srgb} bind def
/col7 {1.000 1.000 1.000 srgb} bind def
/col8 {0.000 0.000 0.560 srgb} bind def
/col9 {0.000 0.000 0.690 srgb} bind def
/col10 {0.000 0.000 0.820 srgb} bind def
/col11 {0.530 0.810 1.000 srgb} bind def
/col12 {0.000 0.560 0.000 srgb} bind def
/col13 {0.000 0.690 0.000 srgb} bind def
/col14 {0.000 0.820 0.000 srgb} bind def
/col15 {0.000 0.560 0.560 srgb} bind def
/col16 {0.000 0.690 0.690 srgb} bind def
/col17 {0.000 0.820 0.820 srgb} bind def
/col18 {0.560 0.000 0.000 srgb} bind def
/col19 {0.690 0.000 0.000 srgb} bind def
/col20 {0.820 0.000 0.000 srgb} bind def
/col21 {0.560 0.000 0.560 srgb} bind def
/col22 {0.690 0.000 0.690 srgb} bind def
/col23 {0.820 0.000 0.820 srgb} bind def
/col24 {0.500 0.190 0.000 srgb} bind def
/col25 {0.630 0.250 0.000 srgb} bind def
/col26 {0.750 0.380 0.000 srgb} bind def
/col27 {1.000 0.500 0.500 srgb} bind def
/col28 {1.000 0.630 0.630 srgb} bind def
/col29 {1.000 0.750 0.750 srgb} bind def
/col30 {1.000 0.880 0.880 srgb} bind def
/col31 {1.000 0.840 0.000 srgb} bind def

end
save
newpath 0 151 moveto 0 0 lineto 214 0 lineto 214 151 lineto closepath clip newpath
-21.5 168.6 translate
1 -1 scale

/cp {closepath} bind def
/ef {eofill} bind def
/gr {grestore} bind def
/gs {gsave} bind def
/sa {save} bind def
/rs {restore} bind def
/l {lineto} bind def
/m {moveto} bind def
/rm {rmoveto} bind def
/n {newpath} bind def
/s {stroke} bind def
/sh {show} bind def
/slc {setlinecap} bind def
/slj {setlinejoin} bind def
/slw {setlinewidth} bind def
/srgb {setrgbcolor} bind def
/rot {rotate} bind def
/sc {scale} bind def
/sd {setdash} bind def
/ff {findfont} bind def
/sf {setfont} bind def
/scf {scalefont} bind def
/sw {stringwidth} bind def
/tr {translate} bind def
/tnt {dup dup currentrgbcolor
  4 -2 roll dup 1 exch sub 3 -1 roll mul add
  4 -2 roll dup 1 exch sub 3 -1 roll mul add
  4 -2 roll dup 1 exch sub 3 -1 roll mul add srgb}
  bind def
/shd {dup dup currentrgbcolor 4 -2 roll mul 4 -2 roll mul
  4 -2 roll mul srgb} bind def
/reencdict 12 dict def /ReEncode { reencdict begin
/newcodesandnames exch def /newfontname exch def /basefontname exch def
/basefontdict basefontname findfont def /newfont basefontdict maxlength dict def
basefontdict { exch dup /FID ne { dup /Encoding eq
{ exch dup length array copy newfont 3 1 roll put }
{ exch newfont 3 1 roll put } ifelse } { pop pop } ifelse } forall
newfont /FontName newfontname put newcodesandnames aload pop
128 1 255 { newfont /Encoding get exch /.notdef put } for
newcodesandnames length 2 idiv { newfont /Encoding get 3 1 roll put } repeat
newfontname newfont definefont pop end } def
/isovec [
8#055 /minus 8#200 /grave 8#201 /acute 8#202 /circumflex 8#203 /tilde
8#204 /macron 8#205 /breve 8#206 /dotaccent 8#207 /dieresis
8#210 /ring 8#211 /cedilla 8#212 /hungarumlaut 8#213 /ogonek 8#214 /caron
8#220 /dotlessi 8#230 /oe 8#231 /OE
8#240 /space 8#241 /exclamdown 8#242 /cent 8#243 /sterling
8#244 /currency 8#245 /yen 8#246 /brokenbar 8#247 /section 8#250 /dieresis
8#251 /copyright 8#252 /ordfeminine 8#253 /guillemotleft 8#254 /logicalnot
8#255 /hyphen 8#256 /registered 8#257 /macron 8#260 /degree 8#261 /plusminus
8#262 /twosuperior 8#263 /threesuperior 8#264 /acute 8#265 /mu 8#266 /paragraph
8#267 /periodcentered 8#270 /cedilla 8#271 /onesuperior 8#272 /ordmasculine
8#273 /guillemotright 8#274 /onequarter 8#275 /onehalf
8#276 /threequarters 8#277 /questiondown 8#300 /Agrave 8#301 /Aacute
8#302 /Acircumflex 8#303 /Atilde 8#304 /Adieresis 8#305 /Aring
8#306 /AE 8#307 /Ccedilla 8#310 /Egrave 8#311 /Eacute
8#312 /Ecircumflex 8#313 /Edieresis 8#314 /Igrave 8#315 /Iacute
8#316 /Icircumflex 8#317 /Idieresis 8#320 /Eth 8#321 /Ntilde 8#322 /Ograve
8#323 /Oacute 8#324 /Ocircumflex 8#325 /Otilde 8#326 /Odieresis 8#327 /multiply
8#330 /Oslash 8#331 /Ugrave 8#332 /Uacute 8#333 /Ucircumflex
8#334 /Udieresis 8#335 /Yacute 8#336 /Thorn 8#337 /germandbls 8#340 /agrave
8#341 /aacute 8#342 /acircumflex 8#343 /atilde 8#344 /adieresis 8#345 /aring
8#346 /ae 8#347 /ccedilla 8#350 /egrave 8#351 /eacute
8#352 /ecircumflex 8#353 /edieresis 8#354 /igrave 8#355 /iacute
8#356 /icircumflex 8#357 /idieresis 8#360 /eth 8#361 /ntilde 8#362 /ograve
8#363 /oacute 8#364 /ocircumflex 8#365 /otilde 8#366 /odieresis 8#367 /divide
8#370 /oslash 8#371 /ugrave 8#372 /uacute 8#373 /ucircumflex
8#374 /udieresis 8#375 /yacute 8#376 /thorn 8#377 /ydieresis] def
/Times-Roman /Times-Roman-iso isovec ReEncode
 /DrawEllipse {
	/endangle exch def
	/startangle exch def
	/yrad exch def
	/xrad exch def
	/y exch def
	/x exch def
	/savematrix mtrx currentmatrix def
	x y tr xrad yrad sc 0 0 1 startangle endangle arc
	closepath
	savematrix setmatrix
	} def

/$F2psBegin {$F2psDict begin /$F2psEnteredState save def} def
/$F2psEnd {$F2psEnteredState restore end} def

$F2psBegin
10 setmiterlimit
 0.06000 0.06000 sc
%
% Fig objects follow
%
% Polyline
7.500 slw
n 1050 900 m 3450 900 l 3450 2700 l 1050 2700 l
 cp gs col0 s gr 
% Polyline
n 1765 1644 m 1800 1718 l
 1913 1718 l gs col0 s gr 
% Polyline
n 1465 1647 m 1538 1791 l 1613 1646 l 1686 1793 l
 1767 1646 l gs col0 s gr 
% Polyline
n 1765 2020 m 1800 2094 l
 1913 2094 l gs col0 s gr 
% Polyline
n 1467 2022 m 1432 2096 l
 1319 2096 l gs col0 s gr 
% Polyline
n 1465 2023 m 1538 2167 l 1613 2022 l 1686 2169 l
 1767 2022 l gs col0 s gr 
% Polyline
n 1467 1646 m 1432 1720 l
 1319 1720 l gs col0 s gr 
% Polyline
n 1765 2392 m 1800 2466 l
 1913 2466 l gs col0 s gr 
% Polyline
n 1467 2394 m 1432 2468 l
 1319 2468 l gs col0 s gr 
% Polyline
n 1465 2395 m 1538 2539 l 1613 2394 l 1686 2541 l
 1767 2394 l gs col0 s gr 
% Polyline
n 1904 1718 m
 2220 1718 l gs col0 s gr 
% Polyline
n 1912 2470 m 1912 1454 l
 2136 1454 l gs col0 s gr 
% Polyline
n 2166 2401 m 2060 2401 l
 2060 2580 l gs col0 s gr 
% Polyline
n 2811 2061 m
 3137 2061 l gs col0 s gr 
% Polyline
gs  clippath
745 1680 m 745 1740 l 930 1740 l 780 1710 l 930 1680 l cp
eoclip
n 760 1710 m
 1301 1710 l gs col0 s gr gr

% arrowhead
n 930 1680 m 780 1710 l 930 1740 l 900 1710 l 930 1680 l 
 cp gs 0.00 setgray ef gr  col0 s
% Polyline
n 2706 1454 m 2926 1454 l
 2926 2058 l gs col0 s gr 
% Polyline
gs  clippath
1829 637 m 1769 637 l 1769 822 l 1799 672 l 1829 822 l cp
eoclip
n 1799 652 m
 1799 1082 l gs col0 s gr gr

% arrowhead
n 1829 822 m 1799 672 l 1769 822 l 1799 792 l 1829 822 l 
 cp gs 0.00 setgray ef gr  col0 s
% Polyline
gs  clippath
2284 637 m 2224 637 l 2224 822 l 2254 672 l 2284 822 l cp
eoclip
n 2254 652 m
 2254 1082 l gs col0 s gr gr

% arrowhead
n 2284 822 m 2254 672 l 2224 822 l 2254 792 l 2284 822 l 
 cp gs 0.00 setgray ef gr  col0 s
% Polyline
gs  clippath
2725 637 m 2665 637 l 2665 822 l 2695 672 l 2725 822 l cp
eoclip
n 2695 652 m
 2695 1082 l gs col0 s gr gr

% arrowhead
n 2725 822 m 2695 672 l 2665 822 l 2695 792 l 2725 822 l 
 cp gs 0.00 setgray ef gr  col0 s
% Polyline
gs  clippath
3915 2088 m 3915 2028 l 3730 2028 l 3880 2058 l 3730 2088 l cp
eoclip
n 3900 2058 m
 3191 2058 l gs col0 s gr gr

% arrowhead
n 3730 2088 m 3880 2058 l 3730 2028 l 3760 2058 l 3730 2088 l 
 cp gs 0.00 setgray ef gr  col0 s
/Times-Roman-iso ff 180.00 scf sf
1800 450 m
gs 1 -1 sc (PowerSupply) col0 sh gr
% Polyline
gs  clippath
735 2432 m 735 2492 l 920 2492 l 770 2462 l 920 2432 l cp
eoclip
n 750 2462 m
 1300 2462 l gs col0 s gr gr

% arrowhead
n 920 2432 m 770 2462 l 920 2492 l 890 2462 l 920 2432 l 
 cp gs 0.00 setgray ef gr  col0 s
/Times-Roman-iso ff 180.00 scf sf
365 2061 m
gs 1 -1 sc (-15) col0 sh gr
/Times-Roman-iso ff 180.00 scf sf
359 2224 m
gs 1 -1 sc (+15) col0 sh gr
/Times-Roman-iso ff 180.00 scf sf
2664 2550 m
gs 1 -1 sc (OU150A) col0 sh gr
/Times-Roman-iso ff 180.00 scf sf
2214 632 m
gs 1 -1 sc (0) col0 sh gr
/Times-Roman-iso ff 180.00 scf sf
1527 1621 m
gs 1 -1 sc (R1) col0 sh gr
/Times-Roman-iso ff 180.00 scf sf
1528 2001 m
gs 1 -1 sc (R1) col0 sh gr
/Times-Roman-iso ff 180.00 scf sf
1523 2372 m
gs 1 -1 sc (R1) col0 sh gr
/Times-Roman-iso ff 180.00 scf sf
426 1769 m
gs 1 -1 sc (P1) col0 sh gr
/Times-Roman-iso ff 180.00 scf sf
414 2531 m
gs 1 -1 sc (P2) col0 sh gr
% Polyline
n 1989 2578 m
 2126 2578 l gs col0 s gr 
% Polyline
n 2015 2605 m
 2100 2605 l gs col0 s gr 
% Polyline
n 2037 2630 m
 2077 2630 l gs col0 s gr 
% Polyline
n 2573 1379 m 2608 1453 l
 2721 1453 l gs col0 s gr 
% Polyline
n 755 2607 m 681 2642 l
 681 2755 l gs col0 s gr 
% Polyline
n 757 2309 m 683 2274 l
 683 2161 l gs col0 s gr 
% Polyline
n 2273 1382 m 2346 1526 l 2421 1381 l 2494 1528 l
 2575 1381 l gs col0 s gr 
% Polyline
n 754 1852 m 610 1779 l 755 1704 l 608 1631 l
 755 1550 l gs col0 s gr 
% Polyline
n 2275 1381 m 2240 1455 l
 2127 1455 l gs col0 s gr 
% Polyline
n 755 1850 m 681 1885 l
 681 1998 l gs col0 s gr 
% Polyline
n 757 1552 m 683 1517 l
 683 1404 l gs col0 s gr 
% Polyline
n 754 2609 m 610 2536 l 755 2461 l 608 2388 l
 755 2307 l gs col0 s gr 
/Times-Roman-iso ff 180.00 scf sf
1634 636 m
gs 1 -1 sc (+15) col0 sh gr
/Times-Roman-iso ff 180.00 scf sf
793 1639 m
gs 1 -1 sc (V1) col0 sh gr
/Times-Roman-iso ff 180.00 scf sf
362 2810 m
gs 1 -1 sc (-15) col0 sh gr
/Times-Roman-iso ff 180.00 scf sf
3643 1965 m
gs 1 -1 sc (Vo) col0 sh gr
/Times-Roman-iso ff 180.00 scf sf
367 1449 m
gs 1 -1 sc (+15) col0 sh gr
/Times-Roman-iso ff 180.00 scf sf
2541 636 m
gs 1 -1 sc (-15) col0 sh gr
/Times-Roman-iso ff 180.00 scf sf
2333 1355 m
gs 1 -1 sc (R2) col0 sh gr
/Times-Roman-iso ff 180.00 scf sf
791 2654 m
gs 1 -1 sc (V2) col0 sh gr
% Ellipse
n 1299 2084 50 50 0 360 DrawEllipse gs col7 1.00 shd ef gr gs col0 s gr

% Ellipse
n 1299 2460 50 50 0 360 DrawEllipse gs col7 1.00 shd ef gr gs col0 s gr

% Ellipse
n 1299 1712 50 50 0 360 DrawEllipse gs col7 1.00 shd ef gr gs col0 s gr

% Ellipse
n 3163 2058 50 50 0 360 DrawEllipse gs col7 1.00 shd ef gr gs col0 s gr

% Ellipse
n 684 2157 23 23 0 360 DrawEllipse gs col7 1.00 shd ef gr gs col0 s gr

% Ellipse
n 679 2755 23 23 0 360 DrawEllipse gs col7 1.00 shd ef gr gs col0 s gr

% Ellipse
n 684 1400 23 23 0 360 DrawEllipse gs col7 1.00 shd ef gr gs col0 s gr

% Ellipse
n 679 1998 23 23 0 360 DrawEllipse gs col7 1.00 shd ef gr gs col0 s gr

% Ellipse
n 1800 1082 50 50 0 360 DrawEllipse gs col7 1.00 shd ef gr gs col0 s gr

% Polyline
n 2870 2062 m 2131 1635 l 2131 2489 l
 cp gs col7 1.00 shd ef gr gs col0 s gr 
% Ellipse
n 2251 1082 50 50 0 360 DrawEllipse gs col7 1.00 shd ef gr gs col0 s gr

% Ellipse
n 2696 1082 50 50 0 360 DrawEllipse gs col7 1.00 shd ef gr gs col0 s gr

/Times-Roman-iso ff 180.00 scf sf
2293 2117 m
gs 1 -1 sc (OP) col0 sh gr
$F2psEnd
rs
