%!PS-Adobe-2.0 EPSF-2.0
%%Title: servo-4.eps
%%Creator: fig2dev Version 3.2 Patchlevel 3d
%%CreationDate: Wed Jul 21 16:20:50 2004
%%For: dpeets@physics (Darren Peets)
%%BoundingBox: 0 0 333 195
%%Magnification: 1.0000
%%EndComments
/$F2psDict 200 dict def
$F2psDict begin
$F2psDict /mtrx matrix put
/col-1 {0 setgray} bind def
/col0 {0.000 0.000 0.000 srgb} bind def
/col1 {0.000 0.000 1.000 srgb} bind def
/col2 {0.000 1.000 0.000 srgb} bind def
/col3 {0.000 1.000 1.000 srgb} bind def
/col4 {1.000 0.000 0.000 srgb} bind def
/col5 {1.000 0.000 1.000 srgb} bind def
/col6 {1.000 1.000 0.000 srgb} bind def
/col7 {1.000 1.000 1.000 srgb} bind def
/col8 {0.000 0.000 0.560 srgb} bind def
/col9 {0.000 0.000 0.690 srgb} bind def
/col10 {0.000 0.000 0.820 srgb} bind def
/col11 {0.530 0.810 1.000 srgb} bind def
/col12 {0.000 0.560 0.000 srgb} bind def
/col13 {0.000 0.690 0.000 srgb} bind def
/col14 {0.000 0.820 0.000 srgb} bind def
/col15 {0.000 0.560 0.560 srgb} bind def
/col16 {0.000 0.690 0.690 srgb} bind def
/col17 {0.000 0.820 0.820 srgb} bind def
/col18 {0.560 0.000 0.000 srgb} bind def
/col19 {0.690 0.000 0.000 srgb} bind def
/col20 {0.820 0.000 0.000 srgb} bind def
/col21 {0.560 0.000 0.560 srgb} bind def
/col22 {0.690 0.000 0.690 srgb} bind def
/col23 {0.820 0.000 0.820 srgb} bind def
/col24 {0.500 0.190 0.000 srgb} bind def
/col25 {0.630 0.250 0.000 srgb} bind def
/col26 {0.750 0.380 0.000 srgb} bind def
/col27 {1.000 0.500 0.500 srgb} bind def
/col28 {1.000 0.630 0.630 srgb} bind def
/col29 {1.000 0.750 0.750 srgb} bind def
/col30 {1.000 0.880 0.880 srgb} bind def
/col31 {1.000 0.840 0.000 srgb} bind def

end
save
newpath 0 195 moveto 0 0 lineto 333 0 lineto 333 195 lineto closepath clip newpath
-12.6 202.5 translate
1 -1 scale

/cp {closepath} bind def
/ef {eofill} bind def
/gr {grestore} bind def
/gs {gsave} bind def
/sa {save} bind def
/rs {restore} bind def
/l {lineto} bind def
/m {moveto} bind def
/rm {rmoveto} bind def
/n {newpath} bind def
/s {stroke} bind def
/sh {show} bind def
/slc {setlinecap} bind def
/slj {setlinejoin} bind def
/slw {setlinewidth} bind def
/srgb {setrgbcolor} bind def
/rot {rotate} bind def
/sc {scale} bind def
/sd {setdash} bind def
/ff {findfont} bind def
/sf {setfont} bind def
/scf {scalefont} bind def
/sw {stringwidth} bind def
/tr {translate} bind def
/tnt {dup dup currentrgbcolor
  4 -2 roll dup 1 exch sub 3 -1 roll mul add
  4 -2 roll dup 1 exch sub 3 -1 roll mul add
  4 -2 roll dup 1 exch sub 3 -1 roll mul add srgb}
  bind def
/shd {dup dup currentrgbcolor 4 -2 roll mul 4 -2 roll mul
  4 -2 roll mul srgb} bind def
 /DrawEllipse {
	/endangle exch def
	/startangle exch def
	/yrad exch def
	/xrad exch def
	/y exch def
	/x exch def
	/savematrix mtrx currentmatrix def
	x y tr xrad yrad sc 0 0 1 startangle endangle arc
	closepath
	savematrix setmatrix
	} def

/$F2psBegin {$F2psDict begin /$F2psEnteredState save def} def
/$F2psEnd {$F2psEnteredState restore end} def

$F2psBegin
10 setmiterlimit
 0.06000 0.06000 sc
%
% Fig objects follow
%
% Polyline
7.500 slw
n 3439 153 m 4540 153 l 4540 1136 l 3439 1136 l
 cp gs col7 1.00 shd ef gr gs col0 s gr 
% Polyline
n 4378 2007 m 4958 2007 l 4958 2076 l 4378 2076 l
 cp gs col7 1.00 shd ef gr gs col0 s gr 
% Polyline
n 2015 155 m 3063 155 l 3063 1138 l 2015 1138 l
 cp gs col7 1.00 shd ef gr gs col0 s gr 
% Polyline
n 3354 1858 m 2508 1858 l 2508 2224 l 3354 2224 l
 cp gs col7 1.00 shd ef gr gs col0 s gr 
% Polyline
n 2848 1914 m 3380 1914 l 3380 2162 l 2848 2162 l
 cp gs col7 1.00 shd ef gr gs col0 s gr 
% Polyline
n 2849 2020 m 3112 2020 l 3112 2054 l 2849 2054 l
 cp gs col0 s gr 
% Polyline
15.000 slw
n 833 872 m 1061 872 l 1061 725 l 1361 725 l 1361 872 l
 1594 872 l gs col0 s gr 
% Polyline
7.500 slw
n 2689 769 m 2452 632 l 2452 906 l
 cp gs col0 s gr 
% Polyline
n 3581 665 m
 2910 664 l gs col0 s gr 
% Polyline
n 2318 595 m 2800 595 l 2800 952 l 2318 952 l
 cp gs col0 s gr 
% Polyline
n 3572 893 m
 2906 890 l gs col0 s gr 
% Polyline
gs  clippath
4062 770 m 4076 743 l 4005 706 l 4052 748 l 3991 733 l cp
eoclip
n 3957 698 m
 4056 750 l gs col0 s gr gr

% arrowhead
2.250 slw
n 3991 733 m 4052 748 l 4005 706 l 3991 733 l  cp gs 0.00 setgray ef gr  col0 s
% Polyline
7.500 slw
n 3762 960 m 3762 1027 l 4353 1027 l
 4353 1138 l gs col0 s gr 
% Polyline
n 4390 1136 m 4390 926 l 4034 926 l
 4034 737 l gs col0 s gr 
/Times-Roman ff 180.00 scf sf
233 978 m
gs 1 -1 sc (Low) col0 sh gr
% Polyline
n 914 901 m
 914 1029 l gs col0 s gr 
/Times-Roman ff 180.00 scf sf
3586 389 m
gs 1 -1 sc (ServoAmp) col0 sh gr
/Times-Roman ff 180.00 scf sf
2223 416 m
gs 1 -1 sc (PA150C) col0 sh gr
/Times-Roman ff 180.00 scf sf
210 720 m
gs 1 -1 sc (High) col0 sh gr
/Times-Roman ff 180.00 scf sf
986 1196 m
gs 1 -1 sc (Period) col0 sh gr
/Times-Roman ff 180.00 scf sf
784 459 m
gs 1 -1 sc (ChAOutput) col0 sh gr
/Times-Roman ff 180.00 scf sf
1681 700 m
gs 1 -1 sc (Vin) col0 sh gr
/Times-Roman ff 180.00 scf sf
3710 1437 m
gs 1 -1 sc (Vt) col0 sh gr
% Polyline
n 4332 1136 m 4415 1136 l 4415 1618 l 4332 1618 l
 cp gs col7 0.50 shd ef gr gs col0 s gr 
% Polyline
n 4540 542 m 4540 459 l 5010 459 l 5010 542 l
 cp gs col7 0.50 shd ef gr gs col0 s gr 
% Polyline
gs  clippath
2155 796 m 2155 751 l 1996 751 l 2128 774 l 1996 796 l cp
eoclip
n 2140 774 m
 1514 774 l gs col0 s gr gr

% arrowhead
3.750 slw
n 1996 796 m 2128 774 l 1996 751 l 2023 774 l 1996 796 l 
 cp gs 0.00 setgray ef gr  col0 s
% Polyline
7.500 slw
gs  clippath
807 730 m 807 700 l 707 700 l 782 715 l 707 730 l cp
eoclip
n 792 715 m
 608 715 l gs col0 s gr gr

% arrowhead
3.750 slw
n 707 730 m 782 715 l 707 700 l 722 715 l 707 730 l 
 cp gs 0.00 setgray ef gr  col0 s
% Polyline
7.500 slw
gs  clippath
807 884 m 807 854 l 707 854 l 782 869 l 707 884 l cp
eoclip
n 792 869 m
 608 869 l gs col0 s gr gr

% arrowhead
3.750 slw
n 707 884 m 782 869 l 707 854 l 722 869 l 707 884 l 
 cp gs 0.00 setgray ef gr  col0 s
% Polyline
7.500 slw
gs  clippath
1525 985 m 1525 940 l 1387 940 l 1500 963 l 1387 985 l cp
900 940 m 900 985 l 1037 985 l 925 963 l 1037 940 l cp
eoclip
n 915 963 m
 1510 963 l gs col0 s gr gr

% arrowhead
3.750 slw
n 1037 940 m 925 963 l 1037 985 l 1015 963 l 1037 940 l 
 cp gs 0.00 setgray ef gr  col0 s
% arrowhead
n 1387 985 m 1500 963 l 1387 940 l 1410 963 l 1387 985 l 
 cp gs 0.00 setgray ef gr  col0 s
% Polyline
7.500 slw
n 1509 901 m
 1509 1029 l gs col0 s gr 
% Polyline
gs  clippath
3789 991 m 3803 964 l 3732 927 l 3779 969 l 3718 954 l cp
eoclip
n 3684 919 m
 3783 971 l gs col0 s gr gr

% arrowhead
2.250 slw
n 3718 954 m 3779 969 l 3732 927 l 3718 954 l  cp gs 0.00 setgray ef gr  col0 s
% Polyline
7.500 slw
n 4612 2800 m 4480 2800 l 4480 2817 l 4478 2972 l 4549 2923 l 4531 3009 l
 4617 2993 l 4568 3058 l 4652 3071 l 4582 3124 l 4654 3173 l
 4570 3191 l 4617 3265 l 4533 3244 l 4545 3334 l 4478 3285 l
 4457 3363 l 4415 3293 l 4363 3363 l 4349 3281 l 4278 3326 l
 4294 3246 l 4214 3257 l 4259 3185 l 4180 3171 l 4247 3122 l
 4182 3075 l 4263 3060 l 4214 2993 l 4298 3011 l 4280 2928 l
 4353 2975 l 4353 2817 l 4353 2800 l
 4224 2800 l gs col0 s gr 
% Polyline
n 3687 867 m 3758 830 l 3758 751 l 3758 711 l 3758 501 l
 4540 501 l gs col0 s gr 
% Polyline
n 3960 662 m
 3574 662 l gs col0 s gr 
% Polyline
n 3951 588 m
 3951 739 l gs col0 s gr 
% Polyline
n 3960 637 m 4031 600 l
 4031 497 l gs col0 s gr 
% Polyline
n 3687 892 m
 3574 892 l gs col0 s gr 
% Polyline
n 3678 818 m
 3681 969 l gs col0 s gr 
% Polyline
n 4779 1942 m 4924 1942 l 4924 2135 l 4779 2135 l
 cp gs col7 1.00 shd ef gr gs col0 s gr 
% Polyline
n 3079 1948 m 3328 1948 l 3328 2127 l 3079 2127 l
 cp gs col7 1.00 shd ef gr gs col0 s gr 
% Polyline
15.000 slw
gs  clippath
4504 3306 m 4555 3275 l 4494 3175 l 4516 3268 l 4443 3206 l cp
eoclip
n 4522 3278 m 4416 3104 l
 4416 3110 l gs col0 s gr gr

% arrowhead
7.500 slw
n 4443 3206 m 4516 3268 l 4494 3175 l 4453 3165 l 4443 3206 l 
 cp gs col7 1.00 shd ef gr  col0 s
% Ellipse
n 4609 2798 30 30 0 360 DrawEllipse gs col7 1.00 shd ef gr gs col0 s gr

% Polyline
n 4835 1549 m 4871 1549 l 4871 2541 l 4835 2541 l
 cp gs col7 1.00 shd ef gr gs col0 s gr 
% Ellipse
n 4229 2798 30 30 0 360 DrawEllipse gs col7 1.00 shd ef gr gs col0 s gr

% Polyline
n 4403 2446 m 4431 2446 l 4431 3121 l 4403 3121 l
 cp gs col0 s gr 
% Ellipse
n 4416 3126 240 240 0 360 DrawEllipse gs col0 s gr

/Times-Roman ff 180.00 scf sf
4964 530 m
gs 1 -1 sc (Power) col0 sh gr
% Ellipse
n 4417 3114 22 22 0 360 DrawEllipse gs col7 1.00 shd ef gr gs col0 s gr

/Times-Roman ff 180.00 scf sf
4973 843 m
gs 1 -1 sc (Supply) col0 sh gr
% Polyline
n 4694 155 m 5742 155 l 5742 1138 l 4694 1138 l
 cp gs col7 1.00 shd ef gr gs col0 s gr 
% Polyline
n 3312 1610 m 4543 1610 l 4543 2468 l 3312 2468 l
 cp gs col7 1.00 shd ef gr gs col0 s gr 
% Polyline
n 4347 2568 m 4485 2568 l 4485 2679 l 4347 2679 l
 cp gs col7 1.00 shd ef gr gs col0 s gr 
% Polyline
15.000 slw
n 3502 1748 m
 3655 1749 l gs col0 s gr 
% Polyline
n 3981 1748 m
 4146 1746 l gs col0 s gr 
% Polyline
7.500 slw
gs  clippath
3696 1426 m 3651 1426 l 3651 1563 l 3674 1451 l 3696 1563 l cp
eoclip
n 3674 1441 m
 3674 1737 l gs col0 s gr gr

% arrowhead
3.750 slw
n 3696 1563 m 3674 1451 l 3651 1563 l 3674 1541 l 3696 1563 l 
 cp gs 0.00 setgray ef gr  col0 s
% Polyline
7.500 slw
gs  clippath
3981 1425 m 3936 1426 l 3936 1563 l 3959 1451 l 3981 1563 l cp
eoclip
n 3959 1441 m
 3960 1737 l gs col0 s gr gr

% arrowhead
3.750 slw
n 3981 1563 m 3959 1451 l 3936 1563 l 3959 1540 l 3981 1563 l 
 cp gs 0.00 setgray ef gr  col0 s
7.500 slw
% Ellipse
n 2910 889 48 48 0 360 DrawEllipse gs col7 1.00 shd ef gr gs col0 s gr

/Times-Roman ff 180.00 scf sf
3811 2389 m
gs 1 -1 sc (MT150F) col0 sh gr
% Ellipse
n 4146 1752 48 48 0 360 DrawEllipse gs col7 1.00 shd ef gr gs col0 s gr

% Ellipse
n 2192 577 48 48 0 360 DrawEllipse gs col7 1.00 shd ef gr gs col0 s gr

% Ellipse
n 2192 966 48 48 0 360 DrawEllipse gs col7 1.00 shd ef gr gs col0 s gr

% Ellipse
n 3676 1752 48 48 0 360 DrawEllipse gs col7 1.00 shd ef gr gs col0 s gr

% Ellipse
n 3494 1752 48 48 0 360 DrawEllipse gs col7 1.00 shd ef gr gs col0 s gr

% Ellipse
n 3957 1752 48 48 0 360 DrawEllipse gs col7 1.00 shd ef gr gs col0 s gr

% Ellipse
n 2192 777 48 48 0 360 DrawEllipse gs col7 1.00 shd ef gr gs col0 s gr

% Ellipse
n 3575 889 48 48 0 360 DrawEllipse gs col7 1.00 shd ef gr gs col0 s gr

% Ellipse
n 3575 662 48 48 0 360 DrawEllipse gs col7 1.00 shd ef gr gs col0 s gr

% Ellipse
n 2905 662 48 48 0 360 DrawEllipse gs col7 1.00 shd ef gr gs col0 s gr

$F2psEnd
rs
