%!PS-Adobe-3.0 EPSF-3.0
%%BoundingBox: (atend)
%%LanguageLevel: 2
%%Creator: Grace-5.0.4 (gamma)
%%CreationDate: Fri Mar 29 23:10:24 2002
%%DocumentData: Clean7Bit
%%Orientation: Landscape
%%Title: Untitled
%%For: dpeets
%%EndComments
%%BeginProlog
/m {moveto} def
/l {lineto} def
/s {stroke} def
/n {newpath} def
/c {closepath} def
/pix {n m 0 0 rlineto s} def
/Color0 {
 1.0000 1.0000 1.0000
} def
/Color1 {
 0.0000 0.0000 0.0000
} def
/Color2 {
 1.0000 0.0000 0.0000
} def
/Color3 {
 0.0000 1.0000 0.0000
} def
/Color4 {
 0.0000 0.0000 1.0000
} def
/Color5 {
 1.0000 1.0000 0.0000
} def
/Color6 {
 0.7373 0.5608 0.5608
} def
/Color7 {
 0.8627 0.8627 0.8627
} def
/Color8 {
 0.5804 0.0000 0.8275
} def
/Color9 {
 0.0000 1.0000 1.0000
} def
/Color10 {
 1.0000 0.0000 1.0000
} def
/Color11 {
 1.0000 0.6471 0.0000
} def
/Color12 {
 0.4471 0.1294 0.7373
} def
/Color13 {
 0.4039 0.0275 0.2824
} def
/Color14 {
 0.2510 0.8784 0.8157
} def
/Color15 {
 0.0000 0.5451 0.0000
} def
/Color16 {
 0.7529 0.7529 0.7529
} def
/Color17 {
 0.5059 0.5059 0.5059
} def
/Color18 {
 0.2588 0.2588 0.2588
} def
/pattern {
 /pat_bits exch def 
 <<
  /PaintType 2
  /PatternType 1 /TilingType 1
  /BBox[0 0 16 16]
  /XStep 16 /YStep 16
  /PaintProc {
   pop
   16 16 true [-1 0 0 -1 16 16] pat_bits imagemask
  }
 >>
 [0.0016 0 0 0.0016 0 0]
 makepattern
} def
/Pattern0 {<0000000000000000000000000000000000000000000000000000000000000000> pattern} bind def
/Pattern1 {<ffffffffffffffffffffffffffffffffffffffffffffffffffffffffffffffff> pattern} bind def
/Pattern2 {<eeeeffffbbbbffffeeeeffffbbbbffffeeeeffffbbbbffffeeeeffffbbbbffff> pattern} bind def
/Pattern3 {<eeeebbbbeeeebbbbeeeebbbbeeeebbbbeeeebbbbeeeebbbbeeeebbbbeeeebbbb> pattern} bind def
/Pattern4 {<5555aaaa5555aaaa5555aaaa5555aaaa5555aaaa5555aaaa5555aaaa5555aaaa> pattern} bind def
/Pattern5 {<1111444411114444111144441111444411114444111144441111444411114444> pattern} bind def
/Pattern6 {<1111000044440000111100004444000011110000444400001111000044440000> pattern} bind def
/Pattern7 {<1010000000000000010100000000000010100000000000000101000000000000> pattern} bind def
/Pattern8 {<0000000000000000000000000000000000000000000000000000000000000000> pattern} bind def
/Pattern9 {<1e1e0f0f8787c3c3e1e1f0f078783c3c1e1e0f0f8787c3c3e1e1f0f078783c3c> pattern} bind def
/Pattern10 {<7878f0f0e1e1c3c387870f0f1e1e3c3c7878f0f0e1e1c3c387870f0f1e1e3c3c> pattern} bind def
/Pattern11 {<3333333333333333333333333333333333333333333333333333333333333333> pattern} bind def
/Pattern12 {<ffffffff00000000ffffffff00000000ffffffff00000000ffffffff00000000> pattern} bind def
/Pattern13 {<8181424224241818181824244242818181814242242418181818242442428181> pattern} bind def
/Pattern14 {<8080404020201010080804040202010180804040202010100808040402020101> pattern} bind def
/Pattern15 {<0101020204040808101020204040808001010202040408081010202040408080> pattern} bind def
/Pattern16 {<2222222222222222222222222222222222222222222222222222222222222222> pattern} bind def
/Pattern17 {<0000ffff000000000000ffff000000000000ffff000000000000ffff00000000> pattern} bind def
/Pattern18 {<2222ffff222222222222ffff222222222222ffff222222222222ffff22222222> pattern} bind def
/Pattern19 {<ffffffff33333333ffffffff33333333ffffffff33333333ffffffff33333333> pattern} bind def
/Pattern20 {<0f0f0f0f0f0f0f0ff0f0f0f0f0f0f0f00f0f0f0f0f0f0f0ff0f0f0f0f0f0f0f0> pattern} bind def
/Pattern21 {<ff00ff00ff00ff00ff00ff00ff00ff0000ff00ff00ff00ff00ff00ff00ff00ff> pattern} bind def
/Pattern22 {<8001800180018001800180018001ffffffff8001800180018001800180018001> pattern} bind def
/Pattern23 {<c003c003c003c003c003c003ffffffffffffffffc003c003c003c003c003c003> pattern} bind def
/Pattern24 {<040404040404ffff404040404040ffff040404040404ffff404040404040ffff> pattern} bind def
/Pattern25 {<180018001800180018001800ffffffff001800180018001800180018ffffffff> pattern} bind def
/Pattern26 {<1111b8b87c7c3a3a1111a3a3c7c78b8b1111b8b87c7c3a3a1111a3a3c7c78b8b> pattern} bind def
/Pattern27 {<101010102828c7c70101010182827c7c101010102828c7c70101010182827c7c> pattern} bind def
/Pattern28 {<1c1c121211112121c1c12121111112121c1c121211112121c1c1212111111212> pattern} bind def
/Pattern29 {<3e3e414180808080e3e31414080808083e3e414180808080e3e3141408080808> pattern} bind def
/Pattern30 {<4848888884848383848488884848383848488888848483838484888848483838> pattern} bind def
/Pattern31 {<03030404080808080c0c12122121c0c003030404080808080c0c12122121c0c0> pattern} bind def
/ellipsedict 8 dict def
ellipsedict /mtrx matrix put
/ellipse {
 ellipsedict begin
  /endangle exch def
  /startangle exch def
  /yrad exch def
  /xrad exch def
  /y exch def
  /x exch def
  /savematrix mtrx currentmatrix def
  x y translate
  xrad yrad scale
  0 0 1 startangle endangle arc
  savematrix setmatrix
 end
} def
%%EndProlog
%%BeginSetup
612.00 612.00 scale
90 rotate
0.0 -1.0 translate
%%EndSetup
n
0.0000 0.0000 m
0.0000 1.0000 l
1.2937 1.0000 l
1.2937 0.0000 l
c
[/DeviceRGB] setcolorspace
Color0 setcolor
fill
[/DeviceRGB] setcolorspace
Color1 setcolor
[] 0 setdash
0.0015 setlinewidth
0 setlinecap
0 setlinejoin
n
0.1500 0.1500 m
0.1500 0.8500 l
s
n
0.4000 0.1500 m
0.4000 0.8500 l
s
n
0.6500 0.1500 m
0.6500 0.8500 l
s
n
0.9000 0.1500 m
0.9000 0.8500 l
s
n
1.1500 0.1500 m
1.1500 0.8500 l
s
n
0.1500 0.1500 m
1.1500 0.1500 l
s
n
0.1500 0.5000 m
1.1500 0.5000 l
s
n
0.1500 0.8500 m
1.1500 0.8500 l
s
n
0.1500 0.5000 m
0.1520 0.4956 l
0.1540 0.4912 l
0.1560 0.4868 l
0.1580 0.4824 l
0.1600 0.4780 l
0.1620 0.4736 l
0.1640 0.4692 l
0.1660 0.4648 l
0.1680 0.4604 l
0.1700 0.4560 l
0.1720 0.4517 l
0.1740 0.4473 l
0.1761 0.4430 l
0.1781 0.4386 l
0.1801 0.4343 l
0.1821 0.4300 l
0.1841 0.4257 l
0.1861 0.4214 l
0.1881 0.4171 l
0.1901 0.4128 l
0.1921 0.4085 l
0.1941 0.4043 l
0.1961 0.4000 l
0.1981 0.3958 l
0.2001 0.3916 l
0.2021 0.3875 l
0.2041 0.3833 l
0.2061 0.3791 l
0.2081 0.3750 l
0.2101 0.3709 l
0.2121 0.3668 l
0.2141 0.3628 l
0.2161 0.3587 l
0.2181 0.3547 l
0.2201 0.3507 l
0.2221 0.3467 l
0.2241 0.3428 l
0.2262 0.3388 l
0.2282 0.3350 l
0.2302 0.3311 l
0.2322 0.3272 l
0.2342 0.3234 l
0.2362 0.3196 l
0.2382 0.3159 l
0.2402 0.3121 l
0.2422 0.3084 l
0.2442 0.3047 l
0.2462 0.3011 l
0.2482 0.2975 l
0.2502 0.2939 l
0.2522 0.2904 l
0.2542 0.2869 l
0.2562 0.2834 l
0.2582 0.2799 l
0.2602 0.2765 l
0.2622 0.2732 l
0.2642 0.2698 l
0.2662 0.2665 l
0.2682 0.2633 l
0.2702 0.2600 l
0.2722 0.2568 l
0.2742 0.2537 l
0.2763 0.2506 l
0.2783 0.2475 l
0.2803 0.2445 l
0.2823 0.2415 l
0.2843 0.2385 l
0.2863 0.2356 l
0.2883 0.2328 l
0.2903 0.2299 l
0.2923 0.2271 l
0.2943 0.2244 l
0.2963 0.2217 l
0.2983 0.2191 l
0.3003 0.2165 l
0.3023 0.2139 l
0.3043 0.2114 l
0.3063 0.2089 l
0.3083 0.2065 l
0.3103 0.2041 l
0.3123 0.2018 l
0.3143 0.1995 l
0.3163 0.1973 l
0.3183 0.1951 l
0.3203 0.1929 l
0.3223 0.1908 l
0.3243 0.1888 l
0.3264 0.1868 l
0.3284 0.1849 l
0.3304 0.1830 l
0.3324 0.1811 l
0.3344 0.1793 l
0.3364 0.1776 l
0.3384 0.1759 l
0.3404 0.1743 l
0.3424 0.1727 l
0.3444 0.1711 l
0.3464 0.1697 l
0.3484 0.1682 l
0.3504 0.1669 l
0.3524 0.1655 l
0.3544 0.1643 l
0.3564 0.1630 l
0.3584 0.1619 l
0.3604 0.1608 l
0.3624 0.1597 l
0.3644 0.1587 l
0.3664 0.1578 l
0.3684 0.1569 l
0.3704 0.1560 l
0.3724 0.1552 l
0.3744 0.1545 l
0.3765 0.1538 l
0.3785 0.1532 l
0.3805 0.1526 l
0.3825 0.1521 l
0.3845 0.1517 l
0.3865 0.1513 l
0.3885 0.1509 l
0.3905 0.1506 l
0.3925 0.1504 l
0.3945 0.1502 l
0.3965 0.1501 l
0.3985 0.1500 l
0.4005 0.1500 l
0.4025 0.1500 l
0.4045 0.1501 l
0.4065 0.1503 l
0.4085 0.1505 l
0.4105 0.1508 l
0.4125 0.1511 l
0.4145 0.1515 l
0.4165 0.1519 l
0.4185 0.1524 l
0.4205 0.1529 l
0.4225 0.1535 l
0.4245 0.1542 l
0.4266 0.1549 l
0.4286 0.1556 l
0.4306 0.1564 l
0.4326 0.1573 l
0.4346 0.1582 l
0.4366 0.1592 l
0.4386 0.1602 l
0.4406 0.1613 l
0.4426 0.1625 l
0.4446 0.1636 l
0.4466 0.1649 l
0.4486 0.1662 l
0.4506 0.1675 l
0.4526 0.1689 l
0.4546 0.1704 l
0.4566 0.1719 l
0.4586 0.1735 l
0.4606 0.1751 l
0.4626 0.1767 l
0.4646 0.1785 l
0.4666 0.1802 l
0.4686 0.1820 l
0.4706 0.1839 l
0.4726 0.1858 l
0.4746 0.1878 l
0.4767 0.1898 l
0.4787 0.1919 l
0.4807 0.1940 l
0.4827 0.1962 l
0.4847 0.1984 l
0.4867 0.2006 l
0.4887 0.2029 l
0.4907 0.2053 l
0.4927 0.2077 l
0.4947 0.2101 l
0.4967 0.2126 l
0.4987 0.2152 l
0.5007 0.2178 l
0.5027 0.2204 l
0.5047 0.2231 l
0.5067 0.2258 l
0.5087 0.2285 l
0.5107 0.2313 l
0.5127 0.2342 l
0.5147 0.2371 l
0.5167 0.2400 l
0.5187 0.2430 l
0.5207 0.2460 l
0.5227 0.2490 l
0.5247 0.2521 l
0.5268 0.2553 l
0.5288 0.2584 l
0.5308 0.2616 l
0.5328 0.2649 l
0.5348 0.2682 l
0.5368 0.2715 l
0.5388 0.2748 l
0.5408 0.2782 l
0.5428 0.2817 l
0.5448 0.2851 l
0.5468 0.2886 l
0.5488 0.2921 l
0.5508 0.2957 l
0.5528 0.2993 l
0.5548 0.3029 l
0.5568 0.3066 l
0.5588 0.3103 l
0.5608 0.3140 l
0.5628 0.3177 l
0.5648 0.3215 l
0.5668 0.3253 l
0.5688 0.3292 l
0.5708 0.3330 l
0.5728 0.3369 l
0.5748 0.3408 l
0.5769 0.3447 l
0.5789 0.3487 l
0.5809 0.3527 l
0.5829 0.3567 l
0.5849 0.3607 l
0.5869 0.3648 l
0.5889 0.3689 l
0.5909 0.3730 l
0.5929 0.3771 l
0.5949 0.3812 l
0.5969 0.3854 l
0.5989 0.3895 l
0.6009 0.3937 l
0.6029 0.3979 l
0.6049 0.4022 l
0.6069 0.4064 l
0.6089 0.4107 l
0.6109 0.4149 l
0.6129 0.4192 l
0.6149 0.4235 l
0.6169 0.4278 l
0.6189 0.4321 l
0.6209 0.4365 l
0.6229 0.4408 l
0.6249 0.4451 l
0.6270 0.4495 l
0.6290 0.4539 l
0.6310 0.4582 l
0.6330 0.4626 l
0.6350 0.4670 l
0.6370 0.4714 l
0.6390 0.4758 l
0.6410 0.4802 l
0.6430 0.4846 l
0.6450 0.4890 l
0.6470 0.4934 l
0.6490 0.4978 l
0.6510 0.5022 l
0.6530 0.5066 l
0.6550 0.5110 l
0.6570 0.5154 l
0.6590 0.5198 l
0.6610 0.5242 l
0.6630 0.5286 l
0.6650 0.5330 l
0.6670 0.5374 l
0.6690 0.5418 l
0.6710 0.5461 l
0.6730 0.5505 l
0.6751 0.5549 l
0.6771 0.5592 l
0.6791 0.5635 l
0.6811 0.5679 l
0.6831 0.5722 l
0.6851 0.5765 l
0.6871 0.5808 l
0.6891 0.5851 l
0.6911 0.5893 l
0.6931 0.5936 l
0.6951 0.5978 l
0.6971 0.6021 l
0.6991 0.6063 l
0.7011 0.6105 l
0.7031 0.6146 l
0.7051 0.6188 l
0.7071 0.6229 l
0.7091 0.6270 l
0.7111 0.6311 l
0.7131 0.6352 l
0.7151 0.6393 l
0.7171 0.6433 l
0.7191 0.6473 l
0.7211 0.6513 l
0.7231 0.6553 l
0.7252 0.6592 l
0.7272 0.6631 l
0.7292 0.6670 l
0.7312 0.6708 l
0.7332 0.6747 l
0.7352 0.6785 l
0.7372 0.6823 l
0.7392 0.6860 l
0.7412 0.6897 l
0.7432 0.6934 l
0.7452 0.6971 l
0.7472 0.7007 l
0.7492 0.7043 l
0.7512 0.7079 l
0.7532 0.7114 l
0.7552 0.7149 l
0.7572 0.7183 l
0.7592 0.7218 l
0.7612 0.7252 l
0.7632 0.7285 l
0.7652 0.7318 l
0.7672 0.7351 l
0.7692 0.7384 l
0.7712 0.7416 l
0.7732 0.7447 l
0.7753 0.7479 l
0.7773 0.7510 l
0.7793 0.7540 l
0.7813 0.7570 l
0.7833 0.7600 l
0.7853 0.7629 l
0.7873 0.7658 l
0.7893 0.7687 l
0.7913 0.7715 l
0.7933 0.7742 l
0.7953 0.7769 l
0.7973 0.7796 l
0.7993 0.7822 l
0.8013 0.7848 l
0.8033 0.7874 l
0.8053 0.7899 l
0.8073 0.7923 l
0.8093 0.7947 l
0.8113 0.7971 l
0.8133 0.7994 l
0.8153 0.8016 l
0.8173 0.8038 l
0.8193 0.8060 l
0.8213 0.8081 l
0.8233 0.8102 l
0.8254 0.8122 l
0.8274 0.8142 l
0.8294 0.8161 l
0.8314 0.8180 l
0.8334 0.8198 l
0.8354 0.8215 l
0.8374 0.8233 l
0.8394 0.8249 l
0.8414 0.8265 l
0.8434 0.8281 l
0.8454 0.8296 l
0.8474 0.8311 l
0.8494 0.8325 l
0.8514 0.8338 l
0.8534 0.8351 l
0.8554 0.8364 l
0.8574 0.8375 l
0.8594 0.8387 l
0.8614 0.8398 l
0.8634 0.8408 l
0.8654 0.8418 l
0.8674 0.8427 l
0.8694 0.8436 l
0.8714 0.8444 l
0.8734 0.8451 l
0.8755 0.8458 l
0.8775 0.8465 l
0.8795 0.8471 l
0.8815 0.8476 l
0.8835 0.8481 l
0.8855 0.8485 l
0.8875 0.8489 l
0.8895 0.8492 l
0.8915 0.8495 l
0.8935 0.8497 l
0.8955 0.8499 l
0.8975 0.8500 l
0.8995 0.8500 l
0.9015 0.8500 l
0.9035 0.8499 l
0.9055 0.8498 l
0.9075 0.8496 l
0.9095 0.8494 l
0.9115 0.8491 l
0.9135 0.8487 l
0.9155 0.8483 l
0.9175 0.8479 l
0.9195 0.8474 l
0.9215 0.8468 l
0.9235 0.8462 l
0.9256 0.8455 l
0.9276 0.8448 l
0.9296 0.8440 l
0.9316 0.8431 l
0.9336 0.8422 l
0.9356 0.8413 l
0.9376 0.8403 l
0.9396 0.8392 l
0.9416 0.8381 l
0.9436 0.8370 l
0.9456 0.8357 l
0.9476 0.8345 l
0.9496 0.8331 l
0.9516 0.8318 l
0.9536 0.8303 l
0.9556 0.8289 l
0.9576 0.8273 l
0.9596 0.8257 l
0.9616 0.8241 l
0.9636 0.8224 l
0.9656 0.8207 l
0.9676 0.8189 l
0.9696 0.8170 l
0.9716 0.8151 l
0.9736 0.8132 l
0.9757 0.8112 l
0.9777 0.8092 l
0.9797 0.8071 l
0.9817 0.8049 l
0.9837 0.8027 l
0.9857 0.8005 l
0.9877 0.7982 l
0.9897 0.7959 l
0.9917 0.7935 l
0.9937 0.7911 l
0.9957 0.7886 l
0.9977 0.7861 l
0.9997 0.7835 l
1.0017 0.7809 l
1.0037 0.7783 l
1.0057 0.7756 l
1.0077 0.7729 l
1.0097 0.7701 l
1.0117 0.7672 l
1.0137 0.7644 l
1.0157 0.7615 l
1.0177 0.7585 l
1.0197 0.7555 l
1.0217 0.7525 l
1.0237 0.7494 l
1.0258 0.7463 l
1.0278 0.7432 l
1.0298 0.7400 l
1.0318 0.7367 l
1.0338 0.7335 l
1.0358 0.7302 l
1.0378 0.7268 l
1.0398 0.7235 l
1.0418 0.7201 l
1.0438 0.7166 l
1.0458 0.7131 l
1.0478 0.7096 l
1.0498 0.7061 l
1.0518 0.7025 l
1.0538 0.6989 l
1.0558 0.6953 l
1.0578 0.6916 l
1.0598 0.6879 l
1.0618 0.6841 l
1.0638 0.6804 l
1.0658 0.6766 l
1.0678 0.6728 l
1.0698 0.6689 l
1.0718 0.6650 l
1.0738 0.6612 l
1.0759 0.6572 l
1.0779 0.6533 l
1.0799 0.6493 l
1.0819 0.6453 l
1.0839 0.6413 l
1.0859 0.6372 l
1.0879 0.6332 l
1.0899 0.6291 l
1.0919 0.6250 l
1.0939 0.6209 l
1.0959 0.6167 l
1.0979 0.6125 l
1.0999 0.6084 l
1.1019 0.6042 l
1.1039 0.6000 l
1.1059 0.5957 l
1.1079 0.5915 l
1.1099 0.5872 l
1.1119 0.5829 l
1.1139 0.5786 l
1.1159 0.5743 l
1.1179 0.5700 l
1.1199 0.5657 l
1.1219 0.5614 l
1.1239 0.5570 l
1.1260 0.5527 l
1.1280 0.5483 l
1.1300 0.5440 l
1.1320 0.5396 l
1.1340 0.5352 l
1.1360 0.5308 l
1.1380 0.5264 l
1.1400 0.5220 l
1.1420 0.5176 l
1.1440 0.5132 l
1.1460 0.5088 l
1.1480 0.5044 l
1.1500 0.5000 l
s
n
0.1500 0.1500 m
1.1500 0.1500 l
s
n
0.1500 0.1500 m
0.1500 0.1300 l
s
n
0.4000 0.1500 m
0.4000 0.1300 l
s
n
0.6500 0.1500 m
0.6500 0.1300 l
s
n
0.9000 0.1500 m
0.9000 0.1300 l
s
n
1.1500 0.1500 m
1.1500 0.1300 l
s
/pslength 0 def
/Times-Roman findfont
dup length dict begin
 {1 index /FID ne {def} {pop pop} ifelse} forall
 /Encoding ISOLatin1Encoding def
 currentdict
end
/Font0 exch definefont pop
/Font0 findfont
0.1167 scalefont
setfont
(0) stringwidth pop
pslength add
0.0000 add
/pslength exch def
gsave
0.1437 0.1012 translate
0.0000 rotate
0.001647 pslength div 0.028000 scale
0.0 0.0 moveto
/Font0 findfont
1.0000 scalefont
setfont
(0) show
grestore
/pslength 0 def
/Font0 findfont
0.1167 scalefont
setfont
(0.5) stringwidth pop
pslength add
0.0000 add
/pslength exch def
gsave
0.3835 0.1008 translate
0.0000 rotate
0.004072 pslength div 0.028000 scale
0.0 0.0 moveto
/Font0 findfont
1.0000 scalefont
setfont
(0.5) show
grestore
/pslength 0 def
/Font0 findfont
0.1167 scalefont
setfont
(1.0) stringwidth pop
pslength add
0.0000 add
/pslength exch def
gsave
0.6461 0.1012 translate
0.0000 rotate
0.001647 pslength div 0.028000 scale
0.0 0.0 moveto
/Font0 findfont
1.0000 scalefont
setfont
(1.0) show
grestore
/pslength 0 def
/Font0 findfont
0.1167 scalefont
setfont
(1.5) stringwidth pop
pslength add
0.0000 add
/pslength exch def
gsave
0.8859 0.1008 translate
0.0000 rotate
0.004072 pslength div 0.028000 scale
0.0 0.0 moveto
/Font0 findfont
1.0000 scalefont
setfont
(1.5) show
grestore
/pslength 0 def
/Font0 findfont
0.1167 scalefont
setfont
(2) stringwidth pop
pslength add
0.0000 add
/pslength exch def
gsave
1.1437 0.1012 translate
0.0000 rotate
0.001647 pslength div 0.028000 scale
0.0 0.0 moveto
/Font0 findfont
1.0000 scalefont
setfont
(2) show
grestore
/pslength 0 def
/Font0 findfont
0.1167 scalefont
setfont
(xaxis) stringwidth pop
pslength add
0.0000 add
/pslength exch def
gsave
0.6206 0.0606 translate
0.0000 rotate
0.006908 pslength div 0.028000 scale
0.0 0.0 moveto
/Font0 findfont
1.0000 scalefont
setfont
(xaxis) show
grestore
n
0.1500 0.1500 m
0.1500 0.8500 l
s
n
0.1500 0.1500 m
0.1300 0.1500 l
s
n
0.1500 0.5000 m
0.1300 0.5000 l
s
n
0.1500 0.8500 m
0.1300 0.8500 l
s
/pslength 0 def
/Font0 findfont
0.1167 scalefont
setfont
(one) stringwidth pop
pslength add
0.0000 add
/pslength exch def
gsave
0.27 0.51 translate
0.0000 rotate
0.002699 pslength div 0.028000 scale
0.0 0.0 moveto
/Font0 findfont
1.0000 scalefont
setfont
(one) show
grestore
/pslength 0 def
/Font0 findfont
0.1167 scalefont
setfont
(two) stringwidth pop
pslength add
0.0000 add
/pslength exch def
gsave
0.52 0.51 translate
0.0000 rotate
0.002699 pslength div 0.028000 scale
0.0 0.0 moveto
/Font0 findfont
1.0000 scalefont
setfont
(two) show
grestore
/pslength 0 def
/Font0 findfont
0.1167 scalefont
setfont
(three) stringwidth pop
pslength add
0.0000 add
/pslength exch def
gsave
0.77 0.51 translate
0.0000 rotate
0.002699 pslength div 0.028000 scale
0.0 0.0 moveto
/Font0 findfont
1.0000 scalefont
setfont
(three) show
grestore
/pslength 0 def
/Font0 findfont
0.1167 scalefont
setfont
(four) stringwidth pop
pslength add
0.0000 add
/pslength exch def
gsave
1.02 0.51 translate
0.0000 rotate
0.002699 pslength div 0.028000 scale
0.0 0.0 moveto
/Font0 findfont
1.0000 scalefont
setfont
(four) show
grestore
/pslength 0 def
/Font0 findfont
0.1167 scalefont
setfont
(A) stringwidth pop
pslength add
0.0000 add
/pslength exch def
gsave
0.375 0.16 translate
0.0000 rotate
0.002699 pslength div 0.028000 scale
0.0 0.0 moveto
/Font0 findfont
1.0000 scalefont
setfont
(A) show
grestore
/pslength 0 def
/Font0 findfont
0.1167 scalefont
setfont
(B) stringwidth pop
pslength add
0.0000 add
/pslength exch def
gsave
0.875 0.82 translate
0.0000 rotate
0.002699 pslength div 0.028000 scale
0.0 0.0 moveto
/Font0 findfont
1.0000 scalefont
setfont
(B) show
grestore
/pslength 0 def
/Font0 findfont
0.1167 scalefont
setfont
(-1) stringwidth pop
pslength add
0.0000 add
/pslength exch def
gsave
0.0980 0.1406 translate
0.0000 rotate
0.002699 pslength div 0.028000 scale
0.0 0.0 moveto
/Font0 findfont
1.0000 scalefont
setfont
(-1) show
grestore
/pslength 0 def
/Font0 findfont
0.1167 scalefont
setfont
(0.0) stringwidth pop
pslength add
0.0000 add
/pslength exch def
gsave
0.1067 0.4906 translate
0.0000 rotate
0.001647 pslength div 0.028000 scale
0.0 0.0 moveto
/Font0 findfont
1.0000 scalefont
setfont
(0.0) show
grestore
/pslength 0 def
/Font0 findfont
0.1167 scalefont
setfont
(1) stringwidth pop
pslength add
0.0000 add
/pslength exch def
gsave
0.1090 0.8406 translate
0.0000 rotate
0.001647 pslength div 0.028000 scale
0.0 0.0 moveto
/Font0 findfont
1.0000 scalefont
setfont
(1) show
grestore
/pslength 0 def
/Font0 findfont
0.1167 scalefont
setfont
(yaxis) stringwidth pop
pslength add
0.0000 add
/pslength exch def
gsave
0.0763 0.4690 translate
90.0000 rotate
0.006908 pslength div 0.028000 scale
0.0 0.0 moveto
/Font0 findfont
1.0000 scalefont
setfont
(yaxis) show
grestore
n
0.1500 0.1500 m
0.1500 0.8500 l
s
n
-0.8500 0.1500 m
-0.8500 0.8500 l
s
n
0.1500 0.1500 m
0.1500 0.8500 l
1.1500 0.8500 l
1.1500 0.1500 l
0.1500 0.1500 l
c
s
%%Trailer
%%BoundingBox: 85 32 577 709
%%EOF
