%!PS-Adobe-2.0 EPSF-2.0
%%Title: skin4.eps
%%Creator: fig2dev Version 3.2 Patchlevel 1
%%CreationDate: Mon Mar  4 14:57:31 2002
%%For: phys409@physics (Doug Bonn)
%%Orientation: Portrait
%%BoundingBox: 0 0 413 229
%%Pages: 0
%%BeginSetup
%%EndSetup
%%Magnification: 1.0000
%%EndComments
/$F2psDict 200 dict def
$F2psDict begin
$F2psDict /mtrx matrix put
/col-1 {0 setgray} bind def
/col0 {0.000 0.000 0.000 srgb} bind def
/col1 {0.000 0.000 1.000 srgb} bind def
/col2 {0.000 1.000 0.000 srgb} bind def
/col3 {0.000 1.000 1.000 srgb} bind def
/col4 {1.000 0.000 0.000 srgb} bind def
/col5 {1.000 0.000 1.000 srgb} bind def
/col6 {1.000 1.000 0.000 srgb} bind def
/col7 {1.000 1.000 1.000 srgb} bind def
/col8 {0.000 0.000 0.560 srgb} bind def
/col9 {0.000 0.000 0.690 srgb} bind def
/col10 {0.000 0.000 0.820 srgb} bind def
/col11 {0.530 0.810 1.000 srgb} bind def
/col12 {0.000 0.560 0.000 srgb} bind def
/col13 {0.000 0.690 0.000 srgb} bind def
/col14 {0.000 0.820 0.000 srgb} bind def
/col15 {0.000 0.560 0.560 srgb} bind def
/col16 {0.000 0.690 0.690 srgb} bind def
/col17 {0.000 0.820 0.820 srgb} bind def
/col18 {0.560 0.000 0.000 srgb} bind def
/col19 {0.690 0.000 0.000 srgb} bind def
/col20 {0.820 0.000 0.000 srgb} bind def
/col21 {0.560 0.000 0.560 srgb} bind def
/col22 {0.690 0.000 0.690 srgb} bind def
/col23 {0.820 0.000 0.820 srgb} bind def
/col24 {0.500 0.190 0.000 srgb} bind def
/col25 {0.630 0.250 0.000 srgb} bind def
/col26 {0.750 0.380 0.000 srgb} bind def
/col27 {1.000 0.500 0.500 srgb} bind def
/col28 {1.000 0.630 0.630 srgb} bind def
/col29 {1.000 0.750 0.750 srgb} bind def
/col30 {1.000 0.880 0.880 srgb} bind def
/col31 {1.000 0.840 0.000 srgb} bind def

end
save
-25.0 227.0 translate
1 -1 scale

/cp {closepath} bind def
/ef {eofill} bind def
/gr {grestore} bind def
/gs {gsave} bind def
/sa {save} bind def
/rs {restore} bind def
/l {lineto} bind def
/m {moveto} bind def
/rm {rmoveto} bind def
/n {newpath} bind def
/s {stroke} bind def
/sh {show} bind def
/slc {setlinecap} bind def
/slj {setlinejoin} bind def
/slw {setlinewidth} bind def
/srgb {setrgbcolor} bind def
/rot {rotate} bind def
/sc {scale} bind def
/sd {setdash} bind def
/ff {findfont} bind def
/sf {setfont} bind def
/scf {scalefont} bind def
/sw {stringwidth} bind def
/tr {translate} bind def
/tnt {dup dup currentrgbcolor
  4 -2 roll dup 1 exch sub 3 -1 roll mul add
  4 -2 roll dup 1 exch sub 3 -1 roll mul add
  4 -2 roll dup 1 exch sub 3 -1 roll mul add srgb}
  bind def
/shd {dup dup currentrgbcolor 4 -2 roll mul 4 -2 roll mul
  4 -2 roll mul srgb} bind def
 /DrawEllipse {
	/endangle exch def
	/startangle exch def
	/yrad exch def
	/xrad exch def
	/y exch def
	/x exch def
	/savematrix mtrx currentmatrix def
	x y tr xrad yrad sc 0 0 1 startangle endangle arc
	closepath
	savematrix setmatrix
	} def

/$F2psBegin {$F2psDict begin /$F2psEnteredState save def} def
/$F2psEnd {$F2psEnteredState restore end} def
%%EndProlog

$F2psBegin
10 setmiterlimit
n -1000 4772 m -1000 -1000 l 8297 -1000 l 8297 4772 l cp clip
 0.06000 0.06000 sc
7.500 slw
% Ellipse
n 1050 2437 37 37 0 360 DrawEllipse gs 0.00 setgray ef gr gs col0 s gr

% Ellipse
n 7050 1087 37 37 0 360 DrawEllipse gs 0.00 setgray ef gr gs col0 s gr

% Ellipse
n 6075 1087 37 37 0 360 DrawEllipse gs 0.00 setgray ef gr gs col0 s gr

% Ellipse
n 750 1087 37 37 0 360 DrawEllipse gs 0.00 setgray ef gr gs col0 s gr

% Ellipse
n 2250 1087 37 37 0 360 DrawEllipse gs 0.00 setgray ef gr gs col0 s gr

% Ellipse
n 750 2437 37 37 0 360 DrawEllipse gs 0.00 setgray ef gr gs col0 s gr

% Polyline
n 600 75 m 2400 75 l 2400 1275 l 600 1275 l cp gs col0 s gr 
% Polyline
n 5400 75 m 7200 75 l 7200 1275 l 5400 1275 l cp gs col0 s gr 
% Polyline
n 600 1800 m 1200 1800 l 1200 2550 l 600 2550 l cp gs col0 s gr 
% Polyline
n 3000 675 m 2925 525 l 2925 600 l 2475 600 l 2475 525 l 2400 675 l
 2475 825 l 2475 750 l 2925 750 l 2925 825 l cp gs col0 s gr 
% Polyline
n 4800 675 m 4875 525 l 4875 600 l 5325 600 l 5325 525 l 5400 675 l
 5325 825 l 5325 750 l 4875 750 l 4875 825 l cp gs col0 s gr 
% Polyline
n 2400 2100 m 2025 2100 l 2025 2250 l 2400 2250 l cp gs col0 s gr 
% Polyline
n 5025 2025 m 7200 2025 l 7200 2325 l 5025 2325 l cp gs col0 s gr 
% Polyline
n 2400 1800 m 4875 1800 l 4875 2550 l 2400 2550 l cp gs col0 s gr 
% Polyline
n 2400 2550 m 2475 1800 l gs col0 s gr 
% Polyline
n 2475 2550 m 2550 1800 l gs col0 s gr 
% Polyline
n 2550 2550 m 2625 1800 l gs col0 s gr 
% Polyline
n 2625 2550 m 2700 1800 l gs col0 s gr 
% Polyline
n 2700 2550 m 2775 1800 l gs col0 s gr 
% Polyline
n 2775 2550 m 2850 1800 l gs col0 s gr 
% Polyline
n 2850 2550 m 2925 1800 l gs col0 s gr 
% Polyline
n 2925 2550 m 3000 1800 l gs col0 s gr 
% Polyline
n 3000 2550 m 3075 1800 l gs col0 s gr 
% Polyline
n 3075 2550 m 3150 1800 l gs col0 s gr 
% Polyline
n 3150 2550 m 3225 1800 l gs col0 s gr 
% Polyline
n 3225 2550 m 3300 1800 l gs col0 s gr 
% Polyline
n 3300 2550 m 3375 1800 l gs col0 s gr 
% Polyline
n 3375 2550 m 3450 1800 l gs col0 s gr 
% Polyline
n 3450 2550 m 3525 1800 l gs col0 s gr 
% Polyline
n 3525 2550 m 3600 1800 l gs col0 s gr 
% Polyline
n 3600 2550 m 3675 1800 l gs col0 s gr 
% Polyline
n 3675 2550 m 3750 1800 l gs col0 s gr 
% Polyline
n 3750 2550 m 3825 1800 l gs col0 s gr 
% Polyline
n 3825 2550 m 3900 1800 l gs col0 s gr 
% Polyline
n 3900 2550 m 3975 1800 l gs col0 s gr 
% Polyline
n 3975 2550 m 4050 1800 l gs col0 s gr 
% Polyline
n 4050 2550 m 4125 1800 l gs col0 s gr 
% Polyline
n 4125 2550 m 4200 1800 l gs col0 s gr 
% Polyline
n 4200 2550 m 4275 1800 l gs col0 s gr 
% Polyline
n 4275 2550 m 4350 1800 l gs col0 s gr 
% Polyline
n 4350 2550 m 4425 1800 l gs col0 s gr 
% Polyline
n 4425 2550 m 4500 1800 l gs col0 s gr 
% Polyline
n 4500 2550 m 4575 1800 l gs col0 s gr 
% Polyline
n 4575 2550 m 4650 1800 l gs col0 s gr 
% Polyline
n 4650 2550 m 4725 1800 l gs col0 s gr 
% Polyline
n 4725 2550 m 4800 1800 l gs col0 s gr 
% Polyline
n 4800 2550 m 4875 1800 l gs col0 s gr 
% Polyline
n 3000 225 m 4800 225 l 4800 1125 l 3000 1125 l cp gs col0 s gr 
% Polyline
n 750 1125 m 750 1350 l 525 1350 l 525 2625 l 750 2625 l 750 2475 l gs col0 s gr 
% Polyline
n 2250 1125 m 2250 1350 l 6075 1350 l 6075 1125 l gs col0 s gr 
% Polyline
n 1050 2475 m 1050 2625 l 1275 2625 l 1350 2550 l 1425 2700 l 1500 2550 l
 1575 2700 l 1650 2550 l 1725 2700 l 1800 2550 l 1875 2625 l
 2100 2625 l 2100 2400 l 1950 2400 l 1950 2175 l 2025 2175 l gs col0 s gr 
% Polyline
n 2400 2550 m 2400 2775 l 2475 2850 l 2325 2925 l 2475 3000 l 2325 3075 l
 2475 3150 l 2325 3225 l 2475 3300 l 2400 3375 l 2400 3525 l gs col0 s gr 
% Polyline
n 4875 1800 m 4875 1500 l 7050 1500 l 7050 1125 l gs col0 s gr 
% Polyline
gs  clippath
5844 1980 m 5700 1950 l 5844 1920 l 5685 1920 l 5685 1980 l cp
6306 1920 m 6450 1950 l 6306 1980 l 6465 1980 l 6465 1920 l cp
clip
n 6450 1950 m 5700 1950 l gs col0 s gr gr

% arrowhead
n 6306 1920 m 6450 1950 l 6306 1980 l 6330 1950 l 6306 1920 l  cp gs 0.00 setgray ef gr  col0 s
% arrowhead
n 5844 1980 m 5700 1950 l 5844 1920 l 5820 1950 l 5844 1980 l  cp gs 0.00 setgray ef gr  col0 s
% Polyline
gs  clippath
2205 1956 m 2175 2100 l 2145 1956 l 2145 2115 l 2205 2115 l cp
clip
n 2175 1725 m 2175 2100 l gs col0 s gr gr

% arrowhead
n 2205 1956 m 2175 2100 l 2145 1956 l 2175 1980 l 2205 1956 l  cp gs 0.00 setgray ef gr  col0 s
% Polyline
n 2625 3525 m 2175 3525 l gs col0 s gr 
% Polyline
n 2550 3600 m 2250 3600 l gs col0 s gr 
% Polyline
n 2325 3675 m 2475 3675 l gs col0 s gr 
% Polyline
15.000 slw
n 600 0 m 450 0 450 3600 150 arcto 4 {pop} repeat
  450 3750 7125 3750 150 arcto 4 {pop} repeat
  7275 3750 7275 150 150 arcto 4 {pop} repeat
  7275 0 600 0 150 arcto 4 {pop} repeat
 cp gs col0 s gr 
/Times-Roman ff 180.00 scf sf
2475 975 m
gs 1 -1 sc (GPIB) col0 sh gr
/Times-Roman ff 180.00 scf sf
4875 975 m
gs 1 -1 sc (GPIB) col0 sh gr
/Times-Roman ff 180.00 scf sf
1875 1125 m
gs 1 -1 sc (Ext) col0 sh gr
/Times-Roman ff 180.00 scf sf
825 1125 m
gs 1 -1 sc (Ch.1) col0 sh gr
/Times-Roman ff 180.00 scf sf
5400 2625 m
gs 1 -1 sc (Aluminum Pipe) col0 sh gr
/Times-Roman ff 180.00 scf sf
5925 300 m
gs 1 -1 sc (HP 3324A) col0 sh gr
/Times-Roman ff 180.00 scf sf
5925 750 m
gs 1 -1 sc (Generator) col0 sh gr
/Times-Roman ff 180.00 scf sf
5925 525 m
gs 1 -1 sc (Function) col0 sh gr
/Times-Roman ff 180.00 scf sf
5625 1125 m
gs 1 -1 sc (Sync) col0 sh gr
/Times-Roman ff 180.00 scf sf
6675 1125 m
gs 1 -1 sc (Out) col0 sh gr
/Times-Roman ff 180.00 scf sf
3075 2775 m
gs 1 -1 sc (Field Coil) col0 sh gr
/Times-Roman ff 180.00 scf sf
2550 3150 m
gs 1 -1 sc (50ohm) col0 sh gr
/Times-Roman ff 180.00 scf sf
1350 2925 m
gs 1 -1 sc (100kohm) col0 sh gr
/Times-Roman ff 180.00 scf sf
675 2025 m
gs 1 -1 sc (x100) col0 sh gr
/Times-Roman ff 180.00 scf sf
675 2250 m
gs 1 -1 sc (Amp) col0 sh gr
/Times-Roman ff 180.00 scf sf
1200 2475 m
gs 1 -1 sc (in) col0 sh gr
/Times-Roman ff 180.00 scf sf
525 2775 m
gs 1 -1 sc (out) col0 sh gr
/Times-Roman ff 180.00 scf sf
3450 525 m
gs 1 -1 sc (Computer) col0 sh gr
/Times-Roman ff 180.00 scf sf
1050 300 m
gs 1 -1 sc (Tek 2232) col0 sh gr
/Times-Roman ff 180.00 scf sf
975 525 m
gs 1 -1 sc (Oscilloscope) col0 sh gr
/Times-Roman ff 180.00 scf sf
1350 1650 m
gs 1 -1 sc (Pickup Coil) col0 sh gr
$F2psEnd
rs
