%!PS-Adobe-2.0 EPSF-2.0
%%Title: vac-simple.eps
%%Creator: fig2dev Version 3.2 Patchlevel 3d
%%CreationDate: Sat Jul 27 23:50:52 2002
%%For: dpeets@physics (Darren Peets)
%%BoundingBox: 0 0 516 168
%%Magnification: 1.0000
%%EndComments
/$F2psDict 200 dict def
$F2psDict begin
$F2psDict /mtrx matrix put
/col-1 {0 setgray} bind def
/col0 {0.000 0.000 0.000 srgb} bind def
/col1 {0.000 0.000 1.000 srgb} bind def
/col2 {0.000 1.000 0.000 srgb} bind def
/col3 {0.000 1.000 1.000 srgb} bind def
/col4 {1.000 0.000 0.000 srgb} bind def
/col5 {1.000 0.000 1.000 srgb} bind def
/col6 {1.000 1.000 0.000 srgb} bind def
/col7 {1.000 1.000 1.000 srgb} bind def
/col8 {0.000 0.000 0.560 srgb} bind def
/col9 {0.000 0.000 0.690 srgb} bind def
/col10 {0.000 0.000 0.820 srgb} bind def
/col11 {0.530 0.810 1.000 srgb} bind def
/col12 {0.000 0.560 0.000 srgb} bind def
/col13 {0.000 0.690 0.000 srgb} bind def
/col14 {0.000 0.820 0.000 srgb} bind def
/col15 {0.000 0.560 0.560 srgb} bind def
/col16 {0.000 0.690 0.690 srgb} bind def
/col17 {0.000 0.820 0.820 srgb} bind def
/col18 {0.560 0.000 0.000 srgb} bind def
/col19 {0.690 0.000 0.000 srgb} bind def
/col20 {0.820 0.000 0.000 srgb} bind def
/col21 {0.560 0.000 0.560 srgb} bind def
/col22 {0.690 0.000 0.690 srgb} bind def
/col23 {0.820 0.000 0.820 srgb} bind def
/col24 {0.500 0.190 0.000 srgb} bind def
/col25 {0.630 0.250 0.000 srgb} bind def
/col26 {0.750 0.380 0.000 srgb} bind def
/col27 {1.000 0.500 0.500 srgb} bind def
/col28 {1.000 0.630 0.630 srgb} bind def
/col29 {1.000 0.750 0.750 srgb} bind def
/col30 {1.000 0.880 0.880 srgb} bind def
/col31 {1.000 0.840 0.000 srgb} bind def

end
save
newpath 0 168 moveto 0 0 lineto 516 0 lineto 516 168 lineto closepath clip newpath
10.3 236.6 translate
1 -1 scale

/cp {closepath} bind def
/ef {eofill} bind def
/gr {grestore} bind def
/gs {gsave} bind def
/sa {save} bind def
/rs {restore} bind def
/l {lineto} bind def
/m {moveto} bind def
/rm {rmoveto} bind def
/n {newpath} bind def
/s {stroke} bind def
/sh {show} bind def
/slc {setlinecap} bind def
/slj {setlinejoin} bind def
/slw {setlinewidth} bind def
/srgb {setrgbcolor} bind def
/rot {rotate} bind def
/sc {scale} bind def
/sd {setdash} bind def
/ff {findfont} bind def
/sf {setfont} bind def
/scf {scalefont} bind def
/sw {stringwidth} bind def
/tr {translate} bind def
/tnt {dup dup currentrgbcolor
  4 -2 roll dup 1 exch sub 3 -1 roll mul add
  4 -2 roll dup 1 exch sub 3 -1 roll mul add
  4 -2 roll dup 1 exch sub 3 -1 roll mul add srgb}
  bind def
/shd {dup dup currentrgbcolor 4 -2 roll mul 4 -2 roll mul
  4 -2 roll mul srgb} bind def
/$F2psBegin {$F2psDict begin /$F2psEnteredState save def} def
/$F2psEnd {$F2psEnteredState restore end} def

$F2psBegin
10 setmiterlimit
 0.06000 0.06000 sc
%
% Fig objects follow
%
% Polyline
45.000 slw
n 1425 1200 m 1200 1200 1200 3375 225 arcto 4 {pop} repeat
  1200 3600 5175 3600 225 arcto 4 {pop} repeat
  5400 3600 5400 1425 225 arcto 4 {pop} repeat
  5400 1200 1425 1200 225 arcto 4 {pop} repeat
 cp gs col0 s gr 
% Polyline
n 1125 3150 m 5475 3150 l 5475 3675 l 1125 3675 l
 cp gs col7 1.00 shd ef gr gs col7 s gr 
% Polyline
n 300 3150 m 1200 3150 l
 1200 2850 l gs col0 s gr 
% Polyline
n 5400 2850 m 5400 3150 l
 5850 3150 l gs col0 s gr 
% Polyline
n 5850 3450 m 5400 3450 l 5400 3900 l 1200 3900 l 1200 3450 l
 300 3450 l gs col0 s gr 
% Polyline
n 7050 3150 m
 7950 3150 l gs col0 s gr 
% Polyline
n 7050 3450 m
 7950 3450 l gs col0 s gr 
% Polyline
15.000 slw
n 5850 3750 m 7050 3750 l 7050 2850 l 5850 2850 l
 cp gs col0 s gr 
% Polyline
7.500 slw
n 6300 1950 m 6300 2550 l 6150 2550 l 6450 2850 l 6750 2550 l 6600 2550 l

 6600 1950 l gs col0 s gr 
% Polyline
15.000 slw
gs  clippath
7485 3240 m 7485 3360 l 7840 3360 l 7540 3300 l 7840 3240 l cp
eoclip
n 7500 3300 m
 8400 3300 l gs col0 s gr gr

% arrowhead
n 7840 3240 m 7540 3300 l 7840 3360 l 7780 3300 l 7840 3240 l 
 cp gs 0.00 setgray ef gr  col0 s
% Polyline
gs  clippath
-165 3240 m -165 3360 l 191 3360 l -109 3300 l 191 3240 l cp
eoclip
n -150 3300 m
 750 3300 l gs col0 s gr gr

% arrowhead
n 191 3240 m -109 3300 l 191 3360 l 131 3300 l 191 3240 l 
 cp gs 0.00 setgray ef gr  col0 s
/Times-Roman ff 180.00 scf sf
-150 3000 m
gs 1 -1 sc (Pump) col0 sh gr
/Times-Roman ff 180.00 scf sf
1350 3375 m
gs 1 -1 sc (Qout) col0 sh gr
/Times-Roman ff 180.00 scf sf
4800 3375 m
gs 1 -1 sc (Qin) col0 sh gr
/Times-Roman ff 180.00 scf sf
8025 3075 m
gs 1 -1 sc (Po) col0 sh gr
/Times-Roman ff 180.00 scf sf
6075 3375 m
gs 1 -1 sc (MFC) col0 sh gr
/Times-Roman ff 180.00 scf sf
3075 2625 m
gs 1 -1 sc (Pch) col0 sh gr
/Times-Roman ff 180.00 scf sf
5625 1875 m
gs 1 -1 sc (Flow) col0 sh gr
$F2psEnd
rs
