%!PS-Adobe-2.0 EPSF-2.0
%%Title: wedge.eps
%%Creator: fig2dev Version 3.2 Patchlevel 3d
%%CreationDate: Sat Apr 13 17:46:44 2002
%%For: waltham@snoflake.physics.ubc.ca (Chris Waltham)
%%BoundingBox: 0 0 256 163
%%Magnification: 1.0000
%%EndComments
/$F2psDict 200 dict def
$F2psDict begin
$F2psDict /mtrx matrix put
/col-1 {0 setgray} bind def
/col0 {0.000 0.000 0.000 srgb} bind def
/col1 {0.000 0.000 1.000 srgb} bind def
/col2 {0.000 1.000 0.000 srgb} bind def
/col3 {0.000 1.000 1.000 srgb} bind def
/col4 {1.000 0.000 0.000 srgb} bind def
/col5 {1.000 0.000 1.000 srgb} bind def
/col6 {1.000 1.000 0.000 srgb} bind def
/col7 {1.000 1.000 1.000 srgb} bind def
/col8 {0.000 0.000 0.560 srgb} bind def
/col9 {0.000 0.000 0.690 srgb} bind def
/col10 {0.000 0.000 0.820 srgb} bind def
/col11 {0.530 0.810 1.000 srgb} bind def
/col12 {0.000 0.560 0.000 srgb} bind def
/col13 {0.000 0.690 0.000 srgb} bind def
/col14 {0.000 0.820 0.000 srgb} bind def
/col15 {0.000 0.560 0.560 srgb} bind def
/col16 {0.000 0.690 0.690 srgb} bind def
/col17 {0.000 0.820 0.820 srgb} bind def
/col18 {0.560 0.000 0.000 srgb} bind def
/col19 {0.690 0.000 0.000 srgb} bind def
/col20 {0.820 0.000 0.000 srgb} bind def
/col21 {0.560 0.000 0.560 srgb} bind def
/col22 {0.690 0.000 0.690 srgb} bind def
/col23 {0.820 0.000 0.820 srgb} bind def
/col24 {0.500 0.190 0.000 srgb} bind def
/col25 {0.630 0.250 0.000 srgb} bind def
/col26 {0.750 0.380 0.000 srgb} bind def
/col27 {1.000 0.500 0.500 srgb} bind def
/col28 {1.000 0.630 0.630 srgb} bind def
/col29 {1.000 0.750 0.750 srgb} bind def
/col30 {1.000 0.880 0.880 srgb} bind def
/col31 {1.000 0.840 0.000 srgb} bind def

end
save
newpath 0 163 moveto 0 0 lineto 256 0 lineto 256 163 lineto closepath clip newpath
-165.3 215.2 translate
1 -1 scale

/cp {closepath} bind def
/ef {eofill} bind def
/gr {grestore} bind def
/gs {gsave} bind def
/sa {save} bind def
/rs {restore} bind def
/l {lineto} bind def
/m {moveto} bind def
/rm {rmoveto} bind def
/n {newpath} bind def
/s {stroke} bind def
/sh {show} bind def
/slc {setlinecap} bind def
/slj {setlinejoin} bind def
/slw {setlinewidth} bind def
/srgb {setrgbcolor} bind def
/rot {rotate} bind def
/sc {scale} bind def
/sd {setdash} bind def
/ff {findfont} bind def
/sf {setfont} bind def
/scf {scalefont} bind def
/sw {stringwidth} bind def
/tr {translate} bind def
/tnt {dup dup currentrgbcolor
  4 -2 roll dup 1 exch sub 3 -1 roll mul add
  4 -2 roll dup 1 exch sub 3 -1 roll mul add
  4 -2 roll dup 1 exch sub 3 -1 roll mul add srgb}
  bind def
/shd {dup dup currentrgbcolor 4 -2 roll mul 4 -2 roll mul
  4 -2 roll mul srgb} bind def
/$F2psBegin {$F2psDict begin /$F2psEnteredState save def} def
/$F2psEnd {$F2psEnteredState restore end} def

$F2psBegin
10 setmiterlimit
 0.06000 0.06000 sc
%
% Fig objects follow
%
% Arc
7.500 slw
gs  clippath
6644 3424 m 6703 3435 l 6730 3286 l 6680 3399 l 6671 3275 l cp
6696 1354 m 6637 1365 l 6665 1514 l 6673 1391 l 6724 1503 l cp
eoclip
n 1599.1 2412.4 5176.0 -11.6 11.2 arc
gs col0 s gr
 gr

% arrowhead
n 6671 3275 m 6680 3399 l 6730 3286 l  col0 s
% arrowhead
n 6724 1503 m 6673 1391 l 6665 1514 l  col0 s
% Polyline
n 3557 1874 m 5927 1499 l 5946 1600 l 5961 1731 l 5976 1892 l 5987 2027 l
 5995 2192 l 5995 2342 l 5999 2597 l 5991 2717 l 5980 2830 l
 5965 3010 l 5950 3141 l 5935 3280 l 5927 3302 l 3554 2931 l
 3576 2804 l 3587 2650 l 3595 2466 l 3595 2294 l 3591 2162 l
 3584 2046 l 3569 1937 l 3557 1870 l
 cp gs col11 1.00 shd ef gr gs col0 s gr 
% Polyline
gs  clippath
6567 1785 m 6562 1725 l 6411 1740 l 6534 1759 l 6417 1800 l cp
eoclip
n 3002 2102 m
 6550 1757 l gs col0 s gr gr

% arrowhead
n 6417 1800 m 6534 1759 l 6411 1740 l  col0 s
% Polyline
gs  clippath
6546 3116 m 6553 3056 l 6402 3040 l 6519 3083 l 6396 3100 l cp
eoclip
n 2980 2710 m
 6535 3085 l gs col0 s gr gr

% arrowhead
n 6396 3100 m 6519 3083 l 6402 3040 l  col0 s
/Times-Italic ff 240.00 scf sf
3460 3220 m
gs 1 -1 sc (r) col0 sh gr
/Times-Italic ff 240.00 scf sf
5717 3587 m
gs 1 -1 sc (r+dr) col0 sh gr
/Times-Italic ff 240.00 scf sf
3370 1555 m
gs 1 -1 sc (p,v) col0 sh gr
/Times-Italic ff 240.00 scf sf
5605 1090 m
gs 1 -1 sc (p+dp) col0 sh gr
/Times-Italic ff 240.00 scf sf
5605 1420 m
gs 1 -1 sc (v+dv) col0 sh gr
/Times-Italic ff 240.00 scf sf
2755 2470 m
gs 1 -1 sc (dq) col0 sh gr
/Symbol ff 240.00 scf sf
6887 2432 m
gs 1 -1 sc (d) col0 sh gr
$F2psEnd
rs
